%!PS-Adobe-3.0 EPSF-3.0
%%Creator: MATLAB, The Mathworks, Inc. Version 7.5.0.338 (R2007b). Operating System: Linux 3.8.4 #1 SMP Thu Mar 21 12:34:11 PDT 2013 x86_64.
%%Title: figs/eps/ccsm3_era40_tm_coeffs_exchange_all.eps
%%CreationDate: 09/04/2013  09:57:41
%%DocumentNeededFonts: Helvetica
%%+ Helvetica-Bold
%%DocumentProcessColors: Cyan Magenta Yellow Black
%%LanguageLevel: 2
%%Pages: 1
%%BoundingBox:     2   206   571   643
%%EndComments

%%BeginProlog
% MathWorks dictionary
/MathWorks 160 dict begin
% definition operators
/bdef {bind def} bind def
/ldef {load def} bind def
/xdef {exch def} bdef
/xstore {exch store} bdef
% operator abbreviations
/c  /clip ldef
/cc /concat ldef
/cp /closepath ldef
/gr /grestore ldef
/gs /gsave ldef
/mt /moveto ldef
/np /newpath ldef
/cm /currentmatrix ldef
/sm /setmatrix ldef
/rm /rmoveto ldef
/rl /rlineto ldef
/s {show newpath} bdef
/sc {setcmykcolor} bdef
/sr /setrgbcolor ldef
/sg /setgray ldef
/w /setlinewidth ldef
/j /setlinejoin ldef
/cap /setlinecap ldef
/rc {rectclip} bdef
/rf {rectfill} bdef
% page state control
/pgsv () def
/bpage {/pgsv save def} bdef
/epage {pgsv restore} bdef
/bplot /gsave ldef
/eplot {stroke grestore} bdef
% orientation switch
/portraitMode 0 def /landscapeMode 1 def /rotateMode 2 def
% coordinate system mappings
/dpi2point 0 def
% font control
/FontSize 0 def
/FMS {/FontSize xstore findfont [FontSize 0 0 FontSize neg 0 0]
  makefont setfont} bdef
/reencode {exch dup where {pop load} {pop StandardEncoding} ifelse
  exch dup 3 1 roll findfont dup length dict begin
  { 1 index /FID ne {def}{pop pop} ifelse } forall
  /Encoding exch def currentdict end definefont pop} bdef
/isroman {findfont /CharStrings get /Agrave known} bdef
/FMSR {3 1 roll 1 index dup isroman {reencode} {pop pop} ifelse
  exch FMS} bdef
/csm {1 dpi2point div -1 dpi2point div scale neg translate
 dup landscapeMode eq {pop -90 rotate}
  {rotateMode eq {90 rotate} if} ifelse} bdef
% line types: solid, dotted, dashed, dotdash
/SO { [] 0 setdash } bdef
/DO { [.5 dpi2point mul 4 dpi2point mul] 0 setdash } bdef
/DA { [6 dpi2point mul] 0 setdash } bdef
/DD { [.5 dpi2point mul 4 dpi2point mul 6 dpi2point mul 4
  dpi2point mul] 0 setdash } bdef
% macros for lines and objects
/L {lineto stroke} bdef
/MP {3 1 roll moveto 1 sub {rlineto} repeat} bdef
/AP {{rlineto} repeat} bdef
/PDlw -1 def
/W {/PDlw currentlinewidth def setlinewidth} def
/PP {closepath eofill} bdef
/DP {closepath stroke} bdef
/MR {4 -2 roll moveto dup  0 exch rlineto exch 0 rlineto
  neg 0 exch rlineto closepath} bdef
/FR {MR stroke} bdef
/PR {MR fill} bdef
/L1i {{currentfile picstr readhexstring pop} image} bdef
/tMatrix matrix def
/MakeOval {newpath tMatrix currentmatrix pop translate scale
0 0 1 0 360 arc tMatrix setmatrix} bdef
/FO {MakeOval stroke} bdef
/PO {MakeOval fill} bdef
/PD {currentlinewidth 2 div 0 360 arc fill
   PDlw -1 eq not {PDlw w /PDlw -1 def} if} def
/FA {newpath tMatrix currentmatrix pop translate scale
  0 0 1 5 -2 roll arc tMatrix setmatrix stroke} bdef
/PA {newpath tMatrix currentmatrix pop	translate 0 0 moveto scale
  0 0 1 5 -2 roll arc closepath tMatrix setmatrix fill} bdef
/FAn {newpath tMatrix currentmatrix pop translate scale
  0 0 1 5 -2 roll arcn tMatrix setmatrix stroke} bdef
/PAn {newpath tMatrix currentmatrix pop translate 0 0 moveto scale
  0 0 1 5 -2 roll arcn closepath tMatrix setmatrix fill} bdef
/vradius 0 def /hradius 0 def /lry 0 def
/lrx 0 def /uly 0 def /ulx 0 def /rad 0 def
/MRR {/vradius xdef /hradius xdef /lry xdef /lrx xdef /uly xdef
  /ulx xdef newpath tMatrix currentmatrix pop ulx hradius add uly
  vradius add translate hradius vradius scale 0 0 1 180 270 arc 
  tMatrix setmatrix lrx hradius sub uly vradius add translate
  hradius vradius scale 0 0 1 270 360 arc tMatrix setmatrix
  lrx hradius sub lry vradius sub translate hradius vradius scale
  0 0 1 0 90 arc tMatrix setmatrix ulx hradius add lry vradius sub
  translate hradius vradius scale 0 0 1 90 180 arc tMatrix setmatrix
  closepath} bdef
/FRR {MRR stroke } bdef
/PRR {MRR fill } bdef
/MlrRR {/lry xdef /lrx xdef /uly xdef /ulx xdef /rad lry uly sub 2 div def
  newpath tMatrix currentmatrix pop ulx rad add uly rad add translate
  rad rad scale 0 0 1 90 270 arc tMatrix setmatrix lrx rad sub lry rad
  sub translate rad rad scale 0 0 1 270 90 arc tMatrix setmatrix
  closepath} bdef
/FlrRR {MlrRR stroke } bdef
/PlrRR {MlrRR fill } bdef
/MtbRR {/lry xdef /lrx xdef /uly xdef /ulx xdef /rad lrx ulx sub 2 div def
  newpath tMatrix currentmatrix pop ulx rad add uly rad add translate
  rad rad scale 0 0 1 180 360 arc tMatrix setmatrix lrx rad sub lry rad
  sub translate rad rad scale 0 0 1 0 180 arc tMatrix setmatrix
  closepath} bdef
/FtbRR {MtbRR stroke } bdef
/PtbRR {MtbRR fill } bdef
/stri 6 array def /dtri 6 array def
/smat 6 array def /dmat 6 array def
/tmat1 6 array def /tmat2 6 array def /dif 3 array def
/asub {/ind2 exch def /ind1 exch def dup dup
  ind1 get exch ind2 get sub exch } bdef
/tri_to_matrix {
  2 0 asub 3 1 asub 4 0 asub 5 1 asub
  dup 0 get exch 1 get 7 -1 roll astore } bdef
/compute_transform {
  dmat dtri tri_to_matrix tmat1 invertmatrix 
  smat stri tri_to_matrix tmat2 concatmatrix } bdef
/ds {stri astore pop} bdef
/dt {dtri astore pop} bdef
/db {2 copy /cols xdef /rows xdef mul dup 3 mul string
  currentfile 
  3 index 0 eq {/ASCIIHexDecode filter}
  {/ASCII85Decode filter 3 index 2 eq {/RunLengthDecode filter} if }
  ifelse exch readstring pop
  dup 0 3 index getinterval /rbmap xdef
  dup 2 index dup getinterval /gbmap xdef
  1 index dup 2 mul exch getinterval /bbmap xdef pop pop}bdef
/it {gs np dtri aload pop moveto lineto lineto cp c
  cols rows 8 compute_transform 
  rbmap gbmap bbmap true 3 colorimage gr}bdef
/il {newpath moveto lineto stroke}bdef
currentdict end def
%%EndProlog

%%BeginSetup
MathWorks begin

0 cap

end
%%EndSetup

%%Page: 1 1
%%BeginPageSetup
%%PageBoundingBox:     2   206   571   643
MathWorks begin
bpage
%%EndPageSetup

%%BeginObject: obj1
bplot

/dpi2point 12 def
portraitMode 0000 10212 csm

   26  2493  6832  5245 rc
31 dict begin %Colortable dictionary
/c0 { 0.000000 0.000000 0.000000 sr} bdef
/c1 { 1.000000 1.000000 1.000000 sr} bdef
/c2 { 0.900000 0.000000 0.000000 sr} bdef
/c3 { 0.000000 0.820000 0.000000 sr} bdef
/c4 { 0.000000 0.000000 0.800000 sr} bdef
/c5 { 0.910000 0.820000 0.320000 sr} bdef
/c6 { 1.000000 0.260000 0.820000 sr} bdef
/c7 { 0.000000 0.820000 0.820000 sr} bdef
c0
1 j
6 w
gs 68 2575 5687 1595 rc
1 sg
0 1594 0 0 -5686 0 0 0 0 -1594 0 0 5686 0 68 4169 
8 MP
PP
gr

1 sg
33 w
0 sg
0 1594 -5686 0 0 -1594 5686 0 68 4169 5 MP stroke
gs 68 2575 5687 1595 rc
/c8 { 0.145098 0.203922 0.580392 sr} bdef
c8
0 0 0 -89 0 -86 0 -85 0 -83 0 -81 0 -80 0 -79 
0 0 -71 0 -72 0 -71 0 -71 0 -71 0 -71 0 -71 0 
-71 0 -71 0 0 0 0 79 0 80 0 81 0 83 0 85 
0 86 0 89 0 0 71 0 71 0 71 0 71 0 71 0 
71 0 71 0 72 0 71 0 920 3284 37 MP
PP
/c9 { 0.113725 0.568627 0.752941 sr} bdef
c9
0 0 0 -89 0 -86 0 -85 0 -83 0 -81 0 -80 0 -79 
0 0 -71 0 -72 0 -71 0 -71 0 -71 0 -71 0 -71 0 
-71 0 -71 0 0 0 0 79 0 80 0 81 0 69 35 14 
-35 21 0 64 0 86 0 89 0 0 71 0 71 0 71 0 
71 0 71 0 71 0 71 0 72 0 71 0 920 3284 39 MP
PP
c8
71 0 71 0 71 0 71 0 71 0 72 0 71 0 0 0 
71 -104 71 104 0 0 0 0 0 -104 0 -101 0 -97 0 -94 
0 -92 0 -89 0 0 -71 0 -71 0 -71 0 -72 0 -71 0 
-71 0 -71 0 -71 0 -71 0 0 0 0 89 0 92 0 94 
0 97 0 101 0 104 0 0 5185 2796 37 MP
PP
c9
71 0 71 0 71 0 71 0 71 0 72 0 71 0 0 0 
71 -104 71 104 0 0 0 0 0 -104 0 -101 0 -97 0 -94 
0 -92 0 -89 0 0 -71 0 -71 0 -71 0 -72 0 -71 0 
-71 0 -71 0 -71 0 -71 0 0 0 0 89 0 92 0 94 
0 97 0 101 0 104 0 0 5185 2796 37 MP
PP
/c10 { 0.498039 0.803922 0.733333 sr} bdef
c10
71 0 71 0 71 0 71 0 71 0 72 0 71 0 0 0 
71 -104 71 94 0 -94 0 -101 0 -87 -36 -10 0 -94 -35 -46 
-71 -23 -18 -23 -53 -66 -72 22 -35 44 -36 46 -71 0 -35 46 
35 47 71 0 36 47 -36 24 -71 0 -71 25 -71 0 -35 48 
-36 51 0 50 0 104 0 0 5185 2796 37 MP
PP
0 -63 0 -83 0 -81 0 -80 0 -79 0 0 -71 0 -72 0 
-71 0 -64 0 -7 40 -71 0 -35 39 35 40 36 40 0 81 
35 41 71 28 60 -69 11 -41 18 41 -6 83 -12 21 -53 64 
53 65 54 -65 18 -14 71 -8 920 3481 29 MP
PP
0.878431 sg
36 50 35 52 36 -52 35 -50 18 50 -9 104 63 0 71 0 
0 0 71 -104 71 73 0 -73 0 -101 0 -68 -71 -17 -36 -12 
0 -94 -35 -23 -36 23 0 94 0 97 -35 25 -36 -25 -36 -48 
-71 24 -71 0 -35 24 35 51 4972 2950 29 MP
PP
0 -21 0 -83 0 -81 0 -80 0 -79 0 0 -71 0 -72 0 
-71 0 -49 0 14 79 35 40 71 30 9 10 45 81 -18 83 
36 42 71 -21 920 3523 19 MP
PP
0 -69 0 -81 0 -80 0 -79 0 0 -71 0 -72 0 -71 0 
-35 0 35 66 12 13 59 50 27 30 45 67 11 14 -11 41 
-12 42 12 14 35 -14 36 -14 920 3558 21 MP
PP
71 0 0 0 71 -104 71 52 0 -52 0 -101 0 -48 -71 -12 
-60 60 -11 17 -71 59 -18 25 -27 104 45 0 4758 2796 15 MP
PP
c10
36 0 -36 -44 -18 -45 -53 -65 -35 -21 -36 -43 -71 21 0 22 
0 86 0 89 0 0 71 0 71 0 71 0 1347 3284 15 MP
PP
/c11 { 0.996078 0.850980 0.462745 sr} bdef
c11
0 -41 0 -81 0 -80 0 -79 0 0 -71 0 -72 0 -71 0 
-21 0 21 40 36 39 35 30 45 50 27 40 35 41 36 41 
920 3586 17 MP
PP
71 0 0 0 71 -104 71 31 0 -31 0 -101 0 -29 -71 -7 
-36 36 -35 51 -54 50 -17 26 -27 78 27 0 4758 2796 15 MP
PP
c10
36 -40 -36 -40 -18 -40 0 -79 -53 0 -71 0 -71 0 0 0 
0 79 0 40 35 -40 36 -8 18 8 18 80 35 40 71 0 
1347 3668 17 MP
PP
/c12 { 0.992157 0.552941 0.235294 sr} bdef
c12
71 0 0 0 71 -104 71 10 0 -10 0 -101 0 -9 -71 -3 
-12 12 -59 84 -18 17 -53 78 -9 26 9 0 4758 2796 15 MP
PP
0.878431 sg
53 0 -35 -89 -18 -21 -71 -22 -71 -22 0 65 0 89 0 0 
71 0 71 0 1418 3284 11 MP
PP
71 0 36 0 -36 -52 -35 -52 -36 -50 -35 50 0 104 35 0 
5114 2796 9 MP
PP
18 -40 0 -79 -18 0 -71 0 -71 0 0 0 0 71 71 -16 
53 24 18 40 1418 3748 11 MP
PP
18 0 -18 -44 -71 -30 -36 -15 -35 -21 0 21 0 89 0 0 
71 0 71 0 1418 3284 11 MP
PP
c12
36 -10 0 -79 -36 0 -71 0 -7 0 7 14 60 65 11 10 
1063 3778 9 MP
PP
c11
53 0 -53 -44 -71 -30 0 74 0 0 71 0 1489 3284 7 MP
PP
0.878431 sg
36 -41 -36 -61 -53 61 53 41 1134 3586 5 MP
PP
59 -40 -59 0 -71 0 0 0 0 55 71 -15 1489 3827 7 MP
PP
36 -47 -36 -46 -35 46 35 47 4830 3145 5 MP
PP
c8
-35 -43 35 -43 36 43 -36 43 1276 3416 5 MP
PP
c10
53 -41 -53 -61 0 61 0 41 1560 3586 5 MP
PP
c11
36 -24 -36 0 -71 0 0 0 0 40 71 -16 1489 3843 7 MP
PP
c12
18 0 -18 -14 -71 -30 0 44 0 0 71 0 1489 3284 7 MP
PP
0.878431 sg
17 -46 -17 -22 -36 22 36 46 4758 3238 5 MP
PP
/c13 { 0.741176 0.000000 0.149020 sr} bdef
c13
35 0 -35 -50 -36 50 36 0 4616 2900 5 MP
PP
c10
35 0 -35 -44 -36 44 36 0 991 3284 5 MP
PP
c12
35 -13 -35 -40 -9 40 9 13 991 3695 5 MP
PP
12 -8 -12 0 -71 0 0 0 0 24 71 -16 1489 3859 7 MP
PP
0.878431 sg
18 -21 -18 -22 -17 22 17 21 1063 3438 5 MP
PP
c12
0 -40 0 0 -36 0 36 40 920 3827 5 MP
PP
0.878431 sg
12 -14 -12 -20 -17 20 17 14 1134 3613 5 MP
PP
c12
0 -14 0 -41 -12 41 12 14 920 3613 5 MP
PP
0.878431 sg
18 -14 -18 -20 0 20 0 14 1560 3613 5 MP
PP
c13
35 0 -35 -14 0 14 0 0 1560 3284 5 MP
PP
35 -8 -35 0 0 0 0 8 1560 3859 5 MP
PP
9 w
0 sg
-7 12 -12 0 -7 12 -7 10 -9 8 -8 15 -7 15 12 7 
10 12 7 13 16 5 14 2 15 8 12 10 11 13 0 32 
-2 8 7 3 5 -11 12 -7 9 -10 10 -10 14 -11 7 -12 
12 -3 16 3 15 0 9 -7 17 2 4 7 12 0 -9 16 
-3 15 3 15 7 10 7 -3 2 -12 10 -13 5 8 9 12 
-2 13 5 13 11 10 12 13 12 12 7 13 7 16 5 15 
12 5 -17 5 -7 13 -9 16 -10 -8 -9 -8 -12 6 -10 -11 
-9 -18 -12 -15 -5 -16 -7 -13 -19 -5 -12 -7 -11 -13 -15 -2 
-9 -11 -14 3 -12 -8 -17 8 -12 5 -14 5 -14 0 -9 -10 
-3 -13 -5 -15 -19 -3 -16 -2 -17 -5 -14 -3 -10 0 5754 4010 80 MP stroke
1 7 -3 15 0 10 10 12 0 17 9 5 12 8 10 7 
7 15 2 10 -2 13 9 10 7 15 7 13 7 15 5 13 
10 15 2 12 7 11 3 12 9 11 9 12 7 13 3 13 
7 13 -7 5 -5 -13 -7 -15 -7 -10 -5 -10 -9 -11 -12 -10 
-7 5 0 13 -7 18 -10 18 0 -16 5 -15 5 -15 -15 0 
-9 -13 -7 -13 -9 -15 -10 -15 -10 -11 -9 -15 -5 -15 -7 -15 
-14 -8 -12 -10 -9 -15 -7 -15 -3 -15 3 -9 -3 -13 -2 -17 
-10 -10 -5 -10 -18 -5 -3 -2 5197 4169 61 MP stroke
19 -7 17 -23 23 -19 24 -23 24 -18 11 -23 -2 -22 -12 -21 
10 -22 0 -14 -21 -11 -15 -11 -26 -7 -26 3 -26 8 -26 7 
-26 7 -33 0 -21 -18 -19 4 -12 -18 28 7 24 -14 12 -10 
31 0 25 6 27 -3 23 -3 19 -11 0 -18 -7 -17 -16 -3 
0 -41 14 -11 16 4 10 14 14 10 21 -4 10 -20 9 -14 
0 -23 -2 -20 9 -20 22 -10 7 -16 14 -7 17 0 9 20 
24 -4 23 -6 19 -13 24 -3 24 -10 14 3 17 7 -12 6 
9 13 12 -10 19 -3 12 -6 14 -10 17 0 -5 13 26 10 
0 9 16 10 -9 20 -12 20 -19 7 0 13 17 0 0 14 
-7 17 0 13 19 -3 11 -14 22 -3 12 -10 5 -14 0 -20 
-3 -17 -14 -10 0 -19 -10 -13 10 -7 -10 -10 12 -10 3 -12 
14 6 19 0 9 -10 26 0 17 -6 0 -16 -12 -3 0 -10 
12 -9 12 6 0 19 9 -3 5 -16 7 -13 10 -12 12 -13 
16 -6 19 -10 17 -6 4 -12 3 -16 12 -6 14 -3 11 -6 
5 -16 17 3 14 -3 7 16 17 0 -10 -19 -4 -21 16 0 
19 -3 10 12 19 -3 14 -6 16 -3 -2 -18 -12 -7 -14 0 
-17 -9 -19 -3 -4 -6 -12 -12 2 -9 -7 -8 -14 -9 -7 -15 
2 -21 3 -20 2 -15 5 -20 7 -9 14 -3 16 3 24 3 
24 -6 19 6 21 3 21 -3 19 0 22 9 9 -15 17 -3 
7 -8 -12 -20 2 -14 -2 -12 -5 -17 3 -14 4 -17 3 -19 
9 -12 3 -16 -8 -11 -11 0 2 -17 0 -16 5 -14 -17 3 
-14 -3 -12 6 -12 0 -14 -8 -5 -9 -9 -16 -14 -5 -15 13 
-14 6 -16 2 -17 0 -17 0 -16 0 -10 14 -14 17 -14 0 
-5 13 -9 11 -17 11 14 11 3 14 -10 14 -14 17 -14 20 
-14 5 -17 6 -17 11 -14 9 3 20 2 17 -16 8 -12 9 
-17 -6 -19 -3 -16 -8 -17 3 -12 11 -17 9 -16 6 -7 11 
-12 6 -14 -3 -10 -6 -16 -3 -3 -17 -7 -14 -14 -15 -2 -11 
-15 0 -14 -14 -12 -14 -14 -9 -19 0 -12 -11 -12 -9 -9 -3 
-7 -13 -19 -6 -2 -11 -8 -14 -2 -14 7 -8 5 -14 0 -8 
-10 0 -4 8 -10 8 0 14 -14 6 0 13 14 9 -5 17 
-7 11 -11 -6 -15 -3 -2 -11 -10 -3 -4 12 14 13 14 9 
14 8 17 9 14 6 -7 11 24 0 16 8 14 9 8 8 
2 15 7 14 14 9 12 9 12 11 2 12 -4 12 7 8 
-3 12 -11 0 -15 9 -14 -3 5 -9 -3 -12 -7 -9 -9 6 
-3 12 -18 -12 -3 -14 -7 -9 0 -12 -16 -8 -8 -9 -16 -3 
-21 -14 -17 -15 -17 -8 -14 -11 -14 -9 2 -14 3 -20 0 -17 
-12 -8 -10 -14 -7 -11 -9 -17 -12 -14 -21 -2 -22 2 -9 -11 
-17 -2 -14 -11 0 19 4730 3605 300 MP stroke
-17 -6 12 6 3 11 11 6 10 8 5 11 9 11 10 14 
-3 19 -14 -13 -14 0 -5 8 7 8 -14 0 -7 9 -14 -3 
-12 3 -17 -3 -9 -11 -14 2 11 -11 0 -8 -11 11 -15 11 
-9 9 -22 3 -18 0 -17 -12 14 -3 -2 -8 16 0 19 0 
17 0 17 0 11 -11 5 -20 -23 3 4 -8 -2 -19 -5 -9 
7 -3 10 9 2 -11 -14 -6 -12 -5 2 -11 -12 -9 10 -10 
-14 0 -15 0 5 -9 -16 0 -19 -13 -14 -5 -22 8 -5 13 
-16 -3 -21 -8 -8 -10 -14 -6 -12 6 -11 0 -15 10 -12 11 
-19 -8 -9 0 -14 11 -2 -8 9 -11 -5 -11 5 -11 0 -21 
-2 -16 9 -14 7 -18 7 -16 5 -16 5 -16 9 -16 10 -10 
21 -3 16 -2 10 8 5 -11 12 5 -3 11 19 2 17 -2 
16 -8 15 -8 14 -3 16 8 17 0 14 6 12 5 17 2 
16 3 17 -3 7 14 17 0 16 5 17 2 2 13 17 6 
19 2 16 -2 17 -6 16 -13 8 -10 -5 -11 -3 -13 5 -13 
10 -7 11 -6 15 3 14 10 19 11 23 5 17 3 14 7 
7 8 0 16 17 5 16 8 17 3 22 2 18 0 15 6 
16 8 5 13 12 -3 12 6 2 13 -9 8 -12 11 -7 13 
2 13 10 6 4 19 -9 5 -7 14 19 -8 7 16 14 3 
14 -3 12 -8 14 -3 21 6 12 -6 22 6 12 -9 14 -2 
9 5 17 3 16 0 12 -3 14 0 14 -5 20 -3 21 -3 
14 -8 14 -11 15 -2 14 -3 7 -11 19 -8 14 -3 17 8 
12 -2 18 0 12 -3 19 11 7 11 15 -3 7 -16 4 -14 
7 -13 7 -13 17 -11 17 -5 14 -8 9 -14 12 -10 0 -11 
7 -13 10 -8 0 -26 -7 -10 7 -18 9 -13 12 -13 17 -8 
9 -13 19 -7 22 -3 9 -13 5 -15 7 -10 14 -8 7 -7 
5 -16 5 -12 7 -18 12 -13 9 -12 7 -12 7 -21 7 -12 
10 -8 2 -14 3 -15 -12 -10 -12 -13 0 -9 3588 4169 215 MP stroke
6 -3 19 -27 17 -19 16 -19 17 11 12 -19 14 -14 28 -4 
19 -19 19 -14 21 -15 -9 -14 12 -15 -5 -18 -2 -18 -14 -17 
9 -15 -5 -14 -21 4 14 -14 3 -18 -12 -10 -24 -10 -24 -4 
-23 11 -15 13 -21 18 -14 0 -9 14 -15 -11 -7 -24 -9 -21 
-10 -23 -9 -21 -17 -17 7 -13 -9 -17 0 -13 -19 0 -17 0 
2 13 -14 17 -19 0 -16 0 -12 23 -5 24 -5 17 0 21 
-4 13 -21 15 -22 10 10 7 -17 10 -7 11 7 14 19 14 
19 15 2 18 -4 21 -3 22 -9 11 -19 23 -22 14 -18 12 
-24 11 -10 15 -19 15 19 12 -10 11 4655 2575 70 MP stroke
-12 -19 33 4 24 8 18 7 38 0 6 -7 -22 -19 -21 0 
0 -23 35 0 29 19 31 11 0 19 5033 2575 14 MP stroke
-9 6 -5 -21 -23 -11 -22 -18 -19 -13 -21 -11 -9 -20 -19 -17 
-10 -21 -12 -23 0 27 7 24 0 20 19 14 -14 0 -5 17 
-9 -17 2 -14 -7 -20 0 -18 -14 11 -7 13 -10 -13 -12 -14 
24 7 14 -14 -4 -20 -14 3 0 -16 -8 -14 -9 -10 -17 -10 
-12 -16 0 23 15 23 11 17 -14 -7 -14 0 2 -13 -9 -17 
-12 -13 -16 -10 -20 7 10 -20 -7 -9 17 -10 -12 -20 -17 -9 
-16 -23 -22 -9 -7 -19 -12 -13 0 -12 -21 -13 -21 -6 -22 -9 
-16 -13 -17 -12 -16 -10 -17 10 0 -19 -12 -9 -9 -15 4 -6 
-9 -15 7 -19 2 7 12 -7 -12 16 17 9 19 0 24 9 
2 -9 -5 -9 -7 -16 -7 -18 -2 -11 -3 -13 -21 -5 21 0 
0 -12 -2 -15 5 -15 0 -17 2 -18 5 -20 7 -20 -2 -17 
-8 -11 -4 -17 2 -17 7 -17 0 -9 -9 -8 -7 -11 0 -12 
-3 -13 -9 -11 -12 -9 2 -11 -14 -2 0 8 -9 -3 4 -5 
-7 -14 12 8 -2 -14 -7 -10 -10 0 0 -14 2 -8 -14 -11 
-9 -14 -15 -16 0 -16 -21 -5 -16 -5 -15 -6 -9 0 -3 -10 
-9 0 -14 -11 -7 -13 -5 -16 -9 -16 -5 -13 -7 -10 0 -8 
-10 -8 0 -13 -7 -3 -2 -18 -14 -5 -15 -13 -9 -10 -10 -10 
0 -13 12 -8 17 2 -14 -10 -5 -10 -10 -5 -12 -8 -11 0 
-10 -10 -14 -7 -7 -16 0 -15 7 -10 -19 -8 -12 -10 -12 -12 
-14 -10 -9 -20 -17 15 9 12 12 15 12 0 7 13 -4 5 
9 10 0 10 9 15 5 16 14 15 10 15 12 10 5 16 
9 13 12 13 9 12 12 8 7 11 -2 13 5 13 2 13 
-2 10 -17 -8 -10 3 -9 -8 -12 -5 0 -13 -7 -16 -2 -10 
-10 -13 -7 -16 -14 -15 -14 -15 -17 -3 0 -15 -16 -13 -8 -10 
-7 0 -7 -10 5 -11 0 -7 -12 -8 -19 -7 -9 -18 -12 -10 
-12 -10 -12 -15 -9 -10 -12 -13 -10 -9 -4 -20 -10 -8 0 -10 
10 -10 -5 -7 9 -8 -6 -9 1050 4169 213 MP stroke
3 5 9 9 7 10 5 13 -5 10 14 10 5 15 -5 12 
0 45 -5 15 -4 15 -7 13 2 13 0 15 5 15 -3 15 
-9 11 -14 10 -14 10 -15 3 -9 7 -10 8 7 13 -9 5 
0 -13 -14 8 -12 3 -17 2 -14 -5 -14 -3 -12 8 -14 -10 
-2 -10 -15 -3 -16 3 -10 5 -9 -3 -7 -8 -5 6 14 10 
0 5 -7 5 -2 8 12 0 11 -3 10 3 -7 13 -14 -8 
-15 8 -12 0 -14 -2 -7 7 -5 -10 -14 0 -14 3 -14 2 
-10 -8 -14 -5 -5 -13 -14 3 -12 7 -14 3 -12 -10 -12 -18 
-7 -3 -4 -16 2 -12 0 -11 -9 3 4 -15 -2 -11 -10 -10 
-7 -12 -7 -16 -12 -10 -5 -12 -11 2 -7 5 -7 15 -3 18 
0 18 7 18 7 18 0 10 10 15 4 16 8 15 2 16 
2 16 -7 15 -7 16 -14 13 -14 8 -15 11 -9 10 -7 11 
-14 8 -12 3 -12 10 -12 11 -17 3 -7 8 15 0 -15 10 
-9 0 -5 8 0 11 12 0 14 0 -12 6 -9 3 -7 -3 
-7 -11 7 11 2 13 5 11 12 11 0 11 -3 14 17 11 
-14 -3 2 11 2 17 -4 10 -12 6 5 -11 0 -11 4 -14 
-11 -5 2 -9 -9 0 4 -10 5 -17 -7 3 -5 16 -9 14 
-7 8 11 20 5 16 -9 -6 -7 -10 -15 10 -9 17 -5 17 
10 6 -10 11 -14 8 -14 6 -15 0 -14 0 -14 6 -5 11 
-7 -8 -12 5 0 -5 -19 5 0 12 0 -9 15 0 4 14 
10 6 -7 8 2 9 -7 12 -9 11 0 6 -15 6 -16 5 
-10 15 -7 -6 -16 6 -15 6 -14 8 0 12 -21 0 -19 6 
-22 12 3 -12 -19 3 19 -12 12 -5 16 -12 8 -15 -5 -14 
-15 -9 -14 12 -14 11 -9 12 -15 0 -19 9 -28 8 -24 6 
-4 12 -17 6 -17 12 19 11 -2 18 7 6 10 -15 14 -14 
0 -15 14 3 16 -6 19 3 22 12 16 6 10 17 2 21 
-5 15 24 -6 19 18 -28 0 -15 7 -16 9 0 12 9 9 
19 6 22 -3 21 -3 19 -9 17 -6 19 -9 16 -13 12 -14 
12 -13 12 -12 19 -6 -12 13 -10 11 -12 12 -9 13 -12 15 
-16 12 -19 15 -20 0 -4 16 -12 12 -21 6 -17 0 -19 0 
-21 3 -17 -3 -16 0 -19 0 -14 -6 -22 3 -26 0 -14 13 
-12 12 -12 13 -24 9 -28 3 -19 13 -14 9 9 26 -4 16 
19 19 21 0 2 16 29 4 -24 13 14 9 26 4 10 13 
30 3 5 17 24 10 12 13 0 20 -12 14 14 10 0 14 
14 13 15 21 11 21 17 21 14 21 10 14 14 -14 12 -11 
-10 -13 12 -18 22 -11 9 -13 28 -11 19 24 17 4 14 17 
0 14 -2 21 7 18 -5 18 22 4 21 0 21 11 -7 14 
21 11 19 15 22 11 1953 2691 300 MP stroke
33 -8 19 0 26 8 28 3 19 -11 0 -18 -16 -11 7 -18 
9 -18 -14 -11 -5 -21 0 -18 15 -17 18 -4 3 -14 -17 -13 
-16 -7 -10 -24 -5 -17 -7 -24 0 -27 15 -17 21 -16 21 -13 
21 -10 -9 -16 -7 -17 -3 -22 0 -19 -11 -20 16 -19 24 -12 
-2 -13 19 13 9 16 14 12 12 16 19 16 -5 19 0 16 
8 17 -8 29 24 10 28 0 29 0 28 17 24 6 19 7 
16 17 27 13 28 7 28 14 22 -7 16 -7 0 14 10 17 
0 17 12 24 19 3 19 -3 9 17 0 21 -2 25 -7 18 
-7 18 -15 22 -14 18 -19 7 0 22 -26 7 -29 8 3 22 
-19 27 -43 0 -21 22 -21 23 1574 2575 77 MP stroke
-5 14 -12 13 0 12 7 5 14 0 12 3 14 -3 15 -5 
14 -2 14 -3 9 -5 3 -17 2 -12 1475 4169 14 MP stroke
-1 -3 0 -27 -19 -15 -3 -19 -26 -34 -7 -15 -16 -25 -15 -22 
-28 -25 -38 -4 -26 -7 -17 -18 -35 -14 -19 7 -12 21 -2 22 
-7 22 -15 21 12 30 -26 15 -21 22 -7 23 -3 22 13 23 
2886 2575 25 MP stroke
2233 2575 PD
7 -15 -16 -19 -43 0 -21 11 -31 -3 -28 -12 -26 -7 -24 -12 
0 -19 -24 -14 -21 -8 -29 -7 -9 -11 -26 -11 -26 -8 -28 -3 
0 18 21 15 23 18 22 15 12 19 -34 -11 -26 -15 -30 -15 
-36 0 -7 30 21 19 3 22 19 16 12 7 2166 2575 31 MP stroke
-14 -3 -17 12 -23 -6 -5 15 -19 4 -22 -6 -18 9 -22 -3 
-21 0 -24 6 -14 16 24 3 -12 16 -17 9 -7 16 7 13 
17 6 12 0 9 -9 7 6 -9 9 4 13 8 10 4 13 
8 16 19 7 9 16 5 20 9 13 19 7 19 0 -14 10 
-12 13 -10 17 -7 14 3 14 23 0 20 0 21 -4 -10 17 
-23 14 4 10 26 -3 26 0 10 -17 12 -14 2 -13 14 6 
10 -6 -12 -11 -19 0 12 -20 0 -14 -17 7 3 -17 19 -13 
-17 0 0 -13 -14 16 -12 -13 12 -23 -10 -13 -21 6 -21 7 
9 -16 -12 -13 -14 0 10 -17 0 -16 16 -3 26 3 -5 -10 
10 -12 -17 0 0 -19 15 -7 16 -9 -5 -10 -19 3 -14 -3 
-14 -9 -19 9 10 -15 14 0 16 0 12 -16 14 -12 17 -13 
3889 3189 89 MP stroke
-9 14 -9 18 -7 15 -19 -6 -8 12 -14 2 3 9 -17 6 
-19 3 -21 15 -15 -2 -18 0 -15 0 -16 -13 -15 -14 -4 -18 
-3 -15 -9 -9 16 0 17 -3 17 9 21 -3 17 -12 -8 -17 
15 3 19 0 2 -9 -17 -6 -11 -17 -5 -17 -14 -12 -19 0 
-5 -9 10 -14 -3 -14 -9 -17 2 14 -9 12 -20 2 -7 -14 
-11 -11 -12 -11 16 -12 19 0 17 6 7 -17 -2 -11 -22 0 
3 -14 -5 -14 -12 -3 7 -19 0 -22 -7 -22 2 -11 22 3 
21 -6 24 -5 16 5 19 11 5 8 19 3 14 6 3 16 
2 17 2 19 -12 0 -2 11 -5 17 -9 11 -14 3 16 5 
14 15 5 14 10 14 12 8 11 15 12 17 0 26 10 17 
11 6 0 12 5375 3381 83 MP stroke
-11 11 -3 17 -16 3 -3 18 0 14 -9 12 -14 5 -5 12 
2 18 -16 6 -12 12 -7 14 -17 0 -19 0 7 -11 -21 -9 
-17 6 -16 -9 19 -6 11 -15 -16 -6 -9 -6 4 -14 -9 -9 
-14 6 -10 9 -14 2 -14 9 -14 -3 -17 3 -10 0 -7 -11 
-12 -6 -9 -6 -14 -3 -14 -9 -15 -14 -9 -9 -14 -8 -19 -9 
-7 -6 -5 -14 -7 -11 2 -12 14 -8 17 -12 16 -2 17 2 
17 -2 16 -3 14 5 12 -2 14 8 12 0 10 14 19 0 
9 12 14 -3 20 0 16 3 19 -6 14 -9 14 -8 15 -9 
16 3 19 -3 19 3 17 6 14 11 5 14 11 15 4830 3459 72 MP stroke
-14 2 2 5 7 0 10 10 14 2 10 -2 -3 12 12 3 
14 2 14 10 12 5 12 8 14 7 14 5 15 0 9 10 
12 5 12 5 14 0 14 5 15 0 14 -5 14 -2 14 -3 
14 -8 10 -7 0 -10 14 -5 1636 4115 29 MP stroke
-19 0 -5 10 -16 0 -10 8 -9 7 -14 -3 -19 -2 14 -5 
-10 -8 -14 -2 -21 0 -9 -7 -12 -3 -15 -5 -14 3 -5 -5 
-2 -13 -14 -10 -21 0 -5 -10 9 -7 3 -2 1844 4169 23 MP stroke
-9 14 -10 15 -9 12 -7 0 -29 6 -14 3 -12 -3 -24 0 
5 12 -14 0 -19 -3 -19 0 -19 -3 -26 -6 -14 -18 -14 -21 
9 -11 24 9 16 14 -4 -12 4 -14 7 -17 0 -21 20 -8 
7 17 7 17 14 -5 12 -12 0 12 -15 17 0 20 7 12 
15 6 12 6 14 0 9 -18 22 -8 4 -15 7 -15 0 -14 
-4 -15 -3 -17 5 -20 7 -11 12 -6 12 0 9 17 0 20 
3 15 -5 14 -5 20 -2 12 -7 15 21 -12 1546 3387 55 MP stroke
-4 -16 -22 7 -24 -4 -21 0 -21 0 -19 -3 0 -11 14 -9 
-17 -4 -14 18 -12 4 -14 -4 7 -18 -14 9 0 -14 -17 0 
-4 18 -5 18 14 -4 -7 18 9 -2 10 -16 7 6 -5 12 
-21 19 21 -3 8 12 -15 15 15 6 19 0 18 -3 17 13 
-12 9 17 6 21 -12 -9 18 -10 12 -12 19 -7 19 14 0 
19 -9 10 -13 7 -16 12 -18 7 -22 14 -18 10 -15 -10 -3 
14 -12 12 -9 2361 3268 51 MP stroke
26 -11 -41 0 -16 -23 21 -19 -50 0 -28 -11 -36 -8 -30 15 
-26 4 -27 15 -37 12 -24 23 0 3 3659 2575 14 MP stroke
-14 11 -17 12 -14 13 -19 5 -11 9 -10 13 -19 9 -10 12 
-21 -9 -24 0 -9 -18 -12 -12 -21 0 0 -13 -10 -9 3 -14 
-7 -15 14 0 0 8 23 -2 24 -9 19 0 12 14 19 -3 
0 12 -19 13 14 0 22 -16 21 -9 21 -8 12 15 19 -9 
14 0 1430 3313 34 MP stroke
-7 -15 -14 -10 -24 3 -21 7 -22 12 -26 3 -4 16 -5 16 
2 20 5 16 -19 13 5 19 9 13 19 4 22 3 21 -7 
12 -16 -14 -6 9 -10 16 0 19 0 8 -13 -15 -7 15 -9 
-15 -13 -14 0 14 -19 7 -20 17 0 3754 3111 30 MP stroke
-34 0 -14 11 -2 14 -21 4 16 15 7 11 -33 0 -10 -11 
-21 -8 -19 4 -14 15 -9 11 -24 7 -21 0 -29 -7 33 0 
-9 -11 31 -4 23 -11 12 -22 22 -7 23 -7 5 -15 14 4 
24 -7 21 0 29 14 721 2746 28 MP stroke
5 -2 5 6 19 0 19 0 0 20 5 9 0 17 5701 3373 8 MP stroke
-12 15 -3 15 -9 3 -14 0 -7 14 -8 -4 5754 3330 7 MP stroke
42 0 544 2575 2 MP stroke
15 -7 -5 7 613 2575 3 MP stroke
-27 0 -19 -12 0 -13 7 -10 -4 -22 -14 7 -15 -4 5 -15 
-7 -13 -9 -9 -8 -16 22 -3 -3 13 10 12 0 13 19 15 
16 10 0 19 -7 9 12 10 12 -10 10 19 1171 3076 23 MP stroke
-17 6 -12 12 -18 9 -22 2 -21 12 -24 4 -16 2 -10 -6 
17 -3 16 -11 14 0 -7 -9 -9 -6 14 -15 12 -18 19 3 
17 0 16 -6 14 6 7 12 10 6 5026 3340 22 MP stroke
3 -15 -7 -27 29 -18 1569 2635 4 MP stroke
-39 0 -2 -23 -26 4 -19 19 -17 15 -21 0 -23 -12 -24 -15 
-26 19 28 11 14 19 22 16 16 7 1686 2575 14 MP stroke
-7 16 -17 0 -16 -3 -8 -19 -9 -19 -7 -20 -12 -22 -12 -15 
8 -25 16 -7 0 16 -2 16 -3 15 14 -6 3 19 21 0 
0 13 14 9 8 19 9 13 1226 3066 21 MP stroke
-17 -19 -19 -9 -19 -9 3 -10 -17 -6 -12 -9 -14 0 0 -9 
-21 -9 -17 -6 -14 6 14 15 22 15 16 16 14 18 22 7 
26 5 21 10 12 -6 399 3167 20 MP stroke
-12 9 -16 0 -19 8 -10 11 -16 3 -12 -3 -9 9 -20 0 
-19 0 12 -11 17 -9 19 -8 16 -6 17 -9 17 -2 16 0 
19 8 1674 3485 18 MP stroke
-10 -14 -9 0 -19 -11 -15 -3 -9 -11 -19 -2 -5 11 5 10 
-5 17 -9 14 19 -6 21 -3 17 0 12 6 14 0 12 -8 
4398 3613 17 MP stroke
-4 19 -19 0 0 14 14 4 9 11 -21 -7 -16 -11 2 -19 
-7 -14 -12 -11 0 -15 12 -7 14 0 0 18 19 8 9 10 
5029 2721 17 MP stroke
-14 -11 2 -13 -5 -9 -11 0 -8 -10 -9 10 -12 -10 7 19 
5 13 -14 -3 9 17 14 8 15 6 14 -6 7 -11 4647 3619 16 MP stroke
0 -12 -7 -13 0 -17 2 -17 -11 -11 -10 11 -12 0 -5 14 
-2 14 0 14 2 14 12 14 15 -11 9 -3 7 3 4280 3513 16 MP stroke
-10 15 -17 6 -18 3 -15 2 -19 -2 -9 8 -17 6 5 -12 
-2 -17 19 -6 16 -3 17 3 16 0 19 -5 15 2 1780 3434 16 MP stroke
-14 0 -14 -3 -10 -6 -19 1 -19 2 -2 9 14 -6 0 8 
17 -1 12 4 14 -3 2 6 17 2 2 -13 4716 3703 15 MP stroke
-4 11 -17 11 -19 0 -12 -11 -19 -7 -9 -14 0 -15 9 -14 
22 0 7 -10 12 0 4 17 10 18 16 14 4901 2750 15 MP stroke
-4 -11 -17 -3 -14 4 -5 7 -12 0 5 8 -17 13 17 -5 
14 -3 12 -2 7 -6 14 -2 4965 3708 13 MP stroke
-3 -23 -14 -10 -7 -19 -12 -16 -23 -16 9 19 14 10 -4 12 
9 20 -9 19 18 0 22 4 264 3033 13 MP stroke
-16 14 -15 10 -14 18 -14 0 -17 -10 -16 0 -17 -8 24 -7 
28 0 22 -6 9 -15 26 4 885 2852 13 MP stroke
-9 -9 -17 -9 -24 -9 0 12 -14 9 21 -3 17 0 17 5 
2 13 7 -9 2221 3313 11 MP stroke
-19 -10 -7 -9 -17 -6 -19 -3 -16 0 9 12 14 6 17 7 
19 3 19 0 2216 3198 11 MP stroke
-10 14 -7 13 10 18 -10 13 -12 17 -14 -20 17 -10 0 -35 
26 -10 1117 2948 10 MP stroke
2 -15 -2 -11 -14 -14 -5 17 -5 11 2 12 0 17 8 -12 
14 -5 4294 3459 10 MP stroke
-2 -10 7 -8 -14 -12 -8 -15 -4 10 7 10 0 10 7 15 
7 0 1823 4015 10 MP stroke
-12 5 0 18 -9 3 -2 8 7 -3 4 -8 12 -15 0 -8 
3643 3926 9 MP stroke
-5 -20 -16 -3 -17 6 7 8 -11 9 4 16 19 -8 19 -8 
4363 2973 9 MP stroke
-17 3 19 -16 -17 0 -9 10 0 -17 -7 23 7 10 24 -13 
1773 2951 9 MP stroke
-19 3 -19 3 -19 9 10 5 14 -5 14 -3 17 -3 2 -9 
1944 3525 9 MP stroke
-7 -9 -21 6 -6 -4 4 6 8 0 14 -5 8 6 1802 3968 8 MP stroke
-3 -5 2 -4 -6 -1 -9 3 4 9 6 4 6 -6 1686 4117 8 MP stroke
-5 -17 -14 8 0 17 -12 9 22 -6 9 -11 4562 2900 7 MP stroke
-24 3 -26 19 0 3 19 0 21 -7 10 -18 1669 2702 7 MP stroke
-3 -8 -10 2 1 8 9 3 3 -5 3599 3928 6 MP stroke
-7 -10 -7 5 -5 12 9 -6 10 -1 3569 3918 6 MP stroke
-13 -3 -10 -8 -10 14 14 8 19 -11 4112 3558 6 MP stroke
-10 -10 -14 9 -14 8 23 5 15 -12 4668 2866 6 MP stroke
-10 -10 -14 3 -7 7 14 3 17 -3 4360 3007 6 MP stroke
-9 -17 -18 0 -1 13 13 8 15 -4 4325 2982 6 MP stroke
-23 17 -7 21 23 -14 0 -14 7 -10 3842 2897 6 MP stroke
-17 -6 -19 -6 7 15 12 4 17 -7 1716 3079 6 MP stroke
3 -26 -12 -10 -12 18 -3 18 24 0 1771 2695 6 MP stroke
-14 0 -5 12 5 -7 9 2 5 -7 1953 4142 6 MP stroke
-18 -6 -15 -6 -5 15 17 -3 21 0 1686 3343 6 MP stroke
-3 -10 -9 7 -5 12 17 -9 4834 3670 5 MP stroke
-2 -7 -17 5 15 10 4 -8 4683 2843 5 MP stroke
-14 -4 -17 17 26 -3 5 -10 3837 2706 5 MP stroke
-9 -12 1 -15 -6 15 14 12 1842 3963 5 MP stroke
-7 -6 0 8 7 -2 4787 3570 4 MP stroke
-8 -10 0 18 8 -8 4004 2786 4 MP stroke
-17 16 5 -10 12 -6 1887 3706 4 MP stroke
-29 0 18 7 11 -7 1987 4120 4 MP stroke
-4 -19 -11 11 15 8 1934 4085 4 MP stroke
-17 -25 0 14 17 11 1866 4005 4 MP stroke
-19 0 19 0 3313 3617 3 MP stroke
-14 -5 14 5 3233 3592 3 MP stroke
0 -8 4787 3602 2 MP stroke
-15 -10 15 10 3955 2831 3 MP stroke
-14 3 14 -3 1722 4033 3 MP stroke
-11 -3 11 3 1969 4097 3 MP stroke
-13 -24 13 24 1907 4060 3 MP stroke
-11 -15 11 15 1896 4030 3 MP stroke
gr

9 w
%%IncludeResource: font Helvetica-Bold
/Helvetica-Bold /ISOLatin1Encoding 240 FMSR

2015 3796 mt 
(rean.forc /) s
2015 4080 mt 
(rean.coef\)) s
6 w
gs 68 4312 5687 1595 rc
1 sg
0 1594 0 0 -5686 0 0 0 0 -1594 0 0 5686 0 68 5906 
8 MP
PP
gr

1 sg
33 w
0 sg
0 1594 -5686 0 0 -1594 5686 0 68 5906 5 MP stroke
gs 68 4312 5687 1595 rc
c8
0 0 0 -89 0 -86 0 -85 0 -83 0 -81 0 -80 0 -79 
0 0 -71 0 -72 0 -71 0 -71 0 -71 0 0 0 -71 79 
-71 0 -71 0 -71 0 0 0 0 80 0 81 0 83 0 85 
0 86 0 89 0 0 71 0 71 0 71 0 71 0 71 0 
71 0 71 0 72 0 71 0 920 5021 37 MP
PP
c9
0 0 0 -89 0 -86 0 -85 0 -83 0 -81 0 -80 0 -39 
-36 -40 -35 0 -72 0 -71 0 -71 0 -71 0 0 0 -71 79 
-71 0 -71 0 -71 0 0 0 0 80 0 81 0 83 0 85 
0 86 0 89 0 0 71 0 71 0 71 0 53 0 18 -44 
36 -45 35 -43 71 0 36 43 35 45 18 44 54 0 71 0 
920 5021 41 MP
PP
c8
0 0 71 -104 71 104 0 0 71 0 71 0 71 0 72 0 
71 0 0 0 0 -104 71 -101 71 0 0 0 0 -97 0 -94 
0 -92 0 -89 0 0 -71 0 -71 0 -71 0 -72 0 0 0 
-71 89 -71 0 -71 -89 0 0 0 0 -71 89 -71 -89 0 0 
0 0 0 89 0 92 0 94 0 97 0 101 0 104 0 0 
5185 4533 41 MP
PP
c9
0 0 71 -104 71 104 0 0 71 0 71 0 71 0 72 0 
71 0 0 0 0 -104 71 -101 71 0 0 0 0 -97 0 -94 
0 -92 0 -89 0 0 -71 0 -71 0 -71 0 -72 0 0 0 
-71 89 -71 0 -71 -89 0 0 0 0 -71 89 -71 -89 0 0 
0 0 0 89 0 92 0 94 0 97 0 101 0 104 0 0 
5185 4533 41 MP
PP
c10
0 0 71 -104 71 104 0 0 71 0 71 0 71 0 72 0 
71 0 0 0 0 -104 71 -101 71 0 0 0 0 -97 0 -94 
0 -92 0 -89 0 0 -71 0 -71 0 -71 0 -72 0 0 0 
-71 89 -71 0 -35 0 -36 16 -71 0 -71 30 0 46 0 47 
36 47 -36 12 0 85 0 101 0 104 0 0 5185 4533 39 MP
PP
0.878431 sg
0 0 71 -104 71 104 0 0 71 0 71 0 71 0 72 0 
71 0 0 0 0 -104 71 -101 71 0 0 0 0 -97 0 -94 
0 -92 0 -89 0 0 -71 0 -71 0 -71 0 -72 0 0 0 
-71 89 -59 0 -12 12 -71 34 -71 0 -53 46 53 71 18 23 
-18 16 -71 21 0 60 0 101 0 104 0 0 5185 4533 39 MP
PP
0 0 71 -104 71 104 0 0 71 0 71 0 71 0 72 0 
71 0 0 0 0 -104 71 -101 71 0 0 0 0 -97 0 -94 
0 -92 0 -89 0 0 -71 0 -71 0 -71 0 -72 0 0 0 
-71 89 -35 0 -36 35 -71 42 -71 0 -18 15 18 23 53 71 
-53 49 -71 12 0 36 0 101 0 104 0 0 5185 4533 39 MP
PP
c10
0 -81 0 -86 0 -75 -9 -10 9 -8 0 -75 0 -81 0 -72 
-12 -8 -59 -65 -9 -14 -63 0 -71 0 -71 0 -62 0 -9 8 
-71 71 -71 0 -71 0 -71 0 0 0 0 72 71 0 18 8 
18 81 -36 41 -36 42 -35 21 0 64 0 86 0 89 0 0 
71 0 71 0 71 0 18 0 -18 -44 -9 -45 -62 -76 -12 -10 
12 -22 53 -63 18 -42 36 42 35 42 71 32 71 2 9 9 
62 76 18 10 36 89 18 0 35 0 36 -8 920 5029 55 MP
PP
c11
0 0 71 -104 71 104 0 0 71 0 71 0 71 0 72 0 
71 0 0 0 0 -104 71 -101 71 0 0 0 0 -97 0 -94 
0 -92 0 -89 0 0 -71 0 -71 0 -71 0 -72 0 0 0 
-71 89 -11 0 -60 58 -53 34 0 94 -18 24 -71 57 -71 4 
0 12 0 101 0 104 0 0 5185 4533 37 MP
PP
c12
0 0 71 -104 71 104 0 0 71 0 71 0 71 0 72 0 
71 0 0 0 0 -104 71 -101 71 0 0 0 0 -97 0 -94 
0 -92 0 -89 0 0 -71 0 -71 0 -71 0 -72 0 0 0 
-35 89 -36 46 -71 34 -17 12 0 94 -54 73 -35 24 -36 51 
-71 0 0 50 0 104 0 0 5185 4533 37 MP
PP
0.878431 sg
0 -63 0 -86 0 -53 -27 -32 27 -25 0 -58 0 -81 0 -56 
-36 -24 -35 -39 -27 -40 -45 0 -71 0 -71 0 -44 0 -27 24 
-71 55 -71 0 -71 0 -71 0 0 0 0 56 71 0 53 24 
18 40 36 -40 35 -40 9 40 0 81 62 73 12 10 59 53 
71 6 27 26 44 54 54 32 18 45 71 18 920 5047 39 MP
PP
0 -45 0 -86 0 -32 -45 -53 45 -42 0 -41 0 -81 0 -40 
-60 -40 -11 -13 -45 -66 -27 0 -71 0 -71 0 -26 0 -45 40 
-59 39 15 80 0 81 44 52 36 31 35 32 71 10 45 43 
26 32 72 40 11 14 60 45 920 5065 29 MP
PP
c11
0 -27 0 -86 0 -11 -63 -74 63 -58 0 -25 0 -81 0 -24 
-71 -36 -36 -20 -27 -79 -9 0 -71 0 -71 0 -9 0 -62 55 
-35 24 9 80 0 81 26 31 59 52 12 10 71 15 36 -25 
-14 -83 49 -71 63 71 -9 83 -54 63 -8 22 8 10 72 33 
35 43 36 27 920 5083 35 MP
PP
c13
72 0 35 47 0 97 36 51 71 -51 71 0 0 0 0 -48 
-36 -49 36 -47 0 -47 0 -92 0 -89 0 0 -36 0 -35 45 
-36 -45 -35 0 -71 0 -36 0 0 89 -36 46 -35 46 35 47 
4830 4882 25 MP
PP
c12
12 -8 -5 -83 29 -81 0 -80 0 -79 -36 0 -35 0 -36 20 
-71 51 -12 8 3 80 0 81 9 10 71 52 36 21 35 8 
1134 5273 17 MP
PP
0.878431 sg
36 0 8 -89 -44 -54 -35 -32 -36 -64 -71 42 0 22 0 86 
0 89 0 0 71 0 71 0 1418 5021 13 MP
PP
27 -67 -27 -32 -59 -54 -12 -22 -36 22 -35 14 0 72 0 89 
0 0 71 0 62 0 9 -22 1418 5043 13 MP
PP
c11
9 -23 -9 -10 -71 -33 -71 0 0 43 0 89 0 0 71 0 
44 0 27 -66 1418 5087 11 MP
PP
c13
36 -21 0 -81 0 -80 -36 -20 -35 20 0 80 0 81 35 21 
1205 5343 9 MP
PP
71 0 0 0 0 -52 -36 -52 -35 -50 -36 50 0 104 36 0 
4758 4533 9 MP
PP
0.878431 sg
59 -66 -59 0 -71 0 -71 0 0 0 0 40 71 0 71 26 
1418 5459 9 MP
PP
c12
0 -8 0 -81 0 -8 -71 -12 -36 20 36 40 35 41 36 8 
920 5356 9 MP
PP
27 0 -27 -66 -36 -23 -35 -14 0 14 0 89 0 0 71 0 
1489 5021 9 MP
PP
0.878431 sg
-11 -21 -24 -83 35 -51 45 51 -27 83 -18 21 1063 5260 7 MP
PP
c11
36 -40 -36 0 -71 0 -71 0 0 0 0 24 71 0 71 16 
1418 5485 9 MP
PP
c13
71 0 36 0 -36 -52 -71 0 0 52 0 0 5043 4533 7 MP
PP
c10
59 -69 -59 -68 0 68 0 69 1560 5295 5 MP
PP
c13
36 -51 -36 -48 -35 48 35 51 4901 4687 5 MP
PP
9 0 -9 -22 -71 -49 0 71 0 0 71 0 1489 5021 7 MP
PP
c10
-21 -62 21 -31 27 31 -27 62 1063 5302 5 MP
PP
c12
35 -14 -35 -43 -36 43 36 14 991 5182 5 MP
PP
0.878431 sg
18 -21 -18 -42 -35 42 35 21 1418 5260 5 MP
PP
35 -41 -35 -41 0 41 0 41 1560 5323 5 MP
PP
c12
12 -13 -12 0 -71 0 -71 0 0 0 0 8 71 0 71 5 
1418 5512 9 MP
PP
/c14 { 0.329412 0.188235 0.019608 sr} bdef
c14
47 0 -47 -35 0 35 0 0 1560 5021 5 MP
PP
c12
0 -9 0 -43 -12 43 12 9 920 5101 5 MP
PP
c9
-7 -21 7 -10 9 10 -9 21 1063 5343 5 MP
PP
0.878431 sg
12 -14 -12 -14 0 14 0 14 1560 5350 5 MP
PP
c10
0 -45 0 0 0 0 0 45 5043 5065 5 MP
PP
c8
0 0 0 0 0 0 0 0 4545 4533 5 MP
PP
c9
0 0 0 0 0 0 0 0 4545 4533 5 MP
PP
c10
0 0 0 0 0 0 0 0 4545 4533 5 MP
PP
0.878431 sg
0 0 0 0 0 0 0 0 4545 4533 5 MP
PP
0 0 0 0 0 0 0 0 4545 4533 5 MP
PP
c11
0 0 0 0 0 0 0 0 4545 4533 5 MP
PP
c12
0 0 0 0 0 0 0 0 4545 4533 5 MP
PP
9 w
0 sg
-7 12 -12 0 -7 12 -7 10 -9 8 -8 15 -7 15 12 7 
10 12 7 13 16 5 14 2 15 8 12 10 11 13 0 32 
-2 8 7 3 5 -11 12 -7 9 -10 10 -10 14 -11 7 -12 
12 -3 16 3 15 0 9 -7 17 2 4 7 12 0 -9 16 
-3 15 3 15 7 10 7 -3 2 -12 10 -13 5 8 9 12 
-2 13 5 13 11 10 12 13 12 12 7 13 7 16 5 15 
12 5 -17 5 -7 13 -9 16 -10 -8 -9 -8 -12 6 -10 -11 
-9 -18 -12 -15 -5 -16 -7 -13 -19 -5 -12 -7 -11 -13 -15 -2 
-9 -11 -14 3 -12 -8 -17 8 -12 5 -14 5 -14 0 -9 -10 
-3 -13 -5 -15 -19 -3 -16 -2 -17 -5 -14 -3 -10 0 5754 5747 80 MP stroke
1 7 -3 15 0 10 10 12 0 17 9 5 12 8 10 7 
7 15 2 10 -2 13 9 10 7 15 7 13 7 15 5 13 
10 15 2 12 7 11 3 12 9 11 9 12 7 13 3 13 
7 13 -7 5 -5 -13 -7 -15 -7 -10 -5 -10 -9 -11 -12 -10 
-7 5 0 13 -7 18 -10 18 0 -16 5 -15 5 -15 -15 0 
-9 -13 -7 -13 -9 -15 -10 -15 -10 -11 -9 -15 -5 -15 -7 -15 
-14 -8 -12 -10 -9 -15 -7 -15 -3 -15 3 -9 -3 -13 -2 -17 
-10 -10 -5 -10 -18 -5 -3 -2 5197 5906 61 MP stroke
19 -7 17 -23 23 -19 24 -23 24 -18 11 -23 -2 -22 -12 -21 
10 -22 0 -14 -21 -11 -15 -11 -26 -7 -26 3 -26 8 -26 7 
-26 7 -33 0 -21 -18 -19 4 -12 -18 28 7 24 -14 12 -10 
31 0 25 6 27 -3 23 -3 19 -11 0 -18 -7 -17 -16 -3 
0 -41 14 -11 16 4 10 14 14 10 21 -4 10 -20 9 -14 
0 -23 -2 -20 9 -20 22 -10 7 -16 14 -7 17 0 9 20 
24 -4 23 -6 19 -13 24 -3 24 -10 14 3 17 7 -12 6 
9 13 12 -10 19 -3 12 -6 14 -10 17 0 -5 13 26 10 
0 9 16 10 -9 20 -12 20 -19 7 0 13 17 0 0 14 
-7 17 0 13 19 -3 11 -14 22 -3 12 -10 5 -14 0 -20 
-3 -17 -14 -10 0 -19 -10 -13 10 -7 -10 -10 12 -10 3 -12 
14 6 19 0 9 -10 26 0 17 -6 0 -16 -12 -3 0 -10 
12 -9 12 6 0 19 9 -3 5 -16 7 -13 10 -12 12 -13 
16 -6 19 -10 17 -6 4 -12 3 -16 12 -6 14 -3 11 -6 
5 -16 17 3 14 -3 7 16 17 0 -10 -19 -4 -21 16 0 
19 -3 10 12 19 -3 14 -6 16 -3 -2 -18 -12 -7 -14 0 
-17 -9 -19 -3 -4 -6 -12 -12 2 -9 -7 -8 -14 -9 -7 -15 
2 -21 3 -20 2 -15 5 -20 7 -9 14 -3 16 3 24 3 
24 -6 19 6 21 3 21 -3 19 0 22 9 9 -15 17 -3 
7 -8 -12 -20 2 -14 -2 -12 -5 -17 3 -14 4 -17 3 -19 
9 -12 3 -16 -8 -11 -11 0 2 -17 0 -16 5 -14 -17 3 
-14 -3 -12 6 -12 0 -14 -8 -5 -9 -9 -16 -14 -5 -15 13 
-14 6 -16 2 -17 0 -17 0 -16 0 -10 14 -14 17 -14 0 
-5 13 -9 11 -17 11 14 11 3 14 -10 14 -14 17 -14 20 
-14 5 -17 6 -17 11 -14 9 3 20 2 17 -16 8 -12 9 
-17 -6 -19 -3 -16 -8 -17 3 -12 11 -17 9 -16 6 -7 11 
-12 6 -14 -3 -10 -6 -16 -3 -3 -17 -7 -14 -14 -15 -2 -11 
-15 0 -14 -14 -12 -14 -14 -9 -19 0 -12 -11 -12 -9 -9 -3 
-7 -13 -19 -6 -2 -11 -8 -14 -2 -14 7 -8 5 -14 0 -8 
-10 0 -4 8 -10 8 0 14 -14 6 0 13 14 9 -5 17 
-7 11 -11 -6 -15 -3 -2 -11 -10 -3 -4 12 14 13 14 9 
14 8 17 9 14 6 -7 11 24 0 16 8 14 9 8 8 
2 15 7 14 14 9 12 9 12 11 2 12 -4 12 7 8 
-3 12 -11 0 -15 9 -14 -3 5 -9 -3 -12 -7 -9 -9 6 
-3 12 -18 -12 -3 -14 -7 -9 0 -12 -16 -8 -8 -9 -16 -3 
-21 -14 -17 -15 -17 -8 -14 -11 -14 -9 2 -14 3 -20 0 -17 
-12 -8 -10 -14 -7 -11 -9 -17 -12 -14 -21 -2 -22 2 -9 -11 
-17 -2 -14 -11 0 19 4730 5342 300 MP stroke
-17 -6 12 6 3 11 11 6 10 8 5 11 9 11 10 14 
-3 19 -14 -13 -14 0 -5 8 7 8 -14 0 -7 9 -14 -3 
-12 3 -17 -3 -9 -11 -14 2 11 -11 0 -8 -11 11 -15 11 
-9 9 -22 3 -18 0 -17 -12 14 -3 -2 -8 16 0 19 0 
17 0 17 0 11 -11 5 -20 -23 3 4 -8 -2 -19 -5 -9 
7 -3 10 9 2 -11 -14 -6 -12 -5 2 -11 -12 -9 10 -10 
-14 0 -15 0 5 -9 -16 0 -19 -13 -14 -5 -22 8 -5 13 
-16 -3 -21 -8 -8 -10 -14 -6 -12 6 -11 0 -15 10 -12 11 
-19 -8 -9 0 -14 11 -2 -8 9 -11 -5 -11 5 -11 0 -21 
-2 -16 9 -14 7 -18 7 -16 5 -16 5 -16 9 -16 10 -10 
21 -3 16 -2 10 8 5 -11 12 5 -3 11 19 2 17 -2 
16 -8 15 -8 14 -3 16 8 17 0 14 6 12 5 17 2 
16 3 17 -3 7 14 17 0 16 5 17 2 2 13 17 6 
19 2 16 -2 17 -6 16 -13 8 -10 -5 -11 -3 -13 5 -13 
10 -7 11 -6 15 3 14 10 19 11 23 5 17 3 14 7 
7 8 0 16 17 5 16 8 17 3 22 2 18 0 15 6 
16 8 5 13 12 -3 12 6 2 13 -9 8 -12 11 -7 13 
2 13 10 6 4 19 -9 5 -7 14 19 -8 7 16 14 3 
14 -3 12 -8 14 -3 21 6 12 -6 22 6 12 -9 14 -2 
9 5 17 3 16 0 12 -3 14 0 14 -5 20 -3 21 -3 
14 -8 14 -11 15 -2 14 -3 7 -11 19 -8 14 -3 17 8 
12 -2 18 0 12 -3 19 11 7 11 15 -3 7 -16 4 -14 
7 -13 7 -13 17 -11 17 -5 14 -8 9 -14 12 -10 0 -11 
7 -13 10 -8 0 -26 -7 -10 7 -18 9 -13 12 -13 17 -8 
9 -13 19 -7 22 -3 9 -13 5 -15 7 -10 14 -8 7 -7 
5 -16 5 -12 7 -18 12 -13 9 -12 7 -12 7 -21 7 -12 
10 -8 2 -14 3 -15 -12 -10 -12 -13 0 -9 3588 5906 215 MP stroke
6 -3 19 -27 17 -19 16 -19 17 11 12 -19 14 -14 28 -4 
19 -19 19 -14 21 -15 -9 -14 12 -15 -5 -18 -2 -18 -14 -17 
9 -15 -5 -14 -21 4 14 -14 3 -18 -12 -10 -24 -10 -24 -4 
-23 11 -15 13 -21 18 -14 0 -9 14 -15 -11 -7 -24 -9 -21 
-10 -23 -9 -21 -17 -17 7 -13 -9 -17 0 -13 -19 0 -17 0 
2 13 -14 17 -19 0 -16 0 -12 23 -5 24 -5 17 0 21 
-4 13 -21 15 -22 10 10 7 -17 10 -7 11 7 14 19 14 
19 15 2 18 -4 21 -3 22 -9 11 -19 23 -22 14 -18 12 
-24 11 -10 15 -19 15 19 12 -10 11 4655 4312 70 MP stroke
-12 -19 33 4 24 8 18 7 38 0 6 -7 -22 -19 -21 0 
0 -23 35 0 29 19 31 11 0 19 5033 4312 14 MP stroke
-9 6 -5 -21 -23 -11 -22 -18 -19 -13 -21 -11 -9 -20 -19 -17 
-10 -21 -12 -23 0 27 7 24 0 20 19 14 -14 0 -5 17 
-9 -17 2 -14 -7 -20 0 -18 -14 11 -7 13 -10 -13 -12 -14 
24 7 14 -14 -4 -20 -14 3 0 -16 -8 -14 -9 -10 -17 -10 
-12 -16 0 23 15 23 11 17 -14 -7 -14 0 2 -13 -9 -17 
-12 -13 -16 -10 -20 7 10 -20 -7 -9 17 -10 -12 -20 -17 -9 
-16 -23 -22 -9 -7 -19 -12 -13 0 -12 -21 -13 -21 -6 -22 -9 
-16 -13 -17 -12 -16 -10 -17 10 0 -19 -12 -9 -9 -15 4 -6 
-9 -15 7 -19 2 7 12 -7 -12 16 17 9 19 0 24 9 
2 -9 -5 -9 -7 -16 -7 -18 -2 -11 -3 -13 -21 -5 21 0 
0 -12 -2 -15 5 -15 0 -17 2 -18 5 -20 7 -20 -2 -17 
-8 -11 -4 -17 2 -17 7 -17 0 -9 -9 -8 -7 -11 0 -12 
-3 -13 -9 -11 -12 -9 2 -11 -14 -2 0 8 -9 -3 4 -5 
-7 -14 12 8 -2 -14 -7 -10 -10 0 0 -14 2 -8 -14 -11 
-9 -14 -15 -16 0 -16 -21 -5 -16 -5 -15 -6 -9 0 -3 -10 
-9 0 -14 -11 -7 -13 -5 -16 -9 -16 -5 -13 -7 -10 0 -8 
-10 -8 0 -13 -7 -3 -2 -18 -14 -5 -15 -13 -9 -10 -10 -10 
0 -13 12 -8 17 2 -14 -10 -5 -10 -10 -5 -12 -8 -11 0 
-10 -10 -14 -7 -7 -16 0 -15 7 -10 -19 -8 -12 -10 -12 -12 
-14 -10 -9 -20 -17 15 9 12 12 15 12 0 7 13 -4 5 
9 10 0 10 9 15 5 16 14 15 10 15 12 10 5 16 
9 13 12 13 9 12 12 8 7 11 -2 13 5 13 2 13 
-2 10 -17 -8 -10 3 -9 -8 -12 -5 0 -13 -7 -16 -2 -10 
-10 -13 -7 -16 -14 -15 -14 -15 -17 -3 0 -15 -16 -13 -8 -10 
-7 0 -7 -10 5 -11 0 -7 -12 -8 -19 -7 -9 -18 -12 -10 
-12 -10 -12 -15 -9 -10 -12 -13 -10 -9 -4 -20 -10 -8 0 -10 
10 -10 -5 -7 9 -8 -6 -9 1050 5906 213 MP stroke
3 5 9 9 7 10 5 13 -5 10 14 10 5 15 -5 12 
0 45 -5 15 -4 15 -7 13 2 13 0 15 5 15 -3 15 
-9 11 -14 10 -14 10 -15 3 -9 7 -10 8 7 13 -9 5 
0 -13 -14 8 -12 3 -17 2 -14 -5 -14 -3 -12 8 -14 -10 
-2 -10 -15 -3 -16 3 -10 5 -9 -3 -7 -8 -5 6 14 10 
0 5 -7 5 -2 8 12 0 11 -3 10 3 -7 13 -14 -8 
-15 8 -12 0 -14 -2 -7 7 -5 -10 -14 0 -14 3 -14 2 
-10 -8 -14 -5 -5 -13 -14 3 -12 7 -14 3 -12 -10 -12 -18 
-7 -3 -4 -16 2 -12 0 -11 -9 3 4 -15 -2 -11 -10 -10 
-7 -12 -7 -16 -12 -10 -5 -12 -11 2 -7 5 -7 15 -3 18 
0 18 7 18 7 18 0 10 10 15 4 16 8 15 2 16 
2 16 -7 15 -7 16 -14 13 -14 8 -15 11 -9 10 -7 11 
-14 8 -12 3 -12 10 -12 11 -17 3 -7 8 15 0 -15 10 
-9 0 -5 8 0 11 12 0 14 0 -12 6 -9 3 -7 -3 
-7 -11 7 11 2 13 5 11 12 11 0 11 -3 14 17 11 
-14 -3 2 11 2 17 -4 10 -12 6 5 -11 0 -11 4 -14 
-11 -5 2 -9 -9 0 4 -10 5 -17 -7 3 -5 16 -9 14 
-7 8 11 20 5 16 -9 -6 -7 -10 -15 10 -9 17 -5 17 
10 6 -10 11 -14 8 -14 6 -15 0 -14 0 -14 6 -5 11 
-7 -8 -12 5 0 -5 -19 5 0 12 0 -9 15 0 4 14 
10 6 -7 8 2 9 -7 12 -9 11 0 6 -15 6 -16 5 
-10 15 -7 -6 -16 6 -15 6 -14 8 0 12 -21 0 -19 6 
-22 12 3 -12 -19 3 19 -12 12 -5 16 -12 8 -15 -5 -14 
-15 -9 -14 12 -14 11 -9 12 -15 0 -19 9 -28 8 -24 6 
-4 12 -17 6 -17 12 19 11 -2 18 7 6 10 -15 14 -14 
0 -15 14 3 16 -6 19 3 22 12 16 6 10 17 2 21 
-5 15 24 -6 19 18 -28 0 -15 7 -16 9 0 12 9 9 
19 6 22 -3 21 -3 19 -9 17 -6 19 -9 16 -13 12 -14 
12 -13 12 -12 19 -6 -12 13 -10 11 -12 12 -9 13 -12 15 
-16 12 -19 15 -20 0 -4 16 -12 12 -21 6 -17 0 -19 0 
-21 3 -17 -3 -16 0 -19 0 -14 -6 -22 3 -26 0 -14 13 
-12 12 -12 13 -24 9 -28 3 -19 13 -14 9 9 26 -4 16 
19 19 21 0 2 16 29 4 -24 13 14 9 26 4 10 13 
30 3 5 17 24 10 12 13 0 20 -12 14 14 10 0 14 
14 13 15 21 11 21 17 21 14 21 10 14 14 -14 12 -11 
-10 -13 12 -18 22 -11 9 -13 28 -11 19 24 17 4 14 17 
0 14 -2 21 7 18 -5 18 22 4 21 0 21 11 -7 14 
21 11 19 15 22 11 1953 4428 300 MP stroke
33 -8 19 0 26 8 28 3 19 -11 0 -18 -16 -11 7 -18 
9 -18 -14 -11 -5 -21 0 -18 15 -17 18 -4 3 -14 -17 -13 
-16 -7 -10 -24 -5 -17 -7 -24 0 -27 15 -17 21 -16 21 -13 
21 -10 -9 -16 -7 -17 -3 -22 0 -19 -11 -20 16 -19 24 -12 
-2 -13 19 13 9 16 14 12 12 16 19 16 -5 19 0 16 
8 17 -8 29 24 10 28 0 29 0 28 17 24 6 19 7 
16 17 27 13 28 7 28 14 22 -7 16 -7 0 14 10 17 
0 17 12 24 19 3 19 -3 9 17 0 21 -2 25 -7 18 
-7 18 -15 22 -14 18 -19 7 0 22 -26 7 -29 8 3 22 
-19 27 -43 0 -21 22 -21 23 1574 4312 77 MP stroke
-5 14 -12 13 0 12 7 5 14 0 12 3 14 -3 15 -5 
14 -2 14 -3 9 -5 3 -17 2 -12 1475 5906 14 MP stroke
-1 -3 0 -27 -19 -15 -3 -19 -26 -34 -7 -15 -16 -25 -15 -22 
-28 -25 -38 -4 -26 -7 -17 -18 -35 -14 -19 7 -12 21 -2 22 
-7 22 -15 21 12 30 -26 15 -21 22 -7 23 -3 22 13 23 
2886 4312 25 MP stroke
2233 4312 PD
7 -15 -16 -19 -43 0 -21 11 -31 -3 -28 -12 -26 -7 -24 -12 
0 -19 -24 -14 -21 -8 -29 -7 -9 -11 -26 -11 -26 -8 -28 -3 
0 18 21 15 23 18 22 15 12 19 -34 -11 -26 -15 -30 -15 
-36 0 -7 30 21 19 3 22 19 16 12 7 2166 4312 31 MP stroke
-14 -3 -17 12 -23 -6 -5 15 -19 4 -22 -6 -18 9 -22 -3 
-21 0 -24 6 -14 16 24 3 -12 16 -17 9 -7 16 7 13 
17 6 12 0 9 -9 7 6 -9 9 4 13 8 10 4 13 
8 16 19 7 9 16 5 20 9 13 19 7 19 0 -14 10 
-12 13 -10 17 -7 14 3 14 23 0 20 0 21 -4 -10 17 
-23 14 4 10 26 -3 26 0 10 -17 12 -14 2 -13 14 6 
10 -6 -12 -11 -19 0 12 -20 0 -14 -17 7 3 -17 19 -13 
-17 0 0 -13 -14 16 -12 -13 12 -23 -10 -13 -21 6 -21 7 
9 -16 -12 -13 -14 0 10 -17 0 -16 16 -3 26 3 -5 -10 
10 -12 -17 0 0 -19 15 -7 16 -9 -5 -10 -19 3 -14 -3 
-14 -9 -19 9 10 -15 14 0 16 0 12 -16 14 -12 17 -13 
3889 4926 89 MP stroke
-9 14 -9 18 -7 15 -19 -6 -8 12 -14 2 3 9 -17 6 
-19 3 -21 15 -15 -2 -18 0 -15 0 -16 -13 -15 -14 -4 -18 
-3 -15 -9 -9 16 0 17 -3 17 9 21 -3 17 -12 -8 -17 
15 3 19 0 2 -9 -17 -6 -11 -17 -5 -17 -14 -12 -19 0 
-5 -9 10 -14 -3 -14 -9 -17 2 14 -9 12 -20 2 -7 -14 
-11 -11 -12 -11 16 -12 19 0 17 6 7 -17 -2 -11 -22 0 
3 -14 -5 -14 -12 -3 7 -19 0 -22 -7 -22 2 -11 22 3 
21 -6 24 -5 16 5 19 11 5 8 19 3 14 6 3 16 
2 17 2 19 -12 0 -2 11 -5 17 -9 11 -14 3 16 5 
14 15 5 14 10 14 12 8 11 15 12 17 0 26 10 17 
11 6 0 12 5375 5118 83 MP stroke
-11 11 -3 17 -16 3 -3 18 0 14 -9 12 -14 5 -5 12 
2 18 -16 6 -12 12 -7 14 -17 0 -19 0 7 -11 -21 -9 
-17 6 -16 -9 19 -6 11 -15 -16 -6 -9 -6 4 -14 -9 -9 
-14 6 -10 9 -14 2 -14 9 -14 -3 -17 3 -10 0 -7 -11 
-12 -6 -9 -6 -14 -3 -14 -9 -15 -14 -9 -9 -14 -8 -19 -9 
-7 -6 -5 -14 -7 -11 2 -12 14 -8 17 -12 16 -2 17 2 
17 -2 16 -3 14 5 12 -2 14 8 12 0 10 14 19 0 
9 12 14 -3 20 0 16 3 19 -6 14 -9 14 -8 15 -9 
16 3 19 -3 19 3 17 6 14 11 5 14 11 15 4830 5196 72 MP stroke
-14 2 2 5 7 0 10 10 14 2 10 -2 -3 12 12 3 
14 2 14 10 12 5 12 8 14 7 14 5 15 0 9 10 
12 5 12 5 14 0 14 5 15 0 14 -5 14 -2 14 -3 
14 -8 10 -7 0 -10 14 -5 1636 5852 29 MP stroke
-19 0 -5 10 -16 0 -10 8 -9 7 -14 -3 -19 -2 14 -5 
-10 -8 -14 -2 -21 0 -9 -7 -12 -3 -15 -5 -14 3 -5 -5 
-2 -13 -14 -10 -21 0 -5 -10 9 -7 3 -2 1844 5906 23 MP stroke
-9 14 -10 15 -9 12 -7 0 -29 6 -14 3 -12 -3 -24 0 
5 12 -14 0 -19 -3 -19 0 -19 -3 -26 -6 -14 -18 -14 -21 
9 -11 24 9 16 14 -4 -12 4 -14 7 -17 0 -21 20 -8 
7 17 7 17 14 -5 12 -12 0 12 -15 17 0 20 7 12 
15 6 12 6 14 0 9 -18 22 -8 4 -15 7 -15 0 -14 
-4 -15 -3 -17 5 -20 7 -11 12 -6 12 0 9 17 0 20 
3 15 -5 14 -5 20 -2 12 -7 15 21 -12 1546 5124 55 MP stroke
-4 -16 -22 7 -24 -4 -21 0 -21 0 -19 -3 0 -11 14 -9 
-17 -4 -14 18 -12 4 -14 -4 7 -18 -14 9 0 -14 -17 0 
-4 18 -5 18 14 -4 -7 18 9 -2 10 -16 7 6 -5 12 
-21 19 21 -3 8 12 -15 15 15 6 19 0 18 -3 17 13 
-12 9 17 6 21 -12 -9 18 -10 12 -12 19 -7 19 14 0 
19 -9 10 -13 7 -16 12 -18 7 -22 14 -18 10 -15 -10 -3 
14 -12 12 -9 2361 5005 51 MP stroke
26 -11 -41 0 -16 -23 21 -19 -50 0 -28 -11 -36 -8 -30 15 
-26 4 -27 15 -37 12 -24 23 0 3 3659 4312 14 MP stroke
-14 11 -17 12 -14 13 -19 5 -11 9 -10 13 -19 9 -10 12 
-21 -9 -24 0 -9 -18 -12 -12 -21 0 0 -13 -10 -9 3 -14 
-7 -15 14 0 0 8 23 -2 24 -9 19 0 12 14 19 -3 
0 12 -19 13 14 0 22 -16 21 -9 21 -8 12 15 19 -9 
14 0 1430 5050 34 MP stroke
-7 -15 -14 -10 -24 3 -21 7 -22 12 -26 3 -4 16 -5 16 
2 20 5 16 -19 13 5 19 9 13 19 4 22 3 21 -7 
12 -16 -14 -6 9 -10 16 0 19 0 8 -13 -15 -7 15 -9 
-15 -13 -14 0 14 -19 7 -20 17 0 3754 4848 30 MP stroke
-34 0 -14 11 -2 14 -21 4 16 15 7 11 -33 0 -10 -11 
-21 -8 -19 4 -14 15 -9 11 -24 7 -21 0 -29 -7 33 0 
-9 -11 31 -4 23 -11 12 -22 22 -7 23 -7 5 -15 14 4 
24 -7 21 0 29 14 721 4483 28 MP stroke
5 -2 5 6 19 0 19 0 0 20 5 9 0 17 5701 5110 8 MP stroke
-12 15 -3 15 -9 3 -14 0 -7 14 -8 -4 5754 5067 7 MP stroke
42 0 544 4312 2 MP stroke
15 -7 -5 7 613 4312 3 MP stroke
-27 0 -19 -12 0 -13 7 -10 -4 -22 -14 7 -15 -4 5 -15 
-7 -13 -9 -9 -8 -16 22 -3 -3 13 10 12 0 13 19 15 
16 10 0 19 -7 9 12 10 12 -10 10 19 1171 4813 23 MP stroke
-17 6 -12 12 -18 9 -22 2 -21 12 -24 4 -16 2 -10 -6 
17 -3 16 -11 14 0 -7 -9 -9 -6 14 -15 12 -18 19 3 
17 0 16 -6 14 6 7 12 10 6 5026 5077 22 MP stroke
3 -15 -7 -27 29 -18 1569 4372 4 MP stroke
-39 0 -2 -23 -26 4 -19 19 -17 15 -21 0 -23 -12 -24 -15 
-26 19 28 11 14 19 22 16 16 7 1686 4312 14 MP stroke
-7 16 -17 0 -16 -3 -8 -19 -9 -19 -7 -20 -12 -22 -12 -15 
8 -25 16 -7 0 16 -2 16 -3 15 14 -6 3 19 21 0 
0 13 14 9 8 19 9 13 1226 4803 21 MP stroke
-17 -19 -19 -9 -19 -9 3 -10 -17 -6 -12 -9 -14 0 0 -9 
-21 -9 -17 -6 -14 6 14 15 22 15 16 16 14 18 22 7 
26 5 21 10 12 -6 399 4904 20 MP stroke
-12 9 -16 0 -19 8 -10 11 -16 3 -12 -3 -9 9 -20 0 
-19 0 12 -11 17 -9 19 -8 16 -6 17 -9 17 -2 16 0 
19 8 1674 5222 18 MP stroke
-10 -14 -9 0 -19 -11 -15 -3 -9 -11 -19 -2 -5 11 5 10 
-5 17 -9 14 19 -6 21 -3 17 0 12 6 14 0 12 -8 
4398 5350 17 MP stroke
-4 19 -19 0 0 14 14 4 9 11 -21 -7 -16 -11 2 -19 
-7 -14 -12 -11 0 -15 12 -7 14 0 0 18 19 8 9 10 
5029 4458 17 MP stroke
-14 -11 2 -13 -5 -9 -11 0 -8 -10 -9 10 -12 -10 7 19 
5 13 -14 -3 9 17 14 8 15 6 14 -6 7 -11 4647 5356 16 MP stroke
0 -12 -7 -13 0 -17 2 -17 -11 -11 -10 11 -12 0 -5 14 
-2 14 0 14 2 14 12 14 15 -11 9 -3 7 3 4280 5250 16 MP stroke
-10 15 -17 6 -18 3 -15 2 -19 -2 -9 8 -17 6 5 -12 
-2 -17 19 -6 16 -3 17 3 16 0 19 -5 15 2 1780 5171 16 MP stroke
-14 0 -14 -3 -10 -6 -19 1 -19 2 -2 9 14 -6 0 8 
17 -1 12 4 14 -3 2 6 17 2 2 -13 4716 5440 15 MP stroke
-4 11 -17 11 -19 0 -12 -11 -19 -7 -9 -14 0 -15 9 -14 
22 0 7 -10 12 0 4 17 10 18 16 14 4901 4487 15 MP stroke
-4 -11 -17 -3 -14 4 -5 7 -12 0 5 8 -17 13 17 -5 
14 -3 12 -2 7 -6 14 -2 4965 5445 13 MP stroke
-3 -23 -14 -10 -7 -19 -12 -16 -23 -16 9 19 14 10 -4 12 
9 20 -9 19 18 0 22 4 264 4770 13 MP stroke
-16 14 -15 10 -14 18 -14 0 -17 -10 -16 0 -17 -8 24 -7 
28 0 22 -6 9 -15 26 4 885 4589 13 MP stroke
-9 -9 -17 -9 -24 -9 0 12 -14 9 21 -3 17 0 17 5 
2 13 7 -9 2221 5050 11 MP stroke
-19 -10 -7 -9 -17 -6 -19 -3 -16 0 9 12 14 6 17 7 
19 3 19 0 2216 4935 11 MP stroke
-10 14 -7 13 10 18 -10 13 -12 17 -14 -20 17 -10 0 -35 
26 -10 1117 4685 10 MP stroke
2 -15 -2 -11 -14 -14 -5 17 -5 11 2 12 0 17 8 -12 
14 -5 4294 5196 10 MP stroke
-2 -10 7 -8 -14 -12 -8 -15 -4 10 7 10 0 10 7 15 
7 0 1823 5752 10 MP stroke
-12 5 0 18 -9 3 -2 8 7 -3 4 -8 12 -15 0 -8 
3643 5663 9 MP stroke
-5 -20 -16 -3 -17 6 7 8 -11 9 4 16 19 -8 19 -8 
4363 4710 9 MP stroke
-17 3 19 -16 -17 0 -9 10 0 -17 -7 23 7 10 24 -13 
1773 4688 9 MP stroke
-19 3 -19 3 -19 9 10 5 14 -5 14 -3 17 -3 2 -9 
1944 5262 9 MP stroke
-7 -9 -21 6 -6 -4 4 6 8 0 14 -5 8 6 1802 5705 8 MP stroke
-3 -5 2 -4 -6 -1 -9 3 4 9 6 4 6 -6 1686 5854 8 MP stroke
-5 -17 -14 8 0 17 -12 9 22 -6 9 -11 4562 4637 7 MP stroke
-24 3 -26 19 0 3 19 0 21 -7 10 -18 1669 4439 7 MP stroke
-3 -8 -10 2 1 8 9 3 3 -5 3599 5665 6 MP stroke
-7 -10 -7 5 -5 12 9 -6 10 -1 3569 5655 6 MP stroke
-13 -3 -10 -8 -10 14 14 8 19 -11 4112 5295 6 MP stroke
-10 -10 -14 9 -14 8 23 5 15 -12 4668 4603 6 MP stroke
-10 -10 -14 3 -7 7 14 3 17 -3 4360 4744 6 MP stroke
-9 -17 -18 0 -1 13 13 8 15 -4 4325 4719 6 MP stroke
-23 17 -7 21 23 -14 0 -14 7 -10 3842 4634 6 MP stroke
-17 -6 -19 -6 7 15 12 4 17 -7 1716 4816 6 MP stroke
3 -26 -12 -10 -12 18 -3 18 24 0 1771 4432 6 MP stroke
-14 0 -5 12 5 -7 9 2 5 -7 1953 5879 6 MP stroke
-18 -6 -15 -6 -5 15 17 -3 21 0 1686 5080 6 MP stroke
-3 -10 -9 7 -5 12 17 -9 4834 5407 5 MP stroke
-2 -7 -17 5 15 10 4 -8 4683 4580 5 MP stroke
-14 -4 -17 17 26 -3 5 -10 3837 4443 5 MP stroke
-9 -12 1 -15 -6 15 14 12 1842 5700 5 MP stroke
-7 -6 0 8 7 -2 4787 5307 4 MP stroke
-8 -10 0 18 8 -8 4004 4523 4 MP stroke
-17 16 5 -10 12 -6 1887 5443 4 MP stroke
-29 0 18 7 11 -7 1987 5857 4 MP stroke
-4 -19 -11 11 15 8 1934 5822 4 MP stroke
-17 -25 0 14 17 11 1866 5742 4 MP stroke
-19 0 19 0 3313 5354 3 MP stroke
-14 -5 14 5 3233 5329 3 MP stroke
0 -8 4787 5339 2 MP stroke
-15 -10 15 10 3955 4568 3 MP stroke
-14 3 14 -3 1722 5770 3 MP stroke
-11 -3 11 3 1969 5834 3 MP stroke
-13 -24 13 24 1907 5797 3 MP stroke
-11 -15 11 15 1896 5767 3 MP stroke
gr

9 w
2015 5533 mt 
(gcm.forc /) s
2015 5817 mt 
(rean.coef\)) s
6 w
gs 68 6049 5687 1595 rc
1 sg
0 1594 0 0 -5686 0 0 0 0 -1594 0 0 5686 0 68 7643 
8 MP
PP
gr

1 sg
33 w
0 sg
0 1594 -5686 0 0 -1594 5686 0 68 7643 5 MP stroke
gs 68 6049 5687 1595 rc
/c15 { 0.301961 0.000000 0.294118 sr} bdef
c15
0 0 0 -89 0 -86 0 -85 0 -83 0 -81 0 -80 0 -79 
0 0 -71 0 -72 0 -71 0 -71 0 -71 0 -71 0 -71 0 
-71 0 -71 0 0 0 0 79 0 80 0 81 0 83 0 85 
0 86 0 89 0 0 71 0 71 0 71 0 71 0 71 0 
71 0 71 0 72 0 71 0 920 6758 37 MP
PP
c8
0 0 0 -89 0 -86 0 -85 0 -83 0 -81 0 -80 0 -79 
0 0 -71 0 -72 0 -71 0 -71 0 -71 0 -71 0 -71 0 
-71 0 -71 0 0 0 0 79 0 80 0 81 0 83 0 85 
0 86 0 45 35 44 36 0 71 0 71 0 71 0 71 0 
71 0 71 0 72 0 71 0 920 6758 37 MP
PP
c9
0 0 0 -89 0 -86 0 -85 0 -83 0 -81 0 -80 0 -79 
0 0 -71 0 -72 0 -71 0 -71 0 -71 0 -71 0 -71 0 
-71 0 -71 0 0 0 0 79 0 80 0 81 0 83 0 79 
5 6 0 86 66 83 5 6 66 0 71 0 71 0 71 0 
71 0 71 0 72 0 71 0 920 6758 37 MP
PP
c10
0 0 0 -89 0 -86 0 -85 0 -83 0 -81 0 -80 0 -79 
0 0 -71 0 -72 0 -71 0 -71 0 -71 0 -71 0 -71 0 
-71 0 -71 0 0 0 0 79 0 80 0 81 0 83 0 66 
15 19 0 86 56 70 15 19 56 0 71 0 71 0 71 0 
71 0 71 0 72 0 71 0 920 6758 37 MP
PP
0.878431 sg
0 0 0 -89 0 -86 0 -85 0 -83 0 -81 0 -80 0 -79 
0 0 -71 0 -72 0 -71 0 -71 0 -71 0 -71 0 -71 0 
-71 0 -71 0 0 0 0 79 0 80 0 81 0 83 0 54 
25 31 0 86 46 58 25 31 46 0 71 0 71 0 71 0 
71 0 71 0 72 0 71 0 920 6758 37 MP
PP
0 0 0 -89 0 -86 0 -85 0 -83 0 -81 0 -80 0 -79 
0 0 -71 0 -72 0 -71 0 -71 0 -71 0 -71 0 -71 0 
-71 0 -71 0 0 0 0 79 0 80 0 81 0 83 0 42 
35 43 0 86 36 45 36 44 35 0 71 0 71 0 71 0 
71 0 71 0 54 0 18 -14 35 14 36 0 920 6758 39 MP
PP
c15
71 0 71 0 71 0 71 0 71 0 72 0 71 0 0 0 
71 -104 71 104 0 0 0 0 0 -104 0 -101 0 -97 0 -94 
0 -92 0 -89 0 0 -71 0 -71 0 -71 0 -72 0 -71 0 
-71 0 -71 0 -71 0 -71 0 0 0 0 89 0 92 0 94 
0 97 0 101 0 104 0 0 5185 6270 37 MP
PP
c8
71 0 71 0 71 0 71 0 71 0 72 0 71 0 0 0 
71 -104 71 104 0 0 0 0 0 -104 0 -101 0 -97 0 -94 
0 -92 0 -89 0 0 -71 0 -71 0 -71 0 -72 0 -71 0 
-71 0 -71 0 -71 0 -71 0 0 0 0 89 0 92 0 94 
0 97 0 101 0 104 0 0 5185 6270 37 MP
PP
c11
0 -75 0 -86 0 -85 0 -83 0 -81 0 -80 0 -79 0 0 
-71 0 -72 0 -71 0 -71 0 -71 0 -71 0 -71 0 -71 0 
-71 0 0 0 0 79 0 80 0 81 0 83 0 30 46 55 
0 86 25 32 46 57 25 0 71 0 71 0 71 0 71 0 
71 0 18 0 54 -44 71 30 920 6772 37 MP
PP
c9
4 52 67 0 67 0 4 -52 71 0 36 52 35 0 71 0 
72 0 71 0 0 0 71 -104 71 104 0 0 0 0 0 -104 
0 -101 0 -97 0 -94 0 -92 0 -89 0 0 -71 0 -71 0 
-71 0 -72 0 -71 0 -71 0 -71 0 -71 0 -71 0 0 0 
0 89 0 92 0 94 0 97 0 101 0 52 5185 6322 39 MP
PP
c10
71 33 71 4 71 -12 18 25 53 78 36 26 35 0 72 0 
71 0 0 0 71 -104 71 104 0 0 0 0 0 -104 0 -101 
0 -97 0 -94 0 -92 0 -89 0 0 -71 0 -71 0 -71 0 
-72 0 -71 0 -71 0 -71 0 -71 0 -71 0 0 0 0 89 
0 69 18 23 -18 16 0 78 0 97 0 51 5185 6424 39 MP
PP
c12
0 -45 0 -86 0 -85 0 -62 -11 -21 -7 -81 18 -40 0 -40 
0 -79 0 0 -71 0 -72 0 -71 0 -71 0 -71 0 -71 0 
-71 0 -71 0 -71 0 0 0 0 79 0 80 0 81 0 83 
0 18 56 67 0 86 15 19 56 70 15 0 71 0 71 0 
71 0 71 0 36 0 -36 -14 -59 -75 59 -72 71 51 18 -65 
54 -56 63 56 -63 78 -36 8 36 15 71 30 920 6802 47 MP
PP
0.878431 sg
18 24 53 51 71 12 71 -38 18 -25 -18 -48 -12 -49 12 -23 
71 -5 54 28 17 24 72 57 71 4 9 12 -9 13 -71 12 
-72 51 -71 0 -17 25 17 26 71 26 12 52 60 0 71 0 
0 0 71 -104 71 104 0 0 0 0 0 -104 0 -101 0 -97 
0 -94 0 -92 0 -89 0 0 -71 0 -71 0 -71 0 -72 0 
-71 0 -71 0 -71 0 -71 0 -71 0 0 0 0 89 0 23 
53 69 -53 47 0 47 0 73 5185 6499 53 MP
PP
53 73 18 17 71 21 54 -38 -18 -97 35 -71 71 24 71 35 
18 12 54 49 71 12 26 36 -26 38 -71 38 -36 25 0 104 
36 0 71 0 0 0 71 -104 71 104 0 0 0 0 0 -104 
0 -101 0 -97 0 -94 0 -92 0 -89 0 0 -71 0 -71 0 
-71 0 -72 0 -71 0 -71 0 -71 0 -71 0 -71 0 0 0 
0 78 12 11 59 77 18 15 -18 47 -71 31 0 16 0 24 
5185 6548 49 MP
PP
c13
0 -42 0 -21 -31 -62 -23 -81 18 -80 36 -39 0 -40 0 0 
-71 0 -72 0 -35 0 -5 79 -31 60 -17 20 -39 81 -15 41 
-71 0 -71 -24 -35 -17 35 -41 36 -40 -36 -40 -71 0 -71 0 
-71 0 0 40 0 81 0 83 0 6 66 79 0 86 5 7 
66 82 5 0 36 0 35 -44 71 0 36 -45 0 -86 35 -43 
71 0 36 43 35 21 6 -21 66 -68 71 25 920 6976 47 MP
PP
c11
36 33 35 46 53 46 -17 94 0 97 35 13 18 -13 -6 -97 
24 -94 18 -92 17 -9 12 9 6 92 53 28 71 31 54 35 
18 16 71 21 44 60 -44 63 -54 38 -17 52 -12 52 12 0 
35 0 36 -26 71 -78 71 104 0 0 0 0 0 -104 0 -101 
0 -73 -36 -24 36 -16 0 -78 0 -92 0 -89 0 0 -71 0 
-71 0 -71 0 -72 0 -71 0 -71 0 -71 0 -71 0 -71 0 
0 0 0 56 5185 6791 51 MP
PP
c12
59 55 12 16 71 30 18 -46 53 -29 36 29 18 92 17 9 
71 26 72 36 35 23 36 12 35 -12 36 -23 71 -24 0 -47 
0 -92 0 -89 0 0 -71 0 -71 0 -71 0 -72 0 -71 0 
-71 0 -71 0 -71 0 -71 0 0 0 0 34 5185 6813 31 MP
PP
c13
71 60 71 -27 71 -5 60 49 11 46 36 46 35 12 72 11 
71 24 71 -24 71 -7 0 -16 0 -46 -71 0 -36 -46 36 -44 
71 0 0 -45 0 0 -71 0 -71 0 -71 0 -72 0 -71 0 
-71 0 -71 0 -71 0 -71 0 0 0 0 12 5185 6835 31 MP
PP
c14
29 -4 -9 -83 -20 -54 -72 0 -71 0 -28 54 28 55 71 0 
42 28 30 4 991 7014 11 MP
PP
c12
71 -26 71 89 0 -89 0 -101 0 -24 -71 -24 -9 48 -62 88 
-18 13 18 26 4687 6348 11 MP
PP
c13
57 -63 -57 0 -71 0 -71 0 -71 0 0 0 0 63 71 0 
71 0 71 0 1347 7278 11 MP
PP
c14
48 -56 -48 -33 -71 -22 -47 55 47 56 71 0 1347 6962 7 MP
PP
c11
-53 60 -18 40 -35 -40 0 -80 35 -39 71 0 11 39 -11 20 
1134 7242 9 MP
PP
c14
47 -61 0 -89 -47 0 -48 0 0 89 48 61 4758 6697 7 MP
PP
c9
-17 -25 -18 -97 35 -9 18 9 53 73 36 24 -36 25 -71 0 
4901 6450 9 MP
PP
c13
71 59 0 -59 0 -81 -71 0 -57 81 57 0 4616 6374 7 MP
PP
c14
29 -32 -29 0 -71 0 -71 0 -71 0 0 0 0 32 71 0 
71 0 71 0 1347 7309 11 MP
PP
c10
59 0 -59 -97 -58 97 58 0 5114 6270 5 MP
PP
0.878431 sg
-42 -60 42 -44 49 44 -49 60 991 6873 5 MP
PP
c14
71 40 48 -60 -48 0 -71 0 -47 0 47 20 4972 6827 7 MP
PP
71 30 0 -30 0 -40 -71 0 -29 40 29 0 4616 6374 7 MP
PP
0.878431 sg
50 0 -50 -83 -50 83 50 0 5114 6270 5 MP
PP
-35 -45 35 -43 54 43 -54 45 1134 6802 5 MP
PP
c14
48 -53 -48 -52 -20 52 20 53 1063 7209 5 MP
PP
0.878431 sg
42 0 -42 -69 -42 69 42 0 5114 6270 5 MP
PP
-30 -43 30 -31 35 31 -35 43 991 6890 5 MP
PP
c11
34 0 -34 -56 -33 56 33 0 5114 6270 5 MP
PP
c14
48 -36 -48 0 -47 0 47 36 5114 6811 5 MP
PP
c12
25 0 -25 -42 -25 42 25 0 5114 6270 5 MP
PP
c13
0 -15 0 -43 -36 43 36 15 920 6832 5 MP
PP
c10
-18 -26 18 -19 21 19 -21 26 991 6907 5 MP
PP
c13
17 0 -17 -28 -17 28 17 0 5114 6270 5 MP
PP
0.878431 sg
-11 -15 11 -14 18 14 -18 15 1134 6832 5 MP
PP
c14
9 0 -9 -14 -8 14 8 0 5114 6270 5 MP
PP
c9
-6 -8 6 -7 7 7 -7 8 991 6925 5 MP
PP
9 w
0 sg
-7 12 -12 0 -7 12 -7 10 -9 8 -8 15 -7 15 12 7 
10 12 7 13 16 5 14 2 15 8 12 10 11 13 0 32 
-2 8 7 3 5 -11 12 -7 9 -10 10 -10 14 -11 7 -12 
12 -3 16 3 15 0 9 -7 17 2 4 7 12 0 -9 16 
-3 15 3 15 7 10 7 -3 2 -12 10 -13 5 8 9 12 
-2 13 5 13 11 10 12 13 12 12 7 13 7 16 5 15 
12 5 -17 5 -7 13 -9 16 -10 -8 -9 -8 -12 6 -10 -11 
-9 -18 -12 -15 -5 -16 -7 -13 -19 -5 -12 -7 -11 -13 -15 -2 
-9 -11 -14 3 -12 -8 -17 8 -12 5 -14 5 -14 0 -9 -10 
-3 -13 -5 -15 -19 -3 -16 -2 -17 -5 -14 -3 -10 0 5754 7484 80 MP stroke
1 7 -3 15 0 10 10 12 0 17 9 5 12 8 10 7 
7 15 2 10 -2 13 9 10 7 15 7 13 7 15 5 13 
10 15 2 12 7 11 3 12 9 11 9 12 7 13 3 13 
7 13 -7 5 -5 -13 -7 -15 -7 -10 -5 -10 -9 -11 -12 -10 
-7 5 0 13 -7 18 -10 18 0 -16 5 -15 5 -15 -15 0 
-9 -13 -7 -13 -9 -15 -10 -15 -10 -11 -9 -15 -5 -15 -7 -15 
-14 -8 -12 -10 -9 -15 -7 -15 -3 -15 3 -9 -3 -13 -2 -17 
-10 -10 -5 -10 -18 -5 -3 -2 5197 7643 61 MP stroke
19 -7 17 -23 23 -19 24 -23 24 -18 11 -23 -2 -22 -12 -21 
10 -22 0 -14 -21 -11 -15 -11 -26 -7 -26 3 -26 8 -26 7 
-26 7 -33 0 -21 -18 -19 4 -12 -18 28 7 24 -14 12 -10 
31 0 25 6 27 -3 23 -3 19 -11 0 -18 -7 -17 -16 -3 
0 -41 14 -11 16 4 10 14 14 10 21 -4 10 -20 9 -14 
0 -23 -2 -20 9 -20 22 -10 7 -16 14 -7 17 0 9 20 
24 -4 23 -6 19 -13 24 -3 24 -10 14 3 17 7 -12 6 
9 13 12 -10 19 -3 12 -6 14 -10 17 0 -5 13 26 10 
0 9 16 10 -9 20 -12 20 -19 7 0 13 17 0 0 14 
-7 17 0 13 19 -3 11 -14 22 -3 12 -10 5 -14 0 -20 
-3 -17 -14 -10 0 -19 -10 -13 10 -7 -10 -10 12 -10 3 -12 
14 6 19 0 9 -10 26 0 17 -6 0 -16 -12 -3 0 -10 
12 -9 12 6 0 19 9 -3 5 -16 7 -13 10 -12 12 -13 
16 -6 19 -10 17 -6 4 -12 3 -16 12 -6 14 -3 11 -6 
5 -16 17 3 14 -3 7 16 17 0 -10 -19 -4 -21 16 0 
19 -3 10 12 19 -3 14 -6 16 -3 -2 -18 -12 -7 -14 0 
-17 -9 -19 -3 -4 -6 -12 -12 2 -9 -7 -8 -14 -9 -7 -15 
2 -21 3 -20 2 -15 5 -20 7 -9 14 -3 16 3 24 3 
24 -6 19 6 21 3 21 -3 19 0 22 9 9 -15 17 -3 
7 -8 -12 -20 2 -14 -2 -12 -5 -17 3 -14 4 -17 3 -19 
9 -12 3 -16 -8 -11 -11 0 2 -17 0 -16 5 -14 -17 3 
-14 -3 -12 6 -12 0 -14 -8 -5 -9 -9 -16 -14 -5 -15 13 
-14 6 -16 2 -17 0 -17 0 -16 0 -10 14 -14 17 -14 0 
-5 13 -9 11 -17 11 14 11 3 14 -10 14 -14 17 -14 20 
-14 5 -17 6 -17 11 -14 9 3 20 2 17 -16 8 -12 9 
-17 -6 -19 -3 -16 -8 -17 3 -12 11 -17 9 -16 6 -7 11 
-12 6 -14 -3 -10 -6 -16 -3 -3 -17 -7 -14 -14 -15 -2 -11 
-15 0 -14 -14 -12 -14 -14 -9 -19 0 -12 -11 -12 -9 -9 -3 
-7 -13 -19 -6 -2 -11 -8 -14 -2 -14 7 -8 5 -14 0 -8 
-10 0 -4 8 -10 8 0 14 -14 6 0 13 14 9 -5 17 
-7 11 -11 -6 -15 -3 -2 -11 -10 -3 -4 12 14 13 14 9 
14 8 17 9 14 6 -7 11 24 0 16 8 14 9 8 8 
2 15 7 14 14 9 12 9 12 11 2 12 -4 12 7 8 
-3 12 -11 0 -15 9 -14 -3 5 -9 -3 -12 -7 -9 -9 6 
-3 12 -18 -12 -3 -14 -7 -9 0 -12 -16 -8 -8 -9 -16 -3 
-21 -14 -17 -15 -17 -8 -14 -11 -14 -9 2 -14 3 -20 0 -17 
-12 -8 -10 -14 -7 -11 -9 -17 -12 -14 -21 -2 -22 2 -9 -11 
-17 -2 -14 -11 0 19 4730 7079 300 MP stroke
-17 -6 12 6 3 11 11 6 10 8 5 11 9 11 10 14 
-3 19 -14 -13 -14 0 -5 8 7 8 -14 0 -7 9 -14 -3 
-12 3 -17 -3 -9 -11 -14 2 11 -11 0 -8 -11 11 -15 11 
-9 9 -22 3 -18 0 -17 -12 14 -3 -2 -8 16 0 19 0 
17 0 17 0 11 -11 5 -20 -23 3 4 -8 -2 -19 -5 -9 
7 -3 10 9 2 -11 -14 -6 -12 -5 2 -11 -12 -9 10 -10 
-14 0 -15 0 5 -9 -16 0 -19 -13 -14 -5 -22 8 -5 13 
-16 -3 -21 -8 -8 -10 -14 -6 -12 6 -11 0 -15 10 -12 11 
-19 -8 -9 0 -14 11 -2 -8 9 -11 -5 -11 5 -11 0 -21 
-2 -16 9 -14 7 -18 7 -16 5 -16 5 -16 9 -16 10 -10 
21 -3 16 -2 10 8 5 -11 12 5 -3 11 19 2 17 -2 
16 -8 15 -8 14 -3 16 8 17 0 14 6 12 5 17 2 
16 3 17 -3 7 14 17 0 16 5 17 2 2 13 17 6 
19 2 16 -2 17 -6 16 -13 8 -10 -5 -11 -3 -13 5 -13 
10 -7 11 -6 15 3 14 10 19 11 23 5 17 3 14 7 
7 8 0 16 17 5 16 8 17 3 22 2 18 0 15 6 
16 8 5 13 12 -3 12 6 2 13 -9 8 -12 11 -7 13 
2 13 10 6 4 19 -9 5 -7 14 19 -8 7 16 14 3 
14 -3 12 -8 14 -3 21 6 12 -6 22 6 12 -9 14 -2 
9 5 17 3 16 0 12 -3 14 0 14 -5 20 -3 21 -3 
14 -8 14 -11 15 -2 14 -3 7 -11 19 -8 14 -3 17 8 
12 -2 18 0 12 -3 19 11 7 11 15 -3 7 -16 4 -14 
7 -13 7 -13 17 -11 17 -5 14 -8 9 -14 12 -10 0 -11 
7 -13 10 -8 0 -26 -7 -10 7 -18 9 -13 12 -13 17 -8 
9 -13 19 -7 22 -3 9 -13 5 -15 7 -10 14 -8 7 -7 
5 -16 5 -12 7 -18 12 -13 9 -12 7 -12 7 -21 7 -12 
10 -8 2 -14 3 -15 -12 -10 -12 -13 0 -9 3588 7643 215 MP stroke
6 -3 19 -27 17 -19 16 -19 17 11 12 -19 14 -14 28 -4 
19 -19 19 -14 21 -15 -9 -14 12 -15 -5 -18 -2 -18 -14 -17 
9 -15 -5 -14 -21 4 14 -14 3 -18 -12 -10 -24 -10 -24 -4 
-23 11 -15 13 -21 18 -14 0 -9 14 -15 -11 -7 -24 -9 -21 
-10 -23 -9 -21 -17 -17 7 -13 -9 -17 0 -13 -19 0 -17 0 
2 13 -14 17 -19 0 -16 0 -12 23 -5 24 -5 17 0 21 
-4 13 -21 15 -22 10 10 7 -17 10 -7 11 7 14 19 14 
19 15 2 18 -4 21 -3 22 -9 11 -19 23 -22 14 -18 12 
-24 11 -10 15 -19 15 19 12 -10 11 4655 6049 70 MP stroke
-12 -19 33 4 24 8 18 7 38 0 6 -7 -22 -19 -21 0 
0 -23 35 0 29 19 31 11 0 19 5033 6049 14 MP stroke
-9 6 -5 -21 -23 -11 -22 -18 -19 -13 -21 -11 -9 -20 -19 -17 
-10 -21 -12 -23 0 27 7 24 0 20 19 14 -14 0 -5 17 
-9 -17 2 -14 -7 -20 0 -18 -14 11 -7 13 -10 -13 -12 -14 
24 7 14 -14 -4 -20 -14 3 0 -16 -8 -14 -9 -10 -17 -10 
-12 -16 0 23 15 23 11 17 -14 -7 -14 0 2 -13 -9 -17 
-12 -13 -16 -10 -20 7 10 -20 -7 -9 17 -10 -12 -20 -17 -9 
-16 -23 -22 -9 -7 -19 -12 -13 0 -12 -21 -13 -21 -6 -22 -9 
-16 -13 -17 -12 -16 -10 -17 10 0 -19 -12 -9 -9 -15 4 -6 
-9 -15 7 -19 2 7 12 -7 -12 16 17 9 19 0 24 9 
2 -9 -5 -9 -7 -16 -7 -18 -2 -11 -3 -13 -21 -5 21 0 
0 -12 -2 -15 5 -15 0 -17 2 -18 5 -20 7 -20 -2 -17 
-8 -11 -4 -17 2 -17 7 -17 0 -9 -9 -8 -7 -11 0 -12 
-3 -13 -9 -11 -12 -9 2 -11 -14 -2 0 8 -9 -3 4 -5 
-7 -14 12 8 -2 -14 -7 -10 -10 0 0 -14 2 -8 -14 -11 
-9 -14 -15 -16 0 -16 -21 -5 -16 -5 -15 -6 -9 0 -3 -10 
-9 0 -14 -11 -7 -13 -5 -16 -9 -16 -5 -13 -7 -10 0 -8 
-10 -8 0 -13 -7 -3 -2 -18 -14 -5 -15 -13 -9 -10 -10 -10 
0 -13 12 -8 17 2 -14 -10 -5 -10 -10 -5 -12 -8 -11 0 
-10 -10 -14 -7 -7 -16 0 -15 7 -10 -19 -8 -12 -10 -12 -12 
-14 -10 -9 -20 -17 15 9 12 12 15 12 0 7 13 -4 5 
9 10 0 10 9 15 5 16 14 15 10 15 12 10 5 16 
9 13 12 13 9 12 12 8 7 11 -2 13 5 13 2 13 
-2 10 -17 -8 -10 3 -9 -8 -12 -5 0 -13 -7 -16 -2 -10 
-10 -13 -7 -16 -14 -15 -14 -15 -17 -3 0 -15 -16 -13 -8 -10 
-7 0 -7 -10 5 -11 0 -7 -12 -8 -19 -7 -9 -18 -12 -10 
-12 -10 -12 -15 -9 -10 -12 -13 -10 -9 -4 -20 -10 -8 0 -10 
10 -10 -5 -7 9 -8 -6 -9 1050 7643 213 MP stroke
3 5 9 9 7 10 5 13 -5 10 14 10 5 15 -5 12 
0 45 -5 15 -4 15 -7 13 2 13 0 15 5 15 -3 15 
-9 11 -14 10 -14 10 -15 3 -9 7 -10 8 7 13 -9 5 
0 -13 -14 8 -12 3 -17 2 -14 -5 -14 -3 -12 8 -14 -10 
-2 -10 -15 -3 -16 3 -10 5 -9 -3 -7 -8 -5 6 14 10 
0 5 -7 5 -2 8 12 0 11 -3 10 3 -7 13 -14 -8 
-15 8 -12 0 -14 -2 -7 7 -5 -10 -14 0 -14 3 -14 2 
-10 -8 -14 -5 -5 -13 -14 3 -12 7 -14 3 -12 -10 -12 -18 
-7 -3 -4 -16 2 -12 0 -11 -9 3 4 -15 -2 -11 -10 -10 
-7 -12 -7 -16 -12 -10 -5 -12 -11 2 -7 5 -7 15 -3 18 
0 18 7 18 7 18 0 10 10 15 4 16 8 15 2 16 
2 16 -7 15 -7 16 -14 13 -14 8 -15 11 -9 10 -7 11 
-14 8 -12 3 -12 10 -12 11 -17 3 -7 8 15 0 -15 10 
-9 0 -5 8 0 11 12 0 14 0 -12 6 -9 3 -7 -3 
-7 -11 7 11 2 13 5 11 12 11 0 11 -3 14 17 11 
-14 -3 2 11 2 17 -4 10 -12 6 5 -11 0 -11 4 -14 
-11 -5 2 -9 -9 0 4 -10 5 -17 -7 3 -5 16 -9 14 
-7 8 11 20 5 16 -9 -6 -7 -10 -15 10 -9 17 -5 17 
10 6 -10 11 -14 8 -14 6 -15 0 -14 0 -14 6 -5 11 
-7 -8 -12 5 0 -5 -19 5 0 12 0 -9 15 0 4 14 
10 6 -7 8 2 9 -7 12 -9 11 0 6 -15 6 -16 5 
-10 15 -7 -6 -16 6 -15 6 -14 8 0 12 -21 0 -19 6 
-22 12 3 -12 -19 3 19 -12 12 -5 16 -12 8 -15 -5 -14 
-15 -9 -14 12 -14 11 -9 12 -15 0 -19 9 -28 8 -24 6 
-4 12 -17 6 -17 12 19 11 -2 18 7 6 10 -15 14 -14 
0 -15 14 3 16 -6 19 3 22 12 16 6 10 17 2 21 
-5 15 24 -6 19 18 -28 0 -15 7 -16 9 0 12 9 9 
19 6 22 -3 21 -3 19 -9 17 -6 19 -9 16 -13 12 -14 
12 -13 12 -12 19 -6 -12 13 -10 11 -12 12 -9 13 -12 15 
-16 12 -19 15 -20 0 -4 16 -12 12 -21 6 -17 0 -19 0 
-21 3 -17 -3 -16 0 -19 0 -14 -6 -22 3 -26 0 -14 13 
-12 12 -12 13 -24 9 -28 3 -19 13 -14 9 9 26 -4 16 
19 19 21 0 2 16 29 4 -24 13 14 9 26 4 10 13 
30 3 5 17 24 10 12 13 0 20 -12 14 14 10 0 14 
14 13 15 21 11 21 17 21 14 21 10 14 14 -14 12 -11 
-10 -13 12 -18 22 -11 9 -13 28 -11 19 24 17 4 14 17 
0 14 -2 21 7 18 -5 18 22 4 21 0 21 11 -7 14 
21 11 19 15 22 11 1953 6165 300 MP stroke
33 -8 19 0 26 8 28 3 19 -11 0 -18 -16 -11 7 -18 
9 -18 -14 -11 -5 -21 0 -18 15 -17 18 -4 3 -14 -17 -13 
-16 -7 -10 -24 -5 -17 -7 -24 0 -27 15 -17 21 -16 21 -13 
21 -10 -9 -16 -7 -17 -3 -22 0 -19 -11 -20 16 -19 24 -12 
-2 -13 19 13 9 16 14 12 12 16 19 16 -5 19 0 16 
8 17 -8 29 24 10 28 0 29 0 28 17 24 6 19 7 
16 17 27 13 28 7 28 14 22 -7 16 -7 0 14 10 17 
0 17 12 24 19 3 19 -3 9 17 0 21 -2 25 -7 18 
-7 18 -15 22 -14 18 -19 7 0 22 -26 7 -29 8 3 22 
-19 27 -43 0 -21 22 -21 23 1574 6049 77 MP stroke
-5 14 -12 13 0 12 7 5 14 0 12 3 14 -3 15 -5 
14 -2 14 -3 9 -5 3 -17 2 -12 1475 7643 14 MP stroke
-1 -3 0 -27 -19 -15 -3 -19 -26 -34 -7 -15 -16 -25 -15 -22 
-28 -25 -38 -4 -26 -7 -17 -18 -35 -14 -19 7 -12 21 -2 22 
-7 22 -15 21 12 30 -26 15 -21 22 -7 23 -3 22 13 23 
2886 6049 25 MP stroke
2233 6049 PD
7 -15 -16 -19 -43 0 -21 11 -31 -3 -28 -12 -26 -7 -24 -12 
0 -19 -24 -14 -21 -8 -29 -7 -9 -11 -26 -11 -26 -8 -28 -3 
0 18 21 15 23 18 22 15 12 19 -34 -11 -26 -15 -30 -15 
-36 0 -7 30 21 19 3 22 19 16 12 7 2166 6049 31 MP stroke
-14 -3 -17 12 -23 -6 -5 15 -19 4 -22 -6 -18 9 -22 -3 
-21 0 -24 6 -14 16 24 3 -12 16 -17 9 -7 16 7 13 
17 6 12 0 9 -9 7 6 -9 9 4 13 8 10 4 13 
8 16 19 7 9 16 5 20 9 13 19 7 19 0 -14 10 
-12 13 -10 17 -7 14 3 14 23 0 20 0 21 -4 -10 17 
-23 14 4 10 26 -3 26 0 10 -17 12 -14 2 -13 14 6 
10 -6 -12 -11 -19 0 12 -20 0 -14 -17 7 3 -17 19 -13 
-17 0 0 -13 -14 16 -12 -13 12 -23 -10 -13 -21 6 -21 7 
9 -16 -12 -13 -14 0 10 -17 0 -16 16 -3 26 3 -5 -10 
10 -12 -17 0 0 -19 15 -7 16 -9 -5 -10 -19 3 -14 -3 
-14 -9 -19 9 10 -15 14 0 16 0 12 -16 14 -12 17 -13 
3889 6663 89 MP stroke
-9 14 -9 18 -7 15 -19 -6 -8 12 -14 2 3 9 -17 6 
-19 3 -21 15 -15 -2 -18 0 -15 0 -16 -13 -15 -14 -4 -18 
-3 -15 -9 -9 16 0 17 -3 17 9 21 -3 17 -12 -8 -17 
15 3 19 0 2 -9 -17 -6 -11 -17 -5 -17 -14 -12 -19 0 
-5 -9 10 -14 -3 -14 -9 -17 2 14 -9 12 -20 2 -7 -14 
-11 -11 -12 -11 16 -12 19 0 17 6 7 -17 -2 -11 -22 0 
3 -14 -5 -14 -12 -3 7 -19 0 -22 -7 -22 2 -11 22 3 
21 -6 24 -5 16 5 19 11 5 8 19 3 14 6 3 16 
2 17 2 19 -12 0 -2 11 -5 17 -9 11 -14 3 16 5 
14 15 5 14 10 14 12 8 11 15 12 17 0 26 10 17 
11 6 0 12 5375 6855 83 MP stroke
-11 11 -3 17 -16 3 -3 18 0 14 -9 12 -14 5 -5 12 
2 18 -16 6 -12 12 -7 14 -17 0 -19 0 7 -11 -21 -9 
-17 6 -16 -9 19 -6 11 -15 -16 -6 -9 -6 4 -14 -9 -9 
-14 6 -10 9 -14 2 -14 9 -14 -3 -17 3 -10 0 -7 -11 
-12 -6 -9 -6 -14 -3 -14 -9 -15 -14 -9 -9 -14 -8 -19 -9 
-7 -6 -5 -14 -7 -11 2 -12 14 -8 17 -12 16 -2 17 2 
17 -2 16 -3 14 5 12 -2 14 8 12 0 10 14 19 0 
9 12 14 -3 20 0 16 3 19 -6 14 -9 14 -8 15 -9 
16 3 19 -3 19 3 17 6 14 11 5 14 11 15 4830 6933 72 MP stroke
-14 2 2 5 7 0 10 10 14 2 10 -2 -3 12 12 3 
14 2 14 10 12 5 12 8 14 7 14 5 15 0 9 10 
12 5 12 5 14 0 14 5 15 0 14 -5 14 -2 14 -3 
14 -8 10 -7 0 -10 14 -5 1636 7589 29 MP stroke
-19 0 -5 10 -16 0 -10 8 -9 7 -14 -3 -19 -2 14 -5 
-10 -8 -14 -2 -21 0 -9 -7 -12 -3 -15 -5 -14 3 -5 -5 
-2 -13 -14 -10 -21 0 -5 -10 9 -7 3 -2 1844 7643 23 MP stroke
-9 14 -10 15 -9 12 -7 0 -29 6 -14 3 -12 -3 -24 0 
5 12 -14 0 -19 -3 -19 0 -19 -3 -26 -6 -14 -18 -14 -21 
9 -11 24 9 16 14 -4 -12 4 -14 7 -17 0 -21 20 -8 
7 17 7 17 14 -5 12 -12 0 12 -15 17 0 20 7 12 
15 6 12 6 14 0 9 -18 22 -8 4 -15 7 -15 0 -14 
-4 -15 -3 -17 5 -20 7 -11 12 -6 12 0 9 17 0 20 
3 15 -5 14 -5 20 -2 12 -7 15 21 -12 1546 6861 55 MP stroke
-4 -16 -22 7 -24 -4 -21 0 -21 0 -19 -3 0 -11 14 -9 
-17 -4 -14 18 -12 4 -14 -4 7 -18 -14 9 0 -14 -17 0 
-4 18 -5 18 14 -4 -7 18 9 -2 10 -16 7 6 -5 12 
-21 19 21 -3 8 12 -15 15 15 6 19 0 18 -3 17 13 
-12 9 17 6 21 -12 -9 18 -10 12 -12 19 -7 19 14 0 
19 -9 10 -13 7 -16 12 -18 7 -22 14 -18 10 -15 -10 -3 
14 -12 12 -9 2361 6742 51 MP stroke
26 -11 -41 0 -16 -23 21 -19 -50 0 -28 -11 -36 -8 -30 15 
-26 4 -27 15 -37 12 -24 23 0 3 3659 6049 14 MP stroke
-14 11 -17 12 -14 13 -19 5 -11 9 -10 13 -19 9 -10 12 
-21 -9 -24 0 -9 -18 -12 -12 -21 0 0 -13 -10 -9 3 -14 
-7 -15 14 0 0 8 23 -2 24 -9 19 0 12 14 19 -3 
0 12 -19 13 14 0 22 -16 21 -9 21 -8 12 15 19 -9 
14 0 1430 6787 34 MP stroke
-7 -15 -14 -10 -24 3 -21 7 -22 12 -26 3 -4 16 -5 16 
2 20 5 16 -19 13 5 19 9 13 19 4 22 3 21 -7 
12 -16 -14 -6 9 -10 16 0 19 0 8 -13 -15 -7 15 -9 
-15 -13 -14 0 14 -19 7 -20 17 0 3754 6585 30 MP stroke
-34 0 -14 11 -2 14 -21 4 16 15 7 11 -33 0 -10 -11 
-21 -8 -19 4 -14 15 -9 11 -24 7 -21 0 -29 -7 33 0 
-9 -11 31 -4 23 -11 12 -22 22 -7 23 -7 5 -15 14 4 
24 -7 21 0 29 14 721 6220 28 MP stroke
5 -2 5 6 19 0 19 0 0 20 5 9 0 17 5701 6847 8 MP stroke
-12 15 -3 15 -9 3 -14 0 -7 14 -8 -4 5754 6804 7 MP stroke
42 0 544 6049 2 MP stroke
15 -7 -5 7 613 6049 3 MP stroke
-27 0 -19 -12 0 -13 7 -10 -4 -22 -14 7 -15 -4 5 -15 
-7 -13 -9 -9 -8 -16 22 -3 -3 13 10 12 0 13 19 15 
16 10 0 19 -7 9 12 10 12 -10 10 19 1171 6550 23 MP stroke
-17 6 -12 12 -18 9 -22 2 -21 12 -24 4 -16 2 -10 -6 
17 -3 16 -11 14 0 -7 -9 -9 -6 14 -15 12 -18 19 3 
17 0 16 -6 14 6 7 12 10 6 5026 6814 22 MP stroke
3 -15 -7 -27 29 -18 1569 6109 4 MP stroke
-39 0 -2 -23 -26 4 -19 19 -17 15 -21 0 -23 -12 -24 -15 
-26 19 28 11 14 19 22 16 16 7 1686 6049 14 MP stroke
-7 16 -17 0 -16 -3 -8 -19 -9 -19 -7 -20 -12 -22 -12 -15 
8 -25 16 -7 0 16 -2 16 -3 15 14 -6 3 19 21 0 
0 13 14 9 8 19 9 13 1226 6540 21 MP stroke
-17 -19 -19 -9 -19 -9 3 -10 -17 -6 -12 -9 -14 0 0 -9 
-21 -9 -17 -6 -14 6 14 15 22 15 16 16 14 18 22 7 
26 5 21 10 12 -6 399 6641 20 MP stroke
-12 9 -16 0 -19 8 -10 11 -16 3 -12 -3 -9 9 -20 0 
-19 0 12 -11 17 -9 19 -8 16 -6 17 -9 17 -2 16 0 
19 8 1674 6959 18 MP stroke
-10 -14 -9 0 -19 -11 -15 -3 -9 -11 -19 -2 -5 11 5 10 
-5 17 -9 14 19 -6 21 -3 17 0 12 6 14 0 12 -8 
4398 7087 17 MP stroke
-4 19 -19 0 0 14 14 4 9 11 -21 -7 -16 -11 2 -19 
-7 -14 -12 -11 0 -15 12 -7 14 0 0 18 19 8 9 10 
5029 6195 17 MP stroke
-14 -11 2 -13 -5 -9 -11 0 -8 -10 -9 10 -12 -10 7 19 
5 13 -14 -3 9 17 14 8 15 6 14 -6 7 -11 4647 7093 16 MP stroke
0 -12 -7 -13 0 -17 2 -17 -11 -11 -10 11 -12 0 -5 14 
-2 14 0 14 2 14 12 14 15 -11 9 -3 7 3 4280 6987 16 MP stroke
-10 15 -17 6 -18 3 -15 2 -19 -2 -9 8 -17 6 5 -12 
-2 -17 19 -6 16 -3 17 3 16 0 19 -5 15 2 1780 6908 16 MP stroke
-14 0 -14 -3 -10 -6 -19 1 -19 2 -2 9 14 -6 0 8 
17 -1 12 4 14 -3 2 6 17 2 2 -13 4716 7177 15 MP stroke
-4 11 -17 11 -19 0 -12 -11 -19 -7 -9 -14 0 -15 9 -14 
22 0 7 -10 12 0 4 17 10 18 16 14 4901 6224 15 MP stroke
-4 -11 -17 -3 -14 4 -5 7 -12 0 5 8 -17 13 17 -5 
14 -3 12 -2 7 -6 14 -2 4965 7182 13 MP stroke
-3 -23 -14 -10 -7 -19 -12 -16 -23 -16 9 19 14 10 -4 12 
9 20 -9 19 18 0 22 4 264 6507 13 MP stroke
-16 14 -15 10 -14 18 -14 0 -17 -10 -16 0 -17 -8 24 -7 
28 0 22 -6 9 -15 26 4 885 6326 13 MP stroke
-9 -9 -17 -9 -24 -9 0 12 -14 9 21 -3 17 0 17 5 
2 13 7 -9 2221 6787 11 MP stroke
-19 -10 -7 -9 -17 -6 -19 -3 -16 0 9 12 14 6 17 7 
19 3 19 0 2216 6672 11 MP stroke
-10 14 -7 13 10 18 -10 13 -12 17 -14 -20 17 -10 0 -35 
26 -10 1117 6422 10 MP stroke
2 -15 -2 -11 -14 -14 -5 17 -5 11 2 12 0 17 8 -12 
14 -5 4294 6933 10 MP stroke
-2 -10 7 -8 -14 -12 -8 -15 -4 10 7 10 0 10 7 15 
7 0 1823 7489 10 MP stroke
-12 5 0 18 -9 3 -2 8 7 -3 4 -8 12 -15 0 -8 
3643 7400 9 MP stroke
-5 -20 -16 -3 -17 6 7 8 -11 9 4 16 19 -8 19 -8 
4363 6447 9 MP stroke
-17 3 19 -16 -17 0 -9 10 0 -17 -7 23 7 10 24 -13 
1773 6425 9 MP stroke
-19 3 -19 3 -19 9 10 5 14 -5 14 -3 17 -3 2 -9 
1944 6999 9 MP stroke
-7 -9 -21 6 -6 -4 4 6 8 0 14 -5 8 6 1802 7442 8 MP stroke
-3 -5 2 -4 -6 -1 -9 3 4 9 6 4 6 -6 1686 7591 8 MP stroke
-5 -17 -14 8 0 17 -12 9 22 -6 9 -11 4562 6374 7 MP stroke
-24 3 -26 19 0 3 19 0 21 -7 10 -18 1669 6176 7 MP stroke
-3 -8 -10 2 1 8 9 3 3 -5 3599 7402 6 MP stroke
-7 -10 -7 5 -5 12 9 -6 10 -1 3569 7392 6 MP stroke
-13 -3 -10 -8 -10 14 14 8 19 -11 4112 7032 6 MP stroke
-10 -10 -14 9 -14 8 23 5 15 -12 4668 6340 6 MP stroke
-10 -10 -14 3 -7 7 14 3 17 -3 4360 6481 6 MP stroke
-9 -17 -18 0 -1 13 13 8 15 -4 4325 6456 6 MP stroke
-23 17 -7 21 23 -14 0 -14 7 -10 3842 6371 6 MP stroke
-17 -6 -19 -6 7 15 12 4 17 -7 1716 6553 6 MP stroke
3 -26 -12 -10 -12 18 -3 18 24 0 1771 6169 6 MP stroke
-14 0 -5 12 5 -7 9 2 5 -7 1953 7616 6 MP stroke
-18 -6 -15 -6 -5 15 17 -3 21 0 1686 6817 6 MP stroke
-3 -10 -9 7 -5 12 17 -9 4834 7144 5 MP stroke
-2 -7 -17 5 15 10 4 -8 4683 6317 5 MP stroke
-14 -4 -17 17 26 -3 5 -10 3837 6180 5 MP stroke
-9 -12 1 -15 -6 15 14 12 1842 7437 5 MP stroke
-7 -6 0 8 7 -2 4787 7044 4 MP stroke
-8 -10 0 18 8 -8 4004 6260 4 MP stroke
-17 16 5 -10 12 -6 1887 7180 4 MP stroke
-29 0 18 7 11 -7 1987 7594 4 MP stroke
-4 -19 -11 11 15 8 1934 7559 4 MP stroke
-17 -25 0 14 17 11 1866 7479 4 MP stroke
-19 0 19 0 3313 7091 3 MP stroke
-14 -5 14 5 3233 7066 3 MP stroke
0 -8 4787 7076 2 MP stroke
-15 -10 15 10 3955 6305 3 MP stroke
-14 3 14 -3 1722 7507 3 MP stroke
-11 -3 11 3 1969 7571 3 MP stroke
-13 -24 13 24 1907 7534 3 MP stroke
-11 -15 11 15 1896 7504 3 MP stroke
gr

9 w
2015 7270 mt 
(gcm.coef /) s
2015 7554 mt 
(rean.forc\)) s
%%IncludeResource: font Helvetica
/Helvetica /ISOLatin1Encoding 120 FMSR

  51 7686 mt 
( ) s
5738 6091 mt 
( ) s
6 w
21 w
1 sg
0 4087 204 0 0 -4087 5925 7153 4 MP
PP
-204 0 0 4087 204 0 0 -4087 5925 7153 5 MP stroke
gs 5925 3066 205 4088 rc
/mwscm { [/Indexed /DeviceRGB 9
  <
    4d004b 253494 1d91c0 7fcdbb e0e0e0 e0e0e0 fed976 fd8d3c bd0026 543005 
  >
] setcolorspace } bdef mwscm
gs np 5925 3066 mt 0 4087 rl 205 0 rl 0 -4087 rl cp c np
[612 0 0 4087 5721 3066] cc
<< % Image dictionary
  /ImageType 1
  /Width 1 /Height 10
  /BitsPerComponent 4
  /Decode [0 15]
  /ImageMatrix [1.000000 0 0 10.000000 0 0]
  /DataSource currentfile
  /ASCII85Decode filter
  /RunLengthDecode filter
>>
image
$'9[V?r0*B+:nO'
~>
gr
gr

0 sg
%%IncludeResource: font Helvetica-Bold
/Helvetica-Bold /ISOLatin1Encoding 216 FMSR

6225 7565 mt 
([-]) s
14 w
DO
SO
21 w
5925 7153 mt 6129 7153 L
5925 3066 mt 6129 3066 L
5925 7153 mt 5925 3066 L
6129 7153 mt 6129 3066 L
5925 7153 mt 6129 7153 L
6129 7153 mt 6129 3066 L
6129 7153 mt 5863 7153 L
5925 7153 mt 6190 7153 L
%%IncludeResource: font Helvetica
/Helvetica /ISOLatin1Encoding 240 FMSR

6163 7242 mt 
(   0) s
6129 6744 mt 5863 6744 L
5925 6744 mt 6190 6744 L
6163 6833 mt 
(   0.25) s
6129 6335 mt 5863 6335 L
5925 6335 mt 6190 6335 L
6163 6424 mt 
(   0.5) s
6129 5926 mt 5863 5926 L
5925 5926 mt 6190 5926 L
6163 6015 mt 
(   0.8) s
6129 5518 mt 5863 5518 L
5925 5518 mt 6190 5518 L
6163 5607 mt 
(   0.9) s
6129 5109 mt 5863 5109 L
5925 5109 mt 6190 5109 L
6163 5198 mt 
(   1) s
6129 4700 mt 5863 4700 L
5925 4700 mt 6190 4700 L
6163 4789 mt 
(   1.1) s
6129 4292 mt 5863 4292 L
5925 4292 mt 6190 4292 L
6163 4381 mt 
(   1.25) s
6129 3883 mt 5863 3883 L
5925 3883 mt 6190 3883 L
6163 3972 mt 
(   2) s
6129 3474 mt 5863 3474 L
5925 3474 mt 6190 3474 L
6163 3563 mt 
(   4+) s
5925 7153 mt 6129 7153 L
5925 3066 mt 6129 3066 L
5925 7153 mt 5925 3066 L
6129 7153 mt 6129 3066 L

end %%Color Dict

eplot
%%EndObject

epage
end

showpage

%%Trailer
%%EOF
