%!PS-Adobe-3.0 EPSF-3.0
%%Creator: MATLAB, The Mathworks, Inc. Version 7.5.0.338 (R2007b). Operating System: Linux 3.8.4 #1 SMP Thu Mar 21 12:34:11 PDT 2013 x86_64.
%%Title: figs/eps/line_mbar_sig_T.eps
%%CreationDate: 07/30/2013  17:59:14
%%DocumentNeededFonts: Helvetica
%%+ Helvetica-Bold
%%DocumentProcessColors: Cyan Magenta Yellow Black
%%LanguageLevel: 2
%%Pages: 1
%%BoundingBox:     5     1   707   427
%%EndComments

%%BeginProlog
% MathWorks dictionary
/MathWorks 160 dict begin
% definition operators
/bdef {bind def} bind def
/ldef {load def} bind def
/xdef {exch def} bdef
/xstore {exch store} bdef
% operator abbreviations
/c  /clip ldef
/cc /concat ldef
/cp /closepath ldef
/gr /grestore ldef
/gs /gsave ldef
/mt /moveto ldef
/np /newpath ldef
/cm /currentmatrix ldef
/sm /setmatrix ldef
/rm /rmoveto ldef
/rl /rlineto ldef
/s {show newpath} bdef
/sc {setcmykcolor} bdef
/sr /setrgbcolor ldef
/sg /setgray ldef
/w /setlinewidth ldef
/j /setlinejoin ldef
/cap /setlinecap ldef
/rc {rectclip} bdef
/rf {rectfill} bdef
% page state control
/pgsv () def
/bpage {/pgsv save def} bdef
/epage {pgsv restore} bdef
/bplot /gsave ldef
/eplot {stroke grestore} bdef
% orientation switch
/portraitMode 0 def /landscapeMode 1 def /rotateMode 2 def
% coordinate system mappings
/dpi2point 0 def
% font control
/FontSize 0 def
/FMS {/FontSize xstore findfont [FontSize 0 0 FontSize neg 0 0]
  makefont setfont} bdef
/reencode {exch dup where {pop load} {pop StandardEncoding} ifelse
  exch dup 3 1 roll findfont dup length dict begin
  { 1 index /FID ne {def}{pop pop} ifelse } forall
  /Encoding exch def currentdict end definefont pop} bdef
/isroman {findfont /CharStrings get /Agrave known} bdef
/FMSR {3 1 roll 1 index dup isroman {reencode} {pop pop} ifelse
  exch FMS} bdef
/csm {1 dpi2point div -1 dpi2point div scale neg translate
 dup landscapeMode eq {pop -90 rotate}
  {rotateMode eq {90 rotate} if} ifelse} bdef
% line types: solid, dotted, dashed, dotdash
/SO { [] 0 setdash } bdef
/DO { [.5 dpi2point mul 4 dpi2point mul] 0 setdash } bdef
/DA { [6 dpi2point mul] 0 setdash } bdef
/DD { [.5 dpi2point mul 4 dpi2point mul 6 dpi2point mul 4
  dpi2point mul] 0 setdash } bdef
% macros for lines and objects
/L {lineto stroke} bdef
/MP {3 1 roll moveto 1 sub {rlineto} repeat} bdef
/AP {{rlineto} repeat} bdef
/PDlw -1 def
/W {/PDlw currentlinewidth def setlinewidth} def
/PP {closepath eofill} bdef
/DP {closepath stroke} bdef
/MR {4 -2 roll moveto dup  0 exch rlineto exch 0 rlineto
  neg 0 exch rlineto closepath} bdef
/FR {MR stroke} bdef
/PR {MR fill} bdef
/L1i {{currentfile picstr readhexstring pop} image} bdef
/tMatrix matrix def
/MakeOval {newpath tMatrix currentmatrix pop translate scale
0 0 1 0 360 arc tMatrix setmatrix} bdef
/FO {MakeOval stroke} bdef
/PO {MakeOval fill} bdef
/PD {currentlinewidth 2 div 0 360 arc fill
   PDlw -1 eq not {PDlw w /PDlw -1 def} if} def
/FA {newpath tMatrix currentmatrix pop translate scale
  0 0 1 5 -2 roll arc tMatrix setmatrix stroke} bdef
/PA {newpath tMatrix currentmatrix pop	translate 0 0 moveto scale
  0 0 1 5 -2 roll arc closepath tMatrix setmatrix fill} bdef
/FAn {newpath tMatrix currentmatrix pop translate scale
  0 0 1 5 -2 roll arcn tMatrix setmatrix stroke} bdef
/PAn {newpath tMatrix currentmatrix pop translate 0 0 moveto scale
  0 0 1 5 -2 roll arcn closepath tMatrix setmatrix fill} bdef
/vradius 0 def /hradius 0 def /lry 0 def
/lrx 0 def /uly 0 def /ulx 0 def /rad 0 def
/MRR {/vradius xdef /hradius xdef /lry xdef /lrx xdef /uly xdef
  /ulx xdef newpath tMatrix currentmatrix pop ulx hradius add uly
  vradius add translate hradius vradius scale 0 0 1 180 270 arc 
  tMatrix setmatrix lrx hradius sub uly vradius add translate
  hradius vradius scale 0 0 1 270 360 arc tMatrix setmatrix
  lrx hradius sub lry vradius sub translate hradius vradius scale
  0 0 1 0 90 arc tMatrix setmatrix ulx hradius add lry vradius sub
  translate hradius vradius scale 0 0 1 90 180 arc tMatrix setmatrix
  closepath} bdef
/FRR {MRR stroke } bdef
/PRR {MRR fill } bdef
/MlrRR {/lry xdef /lrx xdef /uly xdef /ulx xdef /rad lry uly sub 2 div def
  newpath tMatrix currentmatrix pop ulx rad add uly rad add translate
  rad rad scale 0 0 1 90 270 arc tMatrix setmatrix lrx rad sub lry rad
  sub translate rad rad scale 0 0 1 270 90 arc tMatrix setmatrix
  closepath} bdef
/FlrRR {MlrRR stroke } bdef
/PlrRR {MlrRR fill } bdef
/MtbRR {/lry xdef /lrx xdef /uly xdef /ulx xdef /rad lrx ulx sub 2 div def
  newpath tMatrix currentmatrix pop ulx rad add uly rad add translate
  rad rad scale 0 0 1 180 360 arc tMatrix setmatrix lrx rad sub lry rad
  sub translate rad rad scale 0 0 1 0 180 arc tMatrix setmatrix
  closepath} bdef
/FtbRR {MtbRR stroke } bdef
/PtbRR {MtbRR fill } bdef
/stri 6 array def /dtri 6 array def
/smat 6 array def /dmat 6 array def
/tmat1 6 array def /tmat2 6 array def /dif 3 array def
/asub {/ind2 exch def /ind1 exch def dup dup
  ind1 get exch ind2 get sub exch } bdef
/tri_to_matrix {
  2 0 asub 3 1 asub 4 0 asub 5 1 asub
  dup 0 get exch 1 get 7 -1 roll astore } bdef
/compute_transform {
  dmat dtri tri_to_matrix tmat1 invertmatrix 
  smat stri tri_to_matrix tmat2 concatmatrix } bdef
/ds {stri astore pop} bdef
/dt {dtri astore pop} bdef
/db {2 copy /cols xdef /rows xdef mul dup 3 mul string
  currentfile 
  3 index 0 eq {/ASCIIHexDecode filter}
  {/ASCII85Decode filter 3 index 2 eq {/RunLengthDecode filter} if }
  ifelse exch readstring pop
  dup 0 3 index getinterval /rbmap xdef
  dup 2 index dup getinterval /gbmap xdef
  1 index dup 2 mul exch getinterval /bbmap xdef pop pop}bdef
/it {gs np dtri aload pop moveto lineto lineto cp c
  cols rows 8 compute_transform 
  rbmap gbmap bbmap true 3 colorimage gr}bdef
/il {newpath moveto lineto stroke}bdef
currentdict end def
%%EndProlog

%%BeginSetup
MathWorks begin

0 cap

end
%%EndSetup

%%Page: 1 1
%%BeginPageSetup
%%PageBoundingBox:     5     1   707   427
MathWorks begin
bpage
%%EndPageSetup

%%BeginObject: obj1
bplot

/dpi2point 12 def
portraitMode 0000 5112 csm

   60   -14  8434  5103 rc
87 dict begin %Colortable dictionary
/c0 { 0.000000 0.000000 0.000000 sr} bdef
/c1 { 1.000000 1.000000 1.000000 sr} bdef
/c2 { 0.900000 0.000000 0.000000 sr} bdef
/c3 { 0.000000 0.820000 0.000000 sr} bdef
/c4 { 0.000000 0.000000 0.800000 sr} bdef
/c5 { 0.910000 0.820000 0.320000 sr} bdef
/c6 { 1.000000 0.260000 0.820000 sr} bdef
/c7 { 0.000000 0.820000 0.820000 sr} bdef
c0
1 j
1 sg
   0    0 8516 5115 rf
21 w
0 2301 3407 0 0 -2301 1872 2429 4 MP
PP
-3407 0 0 2301 3407 0 0 -2301 1872 2429 5 MP stroke
14 w
DO
SO
21 w
0 sg
1872 2429 mt 5279 2429 L
1872 2429 mt 1872  128 L
2213 2429 mt 2213 2463 L
2894 2429 mt 2894 2463 L
3576 2429 mt 3576 2463 L
4257 2429 mt 4257 2463 L
4938 2429 mt 4938 2463 L
1872 2429 mt 1838 2429 L
%%IncludeResource: font Helvetica-Bold
/Helvetica-Bold /ISOLatin1Encoding 156 FMSR

1631 2489 mt 
(10) s
1872 2100 mt 1838 2100 L
1872 1771 mt 1838 1771 L
1631 1831 mt 
(14) s
1872 1442 mt 1838 1442 L
1872 1114 mt 1838 1114 L
1631 1174 mt 
(18) s
1872  785 mt 1838  785 L
1872  456 mt 1838  456 L
1631  516 mt 
(22) s
gs 1873 128 3407 2302 rc
DA
30 w
/c8 { 0.580000 0.000000 0.830000 sr} bdef
c8
681 -2 681 -1 682 82 681 121 2213 373 5 MP stroke
SO
6 w
gr

6 w
c8
80 W
2213 373 PD
80 W
2894 494 PD
80 W
3576 576 PD
80 W
4257 575 PD
80 W
4938 573 PD
gs 1873 128 3407 2302 rc
30 w
/c9 { 0.000000 0.000000 0.500000 sr} bdef
c9
681 -222 681 129 682 595 681 431 2213 859 5 MP stroke
6 w
gr

c9
80 W
2213 859 PD
80 W
2894 1290 PD
80 W
3576 1885 PD
80 W
4257 2014 PD
80 W
4938 1792 PD
gs 1873 128 3407 2302 rc
gr

0 sg
%%IncludeResource: font Helvetica
/Helvetica /ISOLatin1Encoding 120 FMSR

1856 2472 mt 
( ) s
5263  170 mt 
( ) s
21 w
14 w
DO
SO
21 w
1873  128 mt 5279  128 L
5279 2429 mt 5279  128 L
2213  128 mt 2213   93 L
2894  128 mt 2894   93 L
3576  128 mt 3576   93 L
4257  128 mt 4257   93 L
4938  128 mt 4938   93 L
5279 2429 mt 5313 2429 L
5279 1853 mt 5313 1853 L
%%IncludeResource: font Helvetica-Bold
/Helvetica-Bold /ISOLatin1Encoding 156 FMSR

5347 1913 mt 
(1.5) s
5279 1278 mt 5313 1278 L
5347 1338 mt 
(1.75) s
5279  703 mt 5313  703 L
5347  763 mt 
(2) s
5279  128 mt 5313  128 L
gs 1873 128 3407 2302 rc
30 w
gr

30 w
0 j
36 47 -36 47 -36 -47 36 -47 2213 1732 5 MP
c8
DP
36 47 -36 47 -36 -47 36 -47 2894 2082 5 MP
DP
36 47 -36 47 -36 -47 36 -47 3576 2369 5 MP
DP
36 47 -36 47 -36 -47 36 -47 4257 2165 5 MP
DP
36 47 -36 47 -36 -47 36 -47 4938 1953 5 MP
DP
gs 1873 128 3407 2302 rc
gr

0 -58 -58 0 0 58 58 0 2184 1432 5 MP
c9
DP
0 -58 -58 0 0 58 58 0 2865 1345 5 MP
DP
0 -58 -58 0 0 58 58 0 3547 866 5 MP
DP
0 -58 -58 0 0 58 58 0 4228 976 5 MP
DP
0 -58 -58 0 0 58 58 0 4909 459 5 MP
DP
gs 1873 128 3407 2302 rc
21 w
gr

21 w
1 sg
0 941 2151 0 0 -941 6290 2823 4 MP
PP
-2151 0 0 941 2151 0 0 -941 6290 2823 5 MP stroke
14 w
DO
SO
21 w
0 sg
6290 2823 mt 8441 2823 L
6290 1882 mt 8441 1882 L
6290 2823 mt 6290 1882 L
8441 2823 mt 8441 1882 L
6290 2823 mt 8441 2823 L
6290 2823 mt 6290 1882 L
6290 2823 mt 8441 2823 L
6290 1882 mt 8441 1882 L
6290 2823 mt 6290 1882 L
8441 2823 mt 8441 1882 L
6853 2059 mt 
(ERA-40 mbar) s
gs 6290 1882 2152 942 rc
DA
30 w
c8
433 0 6376 2001 2 MP stroke
SO
gr

30 w
c8
0 sg
6853 2254 mt 
(HadGEM1 mbar) s
gs 6290 1882 2152 942 rc
c9
433 0 6376 2195 2 MP stroke
gr

c9
0 sg
6853 2492 mt 
(ERA-40 Var\(T\)) s
%%IncludeResource: font Helvetica-Bold
/Helvetica-Bold /ISOLatin1Encoding 120 FMSR

7919 2414 mt 
(1/2) s
gs 6290 1882 2152 942 rc
gs 6488 2316 209 209 rc
36 47 -36 47 -36 -47 36 -47 6592 2467 5 MP
c8
DP
gr

c8
gr

c8
0 sg
%%IncludeResource: font Helvetica-Bold
/Helvetica-Bold /ISOLatin1Encoding 156 FMSR

6853 2746 mt 
(HadGEM1 Var\(T\)) s
%%IncludeResource: font Helvetica-Bold
/Helvetica-Bold /ISOLatin1Encoding 120 FMSR

8062 2668 mt 
(1/2) s
gs 6290 1882 2152 942 rc
gs 6488 2570 209 209 rc
0 -58 -58 0 0 58 58 0 6563 2645 5 MP
c9
DP
gr

c9
21 w
gr

21 w
c9
6 w
0 sg
%%IncludeResource: font Helvetica-Bold
/Helvetica-Bold /ISOLatin1Encoding 180 FMSR

  85 1239 mt 
(Box 1:) s
  85 1445 mt 
(Central US) s
21 w
1 sg
0 2302 3407 0 0 -2302 1872 4833 4 MP
PP
-3407 0 0 2302 3407 0 0 -2302 1872 4833 5 MP stroke
14 w
DO
SO
21 w
0 sg
1872 4833 mt 5279 4833 L
1872 4833 mt 1872 2531 L
2213 4833 mt 2213 4867 L
%%IncludeResource: font Helvetica-Bold
/Helvetica-Bold /ISOLatin1Encoding 156 FMSR

2063 5051 mt 
(May) s
2894 4833 mt 2894 4867 L
2757 5051 mt 
(Jun) s
3576 4833 mt 3576 4867 L
3465 5051 mt 
(Jul) s
4257 4833 mt 4257 4867 L
4108 5051 mt 
(Aug) s
4938 4833 mt 4938 4867 L
4795 5051 mt 
(Sep) s
1872 4833 mt 1838 4833 L
1631 4893 mt 
(10) s
1872 4504 mt 1838 4504 L
1872 4175 mt 1838 4175 L
1631 4235 mt 
(14) s
1872 3846 mt 1838 3846 L
1872 3517 mt 1838 3517 L
1631 3577 mt 
(18) s
1872 3188 mt 1838 3188 L
1872 2859 mt 1838 2859 L
1631 2919 mt 
(22) s
gs 1873 2531 3407 2303 rc
DA
30 w
c8
681 -44 681 98 682 5 681 26 2213 2625 5 MP stroke
SO
6 w
gr

6 w
c8
80 W
2213 2625 PD
80 W
2894 2651 PD
80 W
3576 2656 PD
80 W
4257 2754 PD
80 W
4938 2710 PD
gs 1873 2531 3407 2303 rc
30 w
c9
681 -100 681 282 682 306 681 423 2213 2704 5 MP stroke
6 w
gr

c9
80 W
2213 2704 PD
80 W
2894 3127 PD
80 W
3576 3433 PD
80 W
4257 3715 PD
80 W
4938 3615 PD
gs 1873 2531 3407 2303 rc
gr

0 sg
%%IncludeResource: font Helvetica-Bold
/Helvetica-Bold /ISOLatin1Encoding 180 FMSR

1425 3005 mt  -90 rotate
(mbar  [mm]) s
90 rotate
%%IncludeResource: font Helvetica
/Helvetica /ISOLatin1Encoding 120 FMSR

1856 4876 mt 
( ) s
5263 2573 mt 
( ) s
21 w
14 w
DO
SO
21 w
1873 2531 mt 5279 2531 L
5279 4833 mt 5279 2531 L
2213 2531 mt 2213 2496 L
2894 2531 mt 2894 2496 L
3576 2531 mt 3576 2496 L
4257 2531 mt 4257 2496 L
4938 2531 mt 4938 2496 L
5279 4833 mt 5313 4833 L
5279 4257 mt 5313 4257 L
%%IncludeResource: font Helvetica-Bold
/Helvetica-Bold /ISOLatin1Encoding 156 FMSR

5347 4317 mt 
(1.5) s
5279 3682 mt 5313 3682 L
5347 3742 mt 
(1.75) s
5279 3106 mt 5313 3106 L
5347 3166 mt 
(2) s
5279 2531 mt 5313 2531 L
gs 1873 2531 3407 2303 rc
30 w
gr

30 w
36 47 -36 47 -36 -47 36 -47 2213 3909 5 MP
c8
DP
36 47 -36 47 -36 -47 36 -47 2894 4133 5 MP
DP
36 47 -36 47 -36 -47 36 -47 3576 4368 5 MP
DP
36 47 -36 47 -36 -47 36 -47 4257 4706 5 MP
DP
36 47 -36 47 -36 -47 36 -47 4938 4135 5 MP
DP
gs 1873 2531 3407 2303 rc
gr

0 -58 -58 0 0 58 58 0 2184 3639 5 MP
c9
DP
0 -58 -58 0 0 58 58 0 2865 3843 5 MP
DP
0 -58 -58 0 0 58 58 0 3547 3221 5 MP
DP
0 -58 -58 0 0 58 58 0 4228 3866 5 MP
DP
0 -58 -58 0 0 58 58 0 4909 3811 5 MP
DP
gs 1873 2531 3407 2303 rc
gr

0 sg
%%IncludeResource: font Helvetica-Bold
/Helvetica-Bold /ISOLatin1Encoding 180 FMSR

5706 1999 mt  -270 rotate
(Var\(T\)) s
270 rotate
%%IncludeResource: font Helvetica-Bold
/Helvetica-Bold /ISOLatin1Encoding 144 FMSR

5796 2508 mt  -270 rotate
(1/2) s
270 rotate
%%IncludeResource: font Helvetica-Bold
/Helvetica-Bold /ISOLatin1Encoding 180 FMSR

5706 2708 mt  -270 rotate
(  [K]) s
270 rotate
21 w
1 sg
0 941 2151 0 0 -941 6290 2823 4 MP
PP
-2151 0 0 941 2151 0 0 -941 6290 2823 5 MP stroke
14 w
DO
SO
21 w
0 sg
6290 2823 mt 8441 2823 L
6290 1882 mt 8441 1882 L
6290 2823 mt 6290 1882 L
8441 2823 mt 8441 1882 L
6290 2823 mt 8441 2823 L
6290 2823 mt 6290 1882 L
6290 2823 mt 8441 2823 L
6290 1882 mt 8441 1882 L
6290 2823 mt 6290 1882 L
8441 2823 mt 8441 1882 L
%%IncludeResource: font Helvetica-Bold
/Helvetica-Bold /ISOLatin1Encoding 156 FMSR

6853 2059 mt 
(ERA-40 mbar) s
gs 6290 1882 2152 942 rc
DA
30 w
c8
433 0 6376 2001 2 MP stroke
SO
gr

30 w
c8
0 sg
6853 2254 mt 
(HadGEM1 mbar) s
gs 6290 1882 2152 942 rc
c9
433 0 6376 2195 2 MP stroke
gr

c9
0 sg
6853 2492 mt 
(ERA-40 Var\(T\)) s
%%IncludeResource: font Helvetica-Bold
/Helvetica-Bold /ISOLatin1Encoding 120 FMSR

7919 2414 mt 
(1/2) s
gs 6290 1882 2152 942 rc
gs 6488 2316 209 209 rc
36 47 -36 47 -36 -47 36 -47 6592 2467 5 MP
c8
DP
gr

c8
gr

c8
0 sg
%%IncludeResource: font Helvetica-Bold
/Helvetica-Bold /ISOLatin1Encoding 156 FMSR

6853 2746 mt 
(HadGEM1 Var\(T\)) s
%%IncludeResource: font Helvetica-Bold
/Helvetica-Bold /ISOLatin1Encoding 120 FMSR

8062 2668 mt 
(1/2) s
gs 6290 1882 2152 942 rc
gs 6488 2570 209 209 rc
0 -58 -58 0 0 58 58 0 6563 2645 5 MP
c9
DP
gr

c9
21 w
gr

21 w
c9
6 w
0 sg
%%IncludeResource: font Helvetica-Bold
/Helvetica-Bold /ISOLatin1Encoding 180 FMSR

  85 3643 mt 
(Box 2:) s
  85 3849 mt 
(Eastern Europe) s

end %%Color Dict

eplot
%%EndObject

epage
end

showpage

%%Trailer
%%EOF
