%!PS-Adobe-3.0 EPSF-3.0
%%Creator: MATLAB, The Mathworks, Inc. Version 7.5.0.338 (R2007b). Operating System: Linux 3.8.4 #1 SMP Thu Mar 21 12:34:11 PDT 2013 x86_64.
%%Title: figs/eps/line_forc_coeffs.eps
%%CreationDate: 08/21/2013  14:40:42
%%DocumentNeededFonts: Helvetica
%%+ Helvetica-Bold
%%DocumentProcessColors: Cyan Magenta Yellow Black
%%LanguageLevel: 2
%%Pages: 1
%%BoundingBox:     5     1   707   427
%%EndComments

%%BeginProlog
% MathWorks dictionary
/MathWorks 160 dict begin
% definition operators
/bdef {bind def} bind def
/ldef {load def} bind def
/xdef {exch def} bdef
/xstore {exch store} bdef
% operator abbreviations
/c  /clip ldef
/cc /concat ldef
/cp /closepath ldef
/gr /grestore ldef
/gs /gsave ldef
/mt /moveto ldef
/np /newpath ldef
/cm /currentmatrix ldef
/sm /setmatrix ldef
/rm /rmoveto ldef
/rl /rlineto ldef
/s {show newpath} bdef
/sc {setcmykcolor} bdef
/sr /setrgbcolor ldef
/sg /setgray ldef
/w /setlinewidth ldef
/j /setlinejoin ldef
/cap /setlinecap ldef
/rc {rectclip} bdef
/rf {rectfill} bdef
% page state control
/pgsv () def
/bpage {/pgsv save def} bdef
/epage {pgsv restore} bdef
/bplot /gsave ldef
/eplot {stroke grestore} bdef
% orientation switch
/portraitMode 0 def /landscapeMode 1 def /rotateMode 2 def
% coordinate system mappings
/dpi2point 0 def
% font control
/FontSize 0 def
/FMS {/FontSize xstore findfont [FontSize 0 0 FontSize neg 0 0]
  makefont setfont} bdef
/reencode {exch dup where {pop load} {pop StandardEncoding} ifelse
  exch dup 3 1 roll findfont dup length dict begin
  { 1 index /FID ne {def}{pop pop} ifelse } forall
  /Encoding exch def currentdict end definefont pop} bdef
/isroman {findfont /CharStrings get /Agrave known} bdef
/FMSR {3 1 roll 1 index dup isroman {reencode} {pop pop} ifelse
  exch FMS} bdef
/csm {1 dpi2point div -1 dpi2point div scale neg translate
 dup landscapeMode eq {pop -90 rotate}
  {rotateMode eq {90 rotate} if} ifelse} bdef
% line types: solid, dotted, dashed, dotdash
/SO { [] 0 setdash } bdef
/DO { [.5 dpi2point mul 4 dpi2point mul] 0 setdash } bdef
/DA { [6 dpi2point mul] 0 setdash } bdef
/DD { [.5 dpi2point mul 4 dpi2point mul 6 dpi2point mul 4
  dpi2point mul] 0 setdash } bdef
% macros for lines and objects
/L {lineto stroke} bdef
/MP {3 1 roll moveto 1 sub {rlineto} repeat} bdef
/AP {{rlineto} repeat} bdef
/PDlw -1 def
/W {/PDlw currentlinewidth def setlinewidth} def
/PP {closepath eofill} bdef
/DP {closepath stroke} bdef
/MR {4 -2 roll moveto dup  0 exch rlineto exch 0 rlineto
  neg 0 exch rlineto closepath} bdef
/FR {MR stroke} bdef
/PR {MR fill} bdef
/L1i {{currentfile picstr readhexstring pop} image} bdef
/tMatrix matrix def
/MakeOval {newpath tMatrix currentmatrix pop translate scale
0 0 1 0 360 arc tMatrix setmatrix} bdef
/FO {MakeOval stroke} bdef
/PO {MakeOval fill} bdef
/PD {currentlinewidth 2 div 0 360 arc fill
   PDlw -1 eq not {PDlw w /PDlw -1 def} if} def
/FA {newpath tMatrix currentmatrix pop translate scale
  0 0 1 5 -2 roll arc tMatrix setmatrix stroke} bdef
/PA {newpath tMatrix currentmatrix pop	translate 0 0 moveto scale
  0 0 1 5 -2 roll arc closepath tMatrix setmatrix fill} bdef
/FAn {newpath tMatrix currentmatrix pop translate scale
  0 0 1 5 -2 roll arcn tMatrix setmatrix stroke} bdef
/PAn {newpath tMatrix currentmatrix pop translate 0 0 moveto scale
  0 0 1 5 -2 roll arcn closepath tMatrix setmatrix fill} bdef
/vradius 0 def /hradius 0 def /lry 0 def
/lrx 0 def /uly 0 def /ulx 0 def /rad 0 def
/MRR {/vradius xdef /hradius xdef /lry xdef /lrx xdef /uly xdef
  /ulx xdef newpath tMatrix currentmatrix pop ulx hradius add uly
  vradius add translate hradius vradius scale 0 0 1 180 270 arc 
  tMatrix setmatrix lrx hradius sub uly vradius add translate
  hradius vradius scale 0 0 1 270 360 arc tMatrix setmatrix
  lrx hradius sub lry vradius sub translate hradius vradius scale
  0 0 1 0 90 arc tMatrix setmatrix ulx hradius add lry vradius sub
  translate hradius vradius scale 0 0 1 90 180 arc tMatrix setmatrix
  closepath} bdef
/FRR {MRR stroke } bdef
/PRR {MRR fill } bdef
/MlrRR {/lry xdef /lrx xdef /uly xdef /ulx xdef /rad lry uly sub 2 div def
  newpath tMatrix currentmatrix pop ulx rad add uly rad add translate
  rad rad scale 0 0 1 90 270 arc tMatrix setmatrix lrx rad sub lry rad
  sub translate rad rad scale 0 0 1 270 90 arc tMatrix setmatrix
  closepath} bdef
/FlrRR {MlrRR stroke } bdef
/PlrRR {MlrRR fill } bdef
/MtbRR {/lry xdef /lrx xdef /uly xdef /ulx xdef /rad lrx ulx sub 2 div def
  newpath tMatrix currentmatrix pop ulx rad add uly rad add translate
  rad rad scale 0 0 1 180 360 arc tMatrix setmatrix lrx rad sub lry rad
  sub translate rad rad scale 0 0 1 0 180 arc tMatrix setmatrix
  closepath} bdef
/FtbRR {MtbRR stroke } bdef
/PtbRR {MtbRR fill } bdef
/stri 6 array def /dtri 6 array def
/smat 6 array def /dmat 6 array def
/tmat1 6 array def /tmat2 6 array def /dif 3 array def
/asub {/ind2 exch def /ind1 exch def dup dup
  ind1 get exch ind2 get sub exch } bdef
/tri_to_matrix {
  2 0 asub 3 1 asub 4 0 asub 5 1 asub
  dup 0 get exch 1 get 7 -1 roll astore } bdef
/compute_transform {
  dmat dtri tri_to_matrix tmat1 invertmatrix 
  smat stri tri_to_matrix tmat2 concatmatrix } bdef
/ds {stri astore pop} bdef
/dt {dtri astore pop} bdef
/db {2 copy /cols xdef /rows xdef mul dup 3 mul string
  currentfile 
  3 index 0 eq {/ASCIIHexDecode filter}
  {/ASCII85Decode filter 3 index 2 eq {/RunLengthDecode filter} if }
  ifelse exch readstring pop
  dup 0 3 index getinterval /rbmap xdef
  dup 2 index dup getinterval /gbmap xdef
  1 index dup 2 mul exch getinterval /bbmap xdef pop pop}bdef
/it {gs np dtri aload pop moveto lineto lineto cp c
  cols rows 8 compute_transform 
  rbmap gbmap bbmap true 3 colorimage gr}bdef
/il {newpath moveto lineto stroke}bdef
currentdict end def
%%EndProlog

%%BeginSetup
MathWorks begin

0 cap

end
%%EndSetup

%%Page: 1 1
%%BeginPageSetup
%%PageBoundingBox:     5     1   707   427
MathWorks begin
bpage
%%EndPageSetup

%%BeginObject: obj1
bplot

/dpi2point 12 def
portraitMode 0000 5112 csm

   60   -14  8434  5103 rc
87 dict begin %Colortable dictionary
/c0 { 0.000000 0.000000 0.000000 sr} bdef
/c1 { 1.000000 1.000000 1.000000 sr} bdef
/c2 { 0.900000 0.000000 0.000000 sr} bdef
/c3 { 0.000000 0.820000 0.000000 sr} bdef
/c4 { 0.000000 0.000000 0.800000 sr} bdef
/c5 { 0.910000 0.820000 0.320000 sr} bdef
/c6 { 1.000000 0.260000 0.820000 sr} bdef
/c7 { 0.000000 0.820000 0.820000 sr} bdef
c0
1 j
1 sg
   0    0 8516 5115 rf
21 w
0 2301 3407 0 0 -2301 1872 2429 4 MP
PP
-3407 0 0 2301 3407 0 0 -2301 1872 2429 5 MP stroke
gs 1873 128 3407 2302 rc
15.6 w
0 sg
0 -2301 4427 2429 2 MP stroke
30 w
gr

30 w
0 sg
0 j
0 -86 -86 0 0 86 86 0 2255 1205 5 MP
/c8 { 0.580000 0.000000 0.830000 sr} bdef
c8
DP
0 -86 -86 0 0 86 86 0 3107 1626 5 MP
DP
0 -86 -86 0 0 86 86 0 3958 1700 5 MP
DP
0 -86 -86 0 0 86 86 0 4810 1511 5 MP
DP
gs 1873 128 3407 2302 rc
gr

0 -86 -86 0 0 86 86 0 2357 1201 5 MP
/c9 { 0.000000 0.000000 0.500000 sr} bdef
c9
DP
0 -86 -86 0 0 86 86 0 3209 1633 5 MP
DP
0 -86 -86 0 0 86 86 0 4060 1735 5 MP
DP
0 -86 -86 0 0 86 86 0 4912 1523 5 MP
DP
gs 1873 128 3407 2302 rc
gr

54 71 -54 71 -54 -71 54 -71 2298 1673 5 MP
c8
DP
54 71 -54 71 -54 -71 54 -71 3150 1754 5 MP
DP
54 71 -54 71 -54 -71 54 -71 4001 2410 5 MP
DP
54 71 -54 71 -54 -71 54 -71 4853 1946 5 MP
DP
gs 1873 128 3407 2302 rc
gr

54 71 -54 71 -54 -71 54 -71 2400 1826 5 MP
c9
DP
54 71 -54 71 -54 -71 54 -71 3252 1736 5 MP
DP
54 71 -54 71 -54 -71 54 -71 4103 2185 5 MP
DP
54 71 -54 71 -54 -71 54 -71 4955 1916 5 MP
DP
gs 1873 128 3407 2302 rc
gr

0 sg
%%IncludeResource: font Helvetica
/Helvetica /ISOLatin1Encoding 120 FMSR

1856 2472 mt 
( ) s
5263  170 mt 
( ) s
14 w
DO
SO
21 w
1872 2429 mt 5279 2429 L
1872 2429 mt 1872  128 L
2298 2429 mt 2298 2463 L
3150 2429 mt 3150 2463 L
4001 2429 mt 4001 2463 L
4853 2429 mt 4853 2463 L
1872 2429 mt 1838 2429 L
%%IncludeResource: font Helvetica-Bold
/Helvetica-Bold /ISOLatin1Encoding 156 FMSR

1718 2489 mt 
(8) s
1872 2100 mt 1838 2100 L
1872 1771 mt 1838 1771 L
1631 1831 mt 
(10) s
1872 1442 mt 1838 1442 L
1872 1114 mt 1838 1114 L
1631 1174 mt 
(12) s
1872  785 mt 1838  785 L
1872  456 mt 1838  456 L
1631  516 mt 
(14) s
14 w
DO
SO
21 w
1873  128 mt 5279  128 L
5279 2429 mt 5279  128 L
2298  128 mt 2298   93 L
3150  128 mt 3150   93 L
4001  128 mt 4001   93 L
4853  128 mt 4853   93 L
5279 2209 mt 5313 2209 L
5347 2269 mt 
(-0.2) s
5279 1990 mt 5313 1990 L
5279 1771 mt 5313 1771 L
5347 1831 mt 
(0) s
5279 1552 mt 5313 1552 L
5279 1333 mt 5313 1333 L
5347 1393 mt 
(0.2) s
5279 1114 mt 5313 1114 L
5279  895 mt 5313  895 L
5347  955 mt 
(0.4) s
5279  675 mt 5313  675 L
5279  456 mt 5313  456 L
5347  516 mt 
(0.6) s
gs 1873 128 3407 2302 rc
30 w
gr

30 w
c8
2265 1268 mt 2331 1334 L
2331 1268 mt 2265 1334 L
3117 1295 mt 3183 1361 L
3183 1295 mt 3117 1361 L
3968 1326 mt 4034 1392 L
4034 1326 mt 3968 1392 L
4820 1296 mt 4886 1362 L
4886 1296 mt 4820 1362 L
gs 1873 128 3407 2302 rc
gr

c9
2367 1347 mt 2433 1413 L
2433 1347 mt 2367 1413 L
3219 1412 mt 3285 1478 L
3285 1412 mt 3219 1478 L
4070 1487 mt 4136 1553 L
4136 1487 mt 4070 1553 L
4922 1415 mt 4988 1481 L
4988 1415 mt 4922 1481 L
gs 1873 128 3407 2302 rc
gr

-59 34 0 -68 59 34 2259 1744 4 MP
c8
DP
-59 34 0 -68 59 34 3111 1591 4 MP
DP
-59 34 0 -68 59 34 3962 1593 4 MP
DP
-59 34 0 -68 59 34 4814 1643 4 MP
DP
gs 1873 128 3407 2302 rc
gr

-59 34 0 -68 59 34 2361 1195 4 MP
c9
DP
-59 34 0 -68 59 34 3213 396 4 MP
DP
-59 34 0 -68 59 34 4064 276 4 MP
DP
-59 34 0 -68 59 34 4916 622 4 MP
DP
gs 1873 128 3407 2302 rc
21 w
gr

21 w
1 sg
0 2579 2151 0 0 -2579 6290 3642 4 MP
PP
-2151 0 0 2579 2151 0 0 -2579 6290 3642 5 MP stroke
14 w
DO
SO
21 w
0 sg
6290 3642 mt 8441 3642 L
6290 1063 mt 8441 1063 L
6290 3642 mt 6290 1063 L
8441 3642 mt 8441 1063 L
6290 3642 mt 8441 3642 L
6290 3642 mt 6290 1063 L
6290 3642 mt 8441 3642 L
6290 1063 mt 8441 1063 L
6290 3642 mt 6290 1063 L
8441 3642 mt 8441 1063 L
6850 1280 mt 
(ERA-40 Var\(F\)) s
%%IncludeResource: font Helvetica-Bold
/Helvetica-Bold /ISOLatin1Encoding 120 FMSR

7916 1202 mt 
(1/2) s
%%IncludeResource: font Helvetica-Bold
/Helvetica-Bold /ISOLatin1Encoding 156 FMSR

6850 1465 mt 
(  non-precip) s
gs 6290 1063 2152 2580 rc
30 w
gs 6451 1160 281 281 rc
0 -86 -86 0 0 86 86 0 6548 1257 5 MP
c8
DP
gr

c8
gr

30 w
c8
0 sg
6850 1711 mt 
(HadGEM1 Var\(F\)) s
%%IncludeResource: font Helvetica-Bold
/Helvetica-Bold /ISOLatin1Encoding 120 FMSR

8059 1633 mt 
(1/2) s
%%IncludeResource: font Helvetica-Bold
/Helvetica-Bold /ISOLatin1Encoding 156 FMSR

6850 1896 mt 
(  non-precip) s
gs 6290 1063 2152 2580 rc
gs 6451 1591 281 281 rc
0 -86 -86 0 0 86 86 0 6548 1688 5 MP
c9
DP
gr

c9
gr

c9
0 sg
6850 2141 mt 
(ERA-40 Var\(F\)) s
%%IncludeResource: font Helvetica-Bold
/Helvetica-Bold /ISOLatin1Encoding 120 FMSR

7916 2063 mt 
(1/2) s
%%IncludeResource: font Helvetica-Bold
/Helvetica-Bold /ISOLatin1Encoding 156 FMSR

6850 2326 mt 
(  precip) s
gs 6290 1063 2152 2580 rc
gs 6451 2021 281 281 rc
54 71 -54 71 -54 -71 54 -71 6591 2232 5 MP
c8
DP
gr

c8
gr

c8
0 sg
6850 2572 mt 
(HadGEM1 Var\(F\)) s
%%IncludeResource: font Helvetica-Bold
/Helvetica-Bold /ISOLatin1Encoding 120 FMSR

8059 2494 mt 
(1/2) s
%%IncludeResource: font Helvetica-Bold
/Helvetica-Bold /ISOLatin1Encoding 156 FMSR

6850 2757 mt 
(  precip) s
gs 6290 1063 2152 2580 rc
gs 6451 2452 281 281 rc
54 71 -54 71 -54 -71 54 -71 6591 2663 5 MP
c9
DP
gr

c9
gr

c9
0 sg
6850 2968 mt 
(ERA-40 lambda) s
gs 6290 1063 2152 2580 rc
gs 6463 2781 257 257 rc
c8
6558 2876 mt 6624 2942 L
6624 2876 mt 6558 2942 L
gr

c8
gr

c8
0 sg
6850 3171 mt 
(HadGEM1 lambda) s
gs 6290 1063 2152 2580 rc
gs 6463 2983 257 257 rc
c9
6558 3078 mt 6624 3144 L
6624 3078 mt 6558 3144 L
gr

c9
gr

c9
0 sg
6850 3374 mt 
(ERA-40 chi) s
gs 6290 1063 2152 2580 rc
gs 6499 3222 185 185 rc
-59 34 0 -68 59 34 6552 3314 4 MP
c8
DP
gr

c8
gr

c8
0 sg
6850 3577 mt 
(HadGEM1 chi) s
gs 6290 1063 2152 2580 rc
gs 6499 3425 185 185 rc
-59 34 0 -68 59 34 6552 3517 4 MP
c9
DP
gr

c9
21 w
gr

21 w
c9
6 w
0 sg
%%IncludeResource: font Helvetica-Bold
/Helvetica-Bold /ISOLatin1Encoding 180 FMSR

  85 1239 mt 
(Box 1:) s
  85 1445 mt 
(Central US) s
21 w
1 sg
0 2302 3407 0 0 -2302 1872 4833 4 MP
PP
-3407 0 0 2302 3407 0 0 -2302 1872 4833 5 MP stroke
gs 1873 2531 3407 2303 rc
15.6 w
0 sg
0 -2302 4427 4833 2 MP stroke
30 w
gr

30 w
0 sg
0 -86 -86 0 0 86 86 0 2255 2764 5 MP
c8
DP
0 -86 -86 0 0 86 86 0 3107 2960 5 MP
DP
0 -86 -86 0 0 86 86 0 3958 3918 5 MP
DP
0 -86 -86 0 0 86 86 0 4810 3214 5 MP
DP
gs 1873 2531 3407 2303 rc
gr

0 -86 -86 0 0 86 86 0 2357 2921 5 MP
c9
DP
0 -86 -86 0 0 86 86 0 3209 3324 5 MP
DP
0 -86 -86 0 0 86 86 0 4060 3692 5 MP
DP
0 -86 -86 0 0 86 86 0 4912 3312 5 MP
DP
gs 1873 2531 3407 2303 rc
gr

54 71 -54 71 -54 -71 54 -71 2298 4637 5 MP
c8
DP
54 71 -54 71 -54 -71 54 -71 3150 4180 5 MP
DP
54 71 -54 71 -54 -71 54 -71 4001 4701 5 MP
DP
54 71 -54 71 -54 -71 54 -71 4853 4506 5 MP
DP
gs 1873 2531 3407 2303 rc
gr

54 71 -54 71 -54 -71 54 -71 2400 3738 5 MP
c9
DP
54 71 -54 71 -54 -71 54 -71 3252 3146 5 MP
DP
54 71 -54 71 -54 -71 54 -71 4103 4495 5 MP
DP
54 71 -54 71 -54 -71 54 -71 4955 3793 5 MP
DP
gs 1873 2531 3407 2303 rc
gr

0 sg
1425 3237 mt  -90 rotate
(Forcings [Wm-2]) s
90 rotate
%%IncludeResource: font Helvetica
/Helvetica /ISOLatin1Encoding 120 FMSR

1856 4876 mt 
( ) s
5263 2573 mt 
( ) s
14 w
DO
SO
21 w
1872 4833 mt 5279 4833 L
1872 4833 mt 1872 2531 L
2298 4833 mt 2298 4867 L
%%IncludeResource: font Helvetica-Bold
/Helvetica-Bold /ISOLatin1Encoding 156 FMSR

2161 5051 mt 
(Jun) s
3150 4833 mt 3150 4867 L
3039 5051 mt 
(Jul) s
4001 4833 mt 4001 4867 L
3852 5051 mt 
(Aug) s
4853 4833 mt 4853 4867 L
4489 5051 mt 
(Sum. avg.) s
1872 4833 mt 1838 4833 L
1718 4893 mt 
(8) s
1872 4504 mt 1838 4504 L
1872 4175 mt 1838 4175 L
1631 4235 mt 
(10) s
1872 3846 mt 1838 3846 L
1872 3517 mt 1838 3517 L
1631 3577 mt 
(12) s
1872 3188 mt 1838 3188 L
1872 2859 mt 1838 2859 L
1631 2919 mt 
(14) s
14 w
DO
SO
21 w
1873 2531 mt 5279 2531 L
5279 4833 mt 5279 2531 L
2298 2531 mt 2298 2496 L
3150 2531 mt 3150 2496 L
4001 2531 mt 4001 2496 L
4853 2531 mt 4853 2496 L
5279 4613 mt 5313 4613 L
5347 4673 mt 
(-0.2) s
5279 4394 mt 5313 4394 L
5279 4175 mt 5313 4175 L
5347 4235 mt 
(0) s
5279 3956 mt 5313 3956 L
5279 3736 mt 5313 3736 L
5347 3796 mt 
(0.2) s
5279 3517 mt 5313 3517 L
5279 3298 mt 5313 3298 L
5347 3358 mt 
(0.4) s
5279 3079 mt 5313 3079 L
5279 2859 mt 5313 2859 L
5347 2919 mt 
(0.6) s
gs 1873 2531 3407 2303 rc
30 w
gr

30 w
c8
2265 3597 mt 2331 3663 L
2331 3597 mt 2265 3663 L
3117 3665 mt 3183 3731 L
3183 3665 mt 3117 3731 L
3968 3761 mt 4034 3827 L
4034 3761 mt 3968 3827 L
4820 3675 mt 4886 3741 L
4886 3675 mt 4820 3741 L
gs 1873 2531 3407 2303 rc
gr

c9
2367 3487 mt 2433 3553 L
2433 3487 mt 2367 3553 L
3219 3736 mt 3285 3802 L
3285 3736 mt 3219 3802 L
4070 3619 mt 4136 3685 L
4136 3619 mt 4070 3685 L
4922 3614 mt 4988 3680 L
4988 3614 mt 4922 3680 L
gs 1873 2531 3407 2303 rc
gr

-59 34 0 -68 59 34 2259 4600 4 MP
c8
DP
-59 34 0 -68 59 34 3111 4466 4 MP
DP
-59 34 0 -68 59 34 3962 4320 4 MP
DP
-59 34 0 -68 59 34 4814 4462 4 MP
DP
gs 1873 2531 3407 2303 rc
gr

-59 34 0 -68 59 34 2361 4016 4 MP
c9
DP
-59 34 0 -68 59 34 3213 3361 4 MP
DP
-59 34 0 -68 59 34 4064 3742 4 MP
DP
-59 34 0 -68 59 34 4916 3706 4 MP
DP
gs 1873 2531 3407 2303 rc
gr

0 sg
%%IncludeResource: font Helvetica-Bold
/Helvetica-Bold /ISOLatin1Encoding 180 FMSR

5765 1765 mt  -270 rotate
(TM coefficients [-]) s
270 rotate
21 w
1 sg
0 2579 2151 0 0 -2579 6290 3642 4 MP
PP
-2151 0 0 2579 2151 0 0 -2579 6290 3642 5 MP stroke
14 w
DO
SO
21 w
0 sg
6290 3642 mt 8441 3642 L
6290 1063 mt 8441 1063 L
6290 3642 mt 6290 1063 L
8441 3642 mt 8441 1063 L
6290 3642 mt 8441 3642 L
6290 3642 mt 6290 1063 L
6290 3642 mt 8441 3642 L
6290 1063 mt 8441 1063 L
6290 3642 mt 6290 1063 L
8441 3642 mt 8441 1063 L
%%IncludeResource: font Helvetica-Bold
/Helvetica-Bold /ISOLatin1Encoding 156 FMSR

6850 1280 mt 
(ERA-40 Var\(F\)) s
%%IncludeResource: font Helvetica-Bold
/Helvetica-Bold /ISOLatin1Encoding 120 FMSR

7916 1202 mt 
(1/2) s
%%IncludeResource: font Helvetica-Bold
/Helvetica-Bold /ISOLatin1Encoding 156 FMSR

6850 1465 mt 
(  non-precip) s
gs 6290 1063 2152 2580 rc
30 w
gs 6451 1160 281 281 rc
0 -86 -86 0 0 86 86 0 6548 1257 5 MP
c8
DP
gr

c8
gr

30 w
c8
0 sg
6850 1711 mt 
(HadGEM1 Var\(F\)) s
%%IncludeResource: font Helvetica-Bold
/Helvetica-Bold /ISOLatin1Encoding 120 FMSR

8059 1633 mt 
(1/2) s
%%IncludeResource: font Helvetica-Bold
/Helvetica-Bold /ISOLatin1Encoding 156 FMSR

6850 1896 mt 
(  non-precip) s
gs 6290 1063 2152 2580 rc
gs 6451 1591 281 281 rc
0 -86 -86 0 0 86 86 0 6548 1688 5 MP
c9
DP
gr

c9
gr

c9
0 sg
6850 2141 mt 
(ERA-40 Var\(F\)) s
%%IncludeResource: font Helvetica-Bold
/Helvetica-Bold /ISOLatin1Encoding 120 FMSR

7916 2063 mt 
(1/2) s
%%IncludeResource: font Helvetica-Bold
/Helvetica-Bold /ISOLatin1Encoding 156 FMSR

6850 2326 mt 
(  precip) s
gs 6290 1063 2152 2580 rc
gs 6451 2021 281 281 rc
54 71 -54 71 -54 -71 54 -71 6591 2232 5 MP
c8
DP
gr

c8
gr

c8
0 sg
6850 2572 mt 
(HadGEM1 Var\(F\)) s
%%IncludeResource: font Helvetica-Bold
/Helvetica-Bold /ISOLatin1Encoding 120 FMSR

8059 2494 mt 
(1/2) s
%%IncludeResource: font Helvetica-Bold
/Helvetica-Bold /ISOLatin1Encoding 156 FMSR

6850 2757 mt 
(  precip) s
gs 6290 1063 2152 2580 rc
gs 6451 2452 281 281 rc
54 71 -54 71 -54 -71 54 -71 6591 2663 5 MP
c9
DP
gr

c9
gr

c9
0 sg
6850 2968 mt 
(ERA-40 lambda) s
gs 6290 1063 2152 2580 rc
gs 6463 2781 257 257 rc
c8
6558 2876 mt 6624 2942 L
6624 2876 mt 6558 2942 L
gr

c8
gr

c8
0 sg
6850 3171 mt 
(HadGEM1 lambda) s
gs 6290 1063 2152 2580 rc
gs 6463 2983 257 257 rc
c9
6558 3078 mt 6624 3144 L
6624 3078 mt 6558 3144 L
gr

c9
gr

c9
0 sg
6850 3374 mt 
(ERA-40 chi) s
gs 6290 1063 2152 2580 rc
gs 6499 3222 185 185 rc
-59 34 0 -68 59 34 6552 3314 4 MP
c8
DP
gr

c8
gr

c8
0 sg
6850 3577 mt 
(HadGEM1 chi) s
gs 6290 1063 2152 2580 rc
gs 6499 3425 185 185 rc
-59 34 0 -68 59 34 6552 3517 4 MP
c9
DP
gr

c9
21 w
gr

21 w
c9
6 w
0 sg
%%IncludeResource: font Helvetica-Bold
/Helvetica-Bold /ISOLatin1Encoding 180 FMSR

  85 3643 mt 
(Box 2:) s
  85 3849 mt 
(Eastern Europe) s

end %%Color Dict

eplot
%%EndObject

epage
end

showpage

%%Trailer
%%EOF
