%!PS-Adobe-3.0 EPSF-3.0
%%Creator: MATLAB, The Mathworks, Inc. Version 7.5.0.338 (R2007b). Operating System: Linux 3.8.4 #1 SMP Thu Mar 21 12:34:11 PDT 2013 x86_64.
%%Title: figs/eps/hist_comp_tm_Var_T_bias.eps
%%CreationDate: 11/05/2013  11:16:27
%%DocumentNeededFonts: Helvetica-Bold
%%+ Helvetica
%%DocumentProcessColors: Cyan Magenta Yellow Black
%%LanguageLevel: 2
%%Pages: 1
%%BoundingBox:     3     0   341   288
%%EndComments

%%BeginProlog
% MathWorks dictionary
/MathWorks 160 dict begin
% definition operators
/bdef {bind def} bind def
/ldef {load def} bind def
/xdef {exch def} bdef
/xstore {exch store} bdef
% operator abbreviations
/c  /clip ldef
/cc /concat ldef
/cp /closepath ldef
/gr /grestore ldef
/gs /gsave ldef
/mt /moveto ldef
/np /newpath ldef
/cm /currentmatrix ldef
/sm /setmatrix ldef
/rm /rmoveto ldef
/rl /rlineto ldef
/s {show newpath} bdef
/sc {setcmykcolor} bdef
/sr /setrgbcolor ldef
/sg /setgray ldef
/w /setlinewidth ldef
/j /setlinejoin ldef
/cap /setlinecap ldef
/rc {rectclip} bdef
/rf {rectfill} bdef
% page state control
/pgsv () def
/bpage {/pgsv save def} bdef
/epage {pgsv restore} bdef
/bplot /gsave ldef
/eplot {stroke grestore} bdef
% orientation switch
/portraitMode 0 def /landscapeMode 1 def /rotateMode 2 def
% coordinate system mappings
/dpi2point 0 def
% font control
/FontSize 0 def
/FMS {/FontSize xstore findfont [FontSize 0 0 FontSize neg 0 0]
  makefont setfont} bdef
/reencode {exch dup where {pop load} {pop StandardEncoding} ifelse
  exch dup 3 1 roll findfont dup length dict begin
  { 1 index /FID ne {def}{pop pop} ifelse } forall
  /Encoding exch def currentdict end definefont pop} bdef
/isroman {findfont /CharStrings get /Agrave known} bdef
/FMSR {3 1 roll 1 index dup isroman {reencode} {pop pop} ifelse
  exch FMS} bdef
/csm {1 dpi2point div -1 dpi2point div scale neg translate
 dup landscapeMode eq {pop -90 rotate}
  {rotateMode eq {90 rotate} if} ifelse} bdef
% line types: solid, dotted, dashed, dotdash
/SO { [] 0 setdash } bdef
/DO { [.5 dpi2point mul 4 dpi2point mul] 0 setdash } bdef
/DA { [6 dpi2point mul] 0 setdash } bdef
/DD { [.5 dpi2point mul 4 dpi2point mul 6 dpi2point mul 4
  dpi2point mul] 0 setdash } bdef
% macros for lines and objects
/L {lineto stroke} bdef
/MP {3 1 roll moveto 1 sub {rlineto} repeat} bdef
/AP {{rlineto} repeat} bdef
/PDlw -1 def
/W {/PDlw currentlinewidth def setlinewidth} def
/PP {closepath eofill} bdef
/DP {closepath stroke} bdef
/MR {4 -2 roll moveto dup  0 exch rlineto exch 0 rlineto
  neg 0 exch rlineto closepath} bdef
/FR {MR stroke} bdef
/PR {MR fill} bdef
/L1i {{currentfile picstr readhexstring pop} image} bdef
/tMatrix matrix def
/MakeOval {newpath tMatrix currentmatrix pop translate scale
0 0 1 0 360 arc tMatrix setmatrix} bdef
/FO {MakeOval stroke} bdef
/PO {MakeOval fill} bdef
/PD {currentlinewidth 2 div 0 360 arc fill
   PDlw -1 eq not {PDlw w /PDlw -1 def} if} def
/FA {newpath tMatrix currentmatrix pop translate scale
  0 0 1 5 -2 roll arc tMatrix setmatrix stroke} bdef
/PA {newpath tMatrix currentmatrix pop	translate 0 0 moveto scale
  0 0 1 5 -2 roll arc closepath tMatrix setmatrix fill} bdef
/FAn {newpath tMatrix currentmatrix pop translate scale
  0 0 1 5 -2 roll arcn tMatrix setmatrix stroke} bdef
/PAn {newpath tMatrix currentmatrix pop translate 0 0 moveto scale
  0 0 1 5 -2 roll arcn closepath tMatrix setmatrix fill} bdef
/vradius 0 def /hradius 0 def /lry 0 def
/lrx 0 def /uly 0 def /ulx 0 def /rad 0 def
/MRR {/vradius xdef /hradius xdef /lry xdef /lrx xdef /uly xdef
  /ulx xdef newpath tMatrix currentmatrix pop ulx hradius add uly
  vradius add translate hradius vradius scale 0 0 1 180 270 arc 
  tMatrix setmatrix lrx hradius sub uly vradius add translate
  hradius vradius scale 0 0 1 270 360 arc tMatrix setmatrix
  lrx hradius sub lry vradius sub translate hradius vradius scale
  0 0 1 0 90 arc tMatrix setmatrix ulx hradius add lry vradius sub
  translate hradius vradius scale 0 0 1 90 180 arc tMatrix setmatrix
  closepath} bdef
/FRR {MRR stroke } bdef
/PRR {MRR fill } bdef
/MlrRR {/lry xdef /lrx xdef /uly xdef /ulx xdef /rad lry uly sub 2 div def
  newpath tMatrix currentmatrix pop ulx rad add uly rad add translate
  rad rad scale 0 0 1 90 270 arc tMatrix setmatrix lrx rad sub lry rad
  sub translate rad rad scale 0 0 1 270 90 arc tMatrix setmatrix
  closepath} bdef
/FlrRR {MlrRR stroke } bdef
/PlrRR {MlrRR fill } bdef
/MtbRR {/lry xdef /lrx xdef /uly xdef /ulx xdef /rad lrx ulx sub 2 div def
  newpath tMatrix currentmatrix pop ulx rad add uly rad add translate
  rad rad scale 0 0 1 180 360 arc tMatrix setmatrix lrx rad sub lry rad
  sub translate rad rad scale 0 0 1 0 180 arc tMatrix setmatrix
  closepath} bdef
/FtbRR {MtbRR stroke } bdef
/PtbRR {MtbRR fill } bdef
/stri 6 array def /dtri 6 array def
/smat 6 array def /dmat 6 array def
/tmat1 6 array def /tmat2 6 array def /dif 3 array def
/asub {/ind2 exch def /ind1 exch def dup dup
  ind1 get exch ind2 get sub exch } bdef
/tri_to_matrix {
  2 0 asub 3 1 asub 4 0 asub 5 1 asub
  dup 0 get exch 1 get 7 -1 roll astore } bdef
/compute_transform {
  dmat dtri tri_to_matrix tmat1 invertmatrix 
  smat stri tri_to_matrix tmat2 concatmatrix } bdef
/ds {stri astore pop} bdef
/dt {dtri astore pop} bdef
/db {2 copy /cols xdef /rows xdef mul dup 3 mul string
  currentfile 
  3 index 0 eq {/ASCIIHexDecode filter}
  {/ASCII85Decode filter 3 index 2 eq {/RunLengthDecode filter} if }
  ifelse exch readstring pop
  dup 0 3 index getinterval /rbmap xdef
  dup 2 index dup getinterval /gbmap xdef
  1 index dup 2 mul exch getinterval /bbmap xdef pop pop}bdef
/it {gs np dtri aload pop moveto lineto lineto cp c
  cols rows 8 compute_transform 
  rbmap gbmap bbmap true 3 colorimage gr}bdef
/il {newpath moveto lineto stroke}bdef
currentdict end def
%%EndProlog

%%BeginSetup
MathWorks begin

0 cap

end
%%EndSetup

%%Page: 1 1
%%BeginPageSetup
%%PageBoundingBox:     3     0   341   288
MathWorks begin
bpage
%%EndPageSetup

%%BeginObject: obj1
bplot

/dpi2point 12 def
portraitMode 0000 3408 csm

   43   -48  4060  3460 rc
76 dict begin %Colortable dictionary
/c0 { 0.000000 0.000000 0.000000 sr} bdef
/c1 { 1.000000 1.000000 1.000000 sr} bdef
/c2 { 0.900000 0.000000 0.000000 sr} bdef
/c3 { 0.000000 0.820000 0.000000 sr} bdef
/c4 { 0.000000 0.000000 0.800000 sr} bdef
/c5 { 0.910000 0.820000 0.320000 sr} bdef
/c6 { 1.000000 0.260000 0.820000 sr} bdef
/c7 { 0.000000 0.820000 0.820000 sr} bdef
c0
1 j
21 w
1 sg
0 2663 3436 0 0 -2663 576 2919 4 MP
PP
-3436 0 0 2663 3436 0 0 -2663 576 2919 5 MP stroke
gs 576 256 3438 2664 rc
DA
15.6 w
0.4 sg
0 -2663 957 2919 2 MP stroke
0 -2663 1339 2919 2 MP stroke
0 -2663 1721 2919 2 MP stroke
SO
30 w
/c8 { 0.301961 0.686275 0.290196 sr} bdef
c8
2 0 19 -17 19 0 19 17 19 0 19 16 19 -33 19 0 
19 49 19 -32 19 -17 20 0 19 0 19 17 19 -17 19 0 
19 17 19 16 19 -33 19 17 19 -17 19 0 20 33 19 -33 
19 49 19 -49 19 0 19 17 19 0 19 -17 19 33 19 -33 
20 0 19 17 19 -17 19 17 19 -17 19 49 19 -49 19 49 
19 -32 19 32 19 -32 20 -17 19 0 19 0 19 33 19 -16 
19 -17 19 0 19 17 19 16 19 -16 20 0 19 32 19 -49 
19 17 19 -17 19 33 19 0 19 -16 19 0 19 0 19 0 
20 -17 19 0 19 49 19 16 19 -48 19 -17 19 33 19 16 
19 -49 19 17 19 0 20 0 19 0 19 -17 19 17 19 16 
19 32 19 -32 19 16 19 32 19 -32 20 16 19 -32 19 0 
19 -33 19 33 19 16 19 -32 19 0 19 16 19 16 19 16 
20 0 19 -32 19 0 19 -33 19 65 19 32 19 64 19 -48 
19 -64 19 112 20 -16 19 -80 19 32 19 -32 19 16 19 48 
19 113 19 -65 19 -48 19 32 19 16 20 49 19 -65 19 49 
19 80 19 -97 19 49 19 32 19 -81 19 49 19 64 19 -48 
20 -97 19 241 19 17 19 -81 19 81 19 32 19 193 19 0 
19 -16 19 32 20 0 19 64 19 257 19 32 19 17 19 48 
19 402 19 -16 19 434 19 -97 19 -273 20 209 19 -177 19 145 
19 -81 19 -128 19 -32 19 32 19 -274 19 -192 19 -258 20 -257 
19 -16 19 -209 19 -32 19 -129 19 -112 19 64 19 -64 19 32 
19 -16 19 0 20 -33 19 0 19 0 19 0 19 0 19 17 
19 -17 19 0 19 0 19 0 19 0 576 2919 182 MP stroke
/c9 { 0.215686 0.494118 0.721569 sr} bdef
c9
2 -1 19 -6 19 24 19 -18 19 6 19 -12 19 6 19 6 
19 0 19 -6 19 6 20 0 19 -12 19 6 19 6 19 -12 
19 6 19 -6 19 12 19 12 19 0 19 -12 20 18 19 12 
19 -24 19 0 19 -6 19 0 19 -6 19 6 19 -12 19 6 
20 -6 19 12 19 0 19 -6 19 24 19 -12 19 0 19 12 
19 -12 19 6 19 -18 20 6 19 0 19 -12 19 12 19 18 
19 6 19 -6 19 -18 19 12 19 6 20 -24 19 0 19 24 
19 -18 19 12 19 6 19 -18 19 6 19 18 19 -6 19 0 
20 6 19 -12 19 -24 19 30 19 -24 19 24 19 -6 19 12 
19 -12 19 -6 19 -6 20 6 19 -6 19 12 19 -6 19 48 
19 -24 19 42 19 -42 19 -24 19 12 20 -12 19 12 19 6 
19 0 19 36 19 -24 19 -6 19 6 19 -12 19 24 19 0 
20 -18 19 -18 19 18 19 30 19 -6 19 -6 19 6 19 -18 
19 54 19 -36 20 0 19 -30 19 48 19 -18 19 18 19 0 
19 6 19 -24 19 12 19 12 19 54 20 23 19 -29 19 -18 
19 42 19 -36 19 6 19 30 19 11 19 48 19 -12 19 -24 
20 0 19 -12 19 60 19 90 19 -12 19 131 19 -12 19 113 
19 48 19 36 20 -12 19 220 19 293 19 -161 19 161 19 244 
19 -119 19 328 19 -155 19 95 19 143 20 -89 19 6 19 -119 
19 238 19 -125 19 -149 19 47 19 -53 19 -125 19 -161 20 -269 
19 -226 19 -191 19 -54 19 -71 19 -114 19 24 19 -89 19 -96 
19 12 19 -48 20 12 19 -12 19 0 19 -6 19 6 19 -12 
19 6 19 -6 19 0 19 6 19 -6 576 2919 182 MP stroke
/c10 { 0.596078 0.305882 0.639216 sr} bdef
c10
2 0 19 0 19 0 19 0 19 0 19 0 19 11 19 -11 
19 0 19 0 19 0 20 0 19 11 19 0 19 -11 19 11 
19 -11 19 0 19 11 19 -11 19 0 19 0 20 0 19 0 
19 0 19 21 19 -21 19 0 19 0 19 21 19 -10 19 -11 
20 11 19 -11 19 11 19 0 19 0 19 0 19 21 19 -32 
19 11 19 10 19 -21 20 0 19 0 19 0 19 11 19 0 
19 0 19 0 19 -11 19 11 19 0 20 0 19 -11 19 0 
19 11 19 -11 19 0 19 0 19 11 19 0 19 -11 19 21 
20 0 19 -21 19 32 19 -21 19 10 19 -10 19 0 19 21 
19 -32 19 21 19 11 20 -21 19 -11 19 0 19 21 19 0 
19 0 19 0 19 -21 19 21 19 0 20 11 19 -11 19 11 
19 -11 19 21 19 -31 19 0 19 -11 19 32 19 0 19 -21 
20 10 19 11 19 -21 19 21 19 -21 19 21 19 10 19 32 
19 -21 19 31 20 -42 19 32 19 -11 19 0 19 -31 19 31 
19 42 19 -11 19 -20 19 -21 19 31 20 0 19 21 19 0 
19 0 19 0 19 -21 19 21 19 -11 19 -20 19 62 19 -31 
20 125 19 -83 19 52 19 -21 19 136 19 -84 19 32 19 62 
19 -62 19 62 20 42 19 10 19 -104 19 146 19 21 19 105 
19 41 19 -125 19 146 19 220 19 -115 20 135 19 230 19 -63 
19 282 19 -104 19 376 19 42 19 -94 19 73 19 250 20 -114 
19 177 19 21 19 -146 19 -167 19 -188 19 -52 19 -324 19 -313 
19 -105 19 11 20 -84 19 -230 19 -10 19 42 19 -74 19 -104 
19 10 19 0 19 -41 19 -53 19 -83 576 2908 182 MP stroke
/c11 { 0.894118 0.101961 0.109804 sr} bdef
c11
2 1 19 -6 19 6 19 -6 19 11 19 -11 19 16 19 -16 
19 0 19 6 19 5 20 0 19 -11 19 6 19 5 19 -11 
19 11 19 -5 19 -6 19 0 19 0 19 0 20 6 19 0 
19 -6 19 0 19 6 19 5 19 0 19 -5 19 -6 19 11 
20 -11 19 6 19 5 19 5 19 0 19 0 19 -10 19 0 
19 0 19 0 19 10 20 -10 19 5 19 5 19 -16 19 21 
19 10 19 -25 19 0 19 -6 19 16 20 5 19 -10 19 -5 
19 0 19 0 19 0 19 5 19 5 19 10 19 -15 19 10 
20 -10 19 -5 19 5 19 0 19 -5 19 0 19 0 19 25 
19 -10 19 16 19 -16 20 -21 19 26 19 -15 19 20 19 -20 
19 10 19 5 19 -10 19 21 19 -21 20 -10 19 15 19 10 
19 -15 19 21 19 -6 19 -20 19 0 19 36 19 -21 19 -5 
20 21 19 -16 19 5 19 26 19 11 19 -16 19 5 19 0 
19 5 19 -15 20 0 19 52 19 -11 19 -20 19 10 19 15 
19 -36 19 42 19 5 19 0 19 -36 20 25 19 -10 19 0 
19 26 19 5 19 16 19 46 19 -10 19 -26 19 -10 19 87 
20 0 19 11 19 -11 19 -5 19 5 19 119 19 21 19 -16 
19 26 19 52 20 77 19 5 19 31 19 93 19 52 19 67 
19 119 19 -11 19 31 19 362 19 41 20 387 19 222 19 383 
19 227 19 -248 19 -331 19 -382 19 -340 19 -73 19 -57 20 -72 
19 62 19 -57 19 -155 19 -144 19 57 19 -284 19 -42 19 -67 
19 67 19 -196 20 -20 19 -26 19 -36 19 -57 19 -21 19 -31 
19 -41 19 20 19 -31 19 0 19 0 576 2919 182 MP stroke
gr

30 w
c11
0 sg
%%IncludeResource: font Helvetica-Bold
/Helvetica-Bold /ISOLatin1Encoding 168 FMSR

 743 3372 mt 
(Var\(T\) ratio, toy model over dataset  [-]) s
  68  150 mt 
(Probability) s
%%IncludeResource: font Helvetica
/Helvetica /ISOLatin1Encoding 120 FMSR

 559 2962 mt 
( ) s
3997  298 mt 
( ) s
14 w
DO
SO
21 w
 576 2919 mt 4012 2919 L
 576  256 mt 4012  256 L
 576 2919 mt  576  256 L
4012 2919 mt 4012  256 L
 576 2919 mt 4012 2919 L
 576 2919 mt  576  256 L
 576 2919 mt  576 2953 L
 576  256 mt  576  221 L
%%IncludeResource: font Helvetica-Bold
/Helvetica-Bold /ISOLatin1Encoding 216 FMSR

 516 3194 mt 
(0) s
 957 2919 mt  957 2953 L
 957  256 mt  957  221 L
 807 3194 mt 
(0.5) s
1148 2919 mt 1148 2953 L
1148  256 mt 1148  221 L
1339 2919 mt 1339 2953 L
1339  256 mt 1339  221 L
1279 3194 mt 
(1) s
1530 2919 mt 1530 2953 L
1530  256 mt 1530  221 L
1721 2919 mt 1721 2953 L
1721  256 mt 1721  221 L
1571 3194 mt 
(1.5) s
2103 2919 mt 2103 2953 L
2103  256 mt 2103  221 L
2043 3194 mt 
(2) s
2485 2919 mt 2485 2953 L
2485  256 mt 2485  221 L
2867 2919 mt 2867 2953 L
2867  256 mt 2867  221 L
2807 3194 mt 
(3) s
3249 2919 mt 3249 2953 L
3249  256 mt 3249  221 L
3631 2919 mt 3631 2953 L
3631  256 mt 3631  221 L
3571 3194 mt 
(4) s
 576 2919 mt  541 2919 L
4013 2919 mt 4047 2919 L
 387 3001 mt 
(0) s
 576 2386 mt  541 2386 L
4013 2386 mt 4047 2386 L
 207 2468 mt 
(0.5) s
 576 1853 mt  541 1853 L
4013 1853 mt 4047 1853 L
 387 1935 mt 
(1) s
 576 1321 mt  541 1321 L
4013 1321 mt 4047 1321 L
 207 1403 mt 
(1.5) s
 576  788 mt  541  788 L
4013  788 mt 4047  788 L
 387  870 mt 
(2) s
 576  256 mt  541  256 L
4013  256 mt 4047  256 L
 576 2919 mt 4012 2919 L
 576  256 mt 4012  256 L
 576 2919 mt  576  256 L
4012 2919 mt 4012  256 L
1 sg
0 642 1169 0 0 -642 2786 959 4 MP
PP
-1169 0 0 642 1169 0 0 -642 2786 959 5 MP stroke
14 w
DO
SO
21 w
0 sg
2786  959 mt 3955  959 L
2786  317 mt 3955  317 L
2786  959 mt 2786  317 L
3955  959 mt 3955  317 L
2786  959 mt 3955  959 L
2786  959 mt 2786  317 L
2786  959 mt 3955  959 L
2786  317 mt 3955  317 L
2786  959 mt 2786  317 L
3955  959 mt 3955  317 L
%%IncludeResource: font Helvetica-Bold
/Helvetica-Bold /ISOLatin1Encoding 120 FMSR

3247  456 mt 
(CCSM3.0) s
gs 2786 317 1170 643 rc
30 w
c11
355 0 2856 411 2 MP stroke
gr

30 w
c11
0 sg
3247  607 mt 
(HadGEM1) s
gs 2786 317 1170 643 rc
c9
355 0 2856 562 2 MP stroke
gr

c9
0 sg
3247  758 mt 
(ERA40) s
gs 2786 317 1170 643 rc
c8
355 0 2856 713 2 MP stroke
gr

c8
0 sg
3247  909 mt 
(NCEP-DOE) s
gs 2786 317 1170 643 rc
c10
355 0 2856 864 2 MP stroke
21 w
gr

21 w
c10

end %%Color Dict

eplot
%%EndObject

epage
end

showpage

%%Trailer
%%EOF
