%!PS-Adobe-3.0 EPSF-3.0
%%Creator: MATLAB, The Mathworks, Inc. Version 7.5.0.338 (R2007b). Operating System: Linux 3.8.4 #1 SMP Thu Mar 21 12:34:11 PDT 2013 x86_64.
%%Title: figs/eps/hist_comp_tm_Var_m_bias.eps
%%CreationDate: 11/05/2013  11:19:22
%%DocumentNeededFonts: Helvetica-Bold
%%+ Helvetica
%%DocumentProcessColors: Cyan Magenta Yellow Black
%%LanguageLevel: 2
%%Pages: 1
%%BoundingBox:     3     0   341   288
%%EndComments

%%BeginProlog
% MathWorks dictionary
/MathWorks 160 dict begin
% definition operators
/bdef {bind def} bind def
/ldef {load def} bind def
/xdef {exch def} bdef
/xstore {exch store} bdef
% operator abbreviations
/c  /clip ldef
/cc /concat ldef
/cp /closepath ldef
/gr /grestore ldef
/gs /gsave ldef
/mt /moveto ldef
/np /newpath ldef
/cm /currentmatrix ldef
/sm /setmatrix ldef
/rm /rmoveto ldef
/rl /rlineto ldef
/s {show newpath} bdef
/sc {setcmykcolor} bdef
/sr /setrgbcolor ldef
/sg /setgray ldef
/w /setlinewidth ldef
/j /setlinejoin ldef
/cap /setlinecap ldef
/rc {rectclip} bdef
/rf {rectfill} bdef
% page state control
/pgsv () def
/bpage {/pgsv save def} bdef
/epage {pgsv restore} bdef
/bplot /gsave ldef
/eplot {stroke grestore} bdef
% orientation switch
/portraitMode 0 def /landscapeMode 1 def /rotateMode 2 def
% coordinate system mappings
/dpi2point 0 def
% font control
/FontSize 0 def
/FMS {/FontSize xstore findfont [FontSize 0 0 FontSize neg 0 0]
  makefont setfont} bdef
/reencode {exch dup where {pop load} {pop StandardEncoding} ifelse
  exch dup 3 1 roll findfont dup length dict begin
  { 1 index /FID ne {def}{pop pop} ifelse } forall
  /Encoding exch def currentdict end definefont pop} bdef
/isroman {findfont /CharStrings get /Agrave known} bdef
/FMSR {3 1 roll 1 index dup isroman {reencode} {pop pop} ifelse
  exch FMS} bdef
/csm {1 dpi2point div -1 dpi2point div scale neg translate
 dup landscapeMode eq {pop -90 rotate}
  {rotateMode eq {90 rotate} if} ifelse} bdef
% line types: solid, dotted, dashed, dotdash
/SO { [] 0 setdash } bdef
/DO { [.5 dpi2point mul 4 dpi2point mul] 0 setdash } bdef
/DA { [6 dpi2point mul] 0 setdash } bdef
/DD { [.5 dpi2point mul 4 dpi2point mul 6 dpi2point mul 4
  dpi2point mul] 0 setdash } bdef
% macros for lines and objects
/L {lineto stroke} bdef
/MP {3 1 roll moveto 1 sub {rlineto} repeat} bdef
/AP {{rlineto} repeat} bdef
/PDlw -1 def
/W {/PDlw currentlinewidth def setlinewidth} def
/PP {closepath eofill} bdef
/DP {closepath stroke} bdef
/MR {4 -2 roll moveto dup  0 exch rlineto exch 0 rlineto
  neg 0 exch rlineto closepath} bdef
/FR {MR stroke} bdef
/PR {MR fill} bdef
/L1i {{currentfile picstr readhexstring pop} image} bdef
/tMatrix matrix def
/MakeOval {newpath tMatrix currentmatrix pop translate scale
0 0 1 0 360 arc tMatrix setmatrix} bdef
/FO {MakeOval stroke} bdef
/PO {MakeOval fill} bdef
/PD {currentlinewidth 2 div 0 360 arc fill
   PDlw -1 eq not {PDlw w /PDlw -1 def} if} def
/FA {newpath tMatrix currentmatrix pop translate scale
  0 0 1 5 -2 roll arc tMatrix setmatrix stroke} bdef
/PA {newpath tMatrix currentmatrix pop	translate 0 0 moveto scale
  0 0 1 5 -2 roll arc closepath tMatrix setmatrix fill} bdef
/FAn {newpath tMatrix currentmatrix pop translate scale
  0 0 1 5 -2 roll arcn tMatrix setmatrix stroke} bdef
/PAn {newpath tMatrix currentmatrix pop translate 0 0 moveto scale
  0 0 1 5 -2 roll arcn closepath tMatrix setmatrix fill} bdef
/vradius 0 def /hradius 0 def /lry 0 def
/lrx 0 def /uly 0 def /ulx 0 def /rad 0 def
/MRR {/vradius xdef /hradius xdef /lry xdef /lrx xdef /uly xdef
  /ulx xdef newpath tMatrix currentmatrix pop ulx hradius add uly
  vradius add translate hradius vradius scale 0 0 1 180 270 arc 
  tMatrix setmatrix lrx hradius sub uly vradius add translate
  hradius vradius scale 0 0 1 270 360 arc tMatrix setmatrix
  lrx hradius sub lry vradius sub translate hradius vradius scale
  0 0 1 0 90 arc tMatrix setmatrix ulx hradius add lry vradius sub
  translate hradius vradius scale 0 0 1 90 180 arc tMatrix setmatrix
  closepath} bdef
/FRR {MRR stroke } bdef
/PRR {MRR fill } bdef
/MlrRR {/lry xdef /lrx xdef /uly xdef /ulx xdef /rad lry uly sub 2 div def
  newpath tMatrix currentmatrix pop ulx rad add uly rad add translate
  rad rad scale 0 0 1 90 270 arc tMatrix setmatrix lrx rad sub lry rad
  sub translate rad rad scale 0 0 1 270 90 arc tMatrix setmatrix
  closepath} bdef
/FlrRR {MlrRR stroke } bdef
/PlrRR {MlrRR fill } bdef
/MtbRR {/lry xdef /lrx xdef /uly xdef /ulx xdef /rad lrx ulx sub 2 div def
  newpath tMatrix currentmatrix pop ulx rad add uly rad add translate
  rad rad scale 0 0 1 180 360 arc tMatrix setmatrix lrx rad sub lry rad
  sub translate rad rad scale 0 0 1 0 180 arc tMatrix setmatrix
  closepath} bdef
/FtbRR {MtbRR stroke } bdef
/PtbRR {MtbRR fill } bdef
/stri 6 array def /dtri 6 array def
/smat 6 array def /dmat 6 array def
/tmat1 6 array def /tmat2 6 array def /dif 3 array def
/asub {/ind2 exch def /ind1 exch def dup dup
  ind1 get exch ind2 get sub exch } bdef
/tri_to_matrix {
  2 0 asub 3 1 asub 4 0 asub 5 1 asub
  dup 0 get exch 1 get 7 -1 roll astore } bdef
/compute_transform {
  dmat dtri tri_to_matrix tmat1 invertmatrix 
  smat stri tri_to_matrix tmat2 concatmatrix } bdef
/ds {stri astore pop} bdef
/dt {dtri astore pop} bdef
/db {2 copy /cols xdef /rows xdef mul dup 3 mul string
  currentfile 
  3 index 0 eq {/ASCIIHexDecode filter}
  {/ASCII85Decode filter 3 index 2 eq {/RunLengthDecode filter} if }
  ifelse exch readstring pop
  dup 0 3 index getinterval /rbmap xdef
  dup 2 index dup getinterval /gbmap xdef
  1 index dup 2 mul exch getinterval /bbmap xdef pop pop}bdef
/it {gs np dtri aload pop moveto lineto lineto cp c
  cols rows 8 compute_transform 
  rbmap gbmap bbmap true 3 colorimage gr}bdef
/il {newpath moveto lineto stroke}bdef
currentdict end def
%%EndProlog

%%BeginSetup
MathWorks begin

0 cap

end
%%EndSetup

%%Page: 1 1
%%BeginPageSetup
%%PageBoundingBox:     3     0   341   288
MathWorks begin
bpage
%%EndPageSetup

%%BeginObject: obj1
bplot

/dpi2point 12 def
portraitMode 0000 3408 csm

   43   -48  4060  3460 rc
76 dict begin %Colortable dictionary
/c0 { 0.000000 0.000000 0.000000 sr} bdef
/c1 { 1.000000 1.000000 1.000000 sr} bdef
/c2 { 0.900000 0.000000 0.000000 sr} bdef
/c3 { 0.000000 0.820000 0.000000 sr} bdef
/c4 { 0.000000 0.000000 0.800000 sr} bdef
/c5 { 0.910000 0.820000 0.320000 sr} bdef
/c6 { 1.000000 0.260000 0.820000 sr} bdef
/c7 { 0.000000 0.820000 0.820000 sr} bdef
c0
1 j
21 w
1 sg
0 2720 3436 0 0 -2720 576 2976 4 MP
PP
-3436 0 0 2720 3436 0 0 -2720 576 2976 5 MP stroke
gs 576 256 3438 2721 rc
DA
15.6 w
0.4 sg
0 -2720 957 2976 2 MP stroke
0 -2720 1339 2976 2 MP stroke
0 -2720 1721 2976 2 MP stroke
SO
30 w
/c8 { 0.301961 0.686275 0.290196 sr} bdef
c8
2 0 19 0 19 0 19 0 19 16 19 -16 19 0 19 0 
19 0 19 16 19 -16 20 0 19 0 19 0 19 0 19 0 
19 0 19 0 19 16 19 -16 19 0 19 16 20 -16 19 0 
19 0 19 0 19 0 19 16 19 -16 19 0 19 0 19 0 
20 0 19 0 19 0 19 0 19 0 19 0 19 0 19 16 
19 -16 19 16 19 0 20 -16 19 0 19 0 19 16 19 -16 
19 16 19 0 19 -16 19 0 19 0 20 16 19 -16 19 16 
19 -16 19 0 19 31 19 -31 19 0 19 0 19 0 19 0 
20 0 19 0 19 0 19 0 19 16 19 0 19 -16 19 16 
19 -16 19 0 19 0 20 0 19 16 19 0 19 -16 19 0 
19 0 19 0 19 0 19 16 19 0 20 -16 19 0 19 16 
19 -16 19 16 19 0 19 -16 19 0 19 0 19 46 19 -30 
20 -16 19 0 19 0 19 0 19 16 19 -16 19 0 19 0 
19 16 19 0 20 -16 19 16 19 -16 19 16 19 -16 19 31 
19 0 19 -15 19 -16 19 31 19 -15 20 -16 19 0 19 16 
19 -16 19 46 19 -30 19 15 19 -31 19 46 19 -46 19 31 
20 15 19 -46 19 31 19 15 19 0 19 -15 19 -31 19 77 
19 0 19 30 20 -46 19 61 19 0 19 91 19 213 19 -15 
19 380 19 0 19 532 19 472 19 106 20 472 19 60 19 -258 
19 0 19 350 19 -304 19 -289 19 -259 19 -365 19 122 20 -107 
19 -380 19 -365 19 76 19 -182 19 -15 19 76 19 -137 19 -122 
19 -45 19 15 20 30 19 -76 19 -91 19 -15 19 106 19 -30 
19 -31 19 46 19 -15 19 -61 19 30 576 2839 182 MP stroke
/c9 { 0.215686 0.494118 0.721569 sr} bdef
c9
2 0 19 -6 19 17 19 -17 19 0 19 0 19 0 19 0 
19 6 19 0 19 -6 20 0 19 0 19 6 19 0 19 0 
19 0 19 -6 19 0 19 17 19 6 19 -17 20 -6 19 17 
19 -11 19 0 19 -6 19 0 19 0 19 0 19 6 19 0 
20 0 19 0 19 6 19 -6 19 6 19 -12 19 6 19 0 
19 6 19 0 19 0 20 -6 19 0 19 0 19 6 19 -6 
19 0 19 -6 19 0 19 17 19 -5 20 -6 19 23 19 -17 
19 -6 19 0 19 11 19 -5 19 5 19 -11 19 11 19 0 
20 -17 19 6 19 6 19 0 19 0 19 5 19 -11 19 0 
19 17 19 -11 19 0 20 0 19 5 19 -17 19 6 19 0 
19 6 19 -6 19 0 19 17 19 -6 20 6 19 -23 19 12 
19 5 19 0 19 -5 19 5 19 -5 19 17 19 -12 19 -5 
20 0 19 -12 19 23 19 0 19 -6 19 -5 19 -6 19 6 
19 -6 19 11 20 12 19 5 19 -11 19 -11 19 -12 19 40 
19 -17 19 -17 19 23 19 -6 19 23 20 -12 19 -5 19 0 
19 5 19 6 19 0 19 39 19 -33 19 0 19 -6 19 11 
20 0 19 6 19 -11 19 17 19 -23 19 17 19 -11 19 62 
19 -40 19 11 20 34 19 6 19 141 19 96 19 141 19 62 
19 180 19 186 19 74 19 191 19 192 20 271 19 -192 19 389 
19 -67 19 175 19 -12 19 57 19 0 19 -79 19 -282 20 -40 
19 -175 19 -423 19 -253 19 33 19 -203 19 23 19 -141 19 68 
19 -102 19 -152 20 11 19 -101 19 -12 19 -34 19 17 19 -56 
19 -11 19 -57 19 34 19 85 19 665 576 2158 182 MP stroke
/c10 { 0.596078 0.305882 0.639216 sr} bdef
c10
2 0 19 10 19 -10 19 10 19 -10 19 10 19 10 19 -30 
19 10 19 20 19 -10 20 -10 19 10 19 -10 19 10 19 10 
19 -20 19 20 19 20 19 -10 19 -40 19 20 20 10 19 30 
19 -50 19 0 19 30 19 -40 19 20 19 0 19 -10 19 10 
20 60 19 -60 19 10 19 -20 19 50 19 -60 19 30 19 20 
19 -10 19 -30 19 20 20 -10 19 -10 19 0 19 40 19 -20 
19 30 19 -20 19 -20 19 10 19 0 20 0 19 30 19 -10 
19 -30 19 -10 19 89 19 -69 19 10 19 -20 19 30 19 -30 
20 50 19 -40 19 20 19 39 19 -29 19 -40 19 0 19 0 
19 10 19 30 19 -10 20 -30 19 40 19 -10 19 0 19 20 
19 -20 19 20 19 -40 19 50 19 -30 20 20 19 0 19 -30 
19 -10 19 0 19 30 19 20 19 -30 19 0 19 49 19 -29 
20 -10 19 -30 19 40 19 29 19 -49 19 -10 19 30 19 10 
19 -30 19 -10 20 99 19 -89 19 59 19 -29 19 9 19 10 
19 -59 19 119 19 -20 19 -40 19 -10 20 10 19 10 19 30 
19 39 19 -49 19 0 19 79 19 -10 19 0 19 -39 19 29 
20 -118 19 89 19 0 19 98 19 -69 19 -59 19 30 19 59 
19 -40 19 10 20 30 19 -10 19 20 19 39 19 -29 19 19 
19 178 19 -30 19 70 19 118 19 168 20 178 19 385 19 20 
19 227 19 39 19 -49 19 -49 19 158 19 -524 19 405 20 -365 
19 -306 19 -119 19 -296 19 69 19 -158 19 -168 19 10 19 -40 
19 -39 19 -50 20 -39 19 30 19 0 19 -60 19 50 19 29 
19 -19 19 -30 19 0 19 -20 19 198 576 2748 182 MP stroke
/c11 { 0.894118 0.101961 0.109804 sr} bdef
c11
2 0 19 0 19 15 19 -15 19 0 19 0 19 0 19 5 
19 0 19 0 19 0 20 5 19 -5 19 0 19 10 19 -5 
19 -5 19 -5 19 5 19 15 19 -15 19 -5 20 0 19 5 
19 15 19 -20 19 5 19 5 19 -5 19 0 19 15 19 -10 
20 -10 19 5 19 0 19 -5 19 15 19 -10 19 0 19 0 
19 -5 19 5 19 5 20 -5 19 0 19 10 19 -15 19 0 
19 10 19 -10 19 5 19 -5 19 5 20 -5 19 20 19 -10 
19 10 19 -5 19 0 19 -5 19 0 19 5 19 -5 19 0 
20 5 19 -5 19 5 19 0 19 5 19 5 19 -15 19 -5 
19 10 19 20 19 -25 20 15 19 -20 19 25 19 -20 19 -5 
19 10 19 20 19 0 19 -10 19 -15 20 25 19 -15 19 5 
19 24 19 -24 19 10 19 -15 19 5 19 5 19 19 19 -14 
20 -15 19 0 19 44 19 -10 19 -5 19 -19 19 5 19 -10 
19 0 19 10 20 19 19 -39 19 44 19 20 19 -35 19 -4 
19 44 19 -25 19 0 19 -15 19 -4 20 34 19 29 19 -15 
19 -14 19 5 19 24 19 -15 19 35 19 9 19 -9 19 4 
20 59 19 34 19 30 19 112 19 19 19 210 19 30 19 161 
19 54 19 332 20 293 19 439 19 103 19 -69 19 -249 19 -58 
19 -98 19 -166 19 -103 19 -78 19 -88 20 -136 19 141 19 -132 
19 -68 19 29 19 -161 19 -5 19 -151 19 73 19 -156 20 -25 
19 -48 19 -25 19 -44 19 -83 19 -14 19 -30 19 30 19 29 
19 -83 19 68 20 -161 19 5 19 0 19 -78 19 15 19 -15 
19 -25 19 0 19 -14 19 10 19 107 576 2829 182 MP stroke
gr

30 w
c11
0 sg
%%IncludeResource: font Helvetica-Bold
/Helvetica-Bold /ISOLatin1Encoding 168 FMSR

 720 3372 mt 
(Var\(m\) ratio, toy model over dataset  [-]) s
  68  154 mt 
(Probability) s
%%IncludeResource: font Helvetica
/Helvetica /ISOLatin1Encoding 120 FMSR

 559 3019 mt 
( ) s
3997  298 mt 
( ) s
14 w
DO
SO
21 w
 576 2976 mt 4012 2976 L
 576  256 mt 4012  256 L
 576 2976 mt  576  256 L
4012 2976 mt 4012  256 L
 576 2976 mt 4012 2976 L
 576 2976 mt  576  256 L
 576 2976 mt  576 3010 L
 576  256 mt  576  221 L
%%IncludeResource: font Helvetica-Bold
/Helvetica-Bold /ISOLatin1Encoding 156 FMSR

 533 3194 mt 
(0) s
 957 2976 mt  957 3010 L
 957  256 mt  957  221 L
 849 3194 mt 
(0.5) s
1148 2976 mt 1148 3010 L
1148  256 mt 1148  221 L
1339 2976 mt 1339 3010 L
1339  256 mt 1339  221 L
1296 3194 mt 
(1) s
1530 2976 mt 1530 3010 L
1530  256 mt 1530  221 L
1721 2976 mt 1721 3010 L
1721  256 mt 1721  221 L
1613 3194 mt 
(1.5) s
2103 2976 mt 2103 3010 L
2103  256 mt 2103  221 L
2060 3194 mt 
(2) s
2485 2976 mt 2485 3010 L
2485  256 mt 2485  221 L
2867 2976 mt 2867 3010 L
2867  256 mt 2867  221 L
2824 3194 mt 
(3) s
3249 2976 mt 3249 3010 L
3249  256 mt 3249  221 L
3631 2976 mt 3631 3010 L
3631  256 mt 3631  221 L
3588 3194 mt 
(4) s
 576 2976 mt  541 2976 L
4013 2976 mt 4047 2976 L
 421 3036 mt 
(0) s
 576 2472 mt  541 2472 L
4013 2472 mt 4047 2472 L
 291 2532 mt 
(0.5) s
 576 1968 mt  541 1968 L
4013 1968 mt 4047 1968 L
 421 2028 mt 
(1) s
 576 1464 mt  541 1464 L
4013 1464 mt 4047 1464 L
 291 1524 mt 
(1.5) s
 576  961 mt  541  961 L
4013  961 mt 4047  961 L
 421 1021 mt 
(2) s
 576  457 mt  541  457 L
4013  457 mt 4047  457 L
 576 2976 mt 4012 2976 L
 576  256 mt 4012  256 L
 576 2976 mt  576  256 L
4012 2976 mt 4012  256 L
1 sg
0 642 1169 0 0 -642 2786 958 4 MP
PP
-1169 0 0 642 1169 0 0 -642 2786 958 5 MP stroke
14 w
DO
SO
21 w
0 sg
2786  958 mt 3955  958 L
2786  316 mt 3955  316 L
2786  958 mt 2786  316 L
3955  958 mt 3955  316 L
2786  958 mt 3955  958 L
2786  958 mt 2786  316 L
2786  958 mt 3955  958 L
2786  316 mt 3955  316 L
2786  958 mt 2786  316 L
3955  958 mt 3955  316 L
%%IncludeResource: font Helvetica-Bold
/Helvetica-Bold /ISOLatin1Encoding 120 FMSR

3247  455 mt 
(CCSM3.0) s
gs 2786 316 1170 643 rc
30 w
c11
355 0 2856 410 2 MP stroke
gr

30 w
c11
0 sg
3247  606 mt 
(HadGEM1) s
gs 2786 316 1170 643 rc
c9
355 0 2856 561 2 MP stroke
gr

c9
0 sg
3247  757 mt 
(ERA40) s
gs 2786 316 1170 643 rc
c8
355 0 2856 712 2 MP stroke
gr

c8
0 sg
3247  908 mt 
(NCEP-DOE) s
gs 2786 316 1170 643 rc
c10
355 0 2856 863 2 MP stroke
21 w
gr

21 w
c10

end %%Color Dict

eplot
%%EndObject

epage
end

showpage

%%Trailer
%%EOF
