%!PS-Adobe-3.0 EPSF-3.0
%%Creator: MATLAB, The Mathworks, Inc. Version 7.5.0.338 (R2007b). Operating System: Linux 3.8.4 #1 SMP Thu Mar 21 12:34:11 PDT 2013 x86_64.
%%Title: figs/eps/hist_tm_T_dist_no_m_full.eps
%%CreationDate: 08/20/2013  15:44:44
%%DocumentNeededFonts: Helvetica-Bold
%%+ Helvetica
%%DocumentProcessColors: Cyan Magenta Yellow Black
%%LanguageLevel: 2
%%Pages: 1
%%BoundingBox:    11     7   666   313
%%EndComments

%%BeginProlog
% MathWorks dictionary
/MathWorks 160 dict begin
% definition operators
/bdef {bind def} bind def
/ldef {load def} bind def
/xdef {exch def} bdef
/xstore {exch store} bdef
% operator abbreviations
/c  /clip ldef
/cc /concat ldef
/cp /closepath ldef
/gr /grestore ldef
/gs /gsave ldef
/mt /moveto ldef
/np /newpath ldef
/cm /currentmatrix ldef
/sm /setmatrix ldef
/rm /rmoveto ldef
/rl /rlineto ldef
/s {show newpath} bdef
/sc {setcmykcolor} bdef
/sr /setrgbcolor ldef
/sg /setgray ldef
/w /setlinewidth ldef
/j /setlinejoin ldef
/cap /setlinecap ldef
/rc {rectclip} bdef
/rf {rectfill} bdef
% page state control
/pgsv () def
/bpage {/pgsv save def} bdef
/epage {pgsv restore} bdef
/bplot /gsave ldef
/eplot {stroke grestore} bdef
% orientation switch
/portraitMode 0 def /landscapeMode 1 def /rotateMode 2 def
% coordinate system mappings
/dpi2point 0 def
% font control
/FontSize 0 def
/FMS {/FontSize xstore findfont [FontSize 0 0 FontSize neg 0 0]
  makefont setfont} bdef
/reencode {exch dup where {pop load} {pop StandardEncoding} ifelse
  exch dup 3 1 roll findfont dup length dict begin
  { 1 index /FID ne {def}{pop pop} ifelse } forall
  /Encoding exch def currentdict end definefont pop} bdef
/isroman {findfont /CharStrings get /Agrave known} bdef
/FMSR {3 1 roll 1 index dup isroman {reencode} {pop pop} ifelse
  exch FMS} bdef
/csm {1 dpi2point div -1 dpi2point div scale neg translate
 dup landscapeMode eq {pop -90 rotate}
  {rotateMode eq {90 rotate} if} ifelse} bdef
% line types: solid, dotted, dashed, dotdash
/SO { [] 0 setdash } bdef
/DO { [.5 dpi2point mul 4 dpi2point mul] 0 setdash } bdef
/DA { [6 dpi2point mul] 0 setdash } bdef
/DD { [.5 dpi2point mul 4 dpi2point mul 6 dpi2point mul 4
  dpi2point mul] 0 setdash } bdef
% macros for lines and objects
/L {lineto stroke} bdef
/MP {3 1 roll moveto 1 sub {rlineto} repeat} bdef
/AP {{rlineto} repeat} bdef
/PDlw -1 def
/W {/PDlw currentlinewidth def setlinewidth} def
/PP {closepath eofill} bdef
/DP {closepath stroke} bdef
/MR {4 -2 roll moveto dup  0 exch rlineto exch 0 rlineto
  neg 0 exch rlineto closepath} bdef
/FR {MR stroke} bdef
/PR {MR fill} bdef
/L1i {{currentfile picstr readhexstring pop} image} bdef
/tMatrix matrix def
/MakeOval {newpath tMatrix currentmatrix pop translate scale
0 0 1 0 360 arc tMatrix setmatrix} bdef
/FO {MakeOval stroke} bdef
/PO {MakeOval fill} bdef
/PD {currentlinewidth 2 div 0 360 arc fill
   PDlw -1 eq not {PDlw w /PDlw -1 def} if} def
/FA {newpath tMatrix currentmatrix pop translate scale
  0 0 1 5 -2 roll arc tMatrix setmatrix stroke} bdef
/PA {newpath tMatrix currentmatrix pop	translate 0 0 moveto scale
  0 0 1 5 -2 roll arc closepath tMatrix setmatrix fill} bdef
/FAn {newpath tMatrix currentmatrix pop translate scale
  0 0 1 5 -2 roll arcn tMatrix setmatrix stroke} bdef
/PAn {newpath tMatrix currentmatrix pop translate 0 0 moveto scale
  0 0 1 5 -2 roll arcn closepath tMatrix setmatrix fill} bdef
/vradius 0 def /hradius 0 def /lry 0 def
/lrx 0 def /uly 0 def /ulx 0 def /rad 0 def
/MRR {/vradius xdef /hradius xdef /lry xdef /lrx xdef /uly xdef
  /ulx xdef newpath tMatrix currentmatrix pop ulx hradius add uly
  vradius add translate hradius vradius scale 0 0 1 180 270 arc 
  tMatrix setmatrix lrx hradius sub uly vradius add translate
  hradius vradius scale 0 0 1 270 360 arc tMatrix setmatrix
  lrx hradius sub lry vradius sub translate hradius vradius scale
  0 0 1 0 90 arc tMatrix setmatrix ulx hradius add lry vradius sub
  translate hradius vradius scale 0 0 1 90 180 arc tMatrix setmatrix
  closepath} bdef
/FRR {MRR stroke } bdef
/PRR {MRR fill } bdef
/MlrRR {/lry xdef /lrx xdef /uly xdef /ulx xdef /rad lry uly sub 2 div def
  newpath tMatrix currentmatrix pop ulx rad add uly rad add translate
  rad rad scale 0 0 1 90 270 arc tMatrix setmatrix lrx rad sub lry rad
  sub translate rad rad scale 0 0 1 270 90 arc tMatrix setmatrix
  closepath} bdef
/FlrRR {MlrRR stroke } bdef
/PlrRR {MlrRR fill } bdef
/MtbRR {/lry xdef /lrx xdef /uly xdef /ulx xdef /rad lrx ulx sub 2 div def
  newpath tMatrix currentmatrix pop ulx rad add uly rad add translate
  rad rad scale 0 0 1 180 360 arc tMatrix setmatrix lrx rad sub lry rad
  sub translate rad rad scale 0 0 1 0 180 arc tMatrix setmatrix
  closepath} bdef
/FtbRR {MtbRR stroke } bdef
/PtbRR {MtbRR fill } bdef
/stri 6 array def /dtri 6 array def
/smat 6 array def /dmat 6 array def
/tmat1 6 array def /tmat2 6 array def /dif 3 array def
/asub {/ind2 exch def /ind1 exch def dup dup
  ind1 get exch ind2 get sub exch } bdef
/tri_to_matrix {
  2 0 asub 3 1 asub 4 0 asub 5 1 asub
  dup 0 get exch 1 get 7 -1 roll astore } bdef
/compute_transform {
  dmat dtri tri_to_matrix tmat1 invertmatrix 
  smat stri tri_to_matrix tmat2 concatmatrix } bdef
/ds {stri astore pop} bdef
/dt {dtri astore pop} bdef
/db {2 copy /cols xdef /rows xdef mul dup 3 mul string
  currentfile 
  3 index 0 eq {/ASCIIHexDecode filter}
  {/ASCII85Decode filter 3 index 2 eq {/RunLengthDecode filter} if }
  ifelse exch readstring pop
  dup 0 3 index getinterval /rbmap xdef
  dup 2 index dup getinterval /gbmap xdef
  1 index dup 2 mul exch getinterval /bbmap xdef pop pop}bdef
/it {gs np dtri aload pop moveto lineto lineto cp c
  cols rows 8 compute_transform 
  rbmap gbmap bbmap true 3 colorimage gr}bdef
/il {newpath moveto lineto stroke}bdef
currentdict end def
%%EndProlog

%%BeginSetup
MathWorks begin

0 cap

end
%%EndSetup

%%Page: 1 1
%%BeginPageSetup
%%PageBoundingBox:    11     7   666   313
MathWorks begin
bpage
%%EndPageSetup

%%BeginObject: obj1
bplot

/dpi2point 12 def
portraitMode 0000 4080 csm

  135   314  7864  3672 rc
88 dict begin %Colortable dictionary
/c0 { 0.000000 0.000000 0.000000 sr} bdef
/c1 { 1.000000 1.000000 1.000000 sr} bdef
/c2 { 0.900000 0.000000 0.000000 sr} bdef
/c3 { 0.000000 0.820000 0.000000 sr} bdef
/c4 { 0.000000 0.000000 0.800000 sr} bdef
/c5 { 0.910000 0.820000 0.320000 sr} bdef
/c6 { 1.000000 0.260000 0.820000 sr} bdef
/c7 { 0.000000 0.820000 0.820000 sr} bdef
c0
1 j
1 sg
   0    0 8171 4089 rf
21 w
0 1390 1573 0 0 -1390 817 2003 4 MP
PP
-1573 0 0 1390 1573 0 0 -1390 817 2003 5 MP stroke
gs 817 613 1574 1391 rc
DA
15.6 w
0.4 sg
0 -1390 1603 2003 2 MP stroke
SO
37.5 w
/c8 { 0.700000 0.000000 0.000000 sr} bdef
c8
1 -28 16 -5 16 5 16 10 15 -1 16 1 16 10 16 -5 
15 2 16 9 16 -2 16 9 15 6 16 15 16 0 15 5 
16 -13 16 19 16 13 15 -2 16 11 16 13 16 13 15 8 
16 -4 16 13 15 17 16 -10 16 37 16 -13 15 -2 16 21 
16 6 16 -1 15 33 16 -16 16 30 16 -18 15 28 16 -27 
16 31 15 19 16 -13 16 28 16 6 15 -17 16 -6 16 18 
16 -8 15 -6 16 6 16 -30 15 24 16 -20 16 0 16 -15 
15 36 16 -24 16 -7 16 -21 15 -6 16 16 16 -30 15 -2 
16 -25 16 26 16 -27 15 -11 16 17 16 -10 16 -28 15 26 
16 -36 16 11 16 -34 15 5 16 17 16 -7 15 -22 16 10 
16 -19 16 24 15 -13 16 -13 16 7 16 -30 15 0 16 10 
16 1 15 -20 16 5 16 -19 16 10 15 -7 16 -11 16 -4 
16 -9 15 9 16 -10 16 -1 15 0 817 1955 102 MP stroke
24 w
/c9 { 0.000000 0.400000 0.000000 sr} bdef
c9
1 -8 16 2 16 5 16 0 15 6 16 -3 16 9 16 -2 
15 3 16 5 16 7 16 12 15 -8 16 -6 16 16 15 -12 
16 23 16 -7 16 13 15 1 16 5 16 19 16 16 15 9 
16 -10 16 14 15 21 16 -6 16 37 16 -30 15 22 16 34 
16 5 16 0 15 14 16 -5 16 56 16 14 15 31 16 15 
16 11 15 25 16 24 16 -8 16 27 15 8 16 -18 16 42 
16 -23 15 -21 16 45 16 12 15 -26 16 -35 16 -2 16 14 
15 -5 16 -8 16 -26 16 -19 15 -17 16 -26 16 -31 15 21 
16 -38 16 -13 16 19 15 -19 16 -20 16 -18 16 0 15 -23 
16 -37 16 3 16 -5 15 -23 16 -14 16 -1 15 -24 16 13 
16 1 16 -23 15 -2 16 -6 16 23 16 -27 15 2 16 0 
16 6 15 -10 16 -7 16 -14 16 -15 15 5 16 0 16 -16 
16 1 15 -1 16 -4 16 5 15 -6 817 1996 102 MP stroke
gr

24 w
c9
0 sg
%%IncludeResource: font Helvetica-Bold
/Helvetica-Bold /ISOLatin1Encoding 156 FMSR

3463 3926 mt 
(T anomalies [K]) s
 310 2595 mt  -90 rotate
(Probability [-]) s
90 rotate
%%IncludeResource: font Helvetica-Bold
/Helvetica-Bold /ISOLatin1Encoding 132 FMSR

1318  513 mt 
(CCSM3.0) s
%%IncludeResource: font Helvetica-Bold
/Helvetica-Bold /ISOLatin1Encoding 108 FMSR

 895  826 mt 
(Box dry) s
14 w
DO
SO
21 w
 817 2003 mt 2390 2003 L
 817  613 mt 2390  613 L
 817 2003 mt  817  613 L
2390 2003 mt 2390  613 L
 817 2003 mt 2390 2003 L
 817 2003 mt  817  613 L
 817 2003 mt  817 2026 L
 817  613 mt  817  589 L
 974 2003 mt  974 2026 L
 974  613 mt  974  589 L
1131 2003 mt 1131 2026 L
1131  613 mt 1131  589 L
1288 2003 mt 1288 2026 L
1288  613 mt 1288  589 L
1367 2003 mt 1367 2026 L
1367  613 mt 1367  589 L
1446 2003 mt 1446 2026 L
1446  613 mt 1446  589 L
1524 2003 mt 1524 2026 L
1524  613 mt 1524  589 L
1603 2003 mt 1603 2026 L
1603  613 mt 1603  589 L
1682 2003 mt 1682 2026 L
1682  613 mt 1682  589 L
1760 2003 mt 1760 2026 L
1760  613 mt 1760  589 L
1839 2003 mt 1839 2026 L
1839  613 mt 1839  589 L
1918 2003 mt 1918 2026 L
1918  613 mt 1918  589 L
2075 2003 mt 2075 2026 L
2075  613 mt 2075  589 L
2232 2003 mt 2232 2026 L
2232  613 mt 2232  589 L
2390 2003 mt 2390 2026 L
2390  613 mt 2390  589 L
 817 2003 mt  793 2003 L
2390 2003 mt 2413 2003 L
%%IncludeResource: font Helvetica-Bold
/Helvetica-Bold /ISOLatin1Encoding 156 FMSR

 672 2063 mt 
(0) s
 817 1829 mt  793 1829 L
2390 1829 mt 2413 1829 L
 817 1655 mt  793 1655 L
2390 1655 mt 2413 1655 L
 542 1715 mt 
(0.2) s
 817 1481 mt  793 1481 L
2390 1481 mt 2413 1481 L
 817 1308 mt  793 1308 L
2390 1308 mt 2413 1308 L
 542 1368 mt 
(0.4) s
 817 1134 mt  793 1134 L
2390 1134 mt 2413 1134 L
 817  960 mt  793  960 L
2390  960 mt 2413  960 L
 542 1020 mt 
(0.6) s
 817  786 mt  793  786 L
2390  786 mt 2413  786 L
 817 2003 mt 2390 2003 L
 817  613 mt 2390  613 L
 817 2003 mt  817  613 L
2390 2003 mt 2390  613 L
1 sg
0 1390 1573 0 0 -1390 2471 2003 4 MP
PP
-1573 0 0 1390 1573 0 0 -1390 2471 2003 5 MP stroke
gs 2471 613 1574 1391 rc
DA
15.6 w
0.4 sg
0 -1390 3257 2003 2 MP stroke
SO
37.5 w
c8
1 -2 16 -3 16 5 16 -1 15 4 16 2 16 7 16 8 
15 4 16 -8 16 13 16 10 15 3 16 -24 16 36 15 -13 
16 4 16 11 16 0 15 6 16 2 16 9 16 12 15 -11 
16 6 16 19 15 3 16 20 16 16 16 9 15 11 16 25 
16 13 16 -27 15 41 16 4 16 11 16 13 15 33 16 28 
16 9 15 23 16 9 16 8 16 16 15 -6 16 20 16 13 
16 -31 15 26 16 13 16 -5 15 17 16 -5 16 -60 16 46 
15 -67 16 33 16 -24 16 17 15 -43 16 -57 16 -8 15 7 
16 -55 16 10 16 -12 15 7 16 -5 16 -31 16 -13 15 -16 
16 12 16 -23 16 10 15 -16 16 -9 16 18 15 -30 16 15 
16 -26 16 -10 15 -11 16 -10 16 -16 16 8 15 -19 16 12 
16 -8 15 -9 16 -6 16 -1 16 1 15 -19 16 -1 16 0 
16 -7 15 -3 16 1 16 1 15 -4 2471 1994 102 MP stroke
24 w
c9
1 -1 16 0 16 0 16 5 15 -5 16 5 16 0 16 11 
15 -2 16 1 16 8 16 -7 15 12 16 -2 16 27 15 -29 
16 9 16 1 16 13 15 -10 16 17 16 19 16 -3 15 2 
16 4 16 19 15 4 16 9 16 6 16 27 15 15 16 6 
16 28 16 -13 15 29 16 -9 16 28 16 39 15 16 16 37 
16 21 15 19 16 36 16 15 16 26 15 25 16 69 16 -43 
16 49 15 51 16 32 16 -43 15 16 16 -56 16 8 16 -13 
15 -32 16 -23 16 -8 16 -40 15 -27 16 -19 16 -35 15 -47 
16 -8 16 -31 16 -25 15 -26 16 -32 16 4 16 -24 15 -29 
16 7 16 -21 16 -36 15 -5 16 -12 16 7 15 0 16 -12 
16 -12 16 0 15 -12 16 2 16 -13 16 8 15 -9 16 -1 
16 0 15 -3 16 -7 16 -7 16 2 15 -4 16 4 16 -4 
16 1 15 -1 16 2 16 0 15 -2 2471 2002 102 MP stroke
gr

24 w
c9
0 sg
%%IncludeResource: font Helvetica-Bold
/Helvetica-Bold /ISOLatin1Encoding 132 FMSR

2946  513 mt 
(HadGEM1) s
%%IncludeResource: font Helvetica-Bold
/Helvetica-Bold /ISOLatin1Encoding 108 FMSR

2549  826 mt 
(Box dry) s
14 w
DO
SO
21 w
2471 2003 mt 4044 2003 L
2471  613 mt 4044  613 L
2471 2003 mt 2471  613 L
4044 2003 mt 4044  613 L
2471 2003 mt 4044 2003 L
2471 2003 mt 2471  613 L
2471 2003 mt 2471 2026 L
2471  613 mt 2471  589 L
2628 2003 mt 2628 2026 L
2628  613 mt 2628  589 L
2785 2003 mt 2785 2026 L
2785  613 mt 2785  589 L
2942 2003 mt 2942 2026 L
2942  613 mt 2942  589 L
3021 2003 mt 3021 2026 L
3021  613 mt 3021  589 L
3100 2003 mt 3100 2026 L
3100  613 mt 3100  589 L
3178 2003 mt 3178 2026 L
3178  613 mt 3178  589 L
3257 2003 mt 3257 2026 L
3257  613 mt 3257  589 L
3336 2003 mt 3336 2026 L
3336  613 mt 3336  589 L
3414 2003 mt 3414 2026 L
3414  613 mt 3414  589 L
3493 2003 mt 3493 2026 L
3493  613 mt 3493  589 L
3572 2003 mt 3572 2026 L
3572  613 mt 3572  589 L
3729 2003 mt 3729 2026 L
3729  613 mt 3729  589 L
3886 2003 mt 3886 2026 L
3886  613 mt 3886  589 L
4044 2003 mt 4044 2026 L
4044  613 mt 4044  589 L
2471 2003 mt 2447 2003 L
4044 2003 mt 4067 2003 L
2471 1829 mt 2447 1829 L
4044 1829 mt 4067 1829 L
2471 1655 mt 2447 1655 L
4044 1655 mt 4067 1655 L
2471 1481 mt 2447 1481 L
4044 1481 mt 4067 1481 L
2471 1308 mt 2447 1308 L
4044 1308 mt 4067 1308 L
2471 1134 mt 2447 1134 L
4044 1134 mt 4067 1134 L
2471  960 mt 2447  960 L
4044  960 mt 4067  960 L
2471  786 mt 2447  786 L
4044  786 mt 4067  786 L
2471 2003 mt 4044 2003 L
2471  613 mt 4044  613 L
2471 2003 mt 2471  613 L
4044 2003 mt 4044  613 L
1 sg
0 1390 1573 0 0 -1390 4126 2003 4 MP
PP
-1573 0 0 1390 1573 0 0 -1390 4126 2003 5 MP stroke
gs 4126 613 1574 1391 rc
DA
15.6 w
0.4 sg
0 -1390 4912 2003 2 MP stroke
SO
37.5 w
c8
1 -2 16 3 16 -3 16 3 15 5 16 -5 16 0 16 7 
15 0 16 -2 16 7 16 0 15 2 16 10 16 10 15 -27 
16 5 16 14 16 20 15 2 16 5 16 5 16 -12 15 7 
16 10 16 29 15 9 16 -9 16 33 16 29 15 3 16 38 
16 -17 16 32 15 29 16 -32 16 39 16 -12 15 92 16 46 
16 -49 15 78 16 -5 16 89 16 -24 15 19 16 41 16 -24 
16 116 15 -234 16 169 16 38 15 -29 16 39 16 -82 16 43 
15 -84 16 72 16 -50 16 -58 15 -73 16 -2 16 -77 15 41 
16 -51 16 -41 16 -10 15 -33 16 -27 16 7 16 -46 15 -2 
16 5 16 -3 16 -14 15 -44 16 10 16 -24 15 -22 16 3 
16 33 16 -16 15 -27 16 24 16 -38 16 14 15 -14 16 -8 
16 8 15 7 16 0 16 -7 16 -5 15 2 16 -5 16 0 
16 -2 15 2 16 -5 16 0 15 5 4126 1998 102 MP stroke
24 w
c9
1 -2 16 -5 16 3 16 0 15 2 16 3 16 5 16 -5 
15 0 16 2 16 12 16 -7 15 12 16 -14 16 19 15 -15 
16 3 16 9 16 -9 15 19 16 -5 16 10 16 22 15 -5 
16 0 16 53 15 -17 16 10 16 21 16 -14 15 46 16 5 
16 19 16 26 15 -2 16 27 16 12 16 7 15 41 16 29 
16 29 15 -17 16 106 16 -29 16 24 15 39 16 -3 16 92 
16 39 15 -34 16 -43 16 48 15 -24 16 46 16 9 16 56 
15 -150 16 19 16 -26 16 7 15 -87 16 -65 16 -12 15 -39 
16 -50 16 -56 16 12 15 -24 16 -55 16 12 16 -24 15 -10 
16 -7 16 -5 16 17 15 -29 16 -27 16 -14 15 7 16 -12 
16 -5 16 12 15 -29 16 7 16 -21 16 14 15 -17 16 8 
16 2 15 0 16 -2 16 0 16 -3 15 3 16 -10 16 0 
16 0 15 0 16 -3 16 0 15 5 4126 1998 102 MP stroke
gr

24 w
c9
0 sg
%%IncludeResource: font Helvetica-Bold
/Helvetica-Bold /ISOLatin1Encoding 132 FMSR

4700  513 mt 
(ERA40) s
%%IncludeResource: font Helvetica-Bold
/Helvetica-Bold /ISOLatin1Encoding 108 FMSR

4204  826 mt 
(Box dry) s
14 w
DO
SO
21 w
4126 2003 mt 5699 2003 L
4126  613 mt 5699  613 L
4126 2003 mt 4126  613 L
5699 2003 mt 5699  613 L
4126 2003 mt 5699 2003 L
4126 2003 mt 4126  613 L
4126 2003 mt 4126 2026 L
4126  613 mt 4126  589 L
4283 2003 mt 4283 2026 L
4283  613 mt 4283  589 L
4440 2003 mt 4440 2026 L
4440  613 mt 4440  589 L
4597 2003 mt 4597 2026 L
4597  613 mt 4597  589 L
4676 2003 mt 4676 2026 L
4676  613 mt 4676  589 L
4755 2003 mt 4755 2026 L
4755  613 mt 4755  589 L
4833 2003 mt 4833 2026 L
4833  613 mt 4833  589 L
4912 2003 mt 4912 2026 L
4912  613 mt 4912  589 L
4991 2003 mt 4991 2026 L
4991  613 mt 4991  589 L
5069 2003 mt 5069 2026 L
5069  613 mt 5069  589 L
5148 2003 mt 5148 2026 L
5148  613 mt 5148  589 L
5227 2003 mt 5227 2026 L
5227  613 mt 5227  589 L
5384 2003 mt 5384 2026 L
5384  613 mt 5384  589 L
5541 2003 mt 5541 2026 L
5541  613 mt 5541  589 L
5699 2003 mt 5699 2026 L
5699  613 mt 5699  589 L
4126 2003 mt 4102 2003 L
5699 2003 mt 5722 2003 L
4126 1829 mt 4102 1829 L
5699 1829 mt 5722 1829 L
4126 1655 mt 4102 1655 L
5699 1655 mt 5722 1655 L
4126 1481 mt 4102 1481 L
5699 1481 mt 5722 1481 L
4126 1308 mt 4102 1308 L
5699 1308 mt 5722 1308 L
4126 1134 mt 4102 1134 L
5699 1134 mt 5722 1134 L
4126  960 mt 4102  960 L
5699  960 mt 5722  960 L
4126  786 mt 4102  786 L
5699  786 mt 5722  786 L
4126 2003 mt 5699 2003 L
4126  613 mt 5699  613 L
4126 2003 mt 4126  613 L
5699 2003 mt 5699  613 L
1 sg
0 1390 1573 0 0 -1390 5780 2003 4 MP
PP
-1573 0 0 1390 1573 0 0 -1390 5780 2003 5 MP stroke
gs 5780 613 1574 1391 rc
DA
15.6 w
0.4 sg
0 -1390 6566 2003 2 MP stroke
SO
37.5 w
c8
1 -7 16 2 16 0 16 -4 15 6 16 2 16 -2 16 -2 
15 6 16 -8 16 15 16 4 15 -9 16 5 16 23 15 12 
16 2 16 7 16 0 15 -17 16 36 16 -15 16 27 15 -2 
16 15 16 -19 15 40 16 4 16 4 16 0 15 -10 16 44 
16 38 16 -17 15 52 16 -48 16 80 16 21 15 -40 16 50 
16 11 15 56 16 30 16 -95 16 42 15 57 16 -25 16 35 
16 38 15 -10 16 27 16 -8 15 29 16 -55 16 -48 16 46 
15 -29 16 -17 16 13 16 -57 15 -19 16 51 16 16 15 -105 
16 76 16 0 16 -136 15 39 16 -60 16 6 16 12 15 -73 
16 19 16 -27 16 -34 15 0 16 -15 16 9 15 -23 16 -7 
16 -10 16 -11 15 -16 16 6 16 -6 16 -5 15 -21 16 2 
16 7 15 -7 16 11 16 -4 16 -11 15 -8 16 2 16 -4 
16 0 15 0 16 -2 16 0 15 -2 5780 2000 102 MP stroke
24 w
c9
1 -4 16 7 16 -4 16 2 15 0 16 4 16 -9 16 11 
15 0 16 8 16 -10 16 6 15 0 16 0 16 -2 15 25 
16 -14 16 16 16 5 15 6 16 0 16 -6 16 6 15 38 
16 6 16 21 15 -19 16 13 16 29 16 6 15 7 16 6 
16 38 16 19 15 -19 16 37 16 53 16 12 15 3 16 44 
16 71 15 -8 16 4 16 29 16 11 15 -40 16 40 16 19 
16 14 15 19 16 27 16 28 15 -36 16 -10 16 -40 16 144 
15 -130 16 -21 16 -10 16 54 15 -113 16 -52 16 8 15 -71 
16 0 16 -51 16 23 15 -69 16 32 16 -57 16 29 15 -33 
16 -36 16 -17 16 -12 15 17 16 -28 16 4 15 -27 16 21 
16 -31 16 16 15 -21 16 -23 16 5 16 2 15 -11 16 -2 
16 6 15 -2 16 -10 16 14 16 -18 15 2 16 2 16 -4 
16 4 15 -4 16 4 16 -4 15 -3 5780 2003 102 MP stroke
gr

24 w
c9
0 sg
%%IncludeResource: font Helvetica-Bold
/Helvetica-Bold /ISOLatin1Encoding 132 FMSR

6202  513 mt 
(NCEP-DOE) s
%%IncludeResource: font Helvetica-Bold
/Helvetica-Bold /ISOLatin1Encoding 108 FMSR

5858  826 mt 
(Box dry) s
14 w
DO
SO
21 w
5780 2003 mt 7353 2003 L
5780  613 mt 7353  613 L
5780 2003 mt 5780  613 L
7353 2003 mt 7353  613 L
5780 2003 mt 7353 2003 L
5780 2003 mt 5780  613 L
5780 2003 mt 5780 2026 L
5780  613 mt 5780  589 L
5937 2003 mt 5937 2026 L
5937  613 mt 5937  589 L
6094 2003 mt 6094 2026 L
6094  613 mt 6094  589 L
6251 2003 mt 6251 2026 L
6251  613 mt 6251  589 L
6330 2003 mt 6330 2026 L
6330  613 mt 6330  589 L
6409 2003 mt 6409 2026 L
6409  613 mt 6409  589 L
6487 2003 mt 6487 2026 L
6487  613 mt 6487  589 L
6566 2003 mt 6566 2026 L
6566  613 mt 6566  589 L
6645 2003 mt 6645 2026 L
6645  613 mt 6645  589 L
6723 2003 mt 6723 2026 L
6723  613 mt 6723  589 L
6802 2003 mt 6802 2026 L
6802  613 mt 6802  589 L
6881 2003 mt 6881 2026 L
6881  613 mt 6881  589 L
7038 2003 mt 7038 2026 L
7038  613 mt 7038  589 L
7195 2003 mt 7195 2026 L
7195  613 mt 7195  589 L
7353 2003 mt 7353 2026 L
7353  613 mt 7353  589 L
5780 2003 mt 5756 2003 L
7353 2003 mt 7376 2003 L
5780 1829 mt 5756 1829 L
7353 1829 mt 7376 1829 L
5780 1655 mt 5756 1655 L
7353 1655 mt 7376 1655 L
5780 1481 mt 5756 1481 L
7353 1481 mt 7376 1481 L
5780 1308 mt 5756 1308 L
7353 1308 mt 7376 1308 L
5780 1134 mt 5756 1134 L
7353 1134 mt 7376 1134 L
5780  960 mt 5756  960 L
7353  960 mt 7376  960 L
5780  786 mt 5756  786 L
7353  786 mt 7376  786 L
5780 2003 mt 7353 2003 L
5780  613 mt 7353  613 L
5780 2003 mt 5780  613 L
7353 2003 mt 7353  613 L
1 sg
0 1390 1573 0 0 -1390 817 3475 4 MP
PP
-1573 0 0 1390 1573 0 0 -1390 817 3475 5 MP stroke
gs 817 2085 1574 1391 rc
DA
15.6 w
0.4 sg
0 -1390 1603 3475 2 MP stroke
SO
37.5 w
c8
1 0 16 -1 16 -1 16 2 15 -1 16 1 16 1 16 -1 
15 0 16 1 16 1 16 -1 15 0 16 1 16 -1 15 4 
16 -1 16 8 16 -3 15 0 16 2 16 4 16 8 15 -6 
16 1 16 9 15 2 16 5 16 1 16 9 15 10 16 3 
16 22 16 -2 15 -1 16 41 16 -5 16 24 15 24 16 31 
16 39 15 67 16 70 16 103 16 58 15 113 16 60 16 27 
16 152 15 132 16 121 16 18 15 64 16 8 16 -165 16 -177 
15 -168 16 -177 16 -86 16 -116 15 -86 16 -31 16 -45 15 -39 
16 -29 16 -12 16 -20 15 -10 16 -2 16 -20 16 -9 15 -9 
16 -1 16 -8 16 -7 15 3 16 1 16 -4 15 -4 16 1 
16 -2 16 1 15 -2 16 -1 16 2 16 -1 15 1 16 0 
16 -1 15 -1 16 0 16 1 16 -1 15 0 16 0 16 -1 
16 0 15 0 16 0 16 0 15 0 817 3475 102 MP stroke
24 w
c9
1 0 16 0 16 0 16 1 15 0 16 1 16 -1 16 0 
15 1 16 -1 16 0 16 2 15 -2 16 4 16 1 15 -1 
16 2 16 4 16 4 15 -4 16 -1 16 1 16 4 15 2 
16 -1 16 9 15 4 16 2 16 11 16 10 15 -3 16 15 
16 6 16 18 15 19 16 9 16 24 16 31 15 24 16 13 
16 63 15 31 16 64 16 94 16 45 15 118 16 54 16 86 
16 63 15 54 16 141 16 48 15 -13 16 79 16 -91 16 -127 
15 -107 16 -149 16 -110 16 -106 15 -93 16 -91 16 -49 15 -62 
16 -29 16 -30 16 -23 15 -23 16 -12 16 -6 16 -11 15 -3 
16 -3 16 0 16 -6 15 -1 16 0 16 0 15 -2 16 -1 
16 -1 16 0 15 0 16 1 16 -1 16 0 15 0 16 0 
16 0 15 0 16 0 16 0 16 0 15 0 16 0 16 0 
16 0 15 0 16 0 16 0 15 0 817 3475 102 MP stroke
gr

24 w
c9
0 sg
 895 2298 mt 
(Box wet) s
14 w
DO
SO
21 w
 817 3475 mt 2390 3475 L
 817 2085 mt 2390 2085 L
 817 3475 mt  817 2085 L
2390 3475 mt 2390 2085 L
 817 3475 mt 2390 3475 L
 817 3475 mt  817 2085 L
 817 3475 mt  817 3498 L
 817 2085 mt  817 2061 L
 974 3475 mt  974 3498 L
 974 2085 mt  974 2061 L
%%IncludeResource: font Helvetica-Bold
/Helvetica-Bold /ISOLatin1Encoding 156 FMSR

 841 3683 mt 
(-4) s
1131 3475 mt 1131 3498 L
1131 2085 mt 1131 2061 L
 998 3683 mt 
(-3) s
1288 3475 mt 1288 3498 L
1288 2085 mt 1288 2061 L
1155 3683 mt 
(-2) s
1367 3475 mt 1367 3498 L
1367 2085 mt 1367 2061 L
1446 3475 mt 1446 3498 L
1446 2085 mt 1446 2061 L
1313 3683 mt 
(-1) s
1524 3475 mt 1524 3498 L
1524 2085 mt 1524 2061 L
1603 3475 mt 1603 3498 L
1603 2085 mt 1603 2061 L
1560 3683 mt 
(0) s
1682 3475 mt 1682 3498 L
1682 2085 mt 1682 2061 L
1760 3475 mt 1760 3498 L
1760 2085 mt 1760 2061 L
1717 3683 mt 
(1) s
1839 3475 mt 1839 3498 L
1839 2085 mt 1839 2061 L
1918 3475 mt 1918 3498 L
1918 2085 mt 1918 2061 L
1875 3683 mt 
(2) s
2075 3475 mt 2075 3498 L
2075 2085 mt 2075 2061 L
2032 3683 mt 
(3) s
2232 3475 mt 2232 3498 L
2232 2085 mt 2232 2061 L
2189 3683 mt 
(4) s
2390 3475 mt 2390 3498 L
2390 2085 mt 2390 2061 L
 817 3475 mt  793 3475 L
2390 3475 mt 2413 3475 L
 672 3535 mt 
(0) s
 817 3301 mt  793 3301 L
2390 3301 mt 2413 3301 L
 817 3127 mt  793 3127 L
2390 3127 mt 2413 3127 L
 542 3187 mt 
(0.2) s
 817 2953 mt  793 2953 L
2390 2953 mt 2413 2953 L
 817 2780 mt  793 2780 L
2390 2780 mt 2413 2780 L
 542 2840 mt 
(0.4) s
 817 2606 mt  793 2606 L
2390 2606 mt 2413 2606 L
 817 2432 mt  793 2432 L
2390 2432 mt 2413 2432 L
 542 2492 mt 
(0.6) s
 817 2258 mt  793 2258 L
2390 2258 mt 2413 2258 L
 817 3475 mt 2390 3475 L
 817 2085 mt 2390 2085 L
 817 3475 mt  817 2085 L
2390 3475 mt 2390 2085 L
1 sg
0 1390 1573 0 0 -1390 2471 3475 4 MP
PP
-1573 0 0 1390 1573 0 0 -1390 2471 3475 5 MP stroke
gs 2471 2085 1574 1391 rc
DA
15.6 w
0.4 sg
0 -1390 3257 3475 2 MP stroke
SO
37.5 w
c8
1 -1 16 0 16 2 16 -1 15 0 16 1 16 0 16 -2 
15 2 16 0 16 -1 16 1 15 0 16 3 16 -2 15 2 
16 0 16 0 16 0 15 2 16 3 16 5 16 3 15 -6 
16 4 16 5 15 2 16 4 16 -4 16 19 15 -2 16 17 
16 -5 16 15 15 3 16 14 16 35 16 29 15 23 16 0 
16 57 15 42 16 71 16 85 16 116 15 89 16 116 16 99 
16 184 15 101 16 135 16 33 15 -76 16 -70 16 -178 16 -143 
15 -156 16 -140 16 -112 16 -91 15 -60 16 -46 16 -62 15 -34 
16 -13 16 -35 16 -14 15 -25 16 -7 16 -3 16 -10 15 -5 
16 -5 16 -6 16 -2 15 0 16 -4 16 0 15 -2 16 1 
16 -1 16 0 15 0 16 0 16 0 16 0 15 0 16 0 
16 0 15 0 16 0 16 0 16 0 15 0 16 0 16 0 
16 0 15 0 16 0 16 0 15 0 2471 3475 102 MP stroke
24 w
c9
1 0 16 1 16 -1 16 1 15 -1 16 0 16 1 16 0 
15 0 16 0 16 2 16 -1 15 1 16 0 16 -1 15 3 
16 0 16 6 16 -3 15 6 16 2 16 5 16 -2 15 -3 
16 10 16 8 15 -13 16 11 16 9 16 -7 15 1 16 19 
16 9 16 11 15 9 16 44 16 11 16 37 15 26 16 32 
16 24 15 56 16 48 16 46 16 118 15 39 16 133 16 57 
16 134 15 123 16 118 16 25 15 52 16 -66 16 -115 16 -148 
15 -176 16 -87 16 -138 16 -66 15 -79 16 -82 16 -54 15 -36 
16 -51 16 -21 16 -15 15 -30 16 4 16 -18 16 -5 15 -5 
16 -9 16 -2 16 -1 15 -2 16 1 16 -1 15 -1 16 -2 
16 1 16 -2 15 1 16 -1 16 0 16 0 15 0 16 0 
16 0 15 0 16 0 16 0 16 0 15 0 16 0 16 0 
16 0 15 0 16 0 16 0 15 0 2471 3475 102 MP stroke
gr

24 w
c9
0 sg
%%IncludeResource: font Helvetica-Bold
/Helvetica-Bold /ISOLatin1Encoding 108 FMSR

2549 2298 mt 
(Box wet) s
14 w
DO
SO
21 w
2471 3475 mt 4044 3475 L
2471 2085 mt 4044 2085 L
2471 3475 mt 2471 2085 L
4044 3475 mt 4044 2085 L
2471 3475 mt 4044 3475 L
2471 3475 mt 2471 2085 L
2471 3475 mt 2471 3498 L
2471 2085 mt 2471 2061 L
2628 3475 mt 2628 3498 L
2628 2085 mt 2628 2061 L
%%IncludeResource: font Helvetica-Bold
/Helvetica-Bold /ISOLatin1Encoding 156 FMSR

2495 3683 mt 
(-4) s
2785 3475 mt 2785 3498 L
2785 2085 mt 2785 2061 L
2652 3683 mt 
(-3) s
2942 3475 mt 2942 3498 L
2942 2085 mt 2942 2061 L
2809 3683 mt 
(-2) s
3021 3475 mt 3021 3498 L
3021 2085 mt 3021 2061 L
3100 3475 mt 3100 3498 L
3100 2085 mt 3100 2061 L
2967 3683 mt 
(-1) s
3178 3475 mt 3178 3498 L
3178 2085 mt 3178 2061 L
3257 3475 mt 3257 3498 L
3257 2085 mt 3257 2061 L
3214 3683 mt 
(0) s
3336 3475 mt 3336 3498 L
3336 2085 mt 3336 2061 L
3414 3475 mt 3414 3498 L
3414 2085 mt 3414 2061 L
3371 3683 mt 
(1) s
3493 3475 mt 3493 3498 L
3493 2085 mt 3493 2061 L
3572 3475 mt 3572 3498 L
3572 2085 mt 3572 2061 L
3529 3683 mt 
(2) s
3729 3475 mt 3729 3498 L
3729 2085 mt 3729 2061 L
3686 3683 mt 
(3) s
3886 3475 mt 3886 3498 L
3886 2085 mt 3886 2061 L
3843 3683 mt 
(4) s
4044 3475 mt 4044 3498 L
4044 2085 mt 4044 2061 L
2471 3475 mt 2447 3475 L
4044 3475 mt 4067 3475 L
2471 3301 mt 2447 3301 L
4044 3301 mt 4067 3301 L
2471 3127 mt 2447 3127 L
4044 3127 mt 4067 3127 L
2471 2953 mt 2447 2953 L
4044 2953 mt 4067 2953 L
2471 2780 mt 2447 2780 L
4044 2780 mt 4067 2780 L
2471 2606 mt 2447 2606 L
4044 2606 mt 4067 2606 L
2471 2432 mt 2447 2432 L
4044 2432 mt 4067 2432 L
2471 2258 mt 2447 2258 L
4044 2258 mt 4067 2258 L
2471 3475 mt 4044 3475 L
2471 2085 mt 4044 2085 L
2471 3475 mt 2471 2085 L
4044 3475 mt 4044 2085 L
1 sg
0 1390 1573 0 0 -1390 4126 3475 4 MP
PP
-1573 0 0 1390 1573 0 0 -1390 4126 3475 5 MP stroke
gs 4126 2085 1574 1391 rc
DA
15.6 w
0.4 sg
0 -1390 4912 3475 2 MP stroke
SO
37.5 w
c8
1 0 16 0 16 2 16 -2 15 0 16 0 16 0 16 0 
15 2 16 -2 16 2 16 -2 15 0 16 0 16 0 15 2 
16 0 16 3 16 7 15 -7 16 5 16 8 16 -8 15 -6 
16 8 16 16 15 0 16 -6 16 29 16 -5 15 11 16 15 
16 16 16 7 15 24 16 13 16 0 16 27 15 54 16 19 
16 88 15 -34 16 114 16 30 16 62 15 148 16 121 16 20 
16 154 15 89 16 3 16 54 15 -63 16 -23 16 -13 16 -122 
15 -126 16 -96 16 -125 16 -91 15 -97 16 -71 16 -54 15 -28 
16 -43 16 -54 16 -8 15 13 16 -31 16 -5 16 -27 15 5 
16 3 16 -18 16 3 15 -1 16 -5 16 0 15 -4 16 4 
16 0 16 -2 15 -2 16 2 16 0 16 0 15 -2 16 0 
16 0 15 0 16 0 16 2 16 -2 15 0 16 0 16 0 
16 0 15 0 16 0 16 0 15 0 4126 3475 102 MP stroke
24 w
c9
1 0 16 -2 16 0 16 0 15 0 16 0 16 0 16 0 
15 2 16 3 16 -3 16 0 15 3 16 5 16 -1 15 -2 
16 0 16 6 16 9 15 -7 16 11 16 -9 16 14 15 -3 
16 3 16 13 15 -1 16 3 16 39 16 14 15 -14 16 -16 
16 37 16 18 15 -3 16 26 16 35 16 29 15 43 16 17 
16 41 15 52 16 -18 16 128 16 18 15 96 16 89 16 47 
16 -11 15 136 16 -49 16 46 15 -12 16 41 16 -18 16 -60 
15 -49 16 -110 16 -36 16 -118 15 -49 16 -55 16 -81 15 -52 
16 -78 16 -1 16 -51 15 -27 16 -16 16 -26 16 -9 15 2 
16 -15 16 5 16 -14 15 -2 16 0 16 0 15 -5 16 -3 
16 0 16 -5 15 2 16 0 16 0 16 -4 15 2 16 0 
16 -2 15 0 16 0 16 0 16 0 15 0 16 0 16 0 
16 0 15 0 16 0 16 0 15 0 4126 3475 102 MP stroke
gr

24 w
c9
0 sg
%%IncludeResource: font Helvetica-Bold
/Helvetica-Bold /ISOLatin1Encoding 108 FMSR

4204 2298 mt 
(Box wet) s
14 w
DO
SO
21 w
4126 3475 mt 5699 3475 L
4126 2085 mt 5699 2085 L
4126 3475 mt 4126 2085 L
5699 3475 mt 5699 2085 L
4126 3475 mt 5699 3475 L
4126 3475 mt 4126 2085 L
4126 3475 mt 4126 3498 L
4126 2085 mt 4126 2061 L
4283 3475 mt 4283 3498 L
4283 2085 mt 4283 2061 L
%%IncludeResource: font Helvetica-Bold
/Helvetica-Bold /ISOLatin1Encoding 156 FMSR

4150 3683 mt 
(-4) s
4440 3475 mt 4440 3498 L
4440 2085 mt 4440 2061 L
4307 3683 mt 
(-3) s
4597 3475 mt 4597 3498 L
4597 2085 mt 4597 2061 L
4464 3683 mt 
(-2) s
4676 3475 mt 4676 3498 L
4676 2085 mt 4676 2061 L
4755 3475 mt 4755 3498 L
4755 2085 mt 4755 2061 L
4622 3683 mt 
(-1) s
4833 3475 mt 4833 3498 L
4833 2085 mt 4833 2061 L
4912 3475 mt 4912 3498 L
4912 2085 mt 4912 2061 L
4869 3683 mt 
(0) s
4991 3475 mt 4991 3498 L
4991 2085 mt 4991 2061 L
5069 3475 mt 5069 3498 L
5069 2085 mt 5069 2061 L
5026 3683 mt 
(1) s
5148 3475 mt 5148 3498 L
5148 2085 mt 5148 2061 L
5227 3475 mt 5227 3498 L
5227 2085 mt 5227 2061 L
5184 3683 mt 
(2) s
5384 3475 mt 5384 3498 L
5384 2085 mt 5384 2061 L
5341 3683 mt 
(3) s
5541 3475 mt 5541 3498 L
5541 2085 mt 5541 2061 L
5498 3683 mt 
(4) s
5699 3475 mt 5699 3498 L
5699 2085 mt 5699 2061 L
4126 3475 mt 4102 3475 L
5699 3475 mt 5722 3475 L
4126 3301 mt 4102 3301 L
5699 3301 mt 5722 3301 L
4126 3127 mt 4102 3127 L
5699 3127 mt 5722 3127 L
4126 2953 mt 4102 2953 L
5699 2953 mt 5722 2953 L
4126 2780 mt 4102 2780 L
5699 2780 mt 5722 2780 L
4126 2606 mt 4102 2606 L
5699 2606 mt 5722 2606 L
4126 2432 mt 4102 2432 L
5699 2432 mt 5722 2432 L
4126 2258 mt 4102 2258 L
5699 2258 mt 5722 2258 L
4126 3475 mt 5699 3475 L
4126 2085 mt 5699 2085 L
4126 3475 mt 4126 2085 L
5699 3475 mt 5699 2085 L
1 sg
0 1390 1573 0 0 -1390 5780 3475 4 MP
PP
-1573 0 0 1390 1573 0 0 -1390 5780 3475 5 MP stroke
gs 5780 2085 1574 1391 rc
DA
15.6 w
0.4 sg
0 -1390 6566 3475 2 MP stroke
SO
37.5 w
c8
1 -1 16 0 16 -3 16 0 15 0 16 2 16 -2 16 0 
15 3 16 -4 16 4 16 -4 15 4 16 1 16 3 15 -4 
16 1 16 2 16 -3 15 3 16 5 16 3 16 0 15 -1 
16 4 16 6 15 1 16 6 16 4 16 -6 15 14 16 1 
16 7 16 14 15 10 16 6 16 51 16 15 15 9 16 33 
16 21 15 67 16 19 16 51 16 162 15 186 16 46 16 89 
16 160 15 118 16 102 16 101 15 -132 16 -65 16 -64 16 -169 
15 -143 16 -274 16 -65 16 -84 15 -66 16 -53 16 -7 15 -67 
16 -33 16 -8 16 -16 15 -12 16 4 16 -33 16 7 15 -7 
16 -6 16 4 16 -10 15 9 16 -13 16 -7 15 6 16 0 
16 -7 16 4 15 -1 16 2 16 -4 16 -3 15 5 16 -3 
16 -2 15 2 16 0 16 -2 16 2 15 0 16 -2 16 0 
16 0 15 0 16 0 16 0 15 0 5780 3475 102 MP stroke
24 w
c9
1 0 16 0 16 0 16 0 15 0 16 0 16 0 16 0 
15 0 16 0 16 0 16 0 15 5 16 -5 16 2 15 0 
16 1 16 4 16 3 15 -4 16 -1 16 4 16 7 15 4 
16 11 16 -10 15 6 16 11 16 4 16 10 15 0 16 11 
16 11 16 18 15 14 16 -5 16 18 16 19 15 56 16 -3 
16 59 15 -13 16 74 16 45 16 164 15 153 16 29 16 131 
16 111 15 96 16 59 16 142 15 28 16 -103 16 -78 16 -145 
15 -206 16 -166 16 -126 16 -109 15 -38 16 -101 16 -10 15 -57 
16 -47 16 -27 16 -15 15 8 16 -15 16 -7 16 -6 15 2 
16 -11 16 0 16 -3 15 0 16 1 16 -7 15 0 16 0 
16 0 16 0 15 2 16 -3 16 -2 16 0 15 0 16 0 
16 2 15 -2 16 0 16 0 16 0 15 0 16 0 16 0 
16 0 15 0 16 0 16 0 15 0 5780 3475 102 MP stroke
gr

24 w
c9
0 sg
%%IncludeResource: font Helvetica
/Helvetica /ISOLatin1Encoding 120 FMSR

5763 3518 mt 
( ) s
7337 2127 mt 
( ) s
%%IncludeResource: font Helvetica-Bold
/Helvetica-Bold /ISOLatin1Encoding 108 FMSR

5858 2298 mt 
(Box wet) s
14 w
DO
SO
21 w
5780 3475 mt 7353 3475 L
5780 2085 mt 7353 2085 L
5780 3475 mt 5780 2085 L
7353 3475 mt 7353 2085 L
5780 3475 mt 7353 3475 L
5780 3475 mt 5780 2085 L
5780 3475 mt 5780 3498 L
5780 2085 mt 5780 2061 L
5937 3475 mt 5937 3498 L
5937 2085 mt 5937 2061 L
%%IncludeResource: font Helvetica-Bold
/Helvetica-Bold /ISOLatin1Encoding 156 FMSR

5804 3683 mt 
(-4) s
6094 3475 mt 6094 3498 L
6094 2085 mt 6094 2061 L
5961 3683 mt 
(-3) s
6251 3475 mt 6251 3498 L
6251 2085 mt 6251 2061 L
6118 3683 mt 
(-2) s
6330 3475 mt 6330 3498 L
6330 2085 mt 6330 2061 L
6409 3475 mt 6409 3498 L
6409 2085 mt 6409 2061 L
6276 3683 mt 
(-1) s
6487 3475 mt 6487 3498 L
6487 2085 mt 6487 2061 L
6566 3475 mt 6566 3498 L
6566 2085 mt 6566 2061 L
6523 3683 mt 
(0) s
6645 3475 mt 6645 3498 L
6645 2085 mt 6645 2061 L
6723 3475 mt 6723 3498 L
6723 2085 mt 6723 2061 L
6680 3683 mt 
(1) s
6802 3475 mt 6802 3498 L
6802 2085 mt 6802 2061 L
6881 3475 mt 6881 3498 L
6881 2085 mt 6881 2061 L
6838 3683 mt 
(2) s
7038 3475 mt 7038 3498 L
7038 2085 mt 7038 2061 L
6995 3683 mt 
(3) s
7195 3475 mt 7195 3498 L
7195 2085 mt 7195 2061 L
7152 3683 mt 
(4) s
7353 3475 mt 7353 3498 L
7353 2085 mt 7353 2061 L
5780 3475 mt 5756 3475 L
7353 3475 mt 7376 3475 L
5780 3301 mt 5756 3301 L
7353 3301 mt 7376 3301 L
5780 3127 mt 5756 3127 L
7353 3127 mt 7376 3127 L
5780 2953 mt 5756 2953 L
7353 2953 mt 7376 2953 L
5780 2780 mt 5756 2780 L
7353 2780 mt 7376 2780 L
5780 2606 mt 5756 2606 L
7353 2606 mt 7376 2606 L
5780 2432 mt 5756 2432 L
7353 2432 mt 7376 2432 L
5780 2258 mt 5756 2258 L
7353 2258 mt 7376 2258 L
5780 3475 mt 7353 3475 L
5780 2085 mt 7353 2085 L
5780 3475 mt 5780 2085 L
7353 3475 mt 7353 2085 L
1 sg
0 342 1022 0 0 -342 6924 1132 4 MP
PP
-1022 0 0 342 1022 0 0 -342 6924 1132 5 MP stroke
14 w
DO
SO
21 w
0 sg
6924 1132 mt 7946 1132 L
6924  790 mt 7946  790 L
6924 1132 mt 6924  790 L
7946 1132 mt 7946  790 L
6924 1132 mt 7946 1132 L
6924 1132 mt 6924  790 L
6924 1132 mt 7946 1132 L
6924  790 mt 7946  790 L
6924 1132 mt 6924  790 L
7946 1132 mt 7946  790 L
%%IncludeResource: font Helvetica-Bold
/Helvetica-Bold /ISOLatin1Encoding 108 FMSR

7392  926 mt 
(Dataset T') s
gs 6924 790 1023 343 rc
37.5 w
c8
360 0 6995 886 2 MP stroke
gr

37.5 w
c8
0 sg
7392 1077 mt 
(T' w/ m'=0) s
gs 6924 790 1023 343 rc
24 w
c9
360 0 6995 1036 2 MP stroke
21 w
gr

21 w
c9

end %%Color Dict

eplot
%%EndObject

epage
end

showpage

%%Trailer
%%EOF
