%!PS-Adobe-3.0 EPSF-3.0
%%Creator: MATLAB, The Mathworks, Inc. Version 7.5.0.338 (R2007b). Operating System: Linux 3.8.4 #1 SMP Thu Mar 21 12:34:11 PDT 2013 x86_64.
%%Title: figs/eps/ccsm3_cor_TP_sign_check.eps
%%CreationDate: 08/29/2013  15:01:44
%%DocumentNeededFonts: Helvetica
%%+ Helvetica-Bold
%%DocumentProcessColors: Cyan Magenta Yellow Black
%%LanguageLevel: 2
%%Pages: 1
%%BoundingBox:     2    29   527   257
%%EndComments

%%BeginProlog
% MathWorks dictionary
/MathWorks 160 dict begin
% definition operators
/bdef {bind def} bind def
/ldef {load def} bind def
/xdef {exch def} bdef
/xstore {exch store} bdef
% operator abbreviations
/c  /clip ldef
/cc /concat ldef
/cp /closepath ldef
/gr /grestore ldef
/gs /gsave ldef
/mt /moveto ldef
/np /newpath ldef
/cm /currentmatrix ldef
/sm /setmatrix ldef
/rm /rmoveto ldef
/rl /rlineto ldef
/s {show newpath} bdef
/sc {setcmykcolor} bdef
/sr /setrgbcolor ldef
/sg /setgray ldef
/w /setlinewidth ldef
/j /setlinejoin ldef
/cap /setlinecap ldef
/rc {rectclip} bdef
/rf {rectfill} bdef
% page state control
/pgsv () def
/bpage {/pgsv save def} bdef
/epage {pgsv restore} bdef
/bplot /gsave ldef
/eplot {stroke grestore} bdef
% orientation switch
/portraitMode 0 def /landscapeMode 1 def /rotateMode 2 def
% coordinate system mappings
/dpi2point 0 def
% font control
/FontSize 0 def
/FMS {/FontSize xstore findfont [FontSize 0 0 FontSize neg 0 0]
  makefont setfont} bdef
/reencode {exch dup where {pop load} {pop StandardEncoding} ifelse
  exch dup 3 1 roll findfont dup length dict begin
  { 1 index /FID ne {def}{pop pop} ifelse } forall
  /Encoding exch def currentdict end definefont pop} bdef
/isroman {findfont /CharStrings get /Agrave known} bdef
/FMSR {3 1 roll 1 index dup isroman {reencode} {pop pop} ifelse
  exch FMS} bdef
/csm {1 dpi2point div -1 dpi2point div scale neg translate
 dup landscapeMode eq {pop -90 rotate}
  {rotateMode eq {90 rotate} if} ifelse} bdef
% line types: solid, dotted, dashed, dotdash
/SO { [] 0 setdash } bdef
/DO { [.5 dpi2point mul 4 dpi2point mul] 0 setdash } bdef
/DA { [6 dpi2point mul] 0 setdash } bdef
/DD { [.5 dpi2point mul 4 dpi2point mul 6 dpi2point mul 4
  dpi2point mul] 0 setdash } bdef
% macros for lines and objects
/L {lineto stroke} bdef
/MP {3 1 roll moveto 1 sub {rlineto} repeat} bdef
/AP {{rlineto} repeat} bdef
/PDlw -1 def
/W {/PDlw currentlinewidth def setlinewidth} def
/PP {closepath eofill} bdef
/DP {closepath stroke} bdef
/MR {4 -2 roll moveto dup  0 exch rlineto exch 0 rlineto
  neg 0 exch rlineto closepath} bdef
/FR {MR stroke} bdef
/PR {MR fill} bdef
/L1i {{currentfile picstr readhexstring pop} image} bdef
/tMatrix matrix def
/MakeOval {newpath tMatrix currentmatrix pop translate scale
0 0 1 0 360 arc tMatrix setmatrix} bdef
/FO {MakeOval stroke} bdef
/PO {MakeOval fill} bdef
/PD {currentlinewidth 2 div 0 360 arc fill
   PDlw -1 eq not {PDlw w /PDlw -1 def} if} def
/FA {newpath tMatrix currentmatrix pop translate scale
  0 0 1 5 -2 roll arc tMatrix setmatrix stroke} bdef
/PA {newpath tMatrix currentmatrix pop	translate 0 0 moveto scale
  0 0 1 5 -2 roll arc closepath tMatrix setmatrix fill} bdef
/FAn {newpath tMatrix currentmatrix pop translate scale
  0 0 1 5 -2 roll arcn tMatrix setmatrix stroke} bdef
/PAn {newpath tMatrix currentmatrix pop translate 0 0 moveto scale
  0 0 1 5 -2 roll arcn closepath tMatrix setmatrix fill} bdef
/vradius 0 def /hradius 0 def /lry 0 def
/lrx 0 def /uly 0 def /ulx 0 def /rad 0 def
/MRR {/vradius xdef /hradius xdef /lry xdef /lrx xdef /uly xdef
  /ulx xdef newpath tMatrix currentmatrix pop ulx hradius add uly
  vradius add translate hradius vradius scale 0 0 1 180 270 arc 
  tMatrix setmatrix lrx hradius sub uly vradius add translate
  hradius vradius scale 0 0 1 270 360 arc tMatrix setmatrix
  lrx hradius sub lry vradius sub translate hradius vradius scale
  0 0 1 0 90 arc tMatrix setmatrix ulx hradius add lry vradius sub
  translate hradius vradius scale 0 0 1 90 180 arc tMatrix setmatrix
  closepath} bdef
/FRR {MRR stroke } bdef
/PRR {MRR fill } bdef
/MlrRR {/lry xdef /lrx xdef /uly xdef /ulx xdef /rad lry uly sub 2 div def
  newpath tMatrix currentmatrix pop ulx rad add uly rad add translate
  rad rad scale 0 0 1 90 270 arc tMatrix setmatrix lrx rad sub lry rad
  sub translate rad rad scale 0 0 1 270 90 arc tMatrix setmatrix
  closepath} bdef
/FlrRR {MlrRR stroke } bdef
/PlrRR {MlrRR fill } bdef
/MtbRR {/lry xdef /lrx xdef /uly xdef /ulx xdef /rad lrx ulx sub 2 div def
  newpath tMatrix currentmatrix pop ulx rad add uly rad add translate
  rad rad scale 0 0 1 180 360 arc tMatrix setmatrix lrx rad sub lry rad
  sub translate rad rad scale 0 0 1 0 180 arc tMatrix setmatrix
  closepath} bdef
/FtbRR {MtbRR stroke } bdef
/PtbRR {MtbRR fill } bdef
/stri 6 array def /dtri 6 array def
/smat 6 array def /dmat 6 array def
/tmat1 6 array def /tmat2 6 array def /dif 3 array def
/asub {/ind2 exch def /ind1 exch def dup dup
  ind1 get exch ind2 get sub exch } bdef
/tri_to_matrix {
  2 0 asub 3 1 asub 4 0 asub 5 1 asub
  dup 0 get exch 1 get 7 -1 roll astore } bdef
/compute_transform {
  dmat dtri tri_to_matrix tmat1 invertmatrix 
  smat stri tri_to_matrix tmat2 concatmatrix } bdef
/ds {stri astore pop} bdef
/dt {dtri astore pop} bdef
/db {2 copy /cols xdef /rows xdef mul dup 3 mul string
  currentfile 
  3 index 0 eq {/ASCIIHexDecode filter}
  {/ASCII85Decode filter 3 index 2 eq {/RunLengthDecode filter} if }
  ifelse exch readstring pop
  dup 0 3 index getinterval /rbmap xdef
  dup 2 index dup getinterval /gbmap xdef
  1 index dup 2 mul exch getinterval /bbmap xdef pop pop}bdef
/it {gs np dtri aload pop moveto lineto lineto cp c
  cols rows 8 compute_transform 
  rbmap gbmap bbmap true 3 colorimage gr}bdef
/il {newpath moveto lineto stroke}bdef
currentdict end def
%%EndProlog

%%BeginSetup
MathWorks begin

0 cap

end
%%EndSetup

%%Page: 1 1
%%BeginPageSetup
%%PageBoundingBox:     2    29   527   257
MathWorks begin
bpage
%%EndPageSetup

%%BeginObject: obj1
bplot

/dpi2point 12 def
portraitMode 0000 3408 csm

   25   314  6301  2740 rc
23 dict begin %Colortable dictionary
/c0 { 0.000000 0.000000 0.000000 sr} bdef
/c1 { 1.000000 1.000000 1.000000 sr} bdef
/c2 { 0.900000 0.000000 0.000000 sr} bdef
/c3 { 0.000000 0.820000 0.000000 sr} bdef
/c4 { 0.000000 0.000000 0.800000 sr} bdef
/c5 { 0.910000 0.820000 0.320000 sr} bdef
/c6 { 1.000000 0.260000 0.820000 sr} bdef
/c7 { 0.000000 0.820000 0.820000 sr} bdef
c0
1 j
6 w
gs 67 456 5450 2429 rc
1 sg
0 2428 0 0 -5449 0 0 0 0 -2428 0 0 5449 0 67 2884 
8 MP
PP
gr

1 sg
33 w
0 sg
0 2428 -5449 0 0 -2428 5449 0 67 2884 5 MP stroke
gs 67 456 5450 2429 rc
0.00784314 sg
0 0 22 24 -22 25 0 0 0 25 -21 26 -21 0 -22 0 
0 0 -21 26 -22 0 0 0 -21 26 0 0 -21 27 0 0 
-22 27 -21 -27 0 0 -21 0 0 0 0 27 0 27 0 28 
0 29 0 28 0 1 21 0 21 0 22 0 21 29 -21 30 
0 0 -22 31 -21 0 0 0 -21 31 -22 0 -21 0 -21 0 
-22 0 -21 0 -22 0 -21 0 -21 0 0 0 -22 32 -21 0 
0 0 -21 32 -22 -32 22 -32 0 0 21 -31 0 0 21 -31 
0 0 0 0 -21 -30 0 -30 0 -28 21 -29 0 0 0 0 
-21 0 0 0 -21 29 0 0 -22 28 -21 0 0 0 -21 30 
0 0 0 30 0 31 -22 31 -21 0 -22 0 0 0 -21 32 
-21 -32 0 0 0 0 -22 32 -21 0 0 0 -21 32 -22 0 
-21 0 -22 0 0 0 0 34 0 34 0 35 0 36 0 37 
0 38 0 39 0 0 5516 603 100 MP
0 21 0 22 0 21 0 0 21 21 0 0 22 0 21 22 
0 21 0 22 -21 21 -22 -21 0 0 -21 0 0 0 -22 21 
-21 -21 0 -22 0 0 0 0 -21 22 0 0 -22 21 0 0 
0 22 0 22 0 0 22 21 0 0 21 22 0 0 21 22 
0 22 -21 23 -21 0 -22 -23 22 -22 0 0 0 0 -22 0 
-21 0 0 0 0 22 -21 23 0 0 -22 22 -21 0 -21 0 
-22 0 -21 0 -22 0 0 0 -21 22 0 0 0 0 21 0 
0 0 22 -22 21 22 -21 23 0 0 -22 23 0 0 -21 23 
0 0 0 23 0 0 21 0 22 0 21 0 22 24 -22 23 
-21 0 0 0 -22 24 0 0 0 0 22 24 0 0 21 25 
-21 24 0 0 -22 25 -21 -25 0 -24 0 0 0 0 0 24 
-21 25 -22 -25 0 0 -21 -24 0 -25 0 -24 0 0 -21 0 
0 0 -22 24 0 0 0 25 100 AP
0 0 -21 -23 0 0 -22 0 -21 -22 0 -22 0 -22 0 0 
-22 -21 0 -22 0 -22 0 0 -21 -21 0 0 -21 -22 0 -21 
0 0 0 0 -22 21 -21 -21 0 -22 0 0 -21 0 0 0 
0 22 0 21 0 0 21 22 0 21 0 22 0 22 -21 21 
-22 0 0 0 -21 22 0 0 -21 22 0 0 -22 22 0 0 
-21 23 -22 0 -21 0 -21 -23 0 0 -22 -22 0 0 -21 0 
-21 -22 0 -22 0 0 -22 -21 0 -22 0 -22 0 -21 0 -22 
0 -21 0 0 -21 -22 0 0 -21 -21 21 -21 21 21 0 0 
22 0 21 0 0 0 0 -21 0 0 -21 -22 0 0 -22 -21 
0 0 -21 -21 0 0 -21 -21 0 -22 0 0 -22 -21 0 0 
-21 0 -22 -21 0 0 0 0 0 21 0 0 22 21 0 0 
21 22 0 0 22 21 0 0 21 21 0 21 -21 22 -22 -22 
0 0 -21 -21 0 0 0 0 100 AP
0 -23 0 0 -22 -23 0 -23 0 -24 0 0 -21 -23 0 -24 
0 0 -21 0 -22 0 -21 0 -21 0 -22 0 0 0 -21 24 
-21 0 0 0 -22 23 -21 0 0 0 0 24 -22 23 0 0 
0 23 -21 23 0 0 -21 23 0 0 0 22 0 23 0 22 
-22 22 0 0 -21 22 -21 0 0 0 -22 22 0 0 0 22 
0 21 0 22 0 21 0 0 22 22 0 21 0 22 0 21 
0 21 -22 22 -21 0 0 0 0 21 -21 21 0 0 -22 21 
-21 0 0 0 -22 22 0 0 -21 21 0 0 0 21 -21 22 
0 0 0 21 0 22 0 21 0 0 21 0 21 22 -21 22 
-21 0 0 0 -22 21 -21 0 0 0 -21 22 -22 0 0 0 
-21 22 0 0 -22 22 0 0 -21 23 0 0 0 22 0 0 
21 0 22 22 -22 23 -21 0 -21 0 -22 0 -21 0 -21 -23 
0 0 -22 0 -21 -22 0 -22 100 AP
-21 -27 0 0 -22 -27 0 -26 22 -26 21 0 21 26 0 0 
22 0 21 0 0 0 0 -26 0 -26 21 -25 0 0 0 0 
-21 -25 0 -24 0 0 -21 0 -22 -25 22 -24 0 0 21 -24 
0 0 21 -23 0 0 0 -24 22 -23 0 0 21 -23 21 0 
0 0 0 -23 22 -23 0 0 21 -22 0 0 0 -22 0 -23 
0 -22 0 -22 0 -22 0 -21 0 -22 0 -22 0 0 -21 -21 
0 0 -22 -22 0 0 -21 -21 0 0 -21 -22 0 0 -22 -21 
0 0 -21 0 -21 0 -22 0 -21 0 -21 0 -22 0 -21 0 
0 0 -22 21 -21 0 -21 0 -22 -21 0 0 -21 0 -21 0 
-22 -21 0 -22 0 -21 0 -21 0 -21 0 0 -21 -22 0 -21 
0 0 -21 -21 0 -22 0 -21 0 0 -22 -22 22 -21 0 0 
0 -22 0 -21 0 -22 0 -22 0 -22 0 -22 0 0 -22 -22 
0 -23 0 0 -21 -22 0 -23 100 AP
0 0 -21 -39 0 0 -21 0 -22 0 -21 -38 21 -37 22 0 
21 0 21 0 22 0 21 0 21 0 22 0 21 0 22 0 
0 0 21 -36 21 36 0 0 22 0 21 37 0 0 21 0 
22 0 21 0 21 0 22 38 0 0 21 0 22 0 21 0 
21 0 22 0 21 0 0 0 21 -38 22 0 21 0 21 0 
22 0 0 0 21 -37 0 0 22 -36 0 0 21 -35 21 0 
0 0 22 -34 0 0 21 -34 21 0 0 0 0 -32 0 -32 
0 -31 0 0 -21 0 -21 -31 0 -30 21 -29 21 0 0 -1 
22 -28 0 0 21 -29 21 29 0 0 22 28 0 1 21 29 
0 30 0 31 0 0 22 0 21 0 21 0 0 0 0 -31 
22 -30 21 0 0 0 21 -29 0 -1 0 -28 0 -29 0 0 
-21 0 0 0 -21 29 -22 -29 0 0 -21 0 -21 0 -22 -28 
22 -27 21 0 0 0 0 0 100 AP
0 0 0 0 22 0 21 0 21 0 22 43 0 0 0 0 
0 -43 21 -42 21 0 0 0 22 -41 21 0 21 0 22 0 
21 0 22 0 0 0 21 -39 21 39 0 41 0 0 0 0 
22 -41 21 0 21 41 0 0 22 0 21 0 0 0 21 -41 
22 41 0 0 21 0 22 0 21 0 21 42 0 43 0 0 
22 0 21 0 21 0 22 0 21 0 21 0 22 0 21 0 
22 0 21 0 21 0 22 0 21 0 21 0 22 0 0 0 
21 -43 21 0 22 0 21 0 0 0 22 -42 21 0 21 0 
22 0 21 0 0 0 21 -41 22 0 21 41 0 0 21 0 
0 0 22 -41 21 41 0 0 22 0 21 0 0 0 0 -41 
21 -39 0 0 22 -38 21 0 21 0 22 0 21 0 21 38 
0 0 22 0 21 39 0 0 22 41 0 42 0 0 0 0 
21 -42 0 0 21 -41 0 0 100 AP
0 0 0 -39 22 -38 21 0 22 0 21 0 21 0 22 0 
21 0 21 0 22 0 21 0 22 0 21 0 0 0 21 -37 
22 0 21 0 21 0 22 37 0 38 0 0 21 0 21 39 
0 0 22 0 21 0 22 0 21 0 21 0 22 41 -22 42 
-21 0 -21 0 -22 0 35 AP
PP
1 sg
0 -12 -11 12 0 25 -10 12 0 12 -22 25 0 0 0 25 
-21 26 -21 0 -22 0 0 0 -21 26 -22 0 0 0 -21 26 
0 0 -21 27 0 0 -22 27 -21 -27 0 0 -21 0 0 0 
0 27 0 27 0 28 0 29 0 28 0 1 21 0 21 0 
22 0 21 29 -21 30 0 0 -22 31 -21 0 0 0 -21 31 
-22 0 -21 0 -21 0 -22 0 -21 0 -22 0 -21 0 -21 0 
0 0 -22 32 -21 0 0 0 -21 32 -22 -32 22 -32 0 0 
10 -31 0 -31 11 -15 0 -15 0 -30 0 -28 21 -29 0 0 
0 0 -21 0 0 0 -21 29 0 0 -22 28 -21 0 0 0 
-21 30 0 0 0 30 0 31 -22 31 -21 0 -22 0 0 0 
-21 32 -21 -32 0 0 0 0 -22 32 -21 0 0 0 -21 32 
-22 0 -21 0 -22 0 0 0 0 34 0 34 0 18 11 17 
-11 18 0 18 0 19 5516 698 100 MP
-11 11 -21 0 -11 12 -10 12 -11 12 -11 12 -10 12 0 25 
-11 12 -11 12 0 25 -10 13 -11 12 -11 13 -11 -13 0 -25 
0 -25 -10 0 0 0 -22 25 -10 0 10 13 11 12 0 26 
-11 13 -21 0 -11 -13 -10 -13 -11 13 -11 13 -10 13 10 13 
11 13 11 13 21 0 21 0 22 0 10 -13 11 -13 11 13 
0 27 11 13 10 14 -10 14 -11 13 0 28 -11 14 -11 -14 
0 -28 -10 -13 -11 13 -11 14 -10 -14 0 -27 -11 -14 -11 14 
-10 14 -11 13 -11 14 0 14 -21 29 -21 -29 0 -28 0 0 
-22 0 -21 -13 -21 0 -22 13 -21 -13 0 13 -22 28 -21 -28 
0 -13 -11 13 -10 14 -11 -14 11 -13 10 -14 11 -14 11 14 
10 0 11 0 11 -14 0 -13 10 -27 11 -13 11 -13 11 -13 
21 0 21 0 11 -13 11 -13 10 -13 0 -25 11 -12 21 0 
0 -13 0 0 -21 -24 0 -25 100 AP
-11 -12 -11 -12 -10 12 -11 12 -11 11 -10 12 -11 -12 0 -23 
11 -12 10 -11 -10 -11 -22 0 -10 11 0 23 0 23 0 24 
10 11 11 12 -11 12 -10 12 0 24 10 12 11 -12 11 -12 
10 12 -10 12 -11 13 -11 12 -10 -12 -11 -13 -11 -12 0 -24 
0 -24 0 -23 0 -24 0 -23 -11 -12 -10 -11 10 -11 11 -12 
0 -23 11 -11 11 -11 -11 -11 -22 0 -10 -11 -11 0 -21 0 
-22 -23 0 -11 -10 -11 -11 0 0 0 0 22 -21 23 0 0 
-22 22 -21 0 -21 0 -22 0 -21 0 -22 0 0 0 -21 22 
0 0 0 0 21 0 0 0 22 -22 21 22 -21 23 0 0 
-22 23 0 0 -21 23 0 0 0 23 0 0 21 0 11 0 
-11 -11 -10 -12 10 -12 22 0 10 12 0 23 11 0 11 0 
11 -11 10 11 11 12 0 -12 21 -23 11 0 11 -12 10 12 
11 12 11 11 10 12 11 12 100 AP
0 0 0 11 11 -11 10 -11 22 0 10 11 0 22 -10 11 
-11 -11 -11 -11 -10 11 -11 11 -21 0 -11 11 -11 11 -10 12 
-11 11 -22 0 -10 -11 -11 0 -21 -23 0 0 -22 -22 0 0 
-21 0 -21 -22 0 -11 -22 0 -10 -11 10 -11 0 -10 0 -22 
0 -22 0 -21 0 -22 0 -21 0 0 -21 -22 0 0 -21 -21 
0 -11 -11 11 -11 11 0 10 0 0 22 0 21 22 0 21 
0 22 -21 21 -22 -21 0 0 -21 0 0 0 -22 21 -21 -21 
0 -22 0 0 0 0 -21 22 0 0 -22 21 0 0 0 22 
0 22 0 0 22 21 0 0 21 22 0 0 21 11 11 -11 
-11 -11 -10 -11 10 -11 22 0 11 11 0 22 10 11 22 0 
21 0 11 11 10 11 11 11 0 23 -11 11 -10 11 -11 11 
-21 0 -22 0 -10 11 10 12 22 0 10 11 11 12 21 0 
11 11 11 11 10 12 -10 12 100 AP
21 0 21 22 -21 22 -21 0 0 0 -22 21 -21 0 0 0 
-21 22 -22 0 0 0 -21 22 0 0 -22 22 0 0 -21 23 
0 0 0 22 0 0 21 0 22 11 11 11 10 0 22 0 
21 0 21 12 11 11 11 12 10 11 11 0 21 23 -21 23 
-21 -11 -11 11 11 12 10 12 0 23 -10 12 -22 0 -10 -12 
0 -23 0 -24 10 -11 11 -12 -11 -12 -10 -11 -11 0 -21 0 
-22 0 -21 -11 -11 -12 -11 0 -21 0 -21 0 -22 0 -21 0 
-21 -23 0 0 -11 0 -11 12 -10 -12 -11 -11 -11 -11 0 -22 
-10 -12 -22 0 -10 -11 -11 -11 -11 -11 -11 -11 -10 -11 0 -22 
10 -11 0 -10 0 -22 0 -22 0 0 -21 -21 0 0 -21 -22 
0 -21 0 0 0 0 -22 21 -21 -21 0 -22 0 0 -21 0 
0 0 0 22 0 21 0 0 21 22 0 21 0 22 0 22 
-21 21 -22 0 0 0 -21 22 100 AP
-11 -11 11 -11 11 -11 11 -11 0 -10 0 -22 0 -22 0 -22 
0 -22 0 0 -22 -22 0 -23 0 0 -21 -22 0 -23 0 -23 
0 0 -22 -23 0 -23 0 -24 0 0 -21 -23 0 -24 0 0 
-21 0 -22 0 -21 0 -21 0 -22 0 0 0 0 12 11 12 
-11 12 -10 11 0 24 0 23 0 23 -11 12 -21 0 -11 -12 
11 -11 10 -12 0 -23 0 -24 -10 -11 -22 11 -21 0 0 0 
0 24 0 12 10 11 -10 12 -22 0 0 11 -10 23 0 23 
-11 11 -11 11 0 23 -10 11 0 11 -22 22 0 0 -21 22 
-21 0 0 0 -22 22 0 0 0 22 0 21 0 22 0 21 
0 0 22 22 0 11 10 10 -10 11 0 11 0 21 0 21 
-22 22 -21 0 0 0 0 21 -11 21 -10 11 -22 10 -21 0 
0 0 -11 22 -11 10 -10 11 0 21 -11 11 -11 11 0 21 
-10 11 0 11 0 21 0 0 100 AP
-22 -28 22 -27 21 0 0 0 0 0 -21 -27 0 0 -22 -27 
0 -26 22 -26 21 0 21 26 0 0 22 0 21 0 0 0 
0 -26 0 -26 21 -25 0 0 0 0 -21 -25 0 -12 -11 -12 
-10 0 -22 -25 22 -24 0 0 10 -24 11 -12 11 -11 10 -12 
0 -12 22 -23 0 0 21 -23 21 0 0 0 0 -23 0 -11 
-10 -12 10 -11 11 11 11 0 0 0 21 -22 0 0 0 -22 
0 -23 0 -22 0 -22 0 -11 -10 -11 0 -21 10 -11 0 -11 
0 -22 0 0 -21 -10 -11 -11 -11 -22 0 0 -21 -10 -11 -11 
-10 -22 0 0 -22 -10 -10 -11 -11 0 -11 0 -10 11 -11 -11 
-11 0 -21 0 -21 0 -22 0 -21 0 0 0 -22 21 -21 0 
-21 0 -22 -21 0 0 -21 0 -21 0 -22 -21 0 -11 -10 -11 
0 -21 0 -21 0 -21 -11 -11 -11 -11 -10 -10 -11 -11 0 -21 
0 -22 0 -21 -11 -22 0 -10 100 AP
21 -36 21 36 0 0 22 0 21 37 0 0 21 0 22 0 
21 0 21 0 11 0 -11 -18 -21 0 -21 0 -22 0 -10 -19 
10 -18 22 0 10 -18 0 -35 11 -17 11 17 0 35 10 18 
22 0 10 -18 -10 -17 -11 -18 11 -17 10 17 11 18 11 17 
0 36 11 19 21 0 11 18 10 19 22 0 21 0 11 -19 
10 -18 11 18 11 0 21 0 21 0 22 0 0 0 21 -37 
0 0 22 -36 0 0 21 -35 21 0 0 0 22 -34 0 0 
21 -34 21 0 0 0 0 -32 0 -32 0 -31 0 0 -21 0 
-21 -31 0 -30 21 -29 21 0 0 -1 22 -28 0 0 21 -29 
21 29 0 0 22 28 0 1 21 29 0 30 0 31 0 0 
22 0 21 0 21 0 0 0 0 -31 22 -30 21 0 0 0 
21 -29 0 -1 0 -28 0 -29 0 0 -21 0 0 0 -21 29 
-22 -29 0 0 -21 0 -21 0 100 AP
-11 -17 11 -16 11 -16 -11 -16 -11 -16 -11 -16 -10 -15 10 -16 
22 0 11 16 10 0 22 0 10 0 0 -31 11 -15 11 -15 
10 -15 22 -14 21 0 21 14 11 15 11 0 21 0 21 15 
22 -15 21 0 22 30 0 15 10 16 0 31 -10 16 0 16 
0 0 21 0 0 0 21 -32 22 0 21 32 -21 32 -22 0 
0 0 -21 34 0 0 -21 34 -22 -17 -10 17 -11 18 -22 0 
-10 17 10 18 11 18 11 19 11 18 0 38 10 20 11 19 
-11 21 0 20 0 0 22 0 21 0 0 0 0 -41 21 -39 
0 0 22 -38 21 0 21 0 22 0 21 0 21 38 0 0 
22 0 21 39 0 0 22 41 0 42 0 0 0 0 21 -42 
0 0 21 -41 0 0 0 0 -21 -39 0 0 -21 0 -22 0 
-21 -38 21 -37 22 0 21 0 21 0 22 0 21 0 21 0 
22 0 21 0 22 0 0 0 100 AP
0 38 0 0 21 0 21 20 22 0 10 19 11 0 22 0 
21 0 21 0 22 41 -22 42 -21 0 -21 0 -11 0 11 0 
21 0 21 0 22 43 0 0 0 0 0 -43 21 -42 21 0 
0 0 22 -41 21 0 21 0 22 0 21 0 22 0 0 0 
21 -39 21 39 0 41 0 0 0 0 22 -41 21 0 21 41 
0 0 22 0 21 0 0 0 21 -41 22 41 0 0 21 0 
22 0 21 0 21 42 0 43 0 0 22 0 21 0 21 0 
22 0 21 0 21 0 22 0 21 0 22 0 21 0 21 0 
22 0 21 0 21 0 22 0 0 0 21 -43 21 0 22 0 
21 0 0 0 22 -42 21 0 21 0 22 0 10 0 0 -41 
11 -19 11 -20 10 -19 11 -19 -11 -18 -10 -19 -11 -18 -21 0 
-22 0 -10 -18 10 -17 22 0 10 -18 -10 -17 -22 0 -21 0 
-21 0 -22 0 -10 -17 -11 -17 100 AP
11 18 11 0 21 0 22 0 21 0 21 0 22 0 21 0 
21 0 22 0 21 0 22 0 21 0 0 0 21 -37 22 0 
21 0 21 0 22 37 19 AP
PP
0.00784314 sg
0 0 21 0 22 36 0 0 21 37 0 0 21 38 0 0 
0 0 22 -38 21 38 0 0 22 0 21 39 0 0 21 0 
22 41 0 0 21 0 21 0 22 42 -22 43 0 0 0 0 
22 0 0 0 21 -43 21 0 22 43 0 0 21 0 22 0 
21 0 21 0 22 0 21 0 21 0 22 0 21 0 21 0 
22 0 21 0 22 0 21 0 21 0 22 0 21 0 21 0 
22 0 21 0 21 0 22 0 21 0 22 0 0 0 21 -43 
0 0 21 -42 0 0 0 -41 0 0 -21 -39 21 -38 22 0 
21 38 0 0 0 0 21 -38 22 0 21 0 21 0 22 0 
21 0 22 0 21 0 21 0 22 0 21 0 21 0 22 0 
21 38 0 0 21 0 22 0 21 0 22 0 21 0 21 0 
22 0 21 0 21 0 22 0 0 0 21 -38 21 0 22 0 
0 0 0 -37 21 -36 260 753 100 MP
22 0 21 0 0 0 0 -23 22 -22 21 0 21 0 22 0 
21 22 0 23 0 0 21 22 -21 22 0 0 0 23 0 23 
-21 23 0 0 -22 23 -21 0 -21 0 -22 0 -21 0 -22 0 
-21 0 -21 0 -22 -23 0 -23 0 0 -21 0 0 0 -21 23 
0 0 0 0 21 23 0 24 -21 23 -22 0 0 0 -21 24 
0 0 -21 24 0 0 0 25 0 24 -22 25 -21 0 0 0 
-22 25 -21 0 0 0 0 26 -21 26 -22 0 -21 0 -21 0 
-22 0 0 0 -21 26 -21 0 -1 0 -21 27 -21 0 -22 0 
-21 0 -21 0 0 0 0 27 0 27 0 0 21 0 21 28 
-21 29 0 0 0 0 21 28 0 1 22 29 0 0 21 0 
22 0 21 30 0 31 0 0 21 31 0 0 22 0 21 0 
0 0 21 -31 22 31 0 32 -22 32 -21 0 0 0 0 34 
-21 34 0 0 0 0 21 35 100 AP
0 0 -22 24 0 0 0 23 -21 24 0 0 -21 23 0 0 
0 23 -22 23 0 0 -21 23 -22 0 0 0 -21 22 -21 0 
0 0 -22 23 0 0 -21 22 0 0 0 22 0 22 0 22 
0 22 -21 21 0 0 0 22 -22 21 0 0 -21 22 0 0 
0 21 0 22 0 21 0 0 21 0 22 21 0 0 21 0 
21 0 22 22 0 0 21 0 21 21 0 0 22 0 21 0 
22 0 21 21 0 21 0 22 0 0 21 21 0 0 22 21 
0 0 21 0 21 0 22 0 21 22 0 21 0 0 22 0 
21 22 0 0 21 0 22 0 21 0 21 0 22 21 0 0 
21 0 21 0 22 0 0 0 21 -21 22 0 0 0 21 -22 
21 0 22 0 21 0 21 22 0 0 22 21 0 22 -22 22 
0 0 0 0 22 21 0 0 21 0 21 0 22 22 -22 22 
0 0 0 22 0 23 0 0 100 AP
0 0 -22 -21 0 0 -21 0 -21 0 -22 0 -21 -22 0 -21 
0 -21 21 -22 0 0 22 -21 0 0 0 -21 0 -21 0 -22 
21 -21 0 0 0 0 -21 -21 0 0 -22 -22 0 -21 0 -22 
0 0 -21 -21 0 0 -21 -22 0 -21 0 0 -22 -22 0 0 
-21 -22 0 0 -22 0 -21 -22 0 -22 0 -22 0 -23 0 -22 
0 -23 0 -23 21 -23 0 0 0 -23 0 -24 0 -23 0 -24 
22 -24 0 0 0 -24 0 -25 0 -25 0 -25 0 -26 0 -26 
21 -26 0 0 0 -27 0 -27 0 -27 0 -28 0 -28 0 0 
-21 -29 0 0 -22 0 -21 0 -21 0 -22 0 -21 0 0 0 
0 0 21 0 22 29 0 28 -22 28 0 0 -21 27 0 0 
0 27 0 27 -21 26 0 0 0 26 -22 26 -21 0 0 0 
0 25 -21 25 -22 0 -21 0 0 0 -22 25 0 0 0 0 
22 24 -22 24 -21 0 -21 0 100 AP
-21 0 0 0 -21 30 -22 0 0 0 -21 31 -21 0 0 0 
-22 31 -21 0 -22 0 -21 0 0 0 -21 32 -22 -32 0 0 
-21 0 0 0 0 32 -21 32 -22 0 -21 0 -21 -32 0 -32 
0 0 -22 -31 0 0 -21 -31 0 0 -22 -30 0 0 -21 0 
-21 -30 0 0 -22 -28 0 0 -21 -29 0 -28 0 0 -21 -27 
0 0 -22 -27 0 0 -21 -27 0 -26 0 -26 0 -26 0 -25 
0 -25 0 0 -21 -24 0 -25 0 0 -22 -24 0 0 -21 0 
-22 -24 0 0 -21 -23 0 0 -21 -24 0 -23 0 0 -22 -23 
0 0 -21 -23 0 -23 0 0 -21 -22 0 0 -22 0 0 0 
-21 22 -21 -22 0 0 -22 -22 0 -23 0 -22 0 0 -21 0 
-22 -22 0 0 -21 0 -21 -22 0 0 -22 0 -21 0 -21 0 
-22 0 -21 -21 0 0 -21 -22 0 0 -22 0 -21 0 -22 -22 
0 0 -21 -21 0 0 -21 -22 100 AP
0 0 0 -35 0 0 -21 0 -22 0 -21 -34 21 -34 22 0 
0 0 0 -32 0 0 -22 -32 0 0 -21 0 -21 -31 0 0 
-22 -31 22 -30 21 0 21 0 0 0 22 -29 21 0 0 -1 
0 0 -21 0 -22 0 -21 0 0 0 -21 30 -22 0 31 AP
PP
1 sg
21 19 22 -19 21 38 0 0 22 0 21 20 21 0 22 0 
21 0 21 0 11 -20 11 -19 10 -19 0 -37 0 -36 11 -17 
11 17 10 18 11 18 11 19 10 18 11 19 22 0 10 19 
11 20 21 0 11 19 11 21 21 0 11 20 10 21 11 21 
11 21 21 0 11 -21 -11 -42 21 -41 22 21 10 20 11 21 
11 21 11 21 21 0 21 0 22 0 21 0 11 -21 10 -21 
22 0 10 -21 11 -20 21 0 22 0 21 0 11 20 11 21 
10 -21 11 -20 21 0 0 -21 0 0 -21 -39 21 -38 22 0 
21 38 0 0 0 0 21 -38 22 0 21 0 21 0 22 0 
21 0 22 0 21 0 21 0 22 0 21 0 21 0 22 0 
21 38 0 0 21 0 22 0 21 0 22 0 21 0 21 0 
22 0 21 0 21 0 22 0 0 0 21 -38 21 0 22 0 
0 0 0 -37 21 -36 260 753 100 MP
-10 22 -11 12 0 11 0 23 -21 23 0 0 -22 23 -10 0 
-11 12 -21 0 -22 0 -21 0 -11 -12 -11 0 -21 0 -21 0 
-22 -23 0 -23 0 0 -10 0 -11 11 -21 12 0 0 0 0 
21 23 0 24 -11 23 -10 12 -11 12 0 24 -11 12 -10 13 
-11 12 -21 0 0 12 -22 25 -21 0 0 0 -22 25 -21 0 
0 0 0 26 -21 26 -22 0 -21 0 -21 0 -22 0 0 0 
-21 26 -21 0 -1 0 -21 27 -21 0 -22 0 -21 0 -21 0 
0 0 0 27 0 27 0 0 21 0 21 28 -21 29 0 0 
0 0 21 28 0 1 22 29 0 0 21 0 22 0 21 30 
0 31 0 0 21 15 11 -15 11 -16 21 0 11 16 10 0 
22 15 21 0 11 16 -11 16 -11 16 -10 16 -22 16 -10 0 
-11 17 0 17 -21 34 0 0 0 0 21 35 0 0 21 0 
22 36 0 0 21 37 0 0 100 AP
0 0 -21 0 -21 -30 0 0 -22 -28 0 0 -21 -29 0 -28 
0 0 -21 -27 0 0 -22 -27 0 0 -21 -27 0 -26 0 -26 
0 -26 0 -25 0 -25 0 0 -21 -24 0 -25 0 0 -22 -24 
0 0 -21 0 -22 -12 -10 -12 -11 -23 0 0 -21 -24 0 -23 
0 0 -22 -12 0 12 -10 23 -11 12 -11 -12 -10 -23 0 -12 
-11 -11 -11 -11 -10 -12 0 -23 -11 0 -21 -22 0 0 -22 -11 
-11 -11 11 -12 0 -11 0 -22 0 0 -21 0 -22 -22 0 0 
-10 0 -11 11 -11 -11 -10 -11 -22 0 -10 -11 -11 0 -21 0 
-11 0 -11 11 -10 -11 -11 -11 -21 0 -11 -10 -11 -11 -21 0 
-11 -11 -11 -11 -21 0 -21 0 0 11 -11 22 11 10 21 0 
11 11 10 0 22 22 -22 22 0 0 0 22 0 23 0 0 
22 0 21 0 0 0 0 -23 22 -22 21 0 21 0 22 0 
21 22 0 23 0 0 21 22 100 AP
0 0 0 -35 0 0 -21 0 -22 0 -21 -34 21 -34 22 0 
0 0 0 -32 0 0 -22 -32 0 0 -21 0 -21 -31 0 0 
-22 -31 22 -30 21 0 21 0 0 0 22 -29 21 0 0 -1 
0 0 -21 0 -22 0 -21 0 0 0 -21 30 -22 0 -21 0 
0 0 -21 30 -22 0 0 0 -21 31 -21 0 0 0 -22 31 
-21 0 -22 0 -21 0 0 0 -21 32 -22 -32 0 0 -21 0 
0 0 0 32 -21 32 -22 0 -21 0 -21 -32 0 -32 0 0 
-22 -31 0 0 -21 -31 0 0 -22 -30 61 AP
PP
10 11 11 11 11 10 0 22 -11 10 -21 0 -11 -10 -11 -11 
-10 -11 -11 -10 -21 0 -22 0 -21 0 -11 10 -10 11 -22 0 
-21 0 -21 0 -11 -11 -11 -10 -21 0 -11 -11 -11 -11 -10 11 
-11 11 -21 0 -22 0 -21 0 -11 10 -10 11 -11 -11 -11 -10 
-10 10 -11 11 -22 0 -10 11 10 21 0 0 11 0 11 -11 
21 0 22 0 10 11 11 21 0 11 21 0 11 10 0 22 
-11 10 0 11 0 0 22 11 21 0 21 0 11 -11 11 -11 
10 11 0 21 11 11 11 11 0 21 11 0 21 11 11 11 
10 0 22 0 21 0 21 0 22 11 21 0 21 0 11 10 
11 0 0 0 21 -21 22 0 0 0 0 -11 -11 -11 0 -21 
0 -22 0 -21 11 -11 10 11 0 21 0 22 0 21 11 0 
11 0 10 -10 11 10 11 0 10 0 11 -10 11 10 10 11 
11 11 11 11 21 0 1499 1780 100 MP
11 -11 0 -22 0 -22 -11 -11 -11 -11 0 -22 0 -23 11 -11 
11 11 10 11 11 12 11 11 10 11 11 11 21 0 11 -11 
-11 -11 -10 -11 0 -23 0 -22 0 -23 10 -11 22 0 10 -12 
0 -23 -10 -11 -11 -12 11 -12 21 0 11 12 10 0 22 0 
0 0 21 -24 0 0 0 -23 22 -24 21 24 0 12 11 11 
-11 12 -11 12 0 23 -10 12 -22 11 -21 0 -22 0 -10 0 
0 23 10 11 11 12 0 22 -11 11 -10 12 0 22 10 0 
0 0 22 -22 10 0 0 -23 0 -22 11 -12 11 12 0 22 
11 11 21 0 11 12 0 22 -11 11 -11 -11 -10 -11 -11 11 
0 22 0 22 0 22 0 22 11 10 10 11 -10 11 -11 11 
0 21 11 11 10 -11 11 -10 11 -11 10 -11 11 11 0 21 
11 11 10 11 11 11 11 10 10 11 22 0 10 11 11 10 
11 11 10 11 11 -11 11 -11 100 AP
0 -27 0 -27 0 -27 0 -28 0 -28 0 0 -21 -29 0 0 
-22 0 -21 0 -21 0 -22 0 -21 0 0 0 0 0 21 0 
22 29 0 28 -22 28 0 0 -21 27 0 0 0 27 0 27 
-21 26 0 0 0 26 -22 26 -21 0 0 0 0 25 -21 25 
-22 0 -21 0 0 0 -22 25 0 0 0 0 22 24 -22 24 
-21 0 -21 0 0 0 -22 24 0 0 0 23 -21 24 0 0 
-21 23 0 0 0 23 0 12 10 11 -10 11 -22 0 -21 12 
-22 0 0 0 -21 22 -21 0 0 0 -22 23 0 0 -21 22 
0 0 0 22 0 22 0 22 0 22 -21 21 0 0 0 22 
-22 21 0 0 -21 22 0 0 0 21 0 22 0 21 0 0 
21 0 22 21 0 0 21 0 21 0 11 0 -11 -10 -10 -11 
0 -21 0 -22 10 -10 11 -11 11 -11 21 0 11 -11 10 -10 
11 -11 0 -22 0 -21 11 -11 100 AP
0 -11 0 0 -21 -22 0 0 -22 -21 0 0 -21 0 -21 0 
-22 0 -21 -22 0 -21 0 -21 21 -22 0 0 22 -21 0 0 
0 -21 0 -21 0 -22 21 -21 0 0 0 0 -21 -21 0 0 
-22 -22 0 -21 0 -22 0 0 -21 -21 0 0 -21 -22 0 -11 
-11 11 -11 11 -11 -11 11 -11 11 -10 -11 -11 -11 -11 -10 -22 
0 0 -22 0 -21 -22 0 -22 0 -22 0 -23 0 -22 0 -23 
0 -11 -11 -12 11 -11 11 -12 10 -11 0 -12 0 -24 0 -23 
0 -24 0 -12 -10 -12 10 -12 11 12 11 0 0 0 0 -24 
0 -25 0 -25 0 -25 0 -26 0 -26 21 -26 0 0 71 AP
PP
0.00784314 sg
0 -21 0 -22 0 -21 0 0 -21 0 -22 0 -21 -22 0 -21 
0 -22 0 -21 21 -22 0 0 22 -22 21 22 0 0 21 22 
0 21 0 22 0 0 22 0 21 0 22 0 21 0 0 0 
21 -22 22 0 21 0 0 0 21 -21 0 0 22 -22 0 0 
21 -22 0 0 21 -22 0 0 22 -22 21 0 22 0 0 0 
21 -22 21 0 0 0 0 -23 0 -22 0 -23 0 -23 0 -23 
0 0 -21 -23 0 -24 0 -23 0 -24 0 0 -21 0 -22 0 
-21 0 -22 0 -21 0 -21 0 0 0 -22 24 -21 0 -21 0 
0 0 -22 23 -21 0 -21 0 -22 -23 0 0 -21 -24 0 0 
-22 -24 0 0 -21 0 -21 0 -22 -24 0 -25 0 0 -21 0 
-21 0 -22 0 -21 0 -21 0 0 0 -22 25 -21 0 0 0 
0 24 -22 24 0 0 0 24 -21 23 0 0 0 24 0 23 
0 23 0 23 0 0 5131 2354 100 MP
21 23 0 22 0 0 22 0 21 23 0 22 0 0 22 22 
0 0 21 22 0 0 21 22 0 22 0 0 22 21 0 22 
0 21 0 22 -22 21 -21 -21 0 0 -21 -22 0 0 -22 0 
-21 0 0 0 0 22 0 0 21 0 22 21 -22 22 -21 0 
-22 0 0 0 0 21 0 0 0 0 22 -21 21 0 22 0 
21 21 0 0 21 0 22 21 0 0 21 0 21 22 0 0 
22 0 21 0 21 0 22 0 21 21 0 0 22 0 21 0 
0 0 0 -21 21 -22 22 0 21 0 0 0 0 0 -21 0 
-22 0 -21 0 0 0 -21 22 -22 -22 0 0 -21 -21 0 0 
0 0 -22 21 -21 -21 75 AP
PP
1 sg
10 11 -10 11 -22 0 0 11 0 0 22 0 21 0 11 0 
0 -22 11 -11 21 0 11 -10 10 -11 22 0 21 0 11 -11 
10 -11 11 -11 11 -11 10 11 11 0 0 0 21 -22 0 0 
22 -22 21 0 22 0 0 0 21 -22 21 0 0 0 0 -12 
-10 -11 10 -11 0 -11 0 -23 0 -11 -10 -12 10 -11 0 -12 
0 0 -21 -11 -11 -12 11 -12 0 -12 0 -23 0 -24 0 0 
-21 0 -22 0 -21 0 -11 0 -11 12 -10 -12 -11 0 -11 0 
-10 12 -22 12 -10 0 -11 12 -21 0 -22 11 -21 0 -21 0 
-22 -23 0 0 -21 -24 0 0 -22 -24 0 0 -21 0 -11 0 
-10 12 -11 -12 -11 -24 0 -25 0 0 -21 0 -21 0 -22 0 
-21 0 -21 0 0 0 -22 25 -21 0 0 0 0 24 -22 24 
0 0 0 24 -21 23 0 0 0 12 11 12 0 23 -11 12 
0 11 0 23 0 0 5131 2354 100 MP
21 23 0 11 11 11 11 0 21 23 0 22 0 0 22 22 
0 0 21 22 0 0 21 22 0 22 0 0 22 21 0 22 
0 21 0 11 10 11 11 11 21 0 22 0 10 10 11 11 
0 -11 0 -21 0 0 -21 0 -22 0 -21 -22 0 -21 0 -22 
0 -21 21 -22 0 0 22 -22 21 22 0 0 21 11 11 11 
11 10 41 AP
PP
0.00784314 sg
-21 16 0 0 -22 32 -21 0 0 0 -21 32 0 0 -22 34 
-21 0 -22 0 -21 0 -21 -34 0 0 -22 0 0 0 -21 34 
-11 0 11 0 21 17 11 17 -11 18 -10 17 -11 18 0 18 
-21 37 -11 0 -11 19 -10 -19 -11 -37 0 0 -21 -36 21 -35 
0 0 0 -34 0 -34 0 -32 21 -32 0 0 0 -31 0 0 
-21 0 -21 -31 21 -30 21 0 0 0 22 -29 0 -1 0 -28 
0 0 -22 0 -21 0 -21 -29 21 -28 0 0 21 -27 22 0 
21 27 0 0 21 0 22 0 21 0 21 28 0 0 22 29 
0 0 21 28 0 1 22 0 21 29 0 0 21 0 22 0 
21 30 0 15 11 16 -11 15 1328 936 77 MP
PP
1 sg
0 0 -22 32 -21 0 0 0 -21 32 0 0 -22 34 -21 0 
-22 0 -21 0 -21 -34 0 0 -22 0 0 0 -21 34 -21 0 
0 0 0 0 21 0 21 34 -21 35 0 0 0 36 -21 37 
-22 0 -21 -37 0 0 -21 -36 21 -35 0 0 0 -34 0 -34 
0 -32 21 -32 0 0 0 -31 0 0 -21 0 -21 -31 21 -30 
21 0 0 0 22 -29 0 -1 0 -28 0 0 -22 0 -21 0 
-21 -29 21 -28 0 0 21 -27 22 0 21 27 0 0 21 0 
22 0 21 0 21 28 0 0 22 29 0 0 21 28 0 1 
22 0 21 29 0 0 21 0 22 0 21 30 0 31 -21 31 
1349 920 73 MP
PP
0.00784314 sg
-11 -11 -21 0 -11 11 0 21 -10 11 -22 0 -21 0 -11 -11 
-10 -10 -22 0 -10 10 -11 11 -11 -11 -10 -10 -11 10 -11 11 
-21 0 -11 -11 -11 -10 -10 -11 10 -11 11 -11 0 -21 -11 -11 
-21 0 -21 0 -11 11 0 21 0 22 0 21 -11 11 -10 -11 
-11 -10 -11 -11 11 -11 11 -11 -11 -10 -11 -11 0 -22 11 -10 
11 -11 -11 -11 -11 -10 11 -11 11 -11 10 -10 22 -11 0 0 
10 -21 -10 -11 -22 0 -10 11 -11 11 -11 10 -10 11 -11 -11 
0 -21 -11 -11 -10 -10 10 -11 22 0 10 11 11 10 11 -10 
10 -11 11 -11 -11 -10 -21 0 -11 -11 -10 -11 -11 11 -11 11 
-10 -11 -11 -11 -11 -10 11 -11 11 -11 0 -21 0 -22 10 -10 
11 -11 11 -11 10 -11 -10 -11 -22 0 -10 11 -11 11 -21 0 
-22 0 -21 0 -22 0 -10 -11 -11 -11 -11 11 0 22 -10 11 
-11 -11 0 -22 -11 -11 3358 2166 100 MP
22 0 21 0 11 -11 10 -11 22 0 21 0 11 11 10 11 
11 -11 11 -11 10 11 11 11 11 11 0 21 0 22 -11 11 
-11 10 -10 11 -11 11 11 11 21 0 11 10 0 22 10 10 
22 0 10 11 0 21 0 22 11 10 11 11 0 21 0 21 
-11 11 -11 11 -10 10 -11 -10 11 -11 10 -11 0 -21 -10 -10 
-22 0 0 10 0 21 -10 22 0 21 10 11 11 10 11 11 
21 0 11 -11 11 -10 10 -11 11 -11 11 11 -11 11 -11 10 
11 11 11 11 0 21 10 11 22 0 21 0 11 -11 0 -21 
10 -11 22 0 10 11 11 11 21 0 22 0 10 -11 11 -11 
22 0 21 0 21 0 22 0 10 11 11 11 11 10 -11 11 
-11 11 0 21 11 11 11 11 -11 11 -11 -11 -10 -11 -11 -11 
-11 -10 -21 0 -11 -11 11 -11 11 -11 -11 -10 -21 0 -22 0 
-11 10 0 22 -10 11 -11 -11 100 AP
-10 -10 10 -11 22 0 21 0 21 0 22 0 21 0 7 AP
PP
-21 -24 21 -23 21 0 22 0 10 0 11 -12 11 12 11 0 
21 0 21 0 22 11 21 0 11 12 10 0 22 0 0 0 
21 -23 21 0 22 0 21 23 0 0 11 0 11 -12 10 12 
11 24 0 12 21 0 22 0 10 12 -10 12 -11 13 0 24 
-11 13 0 12 -21 25 -21 0 -22 0 -21 -25 10 -25 11 -12 
11 -12 -11 0 -21 0 0 0 -22 24 0 0 0 25 0 25 
-21 26 -21 -26 0 -25 0 0 -22 -25 0 -24 0 0 -21 0 
0 0 -21 24 0 0 0 25 -22 25 -21 -25 0 -25 0 -24 
0 0 -21 0 -22 -25 0 0 0 0 -21 25 -22 -25 0 -24 
0 0 -21 0 3315 1409 75 MP
PP
1 sg
-21 -24 21 -23 21 0 22 0 21 0 22 0 21 0 21 0 
22 23 0 0 21 0 21 0 22 0 0 0 21 -23 21 0 
22 0 21 23 0 0 22 0 21 24 0 24 0 0 21 25 
0 24 0 25 -21 25 -21 0 -22 0 -21 -25 21 -25 22 0 
0 0 0 -24 0 0 -22 0 -21 0 0 0 -22 24 0 0 
0 25 0 25 -21 26 -21 -26 0 -25 0 0 -22 -25 0 -24 
0 0 -21 0 0 0 -21 24 0 0 0 25 -22 25 -21 -25 
0 -25 0 -24 0 0 -21 0 -22 -25 0 0 0 0 -21 25 
-22 -25 0 -24 0 0 -21 0 3315 1409 69 MP
PP
-21 -31 21 -30 0 0 22 -29 21 0 21 29 0 0 22 0 
21 0 21 30 0 0 0 0 22 -30 21 0 22 30 0 31 
-22 31 0 0 0 0 22 32 0 0 21 0 0 0 21 -32 
22 0 21 32 -21 32 -22 0 0 0 -21 34 0 0 -21 34 
-22 -34 0 0 -21 -34 0 0 0 0 -22 34 0 0 0 34 
-21 35 -21 -35 0 -34 0 -34 21 -32 21 0 0 0 0 -32 
0 0 -21 0 -21 -31 0 0 -22 0 -21 0 -21 0 -22 0 
4063 951 57 MP
PP
0.00784314 sg
-21 -34 0 -32 0 0 -11 0 -11 16 -21 0 -21 0 -11 16 
-11 17 -10 -17 -11 0 -21 -32 0 -16 -22 0 -10 -16 0 -31 
10 -16 11 16 11 15 0 -15 0 -31 21 -30 21 0 11 0 
11 -15 10 15 11 0 21 30 0 0 22 0 11 0 10 -15 
11 15 -11 15 0 16 0 31 0 0 22 32 0 32 -22 34 
965 822 41 MP
PP
1 sg
-21 -34 0 -32 0 0 -22 0 -21 0 -21 -32 0 -31 0 0 
0 0 0 31 0 32 -22 32 -21 0 -21 -32 0 -32 0 -31 
0 -31 21 -30 21 0 22 0 21 0 21 30 0 0 22 0 
21 31 0 31 0 0 22 32 0 32 -22 34 965 822 31 MP
PP
0.00784314 sg
21 0 21 0 0 0 22 -21 21 21 0 21 0 0 22 22 
-22 21 -21 0 0 0 0 0 21 21 0 0 22 0 21 0 
0 0 21 -21 0 0 22 -21 0 0 21 -22 21 0 0 0 
0 -21 0 0 -21 -21 0 -21 0 -22 0 0 -21 0 0 0 
-22 22 -21 -22 0 0 -21 0 0 0 0 22 -22 21 -21 -21 
0 -22 0 -21 0 0 -22 0 -21 0 0 0 0 21 0 22 
-21 21 0 0 0 21 0 0 4682 1941 53 MP
PP
-10 -17 10 -17 11 -17 0 -32 -11 -16 -10 -16 10 -16 22 0 
10 -15 11 -16 21 0 11 16 11 15 21 0 11 -15 10 -16 
22 0 21 0 11 16 -11 15 -21 0 -11 16 11 16 10 16 
-10 16 -22 0 -10 -16 -11 -16 -21 0 -11 16 11 16 10 16 
-10 17 0 17 -22 34 -21 -17 -21 0 -22 0 3422 805 39 MP
PP
1 sg
11 -11 -11 -10 -21 0 -21 0 -11 -11 -11 -11 -21 0 -11 -11 
-11 -10 -21 0 -21 0 -22 0 -21 0 -11 -11 -10 -11 -11 11 
-11 11 -10 10 -11 11 -11 11 11 11 11 10 10 11 11 11 
11 10 10 -10 11 -11 21 0 22 0 10 -11 11 -10 11 10 
10 11 11 11 11 10 21 0 22 0 21 0 11 -10 10 -11 
1841 2058 41 MP
PP
0.00784314 sg
-10 -13 10 -12 11 -12 11 -13 21 0 11 13 10 0 22 0 
21 24 0 25 0 25 0 0 21 26 0 26 0 0 22 26 
-22 27 -21 0 -21 0 0 0 -22 27 -21 -27 0 -27 21 -26 
22 0 0 0 0 0 -22 -26 0 -26 0 0 -21 -25 0 0 
-21 -25 0 -12 -11 12 -11 13 3657 1323 37 MP
PP
21 22 0 0 0 0 21 -22 0 0 22 -21 0 0 21 -22 
0 0 0 -22 0 -22 0 -22 22 -22 0 0 0 -23 0 -22 
0 0 -22 -23 0 0 -21 0 0 0 -22 23 0 0 0 22 
0 23 -21 22 0 0 0 22 -21 22 0 0 0 22 0 22 
0 21 0 0 3571 2155 35 MP
PP
-22 -26 22 -26 0 0 0 -25 0 -25 21 -24 21 0 22 0 
21 0 0 0 21 -25 22 25 0 24 0 25 -22 25 -21 0 
0 0 0 26 -21 26 -22 -26 0 0 -21 0 0 0 -21 26 
2930 1234 25 MP
PP
1 sg
-22 -26 22 -26 0 0 0 -25 0 -25 21 -24 21 0 22 0 
21 0 0 0 21 -25 22 25 0 24 0 25 -22 25 -21 0 
0 0 0 26 -21 26 -22 -26 0 0 -21 0 0 0 -21 26 
2930 1234 25 MP
PP
-21 -25 21 -24 21 0 22 0 21 24 0 25 0 25 0 0 
21 26 0 26 0 0 22 26 -22 27 -21 0 -21 0 0 0 
-22 27 -21 -27 0 -27 21 -26 22 0 0 0 0 0 -22 -26 
0 -26 0 0 -21 -25 0 0 3614 1311 29 MP
PP
0.00784314 sg
22 0 21 0 0 0 21 -26 0 0 0 -26 0 -25 22 -25 
0 0 21 -24 21 0 0 0 22 -25 21 0 22 0 0 0 
21 -24 0 0 21 -24 0 0 0 -23 0 0 -21 0 -21 0 
0 0 -22 23 -21 0 -22 0 0 0 -21 24 -21 0 0 0 
-22 24 0 0 0 25 -21 24 0 0 0 25 0 0 21 25 
-21 26 -21 0 -22 0 0 0 0 26 0 0 5003 1234 47 MP
PP
1 sg
21 22 0 0 0 0 21 -22 0 0 22 -21 0 0 0 -11 
-11 -11 11 -11 10 -11 11 -11 0 -11 0 -22 22 -22 0 0 
0 -23 0 -11 -11 -11 -11 -12 -21 0 -22 12 0 0 0 22 
0 23 -21 22 0 0 0 22 -11 22 0 22 -10 11 0 11 
0 21 0 0 3571 2155 35 MP
PP
0.00784314 sg
22 25 0 0 21 0 22 24 0 0 0 0 0 -24 0 -25 
0 -25 21 -25 21 0 0 0 22 -26 0 0 21 -26 21 0 
0 0 0 -26 0 -27 0 0 -21 0 -21 0 0 0 -22 27 
0 0 -21 26 0 0 -21 26 0 0 -22 26 0 0 -21 25 
0 0 -22 25 0 0 0 0 5516 2567 37 MP
PP
-22 -26 22 -26 21 0 21 0 22 0 21 0 21 0 22 0 
21 0 22 26 -22 26 0 0 -21 26 -22 0 -21 -26 0 0 
-21 0 0 0 -22 26 -21 -26 0 0 -21 0 3400 1234 23 MP
PP
1 sg
-22 -26 22 -26 21 0 21 0 22 0 21 0 21 0 22 0 
21 0 22 26 -22 26 0 0 -21 26 -22 0 -21 -26 0 0 
-21 0 0 0 -22 26 -21 -26 0 0 -21 0 3400 1234 23 MP
PP
21 0 21 0 0 0 22 -21 21 21 0 21 0 0 22 22 
-22 21 -21 0 0 0 0 0 21 21 0 0 11 0 11 -10 
21 0 21 -11 0 0 0 -11 -21 0 -11 -10 11 -11 21 0 
11 -11 -11 -10 -10 -11 0 -21 10 -11 11 -10 11 -11 10 -11 
-10 0 0 0 -22 22 -21 -22 0 0 -21 0 0 0 0 11 
10 11 -10 10 -22 11 -21 -11 -22 0 -10 -10 0 -22 10 -10 
11 10 11 11 0 -11 0 -21 0 0 -22 0 -21 0 0 0 
0 21 0 22 -21 21 0 0 0 21 0 0 4682 1941 63 MP
PP
-21 -27 0 -27 21 -27 0 0 22 -26 21 26 0 0 21 27 
0 0 22 0 21 0 21 27 0 27 0 28 -21 29 -21 -29 
0 -28 0 0 -22 0 -21 -27 0 0 -21 0 0 0 -22 27 
4832 1127 25 MP
PP
0.00784314 sg
-11 -12 11 -13 10 -12 11 -12 11 -12 10 -12 11 -12 11 -12 
10 12 11 12 11 -12 10 -12 11 -11 11 -12 21 0 11 -12 
11 -11 10 11 -10 12 -11 12 0 23 -11 12 -10 -12 -11 -12 
-11 12 0 24 11 12 11 12 -11 12 -11 13 -11 12 -10 -12 
-11 -13 -11 13 -10 12 -11 -12 11 -13 10 -12 -10 -12 -22 0 
-10 12 0 25 -11 12 -21 0 3806 1348 45 MP
PP
1 sg
11 13 10 12 11 -12 11 -13 0 -12 21 -25 21 0 0 0 
11 -26 11 -13 21 -13 21 0 0 0 0 -26 0 -27 0 0 
-21 0 -21 0 0 0 -22 27 0 0 -21 26 0 0 -21 26 
0 0 -22 26 0 0 -21 25 0 0 0 12 5494 2580 31 MP
PP
21 13 0 -13 0 -12 -10 -13 10 -12 11 -12 11 -13 10 -12 
11 -12 11 12 10 12 22 -12 21 0 22 0 0 0 21 -24 
0 0 21 -24 0 0 0 -23 0 0 -21 0 -21 0 0 0 
-22 23 -21 0 -22 0 0 0 -21 24 -21 0 0 0 -22 24 
0 0 0 25 -21 24 0 0 0 25 0 0 4960 1311 39 MP
PP
0.00784314 sg
0 0 0 -22 0 0 -22 0 -21 0 -21 0 -22 -23 0 0 
-21 -22 0 -22 0 0 0 0 0 22 -21 22 -22 -22 0 -22 
0 0 -21 0 -22 0 -21 0 0 0 -21 22 -22 -22 0 0 
-21 0 0 0 0 22 0 0 21 0 22 0 21 22 0 0 
21 0 22 0 21 0 22 23 0 0 21 0 21 22 0 0 
22 0 21 0 21 0 22 0 1520 1594 45 MP
PP
-21 0 -22 0 -21 -19 -11 -20 0 -38 11 -18 11 18 10 0 
0 0 22 -37 21 37 0 0 21 38 -21 39 1264 603 15 MP
PP
-21 0 -22 15 -21 0 -21 -15 -11 -15 -11 -28 22 -29 21 0 
21 0 22 14 10 15 11 14 11 14 -11 15 1264 1027 15 MP
PP
-21 -32 0 -31 21 -31 0 0 22 -30 21 0 21 30 -21 31 
0 0 -21 31 0 0 0 0 21 32 -21 32 -22 -32 0 0 
3123 888 17 MP
PP
1 sg
-21 -32 0 -31 21 -31 0 0 22 -30 21 0 21 30 -21 31 
0 0 -21 31 0 0 0 0 21 32 -21 32 -22 -32 0 0 
3123 888 17 MP
PP
0.00784314 sg
21 0 22 22 0 0 21 21 -21 22 0 0 0 0 21 22 
0 21 0 22 0 22 0 0 21 0 0 0 0 -22 22 -22 
0 0 0 -21 0 0 -22 -22 0 0 -21 -22 0 -21 0 -22 
0 -21 0 0 -21 -22 0 0 -22 0 0 0 -21 22 0 0 
0 21 0 0 4725 1813 35 MP
PP
-10 -15 0 -30 10 -14 11 -14 11 -15 21 0 11 -14 10 -14 
22 0 21 0 22 0 10 -14 11 -13 11 13 0 28 -11 14 
-21 0 -22 0 -21 0 -22 0 -10 15 -11 14 -11 14 -10 15 
-11 15 -11 15 4469 997 27 MP
PP
0 0 0 -35 0 0 -21 -34 0 0 -22 0 -21 0 -21 0 
0 0 0 0 21 34 -21 35 -22 0 -21 -35 0 -34 0 0 
0 0 -22 34 0 0 0 0 22 35 0 0 21 0 22 0 
21 0 21 0 22 0 21 0 2439 753 29 MP
PP
-11 -14 -10 -14 -11 -13 0 -27 -11 -13 -21 0 -11 13 0 27 
-10 13 -11 -13 0 -27 11 -13 10 -13 -10 -13 -22 0 -10 13 
-11 13 -11 -13 11 -13 11 -13 10 -13 22 0 21 0 11 13 
10 13 11 13 11 13 10 13 0 27 11 13 11 14 -11 14 
1499 1140 33 MP
PP
1 sg
-21 -32 21 -31 22 0 21 0 21 31 0 32 -21 32 -21 0 
-22 -32 0 0 4127 888 11 MP
PP
-21 0 -22 0 -21 -39 21 -38 0 0 22 -37 21 37 0 0 
21 38 -21 39 1264 603 11 MP
PP
0 0 0 23 -22 23 -21 0 -22 0 -21 -23 21 -23 22 0 
0 0 21 -24 0 0 0 -23 22 -24 21 24 0 23 -21 24 
1883 2423 17 MP
PP
22 0 10 10 -10 11 0 11 0 0 21 21 -21 22 0 0 
0 0 21 22 0 21 0 22 0 22 0 0 21 0 0 0 
0 -22 22 -22 0 0 0 -21 0 0 -22 -22 0 0 -21 -22 
0 -21 0 -22 0 -21 0 0 -21 -22 0 0 -22 0 0 0 
-10 22 10 11 4704 1823 35 MP
PP
0.00784314 sg
0 0 0 -39 0 -38 0 0 -21 -37 0 -36 0 -35 0 0 
-22 -34 0 0 0 0 0 34 0 35 -21 36 0 0 0 0 
21 37 0 0 22 38 0 0 21 39 0 0 1969 603 23 MP
PP
1 sg
0 0 0 -39 0 -38 0 0 -21 -37 0 -36 0 -35 0 0 
-22 -34 0 0 0 0 0 34 0 35 -21 36 0 0 0 0 
21 37 0 0 22 38 0 0 21 39 0 0 1969 603 23 MP
PP
-21 0 -21 -30 0 0 -22 -28 22 -29 21 0 21 0 22 29 
0 28 -22 30 1307 1012 11 MP
PP
0.00784314 sg
-11 -11 -11 -11 -10 -10 -11 -11 -11 -11 -10 -11 -11 -11 0 -22 
0 -22 0 -22 11 -12 10 12 11 11 11 11 -11 11 -11 11 
0 22 11 11 11 -11 10 -11 11 11 11 11 10 11 -10 11 
-11 11 11 10 10 11 -10 11 1755 2144 29 MP
PP
-21 -22 0 -21 21 -22 21 22 0 0 22 10 10 11 0 22 
11 22 -21 22 -22 -22 0 0 -21 -22 0 0 3443 1683 15 MP
PP
1 sg
-22 0 -21 0 -21 -22 21 -22 0 0 21 -22 0 0 22 -22 
21 22 0 22 0 22 -21 22 1926 2198 13 MP
PP
0.00784314 sg
-10 -12 0 -23 10 -11 22 0 21 0 11 11 10 11 22 0 
10 12 11 12 11 11 -11 12 -21 0 -11 -12 -11 -11 -21 0 
-21 0 -22 0 4127 1491 19 MP
PP
-21 0 -21 0 -1 0 -21 28 -21 -28 21 -27 0 0 22 -27 
21 0 21 0 22 27 -22 27 1841 1127 13 MP
PP
1 sg
-21 0 -21 0 -1 0 -21 28 -21 -28 21 -27 0 0 22 -27 
21 0 21 0 22 27 -22 27 1841 1127 13 MP
PP
0.00784314 sg
-11 -11 11 -11 11 -10 10 -11 22 0 21 0 11 -11 11 -10 
10 10 0 22 0 21 -10 11 -22 0 -21 0 -22 0 -21 0 
3315 1951 17 MP
PP
1 sg
-21 -22 0 -21 21 -22 21 22 0 0 22 21 0 22 0 0 
21 22 -21 22 -22 -22 0 0 -21 -22 0 0 3443 1683 15 MP
PP
0.00784314 sg
-11 13 0 27 -11 13 -21 0 -11 -13 11 -14 11 -13 -11 -13 
-11 -13 11 -13 11 -13 10 -13 22 0 10 13 0 26 -10 13 
1691 1221 17 MP
PP
-11 -17 11 -17 21 0 22 0 21 0 11 -17 11 -16 10 16 
0 34 -10 17 -22 0 -21 0 -22 0 -21 0 3550 805 15 MP
PP
-10 -12 10 -12 22 -11 21 0 21 23 0 0 22 24 -22 24 
-21 0 -21 -24 0 0 -22 -12 4063 1421 13 MP
PP
1 sg
0 0 0 -22 0 0 -22 0 -21 0 -21 0 -22 -23 0 0 
-21 -22 0 -22 0 0 0 0 0 22 -21 22 -11 0 11 23 
0 0 21 0 21 22 0 0 22 0 21 0 21 0 22 0 
1520 1594 25 MP
PP
0.00784314 sg
-22 0 -21 0 -11 -16 11 -16 11 -16 -11 -16 -11 -15 11 -16 
21 0 11 16 0 31 11 16 10 16 -10 16 879 872 15 MP
PP
1 sg
-22 -43 0 0 -21 -42 21 -41 22 41 0 0 21 42 -21 43 
1221 477 9 MP
PP
-22 -24 22 -23 21 0 21 23 0 0 22 24 -22 24 -21 0 
-21 -24 0 0 4041 1409 11 MP
PP
22 24 0 0 21 12 22 0 10 -12 11 -12 11 -12 -11 -12 
-21 0 -22 0 -11 -12 -10 0 0 0 -22 24 0 0 0 0 
4640 1409 17 MP
PP
0.00784314 sg
-10 -12 0 -24 0 -24 10 -12 22 0 21 0 11 12 -11 12 
-11 12 11 12 11 12 -11 12 -11 -12 -10 -12 -11 12 -11 12 
3529 1373 17 MP
PP
-21 0 -22 -39 22 -38 21 0 22 38 -22 39 965 603 7 MP
PP
1 sg
-21 0 -22 -39 22 -38 21 0 22 38 -22 39 965 603 7 MP
PP
0.00784314 sg
-22 0 -21 -36 21 -35 22 0 21 35 -21 36 1691 717 7 MP
PP
1 sg
-22 0 -21 -36 21 -35 22 0 21 35 -21 36 1691 717 7 MP
PP
21 21 0 0 22 0 21 0 0 0 0 -21 0 0 -21 -22 
0 0 -22 -21 0 0 -10 0 -11 11 0 10 -11 22 11 0 
4319 1898 17 MP
PP
0.00784314 sg
-10 -11 -11 -10 -21 0 -22 0 -11 10 -10 11 -11 -11 0 -21 
11 -10 21 0 22 0 21 0 21 0 11 10 0 21 -11 11 
1841 1909 17 MP
PP
1 sg
-21 -23 21 -23 22 0 21 0 21 23 -21 23 -21 0 -22 0 
3657 1526 9 MP
PP
0.00784314 sg
-11 -11 -11 -10 -21 0 -11 -11 -10 -11 -22 0 -10 -11 -11 -10 
-11 -11 11 -11 11 11 10 11 22 0 10 10 11 11 21 0 
11 11 11 11 10 10 -10 11 1691 2058 21 MP
PP
-11 -11 11 -11 10 -11 0 -21 0 -22 11 -10 11 10 0 22 
0 21 11 11 10 11 -10 11 -22 0 -21 0 3272 1780 15 MP
PP
1 sg
-22 -22 22 -21 0 0 21 -21 21 21 0 21 -21 22 -21 0 
3101 1898 9 MP
PP
0 -11 0 -11 -21 0 -22 0 -21 0 -21 11 -22 -11 -10 11 
10 0 22 0 21 22 0 0 11 0 10 -11 11 11 11 0 
10 0 11 -11 1670 1650 19 MP
PP
0.00784314 sg
-21 -23 21 -22 22 11 10 11 11 23 -21 23 -22 -23 0 0 
3358 1549 9 MP
PP
-10 -12 10 -11 11 -12 11 -11 10 11 11 12 11 11 -11 12 
-11 11 -10 11 -11 -11 -11 -11 3187 1537 13 MP
PP
-11 -11 0 -21 11 -11 11 -11 10 -10 11 10 -11 11 -10 11 
0 21 10 11 11 10 0 22 -11 11 -10 -11 0 -22 -11 -10 
3315 1866 17 MP
PP
1 sg
22 0 21 0 21 0 22 0 21 21 0 0 11 0 0 -21 
-11 -11 -21 0 -22 0 -21 0 -21 0 -11 -11 -11 -10 -10 10 
10 22 0 0 4939 1983 19 MP
PP
-21 -24 21 -23 22 0 21 23 -21 24 -22 0 4533 1456 7 MP
PP
-21 -23 21 -22 22 22 0 0 21 23 -21 23 -22 -23 0 0 
3358 1549 9 MP
PP
0.00784314 sg
-11 -18 11 -17 21 0 22 0 10 17 -10 18 -22 0 -21 0 
4661 735 9 MP
PP
-22 -22 22 -21 21 0 22 21 -22 22 -21 0 3507 1748 7 MP
PP
1 sg
-22 -22 22 -21 21 0 22 21 -22 22 -21 0 3507 1748 7 MP
PP
0.00784314 sg
21 0 22 0 21 0 21 0 22 0 21 0 0 0 0 0 
-21 -22 0 0 -22 0 0 0 -21 22 -21 -22 0 0 -22 0 
0 0 -21 22 0 0 0 0 4725 2090 21 MP
PP
1 sg
21 0 22 0 21 0 21 0 22 0 21 0 0 0 0 0 
-21 -22 0 0 -22 0 0 0 -21 22 -21 -22 0 0 -22 0 
0 0 -21 22 0 0 0 0 4725 2090 21 MP
PP
-21 -43 21 -42 22 42 -22 43 965 477 5 MP
PP
0.00784314 sg
-11 -17 11 -17 21 0 22 0 10 17 -10 17 -22 0 -21 0 
4725 805 9 MP
PP
-10 -11 10 -12 11 -12 11 -11 10 11 0 24 0 23 -10 12 
-11 -12 -11 -12 3422 1445 11 MP
PP
1 sg
-21 -42 21 -41 22 41 -22 42 1435 520 5 MP
PP
0.00784314 sg
-10 -11 10 -11 22 0 21 0 11 11 11 11 10 11 -10 12 
-11 -12 -11 -11 -21 0 -22 0 3059 1583 13 MP
PP
-11 -11 0 -22 11 -12 21 0 11 12 10 11 11 11 -11 11 
-10 -11 -11 -11 -11 11 -10 11 4041 1583 13 MP
PP
22 0 21 0 21 0 0 0 0 0 -21 -26 0 -26 0 0 
-21 0 0 0 0 26 -22 26 0 0 0 0 5067 2617 15 MP
PP
1 sg
-21 -38 21 -37 22 37 -22 38 1478 642 5 MP
PP
21 0 21 0 0 0 0 0 -21 -26 0 -26 0 0 -21 0 
0 0 0 26 -11 26 11 0 5045 2617 13 MP
PP
0.00784314 sg
-21 -34 21 -34 22 34 -22 34 1670 788 5 MP
PP
1 sg
-21 -34 21 -34 22 34 -22 34 3358 788 5 MP
PP
-21 -34 21 -34 22 34 -22 34 1670 788 5 MP
PP
0.00784314 sg
-21 -34 21 -32 21 32 -21 34 3144 822 5 MP
PP
1 sg
-21 -34 21 -32 21 32 -21 34 3144 822 5 MP
PP
11 0 -11 -23 0 -11 -11 -12 -10 -11 -11 11 0 23 11 12 
10 11 11 0 1093 1526 11 MP
PP
0.00784314 sg
-21 -32 21 -32 22 32 -22 32 3016 856 5 MP
PP
1 sg
-21 -32 21 -32 22 32 -22 32 3016 856 5 MP
PP
22 -10 21 0 22 0 10 0 11 -11 21 0 11 -11 -11 0 
-21 -10 -21 0 0 10 -22 22 -21 0 -22 0 0 0 0 10 
5110 2037 17 MP
PP
-21 -32 21 -31 22 31 -22 32 3358 888 5 MP
PP
0.00784314 sg
-11 0 -10 11 -11 -11 11 -11 0 -10 21 -22 21 22 -21 21 
2738 1705 9 MP
PP
1 sg
11 -21 -11 -20 -21 0 -11 20 11 21 21 0 1371 541 7 MP
PP
21 0 11 0 0 -38 -11 -18 -11 18 -10 19 0 19 0 0 
3272 642 9 MP
PP
0.00784314 sg
-21 -22 10 -23 11 -11 11 11 10 23 -21 22 3379 1594 7 MP
PP
-21 -31 21 -30 21 30 -21 31 2973 951 5 MP
PP
1 sg
-21 -31 21 -30 21 30 -21 31 2973 951 5 MP
PP
0.00784314 sg
-10 -12 10 -12 22 0 21 0 11 12 -11 12 -21 0 -22 0 
4170 1397 9 MP
PP
1 sg
11 0 10 -11 11 -10 -11 -22 0 0 -21 -21 0 0 0 0 
0 21 0 22 0 21 0 0 4383 1877 13 MP
PP
0.00784314 sg
-11 -11 11 -11 21 0 11 11 0 23 -11 12 -10 -12 -11 -12 
2973 1515 9 MP
PP
0 0 0 -28 0 0 -22 0 -21 0 0 0 0 28 0 0 
21 0 22 0 1883 2804 11 MP
PP
1 sg
0 0 0 -28 0 0 -22 0 -21 0 0 0 0 28 0 0 
21 0 22 0 1883 2804 11 MP
PP
0.00784314 sg
-11 -19 11 -18 10 18 11 19 11 18 -11 19 -11 -19 -10 -18 
4276 698 9 MP
PP
-22 -27 22 -28 21 28 -21 27 1691 2749 5 MP
PP
1 sg
-21 -28 21 -27 22 27 -22 28 4875 1099 5 MP
PP
-22 -27 22 -28 21 28 -21 27 1691 2749 5 MP
PP
0.00784314 sg
-10 -11 10 -11 11 -11 11 -11 10 11 0 22 -10 11 -22 0 
3358 2209 9 MP
PP
-11 -11 -11 -11 -21 0 -11 -11 11 -10 21 0 11 10 11 11 
10 11 -10 11 1755 1823 11 MP
PP
-11 -11 11 -11 21 0 11 11 0 21 -11 11 -11 -11 -10 -10 
3464 1866 9 MP
PP
-11 -11 0 -21 0 -21 11 -11 10 11 0 21 0 21 -10 11 
3336 1994 9 MP
PP
-22 -26 22 -26 21 26 -21 26 3037 1234 5 MP
PP
1 sg
-22 -26 22 -26 21 26 -21 26 3037 1234 5 MP
PP
11 -12 -11 0 0 0 -21 24 0 0 -21 24 0 0 0 12 
21 0 11 -12 0 -24 10 -12 1606 1421 13 MP
PP
0.00784314 sg
-22 -25 22 -24 21 24 -21 25 3336 1360 5 MP
PP
-22 -25 22 -24 21 24 -21 25 2759 1360 5 MP
PP
1 sg
-22 -25 22 -24 21 24 -21 25 3336 1360 5 MP
PP
-22 -25 22 -24 21 24 -21 25 2759 1360 5 MP
PP
0.00784314 sg
-21 -24 21 -24 22 24 -22 24 1841 2470 5 MP
PP
1 sg
-21 -24 21 -24 22 24 -22 24 1841 2470 5 MP
PP
-21 -23 21 -23 21 23 -21 23 1093 1480 5 MP
PP
-21 -23 21 -23 21 23 -21 23 3550 1480 5 MP
PP
11 10 10 11 22 0 0 -11 0 0 -22 -21 0 0 -21 0 
-11 0 11 11 4383 2015 11 MP
PP
-21 -22 21 -23 21 23 -21 22 3379 1594 5 MP
PP
-21 -21 21 -22 21 22 -21 21 2738 1705 5 MP
PP
22 0 0 -17 0 -17 -22 0 -10 17 10 17 3999 805 7 MP
PP
0.00784314 sg
-21 0 -11 -13 11 -13 21 0 11 13 -11 13 1777 1195 7 MP
PP
-11 12 -10 11 -11 -11 11 -12 10 -12 11 -11 11 11 -11 12 
2738 1468 9 MP
PP
-11 -11 11 -11 11 -12 10 -11 11 11 -11 12 -10 11 -11 11 
3443 1515 9 MP
PP
-11 -12 11 -11 10 11 11 12 11 11 -11 11 -11 -11 -10 -11 
3977 1537 9 MP
PP
-10 -12 10 -11 22 0 10 11 -10 12 -22 0 3294 1560 7 MP
PP
-11 -12 0 -22 11 -11 10 11 0 22 -10 12 2930 1560 7 MP
PP
1 sg
22 0 10 -11 -10 -10 -22 0 -11 10 11 11 3016 1802 7 MP
PP
0.00784314 sg
21 0 0 0 22 -21 0 0 0 0 -22 0 -21 0 0 0 
0 21 0 0 4554 2069 11 MP
PP
1 sg
11 -10 -11 -11 -21 0 -11 11 11 10 21 0 2140 2037 7 MP
PP
0.00784314 sg
-21 0 -11 -10 11 -11 21 0 11 11 -11 10 1777 1888 7 MP
PP
-11 -10 0 -22 11 -10 11 10 0 22 -11 10 1627 1973 7 MP
PP
1 sg
11 0 11 -11 0 -11 0 0 -22 0 -11 0 0 22 11 0 
5067 2090 9 MP
PP
0 0 0 -21 21 -22 22 0 21 0 0 0 0 0 -21 0 
-22 0 -21 0 0 0 -11 22 0 21 11 0 4789 1962 15 MP
PP
10 0 0 -26 -10 0 -11 0 0 26 11 0 4981 1234 7 MP
PP
22 0 21 0 0 0 0 -11 -21 0 -22 0 -10 11 10 0 
4768 2155 9 MP
PP
11 0 0 -25 11 -12 10 -12 -10 0 0 0 -22 24 0 0 
0 25 0 0 4768 1360 11 MP
PP
22 0 10 -15 -10 0 -22 0 -10 0 10 15 4063 936 7 MP
PP
0 -17 0 0 -22 0 -10 0 10 17 22 0 2460 805 7 MP
PP
10 -20 -10 -19 -11 19 11 20 1456 622 5 MP
PP
11 -19 -11 -18 -10 18 10 19 3935 661 5 MP
PP
0.00784314 sg
-10 -17 10 -16 11 16 -11 17 3657 839 5 MP
PP
1 sg
11 -17 -11 -16 -10 16 10 17 4063 839 5 MP
PP
0.00784314 sg
-10 -17 10 -16 11 16 -11 17 3593 839 5 MP
PP
1 sg
11 -16 -11 -16 -11 16 11 16 3379 872 5 MP
PP
0.00784314 sg
-11 -16 11 -16 10 16 -10 16 4618 872 5 MP
PP
-10 -16 10 -16 11 16 -11 16 3764 904 5 MP
PP
1 sg
10 -13 11 -12 0 -13 0 -24 0 0 0 0 0 24 -21 25 
-11 0 11 13 4682 1298 11 MP
PP
0.00784314 sg
-10 -15 10 -15 11 15 -11 15 5238 967 5 MP
PP
-10 -15 10 -15 11 15 -11 15 3294 997 5 MP
PP
1 sg
11 -14 -11 -14 -11 14 11 14 4597 1140 5 MP
PP
0.00784314 sg
-11 -13 11 -14 11 14 -11 13 1435 1168 5 MP
PP
1 sg
21 0 0 0 0 -10 -21 0 -11 10 11 0 4490 1920 7 MP
PP
0.00784314 sg
-10 -13 10 -13 11 13 -11 13 1478 1195 5 MP
PP
-10 -13 10 -13 11 13 -11 13 1478 1247 5 MP
PP
-10 -13 10 -12 11 12 -11 13 3828 1298 5 MP
PP
-10 -12 10 -12 11 12 -11 12 1072 1373 5 MP
PP
1 sg
11 -12 -11 -12 -10 12 10 12 3700 1373 5 MP
PP
0.00784314 sg
22 0 0 0 0 0 -22 -24 0 0 0 0 0 24 0 0 
3187 1385 9 MP
PP
1 sg
22 0 0 0 0 0 -22 -24 0 0 0 0 0 24 0 0 
3187 1385 9 MP
PP
0.00784314 sg
-11 -12 11 -11 10 11 -10 12 3507 1468 5 MP
PP
-11 -12 11 -11 10 11 -10 12 2866 1468 5 MP
PP
-11 -12 11 -11 10 11 -10 12 3165 1468 5 MP
PP
-10 -12 10 -11 11 11 -11 12 3358 1468 5 MP
PP
-10 -12 10 -12 11 12 -11 12 4234 1491 5 MP
PP
-11 -12 11 -12 10 12 -10 12 3101 1491 5 MP
PP
-11 -12 11 -12 11 12 -11 12 3016 1491 5 MP
PP
-11 -12 11 -12 11 12 -11 12 2781 1491 5 MP
PP
-11 -12 11 -12 11 12 -11 12 3678 1491 5 MP
PP
-11 -11 11 -11 10 11 -10 11 3272 1515 5 MP
PP
-11 -11 11 -12 11 12 -11 11 2567 1605 5 MP
PP
-10 -11 10 -11 11 11 -11 11 2717 1694 5 MP
PP
1 sg
11 -11 -11 -11 -10 11 10 11 1777 2187 5 MP
PP
0.00784314 sg
-10 -10 10 -11 11 11 -11 10 1841 2166 5 MP
PP
1 sg
11 -10 -11 -11 -10 11 10 10 1948 2166 5 MP
PP
10 -10 -10 -11 -11 11 11 10 1990 2166 5 MP
PP
0.00784314 sg
-10 -11 10 -11 11 11 -11 11 4405 1737 5 MP
PP
1 sg
11 -11 -11 -11 -11 11 11 11 2973 1780 5 MP
PP
0.00784314 sg
-11 -11 11 -10 11 10 -11 11 1670 2101 5 MP
PP
-10 -11 10 -10 11 10 -11 11 1713 1802 5 MP
PP
-11 -11 11 -11 10 11 -10 11 2930 1823 5 MP
PP
-11 -10 11 -11 11 11 -11 10 1627 2037 5 MP
PP
-10 -11 10 -10 11 10 -11 11 1713 1845 5 MP
PP
1 sg
11 -10 -11 -11 -11 11 11 10 1798 2037 5 MP
PP
21 11 0 -11 0 0 -21 -11 0 11 0 0 4340 1962 7 MP
PP
11 0 -11 -19 -11 19 11 0 3208 642 5 MP
PP
11 0 -11 -16 -10 16 10 0 3358 856 5 MP
PP
11 -14 -11 -14 0 14 0 14 4704 1140 5 MP
PP
11 0 -11 -13 -11 13 11 0 4896 1360 5 MP
PP
10 -11 -10 0 -11 0 11 11 1926 2187 5 MP
PP
11 -11 -11 0 -10 0 10 11 4533 2079 5 MP
PP
0 -10 0 -11 -11 11 11 10 4490 1973 5 MP
PP
0 -15 0 0 -11 0 11 15 3977 936 5 MP
PP
10 -11 -10 0 0 0 0 11 3336 2320 5 MP
PP
0 0 0 -11 -11 11 11 0 3486 2198 5 MP
PP
0 0 0 -11 -11 11 11 0 4682 2198 5 MP
PP
0 0 0 -11 -10 11 10 0 4704 2176 5 MP
PP
0 -11 0 0 -11 0 11 11 1413 1737 5 MP
PP
0 0 0 -11 -11 11 11 0 4789 2133 5 MP
PP
11 0 -11 -10 0 10 0 0 4725 1813 5 MP
PP
11 0 -11 -10 0 10 0 0 4554 2069 5 MP
PP
11 0 -11 -11 0 11 0 0 5024 2026 5 MP
PP
10 0 -10 -10 0 10 0 0 4981 2005 5 MP
PP
0 0 0 -11 -11 11 11 0 4511 1898 5 MP
PP
10 0 -10 -11 0 11 0 0 2161 1983 5 MP
PP
0.00784314 sg
0 0 0 -39 0 -38 0 -37 0 -36 0 -35 0 0 -1 0 
1 35 -1 36 1 37 0 38 0 39 0 0 67 603 15 MP
PP
0 0 0 -43 0 0 0 0 0 43 0 0 4917 477 7 MP
PP
0 0 0 0 -21 0 0 0 0 0 21 0 1734 477 7 MP
PP
1 sg
0 0 0 -43 0 0 0 0 0 43 0 0 4917 477 7 MP
PP
0.00784314 sg
21 0 0 0 0 0 -21 0 0 0 0 0 4447 2069 7 MP
PP
1 sg
0 0 0 0 -21 0 0 0 0 0 21 0 1734 477 7 MP
PP
21 0 0 0 0 0 -21 0 0 0 0 0 4447 2069 7 MP
PP
0 -19 0 -18 -1 18 1 19 67 698 5 MP
PP
0 -16 0 -16 0 16 0 16 1050 904 5 MP
PP
0 -18 0 0 -1 0 1 18 67 770 5 MP
PP
0 0 0 -12 0 12 0 0 5451 2518 5 MP
PP
0 0 0 0 -11 0 11 0 4447 1661 5 MP
PP
0 -10 0 0 0 0 0 10 4405 2037 5 MP
PP
0.00784314 sg
1 0 -1 0 0 0 0 0 3700 562 5 MP
PP
0 0 0 0 0 0 0 0 2033 856 5 MP
PP
0 0 0 0 0 0 0 0 2054 888 5 MP
PP
0 0 0 0 0 0 0 0 2119 920 5 MP
PP
0 0 0 0 0 0 0 0 4704 1770 5 MP
PP
0 0 0 0 0 0 0 0 4746 1941 5 MP
PP
1 sg
1 0 -1 0 0 0 0 0 3700 562 5 MP
PP
0 0 0 0 0 0 0 0 2033 856 5 MP
PP
0 0 0 0 0 0 0 0 2054 888 5 MP
PP
0 0 0 0 0 0 0 0 2119 920 5 MP
PP
0 0 0 0 0 0 0 0 4704 1770 5 MP
PP
0 0 0 0 0 0 0 0 4746 1941 5 MP
PP
22 0 21 0 0 0 0 0 -21 0 -22 0 0 0 0 0 
5345 2286 9 MP
PP
0 0 0 -22 0 0 0 0 0 22 0 0 4426 1983 7 MP
PP
0 0 0 0 0 0 0 0 4234 1705 5 MP
PP
0 0 0 0 0 0 0 0 1648 562 5 MP
PP
0 0 0 0 0 0 0 0 1755 642 5 MP
PP
0 0 0 0 0 0 0 0 1777 680 5 MP
PP
0 0 0 0 0 0 0 0 1841 717 5 MP
PP
0 0 0 0 0 0 0 0 3016 477 5 MP
PP
9 w
0 sg
1 0 4 8 12 0 0 10 -17 -1 5516 799 6 MP stroke
0 -16 31 0 -7 -10 42 -6 -5 11 34 -8 23 0 17 -10 
24 -6 29 -7 17 -10 14 -10 2 -11 -8 -12 27 -3 22 -4 
27 -3 25 -2 -7 -17 0 -15 -21 -4 -10 -12 19 -5 16 12 
16 7 15 0 12 7 11 -7 -20 -9 9 -5 12 7 13 -5 
-8 -12 -21 -7 -8 -7 24 5 24 5 0 14 -6 12 4 14 
15 10 5 -5 -14 -7 -1 -10 7 -9 14 -5 9 -14 -10 -10 
-7 -11 7 -11 3 -14 -4 -16 -24 -2 14 -7 1 -13 -5 -15 
13 -11 7 -10 15 -9 14 -6 17 10 -20 9 -11 8 -10 11 
0 11 -6 11 15 11 0 13 -1 16 0 28 13 11 -9 12 
-7 12 0 10 23 7 -5 7 8 10 16 -5 9 -12 9 -12 
2 -14 8 -12 19 -10 2 -11 -7 -12 6 -11 0 -9 -14 -5 
-7 -13 -12 -7 8 -13 13 7 10 9 16 4 14 7 15 2 
17 9 19 2 24 9 16 12 8 -9 -9 -7 -15 -7 -5 -9 
-9 -9 9 -7 10 -2 0 -9 11 3 0 15 14 -4 14 -9 
16 2 16 -2 5 -9 12 9 2 13 14 -7 14 -6 16 -5 
13 -6 16 -7 14 -4 0 -15 13 -6 15 0 8 8 13 4 
-8 11 -18 2 6 11 9 7 18 0 19 4 -14 -11 0 -15 
5 -13 -10 -4 0 -13 9 -8 11 4 15 2 10 -8 16 -7 
12 -8 -7 -10 -8 -13 18 3 12 3 14 7 13 2 6 -9 
-11 -10 -12 0 0 -12 19 0 16 10 16 6 0 36 15 10 
13 6 9 13 -14 -8 -18 -5 -15 -6 -14 -2 -15 -2 -17 -4 
-17 2 -17 6 -10 9 0 12 5 11 14 9 15 6 15 9 
16 9 17 7 21 4 21 2 0 9 15 5 13 -5 19 2 
19 10 -19 -3 -18 9 15 7 17 7 20 5 14 -16 4 11 
15 -9 -1 16 13 -5 8 -9 14 7 16 -7 12 -11 20 -5 
19 0 13 -13 17 -5 0 -9 -9 -2 14 -9 1 9 10 -7 
-4 14 13 -9 14 -7 -9 -6 20 -5 12 -11 -17 9 -15 2 
-18 2 18 -13 5 -10 13 -11 7 -11 5 -10 7 -11 6 -12 
13 -8 10 -15 9 -10 8 -10 9 6 7 -10 7 -8 15 -2 
11 -10 10 -7 11 -8 -5 -8 6 -8 -2 -9 -1 -10 -8 -9 
5 -8 -3 -8 -11 2 8 -7 1 -10 -6 -5 -13 -6 -13 -1 
-12 5 -8 7 -11 10 -8 0 -5 7 -8 -5 -3 -13 -5 -11 
-5 -13 -6 -11 -8 -9 3 -7 -5 -9 0 -7 -10 0 -9 0 
2 7 -8 9 -10 0 -9 0 -6 12 -3 13 -2 9 0 11 
-3 7 -11 8 -12 6 5 3 -8 6 -4 6 4 7 10 8 
10 7 1 10 -2 12 -2 11 -5 6 -10 12 -11 8 -10 6 
-13 6 -5 8 -10 8 10 6 -8 9 1 6 -8 4 -7 8 
-11 -2 -10 0 -10 2 3174 771 300 MP stroke
-13 -8 0 -12 10 -5 9 -12 13 -10 12 -12 13 -10 6 -12 
-1 -11 -6 -12 5 -12 0 -7 -12 -6 -7 -6 -14 -4 -14 2 
-14 4 -14 4 -14 4 -18 0 -11 -10 -10 2 -7 -9 16 3 
12 -7 7 -6 16 0 14 4 14 -2 13 -2 10 -5 0 -10 
-4 -9 -9 -2 0 -22 8 -5 9 2 5 7 7 5 12 -2 
5 -10 5 -8 0 -12 -1 -11 5 -10 11 -6 4 -9 7 -3 
9 0 5 10 13 -1 13 -4 10 -7 12 -1 13 -6 8 2 
9 4 -7 3 5 7 7 -5 10 -2 6 -3 8 -6 8 0 
-2 7 14 5 0 6 9 5 -5 11 -7 10 -10 4 0 7 
9 0 0 7 -4 9 0 7 10 -1 7 -8 11 -1 6 -6 
3 -7 0 -11 -1 -9 -8 -5 0 -11 -5 -7 5 -3 -5 -5 
6 -6 2 -6 7 3 10 0 5 -5 14 0 9 -4 0 -8 
-6 -2 0 -5 6 -5 7 3 0 11 5 -2 2 -9 4 -7 
5 -6 6 -7 9 -3 10 -5 9 -4 3 -6 1 -9 6 -3 
8 -2 6 -3 3 -8 9 1 7 -1 4 8 9 0 -5 -10 
-3 -11 9 0 10 -2 5 7 11 -2 7 -3 9 -2 -1 -10 
-7 -3 -7 0 -9 -5 -10 -1 -3 -3 -6 -7 1 -5 -4 -4 
-7 -5 -4 -8 1 -11 2 -11 1 -8 2 -11 4 -4 8 -2 
9 2 12 1 13 -3 10 3 11 2 12 -2 10 0 11 5 
5 -8 9 -1 4 -5 -6 -11 1 -7 -1 -6 -3 -9 2 -8 
2 -9 1 -10 5 -6 2 -9 -4 -6 -6 0 1 -9 0 -9 
2 -7 -9 1 -7 -1 -6 3 -7 0 -7 -4 -3 -5 -5 -9 
-8 -3 -7 8 -8 3 -9 1 -9 0 -8 0 -9 0 -5 7 
-8 9 -8 0 -2 7 -5 6 -9 6 8 6 1 8 -5 7 
-8 9 -7 11 -8 3 -9 3 -9 6 -7 4 1 11 1 9 
-9 5 -6 4 -9 -3 -10 -1 -9 -5 -9 2 -6 6 -9 4 
-9 3 -4 7 -6 3 -7 -2 -6 -3 -8 -1 -2 -10 -3 -7 
-8 -8 -1 -6 -8 0 -7 -8 -7 -7 -7 -5 -10 0 -7 -6 
-6 -4 -5 -2 -4 -7 -10 -3 -1 -6 -4 -8 -1 -7 3 -5 
3 -7 0 -4 -5 0 -3 4 -5 4 0 8 -7 3 0 7 
7 5 -2 9 -4 6 -6 -4 -8 -1 -1 -6 -5 -1 -3 6 
8 7 7 4 8 5 9 5 7 3 -3 6 12 0 9 4 
8 5 3 4 2 8 4 8 7 4 6 5 7 6 1 6 
-3 7 4 4 -1 7 -6 0 -8 4 -7 -1 2 -5 -1 -6 
-4 -5 -5 3 -1 6 -10 -6 -2 -8 -4 -4 0 -6 -8 -5 
-4 -5 -9 -1 -11 -8 -9 -8 -9 -4 -8 -6 -7 -5 1 -7 
1 -11 0 -9 -6 -4 -5 -8 -4 -6 -5 -9 -6 -7 -12 -2 
-11 2 -5 -6 -9 -1 3159 1346 300 MP stroke
-8 -6 0 10 -9 -3 7 3 1 6 6 3 5 4 3 6 
5 6 5 8 -1 10 -8 -7 -7 0 -3 4 4 5 -8 0 
-4 4 -7 -2 -7 2 -8 -2 -5 -5 -8 1 6 -6 0 -4 
-6 5 -8 7 -5 4 -11 2 -10 0 -9 -6 7 -2 -1 -5 
9 0 10 0 9 0 9 0 6 -5 3 -11 -13 2 3 -5 
-2 -10 -2 -5 4 -1 5 4 1 -6 -8 -3 -6 -2 1 -6 
-6 -5 5 -5 -8 0 -7 0 2 -5 -8 0 -11 -7 -7 -3 
-12 4 -2 8 -9 -2 -11 -4 -4 -6 -8 -3 -6 3 -6 0 
-8 6 -6 6 -11 -5 -5 0 -7 6 -1 -4 5 -6 -3 -6 
3 -6 0 -11 -2 -9 5 -7 4 -10 4 -8 3 -9 2 -8 
5 -9 5 -5 12 -2 8 -1 6 4 2 -5 6 2 -1 6 
10 1 9 -1 9 -4 8 -4 7 -2 9 4 9 0 8 3 
6 3 9 1 9 2 8 -2 4 7 9 0 9 3 9 2 
1 7 9 2 10 2 9 -2 9 -2 9 -7 4 -6 -3 -6 
-1 -7 2 -7 5 -4 7 -3 7 2 8 5 10 6 13 3 
9 1 7 4 4 5 0 8 9 3 9 4 9 1 11 2 
10 0 8 3 8 4 3 7 6 -1 7 2 1 8 -5 4 
-7 6 -3 7 1 7 5 3 3 10 -6 3 -3 7 10 -4 
4 8 7 2 8 -2 6 -4 8 -1 11 3 6 -3 12 3 
6 -5 8 -1 5 3 9 1 9 0 6 -1 7 0 8 -3 
10 -2 12 -1 7 -5 8 -5 7 -2 8 -1 4 -6 10 -4 
8 -2 8 5 7 -2 10 0 6 -1 10 5 4 6 8 -1 
4 -9 2 -7 4 -7 4 -7 9 -6 8 -3 8 -4 5 -7 
6 -6 0 -5 4 -7 5 -5 0 -14 -4 -5 4 -10 5 -7 
7 -7 9 -4 5 -7 10 -4 11 -1 5 -7 3 -8 4 -6 
7 -4 4 -4 2 -8 3 -7 4 -9 6 -7 5 -7 4 -6 
4 -11 3 -7 6 -4 1 -8 1 -7 -6 -6 -7 -6 0 -8 
5 -5 -5 -8 -2 -8 0 -8 1 -8 3 -8 2 -8 0 -10 
5 -6 4 -7 6 -4 -6 -4 -4 -7 -1 -9 1 -8 0 -9 
-6 -4 -6 -4 -7 1 -1 -10 -6 -2 -5 -7 -4 -6 -6 -4 
-7 -6 -5 -7 -1 -7 -1 -7 -3 -6 -7 -8 -8 -4 -8 -4 
-6 -6 -10 -5 -8 -8 -6 -5 -8 -5 -9 -6 -7 -3 -6 -1 
-8 5 -9 2 -6 5 -9 1 -9 1 -6 1 -8 0 -11 -2 
-8 -1 -9 -4 -6 4 -8 2 -6 1 -6 4 -9 5 -10 0 
-4 5 -9 3 -8 1 -7 0 -9 1 -9 0 -8 -2 -7 -6 
-4 -11 -3 -10 -8 -5 -8 0 -8 1 -7 2 -8 0 -6 1 
-6 0 -2 -8 -6 -1 -4 -6 -5 -7 3 -8 1 -9 2 -7 
4 -6 -5 -2 4 -7 2944 1944 300 MP stroke
0 -7 1 -8 8 -5 -4 -8 -2 -7 -6 -7 -5 -7 -7 -5 
-5 -5 -5 -5 -5 -5 -4 -7 -5 -6 -4 -6 0 -7 -3 -4 
-1 -6 -4 -5 -3 -8 -2 -7 -3 -7 -3 -7 6 -8 -2 -4 
-3 -8 -3 -6 -4 -5 -2 -9 2 -9 2 -6 4 -7 6 -4 
5 -6 3 -9 2 -9 3 -8 1 -8 4 -8 0 -7 1 -8 
0 -7 -1 -8 -4 -9 -5 -5 -4 -6 -3 -8 -5 -8 -3 -9 
-5 -7 -3 -7 -6 -6 -2 -7 1 -7 -1 -9 0 -8 -2 -7 
-3 -9 0 -8 -2 -7 -2 -8 -3 -10 -1 -8 -5 -5 -4 -7 
-8 -6 -5 -7 -2 -9 -4 -7 -2 -10 -4 -7 -5 -7 -5 -10 
-2 -9 4 -5 4 0 -6 -10 -3 -7 0 -7 -5 3 -6 -6 
-7 -5 -9 0 -5 4 -8 1 -11 0 -5 5 -9 1 -8 -1 
-7 2 -9 -2 -7 -2 -5 4 -10 0 -4 5 -9 0 -8 1 
-6 6 -9 5 -6 5 -5 5 -7 7 -5 6 -6 6 -6 6 
-4 8 -4 8 -5 7 -4 7 -7 5 -7 4 -2 9 -3 9 
-2 8 0 13 5 2 -5 10 -8 2 -5 3 -10 4 -8 3 
-5 4 -4 8 2 8 -2 7 0 9 3 7 2 10 3 10 
5 5 -1 8 -7 5 -5 4 -5 6 -6 3 -6 8 -5 6 
-5 7 -8 3 -6 2 -10 2 -5 5 -8 6 -5 5 -5 7 
-4 6 -1 8 2 9 0 8 3 9 -1 9 0 6 1 8 
-1 8 0 7 5 6 5 3 2 8 4 9 1 10 0 9 
-4 8 7 7 6 8 -2 8 -3 7 -4 8 -4 6 -5 9 
-5 9 0 9 -6 -1 -6 6 -7 5 -3 8 -5 5 -6 7 
-7 7 -4 6 -6 5 -7 4 -6 6 -6 5 -8 3 -6 5 
-7 5 -5 6 -6 7 -5 5 -6 6 -4 6 -4 8 -5 5 
-6 5 -3 9 -2 6 -4 8 -4 6 -3 8 -3 5 -4 6 
-5 8 0 9 -4 6 -1 9 -2 12 9 2 7 -6 9 -3 
8 -2 8 1 8 -2 8 0 9 -6 8 -1 9 1 7 -3 
8 -3 8 1 5 4 5 7 5 5 5 4 -8 3 3 8 
6 7 6 6 6 7 7 6 6 8 8 2 9 4 4 8 
5 1 4 7 1 7 1 10 4 7 4 7 7 7 8 3 
4 10 1 6 1 9 -1 8 0 6 5 6 0 9 5 3 
6 4 5 4 4 8 1 5 -1 7 5 6 4 8 4 6 
4 8 2 7 5 8 1 7 4 6 2 6 5 6 5 7 
3 7 2 7 4 6 -4 3 -3 -7 -4 -8 -3 -5 -3 -6 
-5 -5 -6 -6 -4 3 0 7 -4 9 -5 10 0 -8 3 -9 
2 -8 -8 0 -5 -7 -3 -6 -5 -9 -5 -8 -6 -5 -5 -8 
-2 -8 -4 -8 -8 -5 -6 -5 -5 -8 -4 -8 -1 -8 1 -5 
-1 -7 -1 -9 -5 -5 3402 1634 300 MP stroke
-3 -6 -10 -2 -6 -7 -4 -8 -4 -8 -4 -7 -3 -7 -5 -4 
-6 -8 -3 -8 -2 -6 2 -6 -2 -8 -2 -9 -3 -9 -2 -4 
1 -8 -5 -8 -6 -1 -8 1 -8 2 -7 2 -4 5 -6 0 
-8 -1 -7 1 -6 4 -6 5 -7 0 -8 3 -5 6 -8 4 
-9 3 -7 2 -8 3 -7 3 -8 2 0 5 -3 6 -7 3 
-8 3 -7 4 -8 1 -6 -1 -7 4 -2 8 -8 2 -6 2 
-4 2 -2 8 -5 4 -7 1 -6 3 2 7 -1 7 -4 7 
-6 0 -4 7 -4 5 -5 4 -3 8 -4 8 6 4 5 6 
4 7 9 3 7 1 8 4 6 6 7 6 0 18 -2 4 
4 1 3 -5 6 -4 5 -6 5 -5 8 -5 4 -7 6 -2 
9 2 7 0 5 -4 9 1 3 4 6 0 -5 8 -1 8 
1 8 4 6 4 -1 1 -7 5 -7 3 4 5 7 -2 7 
3 6 6 6 7 7 6 6 4 7 4 9 2 8 6 3 
-8 2 -4 7 -5 9 -5 -5 -5 -4 -7 3 -5 -6 -5 -9 
-6 -8 -3 -9 -4 -7 -10 -2 -6 -4 -6 -7 -8 -1 -5 -6 
-8 1 -6 -4 -9 4 -6 3 -8 3 -7 0 -5 -6 -2 -6 
-2 -9 -10 -1 -9 -1 -9 -3 -8 -1 -7 0 -9 -2 -7 -1 
-10 -1 -9 1 -7 1 -9 0 -5 3 -6 -3 -7 -1 -7 1 
-7 2 -7 1 -8 -1 -4 -6 -5 -4 -2 -6 -1 -7 -8 -3 
-6 -4 -5 -7 -8 -5 -9 0 -9 3 3 -8 7 -3 9 0 
-3 -8 -6 -5 -6 -7 -7 -4 -9 0 -8 3 -6 5 -2 9 
-2 7 -4 -1 1 -8 -1 -7 -4 -6 2 -10 1 -8 -3 -7 
-2 -4 2 -6 -2 -9 -3 -9 -1 -8 -1 -9 -3 -6 -4 -8 
-5 -8 -5 -8 -1 -7 -3 -8 -2 -8 -3 -9 -3 -6 -5 -7 
-4 -6 -3 -8 -2 -7 -3 -9 -2 -9 -5 -7 -6 -5 -6 -2 
-6 3 -3 9 -6 4 -6 1 0 8 -5 8 -8 0 0 9 
1 6 0 8 -4 6 -3 8 -2 9 2 9 1 9 1 9 
-1 7 -4 6 -9 -1 -2 6 -5 2 -8 1 -4 4 -1 6 
-4 3 -6 4 -5 6 -5 4 -7 3 -6 5 -5 7 -4 5 
-6 5 -7 1 -7 3 -5 7 -4 6 1 6 -2 5 -8 2 
-6 3 -3 5 -2 -9 -7 1 -7 2 -8 1 -7 1 -5 6 
-6 4 -7 5 -5 -7 -3 -6 -1 -7 -2 -6 -6 -7 -6 -7 
-4 -5 -5 0 -3 -6 2 -4 -4 -7 -5 0 -2 -8 -3 -9 
-1 -9 2 -9 3 -8 -8 -4 -5 -1 -6 0 -5 5 -6 4 
-8 4 -3 5 -5 -3 -5 -6 -2 -8 -1 -8 -2 -9 -2 -8 
-3 -8 -5 -10 -2 -9 3 -9 -3 -7 0 -7 3 -5 0 -16 
4 -9 0 -8 -2 -6 -4 2 -6 -6 -6 -8 -5 -5 -5 -5 
-3 -9 0 -6 -2 -9 4328 1874 300 MP stroke
-4 -5 2 -8 -5 -7 -7 -7 -1 -7 -8 -5 -5 -5 -7 -4 
-7 -4 -5 -4 -11 0 3 9 5 9 5 5 0 30 5 8 
6 5 6 5 7 5 5 6 9 2 5 4 2 9 3 7 
5 5 1 10 8 -1 2 8 0 9 -2 9 -4 5 -3 8 
-2 6 0 10 -1 9 -7 3 -7 -3 0 -9 -8 -1 -6 0 
-7 -6 -5 -3 -3 -5 -3 -7 -4 -6 -6 -5 -9 0 -4 -5 
-7 -3 2 -7 0 -8 -2 -6 -7 5 -6 5 -8 1 -5 6 
0 9 -9 0 -6 4 -6 4 -7 4 -7 4 -3 5 0 6 
-1 11 0 14 1 7 3 8 2 9 7 7 5 6 6 5 
8 7 5 6 6 7 1 5 7 6 5 9 -3 8 -2 6 
-8 5 -4 7 -6 5 -8 4 -6 4 -8 3 -7 0 -7 -4 
-5 0 2 -7 -2 -4 -2 -6 -5 0 -4 2 4 7 -3 5 
-7 3 -9 1 -8 4 -7 1 -8 3 -1 8 -7 -5 -2 8 
-8 -7 -5 7 -7 0 -8 1 -8 1 -7 4 -8 6 -6 4 
-6 5 -6 4 0 6 -7 0 -3 6 -5 4 -3 6 -4 7 
-2 5 2 7 -5 -2 -5 6 -4 7 -4 6 -4 6 -5 0 
-2 4 1 4 -3 9 -3 0 -2 9 -1 4 6 2 5 2 
9 -1 5 3 -7 1 -4 4 -5 3 -6 2 1 5 9 7 
-9 0 2 7 7 6 5 3 1 7 3 7 2 7 3 8 
8 5 9 4 -3 7 -4 6 -8 6 -7 4 -3 7 -10 3 
-8 5 -5 -3 -4 8 8 2 8 0 6 1 5 5 8 -3 
5 -5 3 -4 7 0 6 4 1 8 8 4 6 4 5 6 
-1 6 -5 6 -6 -3 -9 2 -4 4 -2 6 -8 5 -8 3 
-6 7 -6 6 -10 -2 -5 -7 5 -7 6 -5 2 -4 -5 -6 
8 -8 -6 2 -8 4 -5 6 -9 3 -7 3 -9 2 -9 -3 
-6 -2 -6 -3 4 -9 3 -7 4 -8 -9 -7 -12 2 -7 -6 
-3 -7 9 -2 -5 -10 -4 -10 7 -7 0 -9 -4 -9 -9 6 
-9 3 -11 1 -9 5 -4 7 -1 7 0 9 1 9 2 8 
6 8 5 5 3 8 7 6 7 4 -2 6 2 5 -7 1 
-7 3 -7 4 -8 7 -6 2 0 10 1 4 -7 9 -9 3 
-3 6 -5 0 -5 8 -4 5 -9 0 0 -6 -11 -5 -10 3 
-9 6 -10 5 -8 9 -2 8 -10 8 -9 9 -9 8 -7 8 
-5 8 -3 11 -8 8 -8 9 -10 10 -2 10 -3 8 0 12 
1 10 -1 10 -4 8 -5 8 -3 7 3 5 0 9 -3 8 
8 6 8 5 1 5 10 4 11 0 8 -11 14 -3 -5 6 
0 9 9 -1 6 -9 0 17 12 -2 10 4 1 5 -11 6 
-10 8 -10 8 -11 8 -8 11 -8 7 -10 8 -9 5 -5 7 
-6 8 -11 5 -5 8 4960 932 300 MP stroke
-10 5 -15 2 -15 0 -14 0 -5 -3 -9 5 -14 -4 -11 2 
-10 -2 -2 4 -1 6 -7 2 -11 -4 -10 -2 -7 2 -5 -6 
9 -5 -4 -6 -10 0 -14 4 -7 4 -10 -2 -18 2 6 5 
10 2 -5 11 -8 10 -11 8 -9 9 -9 10 -15 4 -14 2 
-10 -4 -13 4 8 -14 -2 -8 -4 -7 -12 7 -10 8 -9 8 
-10 2 0 9 -5 10 -18 4 -5 -4 10 -6 2 -11 3 -14 
4 -8 12 -3 12 -6 5 -8 10 -9 13 -10 6 -9 10 -9 
12 -9 11 -6 10 0 -2 -7 5 -9 10 -4 4 -11 3 -10 
2 -13 -2 -9 -2 -10 -3 -9 -2 -12 -1 -12 -6 -12 -1 -10 
0 -8 -2 -7 -10 7 -9 8 -8 12 -2 12 -9 7 -12 0 
2 8 -2 11 -7 7 -12 3 -7 -2 -7 6 7 9 1 10 
-5 9 -8 4 -6 -6 -6 4 2 11 6 3 0 9 -7 9 
9 6 7 -4 3 9 -6 9 -9 10 -4 9 -3 10 -12 3 
-9 -3 -9 7 -13 4 0 -13 -10 9 -10 6 -11 4 -14 -2 
-10 -6 -8 -7 -5 11 -13 6 -12 7 -12 8 -11 8 -12 2 
-11 7 -14 4 -11 6 -18 0 -7 -3 5516 855 126 MP stroke
18 4 19 6 23 0 20 3 21 2 21 2 0 -16 -6 -11 
9 -6 12 -3 4 9 15 5 2 9 -14 0 -4 6 18 5 
8 -9 11 -7 20 5 25 2 27 -2 24 0 18 6 -8 12 
5 11 13 7 20 2 23 3 21 -5 17 0 16 -2 0 9 
13 7 14 0 10 7 2 14 21 5 25 0 24 7 22 3 
21 2 27 2 -8 -9 22 0 6 -7 -5 -10 -8 -12 24 3 
29 -3 13 5 13 -2 9 -7 14 4 14 12 5 -12 3 -11 
12 -9 14 4 14 12 10 14 -12 12 -5 14 19 14 26 5 
31 8 28 0 3 -10 -8 -10 20 -2 31 2 22 5 -2 12 
21 0 21 5 16 -2 18 -5 13 17 -8 10 19 2 8 -5 
-19 -7 -3 -12 15 0 13 4 15 6 10 -8 -10 -7 20 -5 
19 -5 17 0 -10 12 -18 5 -20 13 -21 9 -22 13 -18 10 
-3 16 5 13 17 10 19 5 24 3 21 0 6 -8 21 0 
-16 16 4435 456 106 MP stroke
7 -5 0 -8 6 -3 -2 -10 0 -7 2 -3 -5 -2 -6 -8 
-2 8 -6 0 3 -5 2 -8 5 -3 8 -5 7 -6 0 -6 
-2 -8 -5 -8 5 -5 -5 -4 -8 -3 -5 -5 -5 -7 -2 -9 
-8 -5 -5 -7 -3 -8 -2 -8 -3 -7 -7 -11 -3 -7 -5 -8 
-2 -5 -5 -5 -3 -8 -5 -10 1 -8 -6 -8 -5 -5 -5 -5 
-10 -7 -8 -1 -8 -6 -10 -6 -5 -1 -7 -5 -8 -4 -5 -7 
-5 -2 -8 -7 0 -8 -1 -9 -2 -10 1 -8 0 -8 -1 -8 
1 -8 1 -8 4 -8 0 -16 1 -8 -1 -8 0 -7 4 -5 
-3 -10 5 -11 0 -8 4 -8 1 -8 4 -9 -2 -5 -2 -11 
5 -4 2 -9 -2 -9 -1 -9 0 -6 -2 -5 5 -11 -2 -9 
4 -6 1 -8 4 -9 5 -8 3 -9 2 -9 4 -3 0 -8 
6 0 3 -11 -4 -7 0 -7 -1 -8 -1 -9 6 -8 0 -11 
2 -7 -1 -8 -2 -6 -7 -2 -2 6 -8 -3 4 -6 -4 -3 
4 -3 0 -12 4 -8 -3 -6 5 -8 -2 -4 6 -5 -1 -6 
4 -10 1 7 2 3 -3 6 1 5 -3 4 5 7 7 -7 
4 -7 -3 -8 3 -5 2 -6 -2 -5 7 -1 -4 -5 12 -8 
0 -7 -8 5 -7 -3 -8 0 6 -11 2 -8 0 -10 6 11 
6 -1 2 -7 0 -8 2 -11 -2 -5 1 -8 -8 -2 5 -5 
0 -12 -12 15 2 -8 -2 -7 5 2 2 -10 5 -8 -12 5 
-3 6 -2 -10 2 -6 10 1 0 -10 -7 -3 -5 5 -3 -9 
-8 -1 0 -6 -5 -5 -10 -5 -7 5 -8 9 -6 -2 4 -7 
13 -5 -3 -5 -12 -3 -5 1 0 11 -2 10 -12 5 -6 0 
-1 5 -8 0 -10 -1 8 10 2 8 3 8 -3 10 -7 7 
-11 3 -2 10 -3 10 -7 7 -10 6 -8 7 -2 9 1 7 
11 0 8 6 6 6 1 10 -5 9 -5 5 -10 5 -9 0 
0 6 -6 3 0 10 1 6 -4 6 -10 6 10 3 -7 6 
-5 -6 -8 0 -1 5 2 9 12 -5 7 5 0 10 3 10 
-5 4 -8 -4 -7 -4 -13 0 -10 5 -1 6 2 5 -4 9 
-2 5 5 6 -1 8 -4 -5 -12 0 -11 2 -8 1 -10 2 
-10 3 -7 3 -9 4 -3 7 -6 8 -5 9 1 8 6 2 
4 7 -4 9 5 5 13 6 3 6 -3 5 -8 -7 -10 0 
-5 -4 -9 -3 -8 2 -11 -2 -7 2 -8 4 -6 6 -1 5 
-8 6 -6 8 -3 9 -6 5 -8 6 -7 6 -5 8 -6 9 
-2 8 -5 8 -6 8 -7 6 -4 3 -2 8 -1 8 1 8 
0 19 -6 7 -7 7 -7 7 -7 6 -7 3 -9 5 -5 -2 
-7 8 -7 0 2 5 -10 1 -7 -1 -8 0 -7 1 -8 0 
0 7 -8 4 -7 4 0 8 -3 8 -7 8 -3 8 -7 8 
-2 7 0 8 -1 8 2202 2228 300 MP stroke
-5 5 0 8 -1 9 -3 9 1 8 0 8 2 8 -2 7 
-1 11 -7 5 -7 6 -6 9 -4 8 -5 8 -4 4 -7 5 
-4 6 -7 7 -3 6 -4 8 -4 7 -1 10 1 8 3 9 
2 9 4 9 9 2 7 -1 8 1 5 5 8 4 5 5 
5 5 7 5 8 5 8 6 7 0 8 -3 7 0 8 4 
8 0 7 4 8 1 7 -4 9 -2 -2 7 3 6 3 7 
8 -3 2 5 10 3 8 2 9 5 8 0 6 -2 5 -11 
3 2 -2 6 -3 11 9 2 8 -1 7 1 7 -4 0 -9 
2 -10 4 10 9 -3 -1 8 -3 8 -6 5 -5 5 -7 8 
-1 11 9 1 3 11 5 10 0 9 7 7 5 4 8 5 
6 5 8 4 6 2 5 2 8 2 7 2 8 0 8 -2 
7 0 9 2 4 5 5 3 8 5 6 -1 -1 7 2 6 
8 5 7 5 9 5 12 -2 -3 9 3 7 8 3 7 2 
5 -1 5 7 5 5 -13 2 9 0 10 0 9 0 8 -6 
7 -3 9 2 7 2 2 4 6 0 7 -1 9 0 9 -2 
2 5 1 7 7 4 7 1 7 0 2 10 6 -4 -2 -6 
6 -4 6 -2 7 -3 0 -9 -5 -9 0 -9 9 -2 1 6 
4 5 -4 8 -4 5 3 6 3 8 -7 3 -4 6 3 4 
5 1 5 -4 3 -5 7 -2 5 -4 7 -4 11 1 3 -5 
7 1 6 -2 4 -5 1 -8 0 -8 6 -1 4 -6 8 -7 
0 -11 6 7 5 6 5 5 7 5 6 1 6 3 8 0 
4 -6 7 -2 8 -3 9 -2 5 4 6 0 3 6 6 4 
6 5 4 6 4 7 2 6 -2 7 0 7 -3 9 0 17 
-3 6 0 12 2 3 6 2 7 7 6 1 5 1 8 -1 
7 1 8 -2 8 -1 8 2 9 -4 7 4 6 3 -8 5 
-3 10 0 8 -2 13 -3 -6 -4 8 -2 9 -1 8 -1 7 
-3 8 -6 7 0 7 4 2 7 0 7 1 7 -1 8 -2 
8 -2 7 -1 5 -3 2 -9 1 -7 2 -5 0 -6 5 -3 
5 -4 -1 -4 9 -2 0 2 9 1 9 -3 9 -2 9 -2 
5 0 5 5 7 2 8 3 5 7 4 6 3 8 6 5 
3 6 3 6 -3 5 8 6 2 8 -2 6 0 25 -3 8 
-2 8 -4 6 1 7 0 8 3 9 -1 8 -5 5 -8 6 
-8 5 -7 2 -5 4 -5 4 3 7 -5 2 0 -6 -7 4 
-7 1 -8 1 -8 -2 -8 -2 -6 4 -8 -5 -1 -5 -7 -2 
-9 2 -5 2 -5 -1 -4 -4 -3 3 8 5 0 3 -4 2 
-1 5 6 0 6 -2 6 2 -4 7 -8 -5 -7 5 -7 0 
-7 -2 -4 4 -3 -5 -7 0 -8 1 -8 2 -5 -5 -7 -2 
-3 -7 -7 1 -7 4 1520 1482 300 MP stroke
-7 2 -7 -6 -6 -9 -4 -2 -2 -8 1 -7 0 -6 -5 2 
2 -8 -1 -6 -5 -5 -4 -7 -3 -8 -7 -6 -2 -6 -7 1 
-3 3 -4 8 -2 9 0 10 4 9 4 10 0 5 5 9 
3 8 3 8 2 9 1 8 -4 8 -4 9 -7 7 -8 4 
-7 6 -5 5 -4 6 -8 4 -6 2 -7 5 -6 6 -9 2 
-4 4 8 0 -8 6 -5 0 -2 4 0 6 6 0 8 0 
-7 2 -5 2 -3 -2 -4 -5 4 5 1 8 2 6 7 5 
0 6 -2 8 9 5 -7 -1 1 6 1 9 -2 6 -7 3 
3 -6 0 -6 2 -8 -6 -3 1 -4 -5 0 3 -6 2 -9 
-3 2 -3 9 -5 7 -4 4 7 11 2 9 -5 -3 -4 -6 
-7 6 -5 9 -3 8 5 4 -5 5 -8 5 -7 3 -8 0 
-7 0 -8 3 -2 6 -4 -4 -7 3 0 -3 -10 3 0 6 
0 -5 8 0 2 8 5 3 -3 4 1 5 -4 6 -5 6 
0 3 -7 3 -9 4 -5 7 -4 -3 -9 3 -8 3 -7 5 
0 6 -12 0 -10 3 -11 7 1 -7 -10 2 10 -6 6 -3 
9 -7 4 -7 -2 -8 -8 -5 -8 6 -7 7 -5 6 -8 0 
-10 5 -15 4 -13 3 -2 7 -9 3 -9 6 10 6 -1 10 
4 3 5 -8 7 -8 0 -8 8 2 9 -3 10 1 11 7 
9 3 5 9 1 12 -2 8 13 -4 10 10 -16 0 -7 3 
-9 5 0 7 5 5 10 3 12 -2 11 -1 10 -5 9 -3 
10 -5 9 -7 6 -8 7 -6 6 -7 10 -3 -6 6 -5 7 
-7 6 -5 7 -6 8 -9 6 -10 8 -10 0 -3 9 -6 6 
-11 4 -9 0 -10 0 -12 1 -9 -1 -9 0 -10 0 -7 -4 
-12 2 -14 0 -7 7 -7 6 -6 7 -13 5 -15 2 -10 6 
-7 5 5 14 -3 9 10 10 12 0 1 9 15 2 -13 6 
8 6 14 1 5 8 16 1 3 9 13 6 6 7 0 10 
-6 8 7 5 0 7 8 8 7 11 7 11 9 11 7 11 
5 8 8 -8 6 -5 -5 -8 7 -9 11 -6 5 -7 15 -6 
10 13 9 2 8 9 0 8 -2 11 4 10 -2 9 11 2 
11 0 12 6 -4 8 11 6 11 8 11 5 18 -4 10 0 
14 4 15 2 10 -6 0 -9 -9 -6 4 -10 5 -9 -8 -6 
-2 -12 0 -9 8 -9 10 -2 1 -8 -9 -7 -9 -4 -5 -13 
-2 -9 -4 -12 0 -15 7 -9 12 -8 11 -8 12 -5 -5 -8 
-4 -9 -2 -12 0 -11 -6 -10 9 -10 13 -7 -2 -6 11 6 
5 9 7 6 7 9 10 9 -3 10 0 8 4 9 -4 16 
13 5 15 0 15 0 15 9 13 4 10 3 9 9 14 7 
15 4 15 7 12 -3 9 -4 0 7 5 9 0 9 6 13 
10 2 10 -2 5 10 1363 930 300 MP stroke
0 11 -1 13 -4 10 -3 9 -8 12 -8 10 -10 3 0 12 
-14 4 -15 4 1 12 -10 14 -23 0 -11 12 -11 13 0 12 
-16 17 12 8 -19 2 -7 -6 -20 -4 -16 10 -19 11 -4 15 
19 6 0 13 -17 7 0 16 22 4 3 9 20 4 19 0 
0 -13 -1 -16 0 -15 16 -9 0 -10 11 -5 14 15 -2 13 
0 11 14 14 15 -18 11 13 10 11 17 7 -17 12 9 13 
12 9 12 12 11 14 -11 10 8 9 -14 5 -18 0 -9 12 
-10 12 -7 7 15 6 30 5 31 -5 6 -13 -5 -12 -4 -14 
0 -27 13 -7 6 -14 8 -16 -17 -16 -25 -11 10 -11 -6 -13 
14 -13 5 -1 5 -12 15 8 1 15 -20 9 13 16 22 13 
11 -13 15 -9 -24 -11 10 -9 1 -15 19 -2 27 4 19 8 
24 8 16 14 19 -4 20 -4 12 -9 -18 -6 5 -11 17 4 
15 7 20 -5 22 -4 17 4 18 0 -4 9 -15 4 9 11 
20 6 23 1 20 6 22 7 16 9 26 0 7 -12 13 1 
1 16 14 -16 13 5 7 13 20 14 8 -16 14 -5 6 12 
21 -8 21 -8 11 -8 13 6 15 -3 12 -8 1 -12 20 7 
15 9 18 7 23 1 13 5 15 7 18 0 16 -2 17 6 
20 0 23 7 20 0 18 0 15 11 28 0 7 7 23 6 
19 -13 21 -1 22 -12 18 -2 16 -11 5 -13 8 -10 20 -4 
18 -2 2 -14 -14 -9 -19 -8 -7 -13 -15 -8 -12 -11 7 -8 
24 0 1 10 13 0 16 -6 16 -6 16 -11 -9 -4 -14 -2 
5 -8 -5 -8 -22 -5 -19 2 -15 -4 -11 7 -14 3 4 -10 
-8 -10 4 -12 19 -2 11 -10 14 6 12 -6 2 -8 10 -11 
8 -16 -12 -10 -5 -11 -9 -12 -7 -9 -13 0 -12 9 -8 -13 
4 -7 -5 -10 -9 4 -22 0 -10 -11 -4 7 -10 -2 -9 2 
2 -13 2 -13 10 -7 10 -9 14 -7 9 -11 14 -1 14 -6 
9 -9 15 -5 15 -9 -2 -5 -17 7 -12 7 -13 4 -9 5 
-14 3 -14 6 -12 3 -5 9 -12 6 -15 7 -8 9 -14 9 
-13 7 -8 8 -8 9 12 4 -4 7 -11 6 -9 9 -4 12 
-9 7 -15 8 -11 0 7 -8 14 -3 1 -14 8 -11 -8 -4 
8 -7 -15 1 -12 8 -10 8 -12 0 -8 11 2 13 -12 -4 
-13 0 -10 -5 -15 -8 -15 -6 -16 0 -15 0 -14 -5 -12 -2 
-9 6 -3 -12 -12 -5 -12 -10 -10 -7 -11 -6 -5 -11 -11 -9 
-5 -11 -6 -12 0 14 4 13 0 11 10 7 -8 0 -2 9 
-5 -9 1 -7 -4 -11 0 -9 -7 5 -4 7 -5 -7 -7 -7 
13 4 8 -8 -3 -10 -7 1 0 -8 -4 -8 -5 -5 -9 -5 
-7 -9 0 12 8 13 6 9 -7 -4 -8 0 1 -7 -5 -9 
-6 -7 -9 -5 -10 3 826 1021 300 MP stroke
5 -10 -4 -5 9 -6 -6 -10 -9 -5 -9 -12 -11 -5 -4 -11 
-6 -6 0 -7 -12 -7 -11 -3 -12 -5 -8 -7 -9 -6 -9 -5 
-9 5 0 -10 -6 -5 -5 -8 2 -3 -5 -9 4 -9 1 3 
7 -3 -7 8 9 5 10 0 13 5 1 -5 -2 -5 -4 -8 
-4 -10 -1 -6 -2 -7 -11 -3 11 0 0 -6 -1 -8 3 -8 
0 -9 1 -9 3 -11 3 -11 -1 -9 -4 -6 -2 -9 1 -9 
4 -9 0 -5 -5 -4 -4 -6 0 -6 -1 -8 -5 -6 -7 -4 
2 -6 -8 -1 0 4 -5 -2 2 -2 -3 -8 6 5 -1 -8 
-4 -5 -5 0 0 -8 1 -4 -7 -6 -6 -7 -7 -9 0 -8 
-12 -3 -8 -3 -8 -3 -5 0 -1 -6 -5 0 -8 -5 -4 -7 
-2 -9 -5 -8 -3 -7 -4 -6 0 -4 -5 -4 0 -7 -4 -2 
-1 -9 -7 -3 -8 -7 -5 -5 -5 -6 0 -7 6 -4 9 1 
-8 -5 -2 -5 -5 -3 -7 -4 -6 0 -5 -6 -8 -4 -3 -8 
0 -8 3 -5 -10 -4 -6 -6 -6 -7 -8 -5 -5 -11 -9 8 
5 7 7 8 6 0 4 7 -3 3 5 5 0 5 5 9 
3 8 7 8 5 8 7 5 2 9 5 7 7 7 5 6 
6 4 4 6 -1 7 2 7 1 7 -1 6 -9 -5 -5 2 
-5 -5 -6 -2 0 -7 -4 -9 -1 -5 -5 -7 -4 -8 -8 -9 
-7 -8 -9 -1 0 -8 -9 -7 -4 -6 -4 0 -3 -5 2 -5 
0 -5 -6 -4 -10 -4 -5 -9 -7 -5 -6 -6 -6 -8 -5 -5 
-7 -7 -5 -5 -2 -11 -5 -4 0 -5 5 -5 -3 -4 5 -4 
-5 -8 -6 -8 -9 -4 -8 -5 -5 -7 -10 -4 -9 -1 -4 0 
-6 -5 -9 -7 -7 -2 -8 -3 -8 -4 -7 -1 -8 -4 -7 -4 
-9 -1 -9 -3 -9 -2 -9 3 -7 4 -8 0 -6 -1 -7 -3 
-6 -3 -4 -4 -6 -7 -6 -5 -5 -5 -8 -4 -8 -3 -7 0 
-8 -3 -4 -4 -6 0 -8 -4 -6 0 -9 0 -2 4 -5 -7 
5 0 -5 -6 -5 -5 -7 -7 -6 -5 -6 -5 0 -7 1 -6 
-3 -6 -5 -2 -2 -2 -5 5 -4 -5 -9 -5 -5 -5 1 -8 
-7 -1 -4 -4 -4 2 -8 -1 -7 -2 -4 -5 -8 0 -1 -9 
-6 1 -8 4 7 5 1 5 -7 2 -5 4 -3 7 -5 0 
-7 -4 -4 -7 -5 0 4 -5 -4 -9 -6 -6 -5 -6 1 -7 
-1 -10 0 -7 -1 -8 2 -8 -5 -5 5 -6 4 -9 9 0 
5 -7 -1 -7 6 -1 -3 -6 8 -4 10 -5 1 -10 1586 1951 264 MP stroke
-8 -3 -6 -9 -9 -3 -7 0 -9 0 -9 0 -4 5 -6 5 
-6 0 -6 7 -5 2 -10 1 -9 0 -8 0 -11 0 -7 0 
-8 0 -6 6 -1 8 -10 3 -8 3 -9 6 -6 2 -10 -1 
-9 1 -8 2 -9 4 -7 3 -9 1 -10 0 -8 0 -7 0 
-8 -2 -6 -5 -9 0 -9 -3 -8 -2 -6 -4 2 -8 -10 -4 
-2 -8 -4 -7 -3 -7 -3 -8 -4 8 -6 5 -7 6 -7 4 
-4 9 -5 5 -2 -12 6 -8 1 -8 1 -6 6 -3 2 -4 
-7 1 -6 0 -3 8 -2 8 -5 -7 -3 -6 3 -7 4 -4 
-10 1 -8 -6 -5 -7 -4 -7 3 -4 -3 -6 -5 -6 -6 -6 
-8 -1 -4 -6 -5 3 -7 -2 -7 -1 -6 -5 -6 -3 -8 6 
-6 5 -7 7 -2 -10 -8 3 -1 -8 -6 -4 -7 -5 -6 9 
-6 5 -9 6 -5 2 -9 2 -10 0 -8 4 -1 8 0 7 
-3 9 -1 8 -5 9 -4 6 -3 10 -4 8 -3 7 -5 7 
-6 5 -4 7 -4 7 -2 7 -3 8 0 7 -4 10 -1 8 
-1 8 -3 6 3 8 2 10 3 8 1 9 0 7 4 10 
4 6 6 9 5 8 8 2 5 6 2 6 0 8 7 4 
6 6 4 -6 4 8 2 8 3 6 5 4 0 6 7 4 
8 5 5 7 7 1 9 5 2 6 3 5 -1 8 1 8 
4 5 5 6 0 9 3 8 0 8 6 5 5 5 8 -2 
5 2 2 9 0 8 4 9 4 8 2 7 2 10 6 3 
5 -6 0 -9 5 -5 0 -13 1 -9 2 -8 0 -7 -2 -8 
2 -8 1 -8 4 -8 4 -6 0 -8 7 -4 8 -1 9 6 
3 7 8 2 9 4 5 4 6 5 12 0 2 8 7 3 
6 5 -3 7 -3 5 0 14 -9 0 -2 8 -5 6 8 5 
6 -8 4 7 9 -3 9 3 9 2 9 2 7 5 10 2 
-5 -6 4 -8 10 0 10 0 9 -6 4 -7 -3 -6 8 -1 
3 -7 6 -6 -8 -5 3 -7 9 5 6 0 8 -5 0 8 
5 5 6 6 9 2 4 -5 7 -2 3 -5 10 0 1 -6 
8 -7 1 -8 4 -6 9 4 2 -8 -5 -5 7 -8 3 7 
4 9 6 -8 7 -7 -1 -6 -2 -6 7 -6 3 -8 5 -5 
7 -5 9 -2 8 -2 9 0 7 -6 7 0 8 -5 7 0 
8 0 8 -2 6 -4 5 -7 6 -3 8 -4 4 -6 4 8 
3 -7 3 -7 -3 -6 0 -7 7 -7 -2 -8 -2 -9 -4 -7 
-4 -7 0 -9 7 5 3 7 -5 -15 8 7 -3 -8 -6 -6 
-4 -11 0 -6 -6 -9 -5 -8 -1 -7 0 -8 -3 -8 -4 -9 
-2 -7 -4 -5 0 -10 1 -10 -1 -6 4 -4 6 -1 0 -10 
4552 2491 289 MP stroke
-13 -7 -23 -6 12 -7 -15 -8 -30 -6 -19 6 -29 2 -26 0 
-26 -11 -25 -5 0 -11 -13 -10 -15 -15 0 -14 -12 -13 -3 -12 
5 -17 -8 -12 7 -14 -8 -7 -19 0 -10 9 -9 -16 -18 -5 
-5 -13 24 8 22 1 5 -16 4 -16 -18 -10 -23 5 -14 12 
-7 -16 4 -20 24 0 11 -11 5 -15 1 -15 -3 -13 0 -12 
-17 -13 -6 -14 0 -15 -10 -8 -2 -10 -14 -18 -3 -8 -9 -13 
-8 -12 -15 -14 -20 -1 -14 -4 -9 -10 -19 -7 -10 3 -6 12 
-2 11 -3 12 -8 12 6 15 -14 8 -11 12 -4 12 -1 12 
9 17 -15 -2 -5 10 -18 4 -23 0 -20 9 -14 8 -13 8 
-7 11 -7 11 -12 11 -13 6 -20 0 -19 7 -19 4 -19 7 
-16 6 -15 9 -16 9 -10 9 19 3 20 6 19 -6 0 6 
-17 7 4 14 -15 5 -4 -10 -4 -11 -14 -5 -19 3 -1 13 
0 12 13 12 16 9 14 10 -19 -6 -20 -6 -4 9 4 15 
15 4 -12 5 -9 5 -19 2 0 10 17 6 -34 7 -6 13 
19 0 -10 16 0 15 9 16 22 3 -1 11 -16 8 -29 -5 
-3 8 2525 456 122 MP stroke
-9 -2 -6 -1 0 -7 -6 -4 -8 0 -8 2 -8 2 2 -7 
9 0 6 -4 8 1 4 -2 -5 -2 -7 -5 -1 -5 -1 -6 
-7 0 -6 7 -6 -5 -8 -3 -6 -4 -9 -2 -9 -2 -9 -4 
-9 -2 -7 -4 -5 -5 -4 -9 -3 -9 -2 -8 7 -1 4 -6 
5 -9 -9 0 -8 4 -9 0 -9 1 -4 -5 -5 -5 -6 -6 
-8 -1 -8 0 -8 -2 -9 3 -3 4 3 7 -7 2 -3 4 
-6 6 -7 0 -5 -2 -9 -4 -6 -1 -4 -8 -4 -6 -8 -7 
-6 -5 -2 -5 -8 -1 -9 -1 -9 -2 -7 -1 -4 -5 -9 1 
-2 7 8 1 7 2 -4 6 6 0 8 2 -3 6 10 -1 
6 8 1 9 7 4 8 7 2 7 -6 1 -6 1 0 8 
6 5 9 -1 9 5 7 1 0 9 5 6 7 4 7 5 
8 4 8 4 7 1 9 4 6 2 8 3 8 2 8 4 
7 0 7 3 8 2 9 5 7 4 11 -4 3 -6 8 -1 
6 -7 4 -5 4 -6 6 0 7 5 2 8 6 2 3 8 
-3 7 4 10 10 0 7 6 10 0 5 -6 9 -2 6 -8 
4790 1972 121 MP stroke
-15 -11 -11 -14 -14 -12 -24 -9 -22 0 -30 -4 -16 2 -22 -11 
-13 4 -14 14 -9 -12 -25 -13 5 -18 -18 9 -11 -13 -19 -9 
-5 -13 -5 -11 10 -8 11 -11 13 -8 -14 -13 15 -8 20 0 
23 4 3 -8 9 -2 5 -10 -9 -11 -23 0 -11 6 -17 -2 
-15 -6 -14 -4 -13 -6 0 -10 -12 -8 -12 -4 -15 -4 -5 -6 
-14 -5 -14 -4 -15 -2 0 9 12 8 12 10 12 8 6 10 
-18 -6 -14 -8 -16 -8 -19 0 -4 16 11 10 2 12 10 8 
16 11 9 12 -4 17 -25 -12 -8 -15 -17 -8 -5 12 -18 4 
-4 11 -10 14 11 9 16 8 16 9 14 11 24 0 20 11 
0 13 -20 5 18 11 -7 11 13 14 22 9 22 16 18 7 
24 2 0 15 5 9 22 -2 16 6 15 2 18 -9 18 0 
15 -9 -5 15 10 13 -5 13 8 7 19 -2 21 -10 18 -12 
1 -14 1 -12 -5 -12 15 10 2 11 1 12 -6 12 -9 9 
-23 8 22 0 24 0 15 -7 16 -12 8 -12 6 -12 0 -17 
1435 614 113 MP stroke
-8 -1 -9 6 -12 -3 -3 8 -10 2 -12 -3 -10 5 -11 -2 
-11 0 -13 3 -8 9 13 1 -6 9 -9 5 -4 8 4 7 
9 4 6 0 5 -6 4 4 -5 5 2 7 4 5 3 7 
3 9 11 3 5 9 2 11 5 7 10 3 10 0 -7 6 
-6 7 -6 9 -3 7 1 7 13 0 10 0 11 -2 -5 10 
-13 7 3 5 14 -1 14 0 5 -10 6 -7 1 -7 8 3 
5 -3 -6 -6 -10 0 6 -10 0 -8 -9 4 1 -9 11 -7 
-9 0 0 -7 -8 9 -6 -7 6 -13 -5 -7 -11 4 -12 3 
5 -9 -6 -6 -8 0 5 -9 0 -9 9 -2 14 2 -2 -5 
5 -7 -9 0 0 -10 7 -4 9 -5 -2 -5 -10 2 -8 -2 
-8 -5 -10 5 5 -8 8 0 9 0 6 -8 8 -7 9 -7 
2717 1120 89 MP stroke
-5 7 -5 10 -4 8 -10 -3 -4 6 -8 1 2 5 -9 3 
-10 2 -12 8 -7 -2 -10 0 -8 0 -9 -6 -8 -8 -2 -9 
-1 -8 -5 -5 8 0 9 -2 9 5 12 -2 8 -6 -3 -9 
7 1 10 0 2 -4 -9 -3 -7 -10 -2 -9 -8 -6 -10 0 
-2 -5 5 -7 -2 -8 -5 -9 2 8 -5 6 -11 1 -3 -7 
-7 -6 -6 -6 9 -6 10 0 9 2 4 -9 -2 -5 -11 0 
1 -8 -2 -7 -7 -2 4 -10 0 -12 -4 -12 2 -5 11 1 
11 -3 13 -3 9 3 10 6 3 4 10 2 7 3 2 8 
1 9 1 11 -6 0 -1 6 -3 9 -5 5 -8 2 9 3 
8 8 2 7 5 8 7 4 6 8 6 9 0 14 6 9 
6 3 0 7 3511 1222 83 MP stroke
-2 -11 -8 0 -2 -7 1 -9 3 -9 -2 -6 -6 0 -8 1 
2 8 -2 7 0 15 3 8 -6 5 -7 0 0 -5 3 -6 
-4 -7 -8 -3 2 -9 -7 -3 -5 4 0 -11 -5 -6 -7 6 
0 8 5 7 5 7 6 5 -5 5 4 7 4 5 6 7 
-9 4 -6 5 -7 7 -8 0 5 5 8 -3 8 -2 8 0 
6 -7 8 0 1 7 7 3 0 9 -3 8 -5 1 -5 -1 
-7 1 -9 0 -7 0 -8 0 -7 -2 -8 1 -9 2 -6 8 
-4 6 4 4 4 -4 5 -5 7 -3 9 0 6 -2 7 3 
7 1 9 1 8 3 4 -9 10 0 1 -5 1 -8 0 -7 
5 -5 3 -7 0 -9 2 -7 5 -6 4608 1994 78 MP stroke
0 -7 -9 2 -8 -2 -5 6 -9 1 -8 3 -7 2 -9 4 
-6 -1 -9 0 5 -8 0 -7 -4 -7 -5 -1 -6 8 -9 7 
4 6 -4 6 -7 -7 -13 0 -9 8 -2 -8 -4 11 -8 0 
-4 4 2 -10 -9 5 -2 5 -5 5 3 7 -1 10 -4 5 
-1 10 1 8 -3 5 -6 0 0 7 -5 6 -1 11 2 9 
5 7 2 8 -2 6 9 3 1 -6 -5 0 0 -5 7 0 
5 5 5 -9 0 -23 2 -7 5 -8 3 -9 8 -4 3 -7 
7 -5 9 -2 8 -5 0 6 -2 7 6 -4 1 -7 6 -8 
5 -6 0 -7 5 -3 6 5 9 -2 10 -1 11 -2 8 0 
6 -7 8 -5 6 -5 8 -3 4791 1409 77 MP stroke
-1 -9 -4 -5 0 -8 -8 -5 -5 -7 0 -8 -2 -9 -1 -9 
-9 -1 -8 1 -5 3 -1 -12 -8 3 -7 0 -7 4 -9 -5 
-7 1 -5 -5 -2 -6 -6 2 -8 4 -7 4 -3 7 -5 10 
5 8 -6 6 -6 5 -4 7 -1 9 -3 7 -4 5 -7 0 
-9 2 5 5 6 5 7 6 -4 5 5 6 4 8 -5 6 
-2 9 -10 3 5 6 -7 3 -8 2 8 4 7 5 8 3 
0 7 7 5 4 4 5 -6 8 -5 2 -7 9 -7 0 -7 
10 0 8 -3 8 -9 6 -5 4 -7 7 -5 9 -1 8 -1 
2 -9 4 -10 8 1 9 1 7 4 7 -6 2 -9 4457 1936 72 MP stroke
-6 6 -2 9 -8 2 -2 9 0 8 -5 6 -7 3 -3 6 
1 10 -9 3 -6 6 -4 8 -9 0 -10 0 4 -6 -11 -5 
-9 3 -9 -4 10 -4 6 -8 -8 -3 -5 -3 2 -8 -5 -4 
-8 3 -5 5 -7 1 -8 5 -7 -2 -9 2 -5 0 -4 -6 
-6 -4 -6 -3 -7 -1 -8 -5 -7 -8 -5 -4 -8 -5 -10 -4 
-4 -4 -2 -7 -4 -6 1 -6 8 -5 9 -6 8 -1 9 1 
9 -1 9 -2 8 3 6 -1 7 4 7 0 5 8 10 0 
5 6 8 -2 10 0 9 2 10 -3 7 -5 8 -4 8 -5 
8 2 11 -2 10 2 9 3 7 6 3 7 6 8 3220 1264 72 MP stroke
0 -6 -1 -8 -4 -7 -2 -11 -1 -9 -6 -8 -6 -6 -7 -4 
-7 2 -7 4 -7 2 -7 -1 -5 8 -2 7 -3 8 -2 5 
-2 7 -1 7 -1 6 -3 7 -2 7 -3 6 -1 7 -3 6 
-2 8 -3 8 -3 9 -2 8 -1 9 0 7 -4 4 -1 6 
1 13 -6 -6 -5 7 1 8 3 12 3 9 2 9 4 8 
5 7 6 -6 0 -8 1 -6 7 -3 7 -1 -1 -8 5 -4 
-1 -6 6 0 6 -8 7 -4 7 -4 8 -2 7 -4 7 0 
4 -12 5 -8 -2 -9 -3 -9 0 -7 -4 -9 1 -6 5 -8 
3 -7 5 -6 5 -10 3459 2290 68 MP stroke
-1 -8 -4 -6 -6 -7 -7 -7 -6 -1 -5 -7 -6 -6 -2 -8 
-8 -3 -8 -6 0 -5 -3 -7 -3 -10 -9 -4 -2 -5 -7 -7 
-1 -6 -5 -9 -1 -6 -7 -8 -6 -9 -8 -5 -2 -5 -6 -6 
-11 -8 -7 -5 -7 -7 -5 -3 -2 4 -6 0 -7 -4 -1 8 
-1 9 0 17 -4 8 4 5 5 5 7 0 3 6 5 4 
2 10 9 0 5 5 -3 7 -2 6 7 6 6 0 -1 8 
6 1 6 8 8 1 8 8 7 -1 7 7 5 8 7 5 
8 4 6 5 5 6 4 6 6 5 10 2 9 0 7 5 
8 0 4251 1865 66 MP stroke
12 -6 0 -13 -27 -2 -39 -3 -18 5 -20 -2 -17 5 -9 -10 
-30 7 -19 13 9 6 1612 456 12 MP stroke
-10 0 -3 6 -9 0 -5 4 -5 4 -8 -2 -10 -1 8 -3 
-5 -4 -8 -1 -11 0 -5 -4 -7 -1 -7 -3 -8 1 -2 -2 
-2 -7 -7 -5 -12 0 -2 -5 5 -4 4 -4 -10 0 -8 1 
-8 0 -7 -1 -8 0 -5 2 -7 2 1 2 4 0 5 6 
7 1 5 -1 -1 6 6 2 8 1 8 5 6 3 6 4 
8 4 7 2 8 0 5 6 6 2 7 3 7 0 8 3 
8 0 7 -3 8 -1 7 -2 8 -4 5 -4 0 -5 8 -3 
1513 1615 57 MP stroke
-5 8 -5 8 -5 6 -4 0 -15 4 -8 1 -6 -1 -13 0 
3 6 -8 0 -10 -2 -10 0 -10 -1 -14 -3 -8 -10 -8 -11 
5 -6 13 5 9 7 -3 -6 3 -8 4 -9 0 -11 10 -4 
4 9 4 9 7 -3 6 -6 0 6 -7 9 0 11 4 6 
7 4 7 3 7 0 5 -10 12 -4 2 -8 4 -8 0 -8 
-3 -7 -1 -10 3 -10 4 -6 6 -3 6 0 5 9 0 10 
2 8 -3 8 -3 11 -1 6 -4 8 12 -7 1465 1226 55 MP stroke
-8 -7 -6 -2 -6 -3 -3 -6 3 -11 4 -7 -7 -5 -9 3 
-5 8 -3 6 -5 7 -4 9 1 4 -3 5 -6 3 -6 0 
-1 6 -5 3 0 7 -3 9 6 3 5 -5 8 -4 9 3 
9 3 2 7 1 9 7 3 -1 -12 3 5 5 0 2 10 
3 6 0 5 4 6 5 6 10 1 8 9 -4 -7 -1 -7 
-5 -6 -5 -7 -5 -8 -4 -7 -8 -1 4 -5 -2 -6 -2 -7 
4 -7 1 -9 8 -3 5 -4 5442 2581 53 MP stroke
-2 -8 -12 3 -12 -2 -12 0 -11 0 -10 -1 0 -7 7 -4 
-9 -2 -7 10 -6 1 -8 -1 4 -10 -8 5 0 -8 -9 0 
-2 9 -3 10 8 -2 -4 10 5 -2 5 -8 4 4 -3 6 
-11 10 11 -2 4 7 -7 8 7 3 10 0 10 -2 9 7 
-6 5 9 3 11 -6 -5 10 -5 6 -6 10 -4 10 8 0 
10 -5 5 -6 4 -9 6 -10 4 -11 7 -10 5 -8 -5 -2 
8 -6 6 -5 1901 1162 51 MP stroke
-12 0 -7 2 -1 5 10 0 8 4 6 5 10 5 9 7 
3 7 1 7 7 8 1758 2834 12 MP stroke
7 -1 5 1 4 -5 7 0 3 -10 -4 -3 -12 3 -1 -3 
12 -6 -2 -10 5 2 3 10 7 -10 6 3 11 4 6 5 
13 7 10 5 10 5 -2 -5 -8 -5 -8 -2 5 -5 -7 -5 
0 -6 -10 0 -3 -7 -7 0 0 -5 -13 -7 -18 0 1739 2884 32 MP stroke
-19 -6 5 -10 -15 -7 -26 -3 -21 1 -20 -8 20 -6 23 0 
19 -2 -5 -17 -19 -6 -22 0 -10 -18 -22 2 -25 2 -24 7 
-20 5 -17 8 -14 -9 -19 -7 -19 3 -16 8 7 10 -17 2 
-3 13 25 5 22 7 15 11 -2 16 9 15 5 12 -13 14 
-8 10 13 9 24 -1 13 -15 9 -14 24 9 19 -4 16 7 
20 -11 7 17 17 0 14 -8 19 -6 16 -7 0 -8 12 -8 
3 -12 994 618 50 MP stroke
-1 -12 2 -10 0 -10 -5 -7 -1 -8 1 -10 -1 -10 0 -10 
1 -8 3 -7 -3 -5 -2 -10 2 -8 0 -11 4 -8 -4 -12 
-3 9 -5 5 -7 -2 -6 -6 0 9 5 4 1 6 5 5 
3 6 -1 10 -4 8 -2 7 -5 4 -7 0 -9 -4 2 8 
4 10 4 10 3 10 2 10 4 10 -1 10 0 10 2 11 
1 10 4 7 7 -2 -4 -9 4 -5 7 -5 4956 1054 47 MP stroke
-1 -9 -1 -7 -2 -8 -7 -5 -1 5 -5 -4 5 -5 0 -6 
-9 -3 -8 5 -6 -3 -8 -10 0 7 1 5 -7 -4 -5 -9 
-6 -2 -6 1 7 6 2 6 -5 1 9 4 6 2 5 0 
6 -4 6 3 2 8 4 10 -2 8 -7 6 -5 7 -2 8 
5 5 0 8 -3 9 7 -4 6 1 6 4 7 -1 2 -8 
3 -7 -3 -6 3 -9 0 -8 7 3 4623 1702 46 MP stroke
-4 -5 -7 -2 -5 2 -4 -5 -8 -2 -10 -3 -10 3 -8 5 
-6 7 -5 7 -2 8 -3 8 -3 6 -8 5 -7 6 -10 0 
5 5 -1 6 -6 3 -5 8 -7 7 -5 6 0 10 7 1 
1 6 5 -5 5 -2 1 7 8 5 6 -5 0 -7 3 -7 
7 -3 3 -7 4 -8 8 -6 8 -6 8 -6 10 -6 7 -2 
7 -6 5 -6 7 -7 4 -6 5 -9 5332 2702 46 MP stroke
-1 -6 -2 7 -4 6 -5 2 -2 -7 -5 1 -5 6 -6 -3 
-4 -4 4 -5 0 -9 -5 -4 -6 -3 -5 0 -6 -6 -5 8 
3 5 4 5 -3 4 -4 5 -3 -6 -3 -9 -2 7 -4 7 
0 6 4 9 0 9 5 8 8 6 -1 -10 5 -4 5 3 
3 -8 6 -1 5 -5 2 6 5 3 6 -3 4 -5 7 -3 
4 -3 1 -9 4656 1842 43 MP stroke
-8 -1 -8 -4 1 -4 -8 -1 -9 -1 -6 -4 -9 -1 -6 1 
-9 0 -6 -1 -8 -4 -8 -1 -7 -2 -8 0 -7 -2 -9 2 
-8 -2 -6 -3 -7 -1 0 14 8 1 8 -1 9 2 1 7 
5 4 7 1 9 2 8 4 5 -7 6 0 8 1 8 0 
6 1 4 6 7 2 8 4 5 1 6 -3 9 3 4 -8 
5 -5 4405 2053 42 MP stroke
2 -6 -4 -4 0 -11 -8 5 -9 3 7 4 6 3 -1 5 
-5 0 -4 -3 -6 3 -8 1 -10 -6 -12 -4 -1 6 -5 6 
-8 6 -8 -1 -9 4 -8 5 9 -2 0 5 4 3 -5 9 
10 -6 7 2 9 3 9 6 5 5 5 7 7 7 6 -5 
-4 -9 1 -8 2 -6 5 -5 -1 -6 1 -5 7 0 7 2 
-2 -6 9 -7 4927 1263 43 MP stroke
-18 -12 -15 -9 -23 -5 -24 -2 -11 5 20 9 9 11 4 15 
-2 14 -9 12 -12 12 -13 12 -13 13 -17 12 -14 13 -23 10 
-24 10 -25 5 -27 8 -24 8 -4 15 21 6 26 -8 13 -11 
30 -5 30 0 30 -10 16 -11 10 -7 27 -8 0 -10 12 -17 
17 -13 -8 -10 17 -7 11 -14 -4 -10 17 -7 0 -14 3587 618 40 MP stroke
-26 -16 -5 16 3065 456 3 MP stroke
-11 -5 -2 3 -8 0 -6 -2 -6 2 -8 -2 -6 -8 -5 7 
0 4 -8 3 0 -4 -7 1 -9 3 -8 0 -5 -6 -5 7 
6 6 13 3 -6 4 9 0 2 5 9 1 7 2 11 0 
5 -3 9 4 8 0 5 -4 -7 0 -4 -5 0 -5 -6 -7 
6 -4 8 0 6 3 8 1 5 -4 1670 1670 38 MP stroke
-11 -2 -13 4 -10 -4 12 -8 17 -9 -21 0 -9 -12 11 -10 
-26 0 -15 -6 -19 -4 -17 8 -14 2 -14 8 -20 6 -12 13 
0 14 15 6 1 15 14 -2 9 6 9 -8 11 -4 10 4 
15 -2 7 -7 8 7 2 -13 16 -4 1 15 12 8 11 2 
0 -6 10 0 2 -9 8 -8 2433 779 37 MP stroke
-8 6 -9 7 -7 6 -10 3 -7 5 -5 7 -10 5 -5 6 
-11 -5 -13 0 -5 -10 -6 -6 -12 0 0 -7 -5 -4 1 -8 
-3 -8 7 0 0 4 13 -1 13 -5 10 0 6 8 10 -2 
0 7 -10 6 8 0 11 -8 11 -5 12 -4 6 8 10 -5 
8 0 1403 1186 34 MP stroke
-7 0 -10 -3 -8 1 -6 3 -7 1 -7 2 -8 1 -7 -3 
-8 0 -7 -1 -8 1 -8 -1 -6 3 -9 2 -10 3 11 2 
8 -7 6 3 8 -1 8 3 7 2 8 -2 7 -4 8 5 
9 0 10 3 -4 -7 6 1 9 0 8 3 6 -3 1 -7 
4565 2087 33 MP stroke
-22 -4 -16 -4 -15 8 -16 -10 19 -6 -7 -7 -19 -2 -17 3 
-15 8 -18 7 -31 -2 -19 2 -3 14 -5 12 20 5 24 10 
9 14 13 -7 11 -10 -14 -5 4 -8 -10 -10 31 2 8 11 
12 8 24 7 21 2 11 -11 11 -14 9 -13 1013 511 31 MP stroke
-4 -8 -8 -5 -12 1 -12 4 -11 6 -14 2 -2 9 -3 8 
1 11 3 8 -10 7 2 11 5 7 10 2 12 1 11 -3 
7 -9 -8 -4 5 -5 9 0 10 0 4 -7 -8 -3 8 -5 
-8 -7 -7 0 7 -11 4 -10 9 0 2645 1078 30 MP stroke
0 -103 -6 3 -6 12 10 9 -14 8 -2 -10 -5 -11 -13 -2 
-10 4 -15 -4 -3 -10 -11 -7 -17 -8 -15 -4 -4 11 -8 8 
0 12 -17 0 -8 8 -11 7 15 10 13 11 23 4 20 0 
8 11 12 8 17 9 19 7 14 8 14 9 67 687 31 MP stroke
1 -11 -18 -13 -27 3 -17 -8 -5 -13 5 -13 -2 -15 -31 -7 
-28 -1 -25 -2 -27 0 -16 10 -23 -8 -26 6 -9 12 0 12 
26 8 23 0 27 3 29 -8 30 4 22 9 -8 6 17 6 
7 9 27 0 20 8 20 3 1349 456 29 MP stroke
-9 1 -5 -3 0 -6 6 -4 -4 -6 -5 -5 -5 3 3 8 
-5 -2 -4 5 -4 -5 -8 1 0 6 8 2 0 14 3 -7 
6 -4 -1 7 6 1 -1 9 8 0 2 4 9 1 -3 -6 
1 -8 2 -6 4654 1791 27 MP stroke
-17 0 -8 6 -1 8 -12 2 9 8 4 5 -18 0 -5 -5 
-11 -4 -10 1 -8 8 -5 6 -13 4 -11 0 -15 -4 18 0 
-6 -6 17 -2 13 -6 6 -11 11 -4 13 -4 3 -8 7 2 
13 -4 11 0 15 8 1025 883 28 MP stroke
-14 4 -11 1 -7 7 -6 7 -7 5 -7 7 -9 9 -9 8 
-5 9 -5 9 -5 9 -1 7 -4 5 -6 -4 4 -10 2 -13 
1 -10 7 -10 10 -11 8 -7 12 -3 12 -7 5 -10 10 -3 
11 -4 14 5 4376 1090 27 MP stroke
-6 8 -2 8 -5 2 -7 0 -4 7 -5 -3 0 7 -10 3 
-4 -3 -10 4 5 -6 5 -8 0 -5 -8 -8 -5 -6 5 -4 
7 -2 0 -9 9 -10 10 -3 2 3 10 0 11 0 0 11 
2 5 0 9 3686 1218 27 MP stroke
-19 7 -17 5 -21 5 -20 8 -16 -4 12 -7 12 -6 -22 -2 
-21 2 6 -8 5 -11 24 4 -10 -11 25 -14 -7 13 2 8 
14 -8 3 -8 22 0 -7 14 -12 4 -15 7 15 6 24 -3 
23 -1 902 764 26 MP stroke
-3 11 -8 5 -9 6 -7 -1 -13 1 -11 -1 -8 -2 -8 2 
-7 -2 -7 3 -7 0 7 -6 12 -2 10 5 8 -3 12 3 
13 -3 6 -5 9 -3 -1 -6 2 -14 4 6 6 6 3918 1207 24 MP stroke
0 -10 -2 -10 -4 -8 -1 -6 -3 -7 -4 -7 -7 -4 -9 -2 
-5 8 -5 6 -6 -4 -2 9 -2 7 -3 3 0 19 5 3 
10 -3 9 -4 9 0 10 7 10 3 5003 2605 22 MP stroke
-1 7 4 9 -3 7 3 8 -4 10 -1 -10 -4 -9 -2 -9 
-3 -9 4 -6 -7 -5 -6 -5 1 -6 -3 -8 -4 -8 -1 -8 
8 3 -1 8 4 10 8 6 5 8 3 7 3247 2043 23 MP stroke
-14 0 -10 -7 0 -7 4 -5 -3 -12 -8 4 -7 -2 2 -8 
-3 -7 -6 -5 -3 -8 11 -2 -1 7 5 6 0 7 10 8 
9 5 0 11 -4 5 6 5 7 -5 5 10 1265 1059 23 MP stroke
-2 -4 -7 -1 -5 -5 -8 -2 -8 0 -7 0 -8 4 -6 7 
-6 0 -2 9 -5 5 3 7 11 0 -2 -11 6 0 6 -9 
7 0 6 0 9 -1 9 0 9 1 5054 2035 22 MP stroke
-9 3 -6 6 -10 5 -12 1 -11 7 -13 1 -9 2 -5 -3 
9 -2 9 -6 8 0 -4 -5 -5 -3 7 -8 7 -10 10 2 
9 0 8 -3 8 3 4 6 5 4 3325 1200 22 MP stroke
-5 6 2 12 0 2 4 16 -1 4 -6 -6 -2 -10 -1 -7 
-5 -10 3 -8 0 -9 -2 -10 -5 -6 -1 -10 4 6 5 -1 
1 6 5 5 0 7 3 6 1 7 3320 2137 22 MP stroke
-3 -9 -7 0 -1 6 -4 -6 0 -7 5 -4 0 -14 -9 -3 
-8 6 -2 8 -4 9 -3 7 3 7 2 7 7 0 3 4 
7 -1 7 -6 7 -4 4770 1427 20 MP stroke
-20 0 -1 -12 -14 2 -10 10 -9 8 -12 0 -12 -6 -13 -8 
-14 10 15 6 8 10 11 8 18 9 15 10 5 13 15 -11 
4 -10 3 -14 -4 -15 15 -10 1478 824 21 MP stroke
-4 9 -9 0 -9 -2 -4 -10 -5 -11 -3 -10 -7 -12 -6 -8 
4 -13 9 -4 0 9 -2 8 -1 8 8 -3 1 10 11 0 
0 7 8 5 4 10 5 7 1294 1054 21 MP stroke
-2 8 -1 6 3 6 -3 9 -9 5 -9 1 -7 0 -8 -2 
-4 -8 3 -5 2 -9 6 -6 5 -5 -9 -1 6 -5 10 0 
8 2 6 -6 3 10 3283 1983 20 MP stroke
-8 -10 -10 -5 -11 -5 2 -5 -9 -3 -7 -5 -7 0 0 -5 
-11 -5 -9 -3 -8 3 8 8 11 8 9 9 7 10 12 3 
14 3 11 5 6 -3 853 1108 20 MP stroke
-22 -12 -11 -16 -20 7 -18 2 -14 14 -6 19 -22 10 -20 8 
-22 9 23 9 15 13 28 0 27 7 23 -7 26 -5 -10 -17 
4 -15 10 -14 9 -12 899 604 20 MP stroke
-9 -9 -5 -10 -16 0 -15 -12 -14 -14 -18 9 -21 5 -3 16 
6 17 22 5 -15 14 10 14 16 -6 21 3 16 -6 3 -9 
-14 -14 22 1 14 -4 1239 580 20 MP stroke
-3 -6 -2 -7 2 -6 -6 -6 -7 -5 6 7 1 7 -1 7 
-7 0 3 5 -6 4 0 8 9 -4 4 6 -3 7 7 -4 
1 -7 2 -6 4737 1935 19 MP stroke
0 -9 -1 -7 -3 -10 -3 -6 -7 0 -9 2 -6 5 -2 8 
0 9 5 6 3 8 5 8 6 7 8 5 -2 -6 4 -6 
1 -8 1 -6 4014 1828 19 MP stroke
-8 1 -8 3 -6 8 -8 5 -7 2 -8 3 -7 4 -5 5 
7 0 8 -2 9 -1 9 -2 3 -6 8 -2 6 -3 4 -5 
3 -10 4678 2109 18 MP stroke
-6 5 -9 0 -10 4 -5 6 -9 2 -6 -2 -5 5 -10 0 
-11 0 7 -6 9 -5 10 -4 9 -3 9 -5 8 -1 9 0 
10 4 1534 1278 18 MP stroke
-3 -7 -7 -4 2 -7 7 2 0 -9 -5 -2 0 -8 -8 1 
4 6 0 7 -10 0 2 9 0 6 4 6 8 -1 6 1 
4691 1761 17 MP stroke
-5 -8 -5 0 -10 -6 -7 -1 -5 -6 -11 -1 -2 6 2 5 
-2 9 -5 7 10 -3 11 -1 9 0 7 3 7 0 6 -4 
2990 1346 17 MP stroke
-3 10 -10 0 0 7 8 2 5 6 -12 -4 -9 -6 2 -9 
-4 -8 -6 -6 0 -8 6 -4 7 0 0 10 11 4 5 6 
3326 869 17 MP stroke
8 -4 17 -12 21 -8 916 480 4 MP stroke
-16 -12 -18 2 -20 -3 -17 11 -8 10 -22 -6 -20 13 5 9 
1032 456 9 MP stroke
-11 -12 -4 -11 -15 -13 -23 7 -14 -17 -34 0 -8 15 3 13 
0 12 22 9 27 1 10 -9 1 -13 16 12 15 8 15 -2 
1207 470 17 MP stroke
-8 -6 1 -7 -2 -5 -7 0 -3 -6 -6 6 -6 -6 4 11 
2 7 -7 -2 5 9 8 4 7 3 8 -3 4 -5 3122 1349 16 MP stroke
0 -6 -4 -7 0 -9 1 -9 -6 -6 -5 6 -7 0 -2 7 
-1 8 0 7 1 7 6 8 8 -6 5 -2 4 2 2926 1293 16 MP stroke
-14 -15 -18 -2 -19 4 -23 6 -12 -6 -18 8 -15 10 0 8 
15 5 11 0 19 11 16 -13 30 13 23 -8 5 -21 4886 511 16 MP stroke
-3 -9 -8 -3 -2 6 -3 4 -7 3 -5 -4 -4 6 -5 4 
1 6 8 2 7 -1 4 -6 8 2 2 -6 7 -4 4811 1424 16 MP stroke
0 -8 -2 -10 -5 -2 -3 -7 -2 9 -6 7 -2 8 -3 9 
-3 9 0 8 5 2 7 -4 5 -6 4 -7 5 -8 4628 1585 16 MP stroke
-10 -9 -8 5 -5 -1 -2 -5 -10 1 -5 5 -12 4 0 6 
9 4 10 -4 10 4 13 -2 -5 -7 5 -5 10 4 1873 2818 16 MP stroke
-5 7 -9 3 -10 2 -7 2 -10 -2 -5 5 -9 3 2 -6 
-1 -10 10 -3 9 -1 9 1 9 0 10 -3 7 2 1591 1250 16 MP stroke
0 -5 3 -3 -3 -7 1 -4 -4 -2 -2 3 -4 2 -4 1 
-3 3 3 2 2 4 3 2 4 2 4 2 434 1639 15 MP stroke
-5 -9 -6 -7 -6 -4 -5 -4 -7 -4 -7 -5 -8 0 5 5 
5 5 8 3 5 5 5 7 9 4 7 4 5298 2263 15 MP stroke
-8 0 -7 -2 -5 -3 -11 1 -10 0 -1 5 8 -3 0 5 
8 -1 7 2 7 -1 2 2 9 2 1 -7 3159 1394 15 MP stroke
0 -7 -1 -6 -8 -4 -6 0 -8 4 -5 5 -3 8 -5 5 
0 5 8 0 8 0 6 -1 8 -5 6 -4 4453 1654 15 MP stroke
-3 6 -8 6 -11 0 -6 -6 -10 -4 -5 -8 0 -7 5 -8 
11 0 4 -5 7 0 2 9 5 10 9 7 3258 885 15 MP stroke
-5 2 -8 -1 -3 -5 0 -5 -9 -1 -8 0 3 -8 7 -3 
7 -4 3 4 2 5 5 4 2 7 4 5 3001 1736 15 MP stroke
-10 5 -4 5 -6 5 -4 8 -5 2 -7 7 2 11 5 -11 
7 -8 5 -5 7 -7 7 -5 3 -7 4584 1823 14 MP stroke
-8 -3 -7 1 -7 -1 -13 -3 -8 -4 0 7 5 6 8 0 
6 4 9 -1 10 0 5 -6 4746 2000 13 MP stroke
-3 -6 -9 -1 -7 2 -3 3 -6 0 2 5 -8 7 8 -3 
8 -1 6 -2 4 -3 8 -1 3292 1397 13 MP stroke
-5 -8 4 -8 -9 3 -5 -3 -3 5 -6 0 -2 7 8 -2 
5 -2 6 5 5 7 2 -4 3848 2759 13 MP stroke
-2 -13 -7 -5 -4 -10 -6 -9 -13 -8 5 10 8 5 -3 7 
5 10 -5 11 10 0 12 2 780 1036 13 MP stroke
-5 0 -5 -6 -7 -1 -5 3 -5 -2 -5 0 3 6 6 2 
8 2 7 1 7 -3 1 -2 1612 1672 13 MP stroke
-9 8 -7 5 -8 10 -8 0 -9 -6 -8 0 -9 -4 12 -3 
16 0 11 -4 5 -8 14 2 1112 940 13 MP stroke
-9 -6 -8 -6 -5 -2 -6 -10 -3 -10 -4 8 2 6 11 6 
5 4 8 5 9 5 5094 1991 12 MP stroke
-11 -11 -10 6 -5 7 -13 4 4 7 7 2 -14 5 7 6 
11 -8 10 -7 14 -11 450 971 12 MP stroke
-8 -1 -4 -4 2 -6 -12 -5 -1 8 5 1 3 6 3 8 
8 -1 4 -6 4401 1981 11 MP stroke
5 -10 -5 -12 -20 -5 -16 5 -24 -4 -2 9 5 12 16 6 
22 1 19 -2 1579 556 11 MP stroke
-5 -5 -9 -5 -13 -4 0 6 -7 5 11 -2 9 0 9 3 
1 7 4 -5 1826 1186 11 MP stroke
-11 -5 -3 -5 -9 -3 -10 -1 -9 0 5 6 7 3 9 4 
10 1 11 0 1823 1125 11 MP stroke
-5 8 -4 7 5 9 -5 7 -6 9 -8 -11 9 -5 0 -18 
14 -6 1236 991 10 MP stroke
-3 -5 -7 0 -5 -3 -7 -5 -7 4 6 7 8 3 7 0 
8 -1 4610 2095 10 MP stroke
1 -8 -1 -6 -7 -7 -3 9 -3 6 2 6 0 9 4 -6 
7 -3 2934 1264 10 MP stroke
-2 -5 4 -4 -7 -7 -4 -8 -3 5 4 6 0 5 4 8 
4 0 1613 1561 10 MP stroke
3 -9 0 -6 2 -12 -9 -2 -4 8 3 6 -5 6 1 6 
9 3 1678 2627 10 MP stroke
-4 -5 -8 0 -3 -4 -9 0 5 3 7 1 1 4 11 1 
175 2157 9 MP stroke
-7 -3 -6 0 -7 3 0 7 6 4 7 0 5 -4 2 -7 
5496 2228 9 MP stroke
-5 -7 -2 -8 -4 -5 -6 5 0 8 5 5 6 2 6 0 
4632 1746 9 MP stroke
-6 2 0 10 -5 1 -1 5 4 -2 2 -4 6 -8 0 -4 
2586 1513 9 MP stroke
-2 -11 -9 -1 -9 3 4 4 -6 5 2 8 10 -4 10 -4 
2971 1004 9 MP stroke
-9 1 10 -8 -8 0 -5 5 0 -9 -4 12 4 6 12 -7 
1587 992 9 MP stroke
-10 2 -10 1 -10 5 5 3 7 -3 8 -2 9 -2 1 -4 
1678 1299 9 MP stroke
-6 -1 -6 1 -7 0 -3 4 5 4 8 0 9 0 0 -8 
1782 1675 9 MP stroke
-3 -2 -1 -4 -3 1 -3 2 4 4 3 -1 3 0 422 1629 8 MP stroke
5516 2206 PD
5515 2206 PD
1 -4 -4 -5 -6 0 -7 -2 -5 4 9 5 12 2 5225 2092 8 MP stroke
-2 -9 -6 -7 -5 -5 -7 3 6 7 8 10 6 1 5152 2034 8 MP stroke
-9 0 -5 -3 -8 7 3 4 8 -3 7 3 4 -8 4778 2132 8 MP stroke
-11 -15 -31 -10 -19 0 -7 13 26 5 29 2 13 5 5028 501 8 MP stroke
-9 7 -10 6 -10 8 7 -5 7 1 7 -6 8 -11 5034 1229 8 MP stroke
-9 -5 -10 -2 -10 3 0 6 9 2 10 -2 10 -2 259 906 8 MP stroke
0 -8 -15 2 -14 -8 -15 6 15 2 10 6 19 0 193 824 8 MP stroke
-6 -13 -18 2 -10 7 -2 11 7 8 18 0 11 -15 1629 724 8 MP stroke
-4 -5 -11 3 -3 -2 2 3 4 0 7 -2 5 3 1602 1536 8 MP stroke
-2 -3 2 -2 -4 -1 -5 2 2 4 4 3 3 -3 1540 1615 8 MP stroke
-9 0 -3 4 0 7 10 -1 -3 -1 0 -6 5 -3 1863 1799 8 MP stroke
-11 -5 -10 -5 -9 -9 -3 7 7 5 11 5 15 2 2225 2863 8 MP stroke
1 -8 -5 -4 5 -3 -5 -3 -5 5 4 7 5 6 1413 1950 8 MP stroke
-1 -8 0 -6 -7 2 2 8 3 -4 3 8 5336 2177 7 MP stroke
-5 -6 -8 -3 -5 4 2 6 8 2 8 -3 4716 2001 7 MP stroke
-7 7 -2 9 2 7 4 -6 3 -8 0 -9 4839 2057 7 MP stroke
-4 -4 -11 0 -8 4 10 5 9 -2 4 -3 4877 2522 7 MP stroke
-2 -9 -8 4 0 9 -6 5 11 -3 5 -6 3077 965 7 MP stroke
-15 -8 -29 -2 0 10 19 12 19 -3 6 -9 4938 563 7 MP stroke
0 -5 -10 4 -3 6 0 5 6 -7 7 -3 5160 1116 7 MP stroke
-6 -2 -6 0 -7 3 6 2 7 1 6 -4 3612 1762 7 MP stroke
-10 4 -9 4 0 6 12 0 0 -7 7 -7 255 1054 7 MP stroke
-19 -6 -24 -4 0 16 12 10 17 0 14 -16 1335 518 7 MP stroke
-13 1 -14 10 0 2 10 0 12 -4 5 -9 1531 859 7 MP stroke
-1 -6 -3 4 -3 0 2 4 1 -4 4 2 1863 1702 7 MP stroke
-3 -2 -4 0 -1 5 4 0 4 -3 374 1611 6 MP stroke
-6 -2 -5 -5 -8 6 7 4 12 -3 4541 2076 6 MP stroke
-2 -4 -5 1 0 5 5 1 2 -3 2562 1515 6 MP stroke
-4 -6 -4 3 -3 7 5 -4 6 0 2546 1509 6 MP stroke
-8 -1 -5 -4 -5 7 7 4 11 -6 2836 1317 6 MP stroke
-5 -5 -8 4 -7 5 13 2 7 -6 3134 947 6 MP stroke
-5 -5 -8 2 -4 3 8 2 9 -2 2969 1023 6 MP stroke
-5 -9 -10 0 -1 7 8 4 8 -2 2950 1009 6 MP stroke
-13 10 -3 11 12 -8 0 -7 4 -6 2692 964 6 MP stroke
-19 5 -5 9 18 9 10 -9 -4 -14 3543 696 6 MP stroke
-2 -7 -3 -4 -6 1 7 12 4 -2 4302 1967 6 MP stroke
-5 -5 -6 -7 0 7 8 7 3 -2 4280 1931 6 MP stroke
-3 -5 -6 0 -1 2 3 4 7 -1 3640 2275 6 MP stroke
-13 9 -5 3 0 5 8 -1 10 -16 232 1066 6 MP stroke
-15 -3 -6 9 -5 11 18 -7 8 -10 987 501 6 MP stroke
-9 -3 -10 -4 3 9 7 2 9 -4 1556 1061 6 MP stroke
2 -13 -7 -6 -6 10 -1 9 12 0 1586 856 6 MP stroke
-8 0 -2 7 2 -4 5 1 3 -4 1683 1629 6 MP stroke
-10 -3 -8 -3 -2 8 9 -2 11 0 1540 1202 6 MP stroke
-3 -4 -7 0 5 7 5 -3 397 1619 5 MP stroke
-1 -4 -5 -1 3 5 3 0 530 2220 5 MP stroke
-5 -3 2 -5 -7 7 10 1 116 2662 5 MP stroke
-8 -8 -8 -1 5 6 11 3 5252 2106 5 MP stroke
-8 -7 -6 1 5 6 9 0 4858 1962 5 MP stroke
-7 -4 -7 3 7 4 7 -3 4782 1954 5 MP stroke
-8 -5 -7 5 7 0 8 0 4519 2058 5 MP stroke
-6 -2 -4 8 9 3 1 -9 4438 1998 5 MP stroke
-6 5 0 8 5 -5 1 -8 4795 2072 5 MP stroke
-9 0 -4 6 11 -1 2 -5 4714 2072 5 MP stroke
-4 -1 -3 5 4 3 3 -7 2931 1901 5 MP stroke
-1 -5 -5 3 -2 7 8 -5 3223 1377 5 MP stroke
-2 -3 -9 2 8 6 3 -5 3141 935 5 MP stroke
-8 -1 -9 8 14 -1 3 -6 2689 862 5 MP stroke
-2 -10 -10 3 0 7 12 0 4932 541 5 MP stroke
0 -15 -13 -2 -27 7 13 10 27 0 67 620 6 MP stroke
-16 9 2 6 9 -4 5 -11 5284 943 5 MP stroke
-5 -5 -8 9 9 4 4 -8 4887 1023 5 MP stroke
-6 1 -10 10 8 -3 8 -8 5073 1205 5 MP stroke
-7 0 0 5 4 3 3 -8 3673 2267 5 MP stroke
-6 -4 -7 2 8 3 5 -1 5423 1062 5 MP stroke
-5 -7 1 -8 -3 8 7 7 1624 1533 5 MP stroke
-2 2 0 1 2 -3 368 1615 4 MP stroke
-3 -9 -6 1 9 8 5344 2195 4 MP stroke
13 21 -3 -8 -3 -5 -7 -8 5256 2099 5 MP stroke
18 12 -5 -3 -8 -5 -5 -4 5228 2078 5 MP stroke
-12 0 9 5 3 -5 4737 1977 4 MP stroke
-13 3 10 3 3 -6 4691 2080 4 MP stroke
-10 6 3 6 7 -12 5348 2729 4 MP stroke
-8 12 2 -4 5 -3 1 -5 4743 1546 5 MP stroke
0 -12 -14 1 14 11 2516 506 4 MP stroke
-9 2 6 3 3 -5 114 1088 4 MP stroke
-18 0 11 11 7 -11 1211 515 4 MP stroke
-5 -5 1 3 4 2 1873 1725 4 MP stroke
-5 -4 2 2 3 2 1752 1763 4 MP stroke
15 10 -9 -6 -6 -4 5192 2062 4 MP stroke
-4 -3 0 4 4 -1 3197 1323 4 MP stroke
-4 -6 0 10 4 -4 2779 904 4 MP stroke
-10 10 5 -5 5 -5 5013 1240 4 MP stroke
-4 23 1 -11 3 -12 4210 1771 4 MP stroke
-10 7 2 -5 8 -2 146 1080 4 MP stroke
-3 -7 -3 4 6 3 94 1083 4 MP stroke
-8 9 2 -6 6 -3 1648 1396 4 MP stroke
-15 0 9 4 6 -4 1701 1617 4 MP stroke
-2 -10 -6 6 8 4 1673 1599 4 MP stroke
-10 -13 0 7 10 6 1636 1556 4 MP stroke
-6 0 6 0 414 1626 3 MP stroke
9 8 -9 -8 5200 2081 3 MP stroke
8 0 -8 0 5038 1983 3 MP stroke
11 0 -11 0 4705 1978 3 MP stroke
-10 0 10 0 2410 1348 3 MP stroke
-7 -3 7 3 2367 1335 3 MP stroke
0 -5 3197 1341 2 MP stroke
-7 -6 7 6 2753 928 3 MP stroke
-6 6 6 -6 5108 1183 3 MP stroke
-5 4 5 -4 4767 1512 3 MP stroke
-9 -5 9 5 4259 1910 3 MP stroke
-16 9 16 -9 2665 639 3 MP stroke
-12 -12 12 12 5322 1014 3 MP stroke
-8 2 8 -2 1559 1571 3 MP stroke
-6 -2 6 2 1691 1605 3 MP stroke
-7 -13 7 13 1658 1585 3 MP stroke
-5 -8 5 8 1653 1569 3 MP stroke
gr

9 w
%%IncludeResource: font Helvetica
/Helvetica /ISOLatin1Encoding 120 FMSR

  50 2927 mt 
( ) s
5500  498 mt 
( ) s
6 w
21 w
1 sg
0 2045 170 0 0 -2045 5789 2727 4 MP
PP
-170 0 0 2045 170 0 0 -2045 5789 2727 5 MP stroke
gs 5789 682 171 2046 rc
/mwscm { [/Indexed /DeviceRGB 1
  <
    020202 ffffff 
  >
] setcolorspace } bdef mwscm
gs np 5789 682 mt 0 2045 rl 171 0 rl 0 -2045 rl cp c np
[510 0 0 2045 5619 682] cc
<< % Image dictionary
  /ImageType 1
  /Width 1 /Height 2
  /BitsPerComponent 1
  /Decode [0 1]
  /ImageMatrix [1.000000 0 0 2.000000 0 0]
  /DataSource currentfile
  /ASCII85Decode filter
  /RunLengthDecode filter
>>
image
!It0#
~>
gr
gr

0 sg
%%IncludeResource: font Helvetica-Bold
/Helvetica-Bold /ISOLatin1Encoding 168 FMSR

6043 2991 mt 
([-]) s
14 w
DO
SO
21 w
5789 2727 mt 5959 2727 L
5789  682 mt 5959  682 L
5789 2727 mt 5789  682 L
5959 2727 mt 5959  682 L
5789 2727 mt 5959 2727 L
5959 2727 mt 5959  682 L
5959 2727 mt 5754 2727 L
5789 2727 mt 5993 2727 L
%%IncludeResource: font Helvetica
/Helvetica /ISOLatin1Encoding 192 FMSR

5993 2798 mt 
( -1) s
5959 1704 mt 5754 1704 L
5789 1704 mt 5993 1704 L
5993 1775 mt 
(  0) s
5959  682 mt 5754  682 L
5789  682 mt 5993  682 L
5993  753 mt 
(  1) s
5789 2727 mt 5959 2727 L
5789  682 mt 5959  682 L
5789 2727 mt 5789  682 L
5959 2727 mt 5959  682 L

end %%Color Dict

eplot
%%EndObject

epage
end

showpage

%%Trailer
%%EOF
