\relax 
\@writefile{toc}{\contentsline {section}{\numberline {1}Introduction}{1}}
\@writefile{toc}{\contentsline {section}{\numberline {2}Land-atmosphere interactions in GCMs and reanalysis products}{1}}
\@writefile{toc}{\contentsline {section}{\numberline {3}A toy model for summertime surface temperature variability}{1}}
\@writefile{toc}{\contentsline {subsection}{\numberline {3.1}Anomaly budget equations}{1}}
\@writefile{toc}{\contentsline {subsection}{\numberline {3.2}Method}{2}}
\@writefile{toc}{\contentsline {subsection}{\numberline {3.3}Seeking the optimal parameterization}{2}}
\@writefile{toc}{\contentsline {subsection}{\numberline {3.4}Toy model performance}{3}}
\@writefile{toc}{\contentsline {section}{\numberline {4}Interpreting the toy model}{3}}
\@writefile{toc}{\contentsline {subsection}{\numberline {4.1}Effects of each term in the $T'$ and $m'$ toy model expressions}{3}}
\@writefile{toc}{\contentsline {subsection}{\numberline {4.2}Links between toy model coefficients and mean state variables}{3}}
\@writefile{toc}{\contentsline {subsection}{\numberline {4.3}Two regimes of surface temperature variability}{3}}
\@writefile{toc}{\contentsline {subsection}{\numberline {4.4}Interpreting the two regimes}{4}}
\@writefile{toc}{\contentsline {section}{\numberline {5}Limitations of the toy model}{4}}
\@writefile{toc}{\contentsline {section}{\numberline {6}Toy model applications}{4}}
\@writefile{toc}{\contentsline {subsection}{\numberline {6.1}Correction of temperature variability in GCMs}{4}}
\@writefile{toc}{\contentsline {subsection}{\numberline {6.2}Temperature variability regimes at the end of the 21st century}{4}}
