%!PS-Adobe-3.0 EPSF-3.0
%%Creator: MATLAB, The Mathworks, Inc. Version 7.5.0.338 (R2007b). Operating System: Linux 3.8.4 #1 SMP Thu Mar 21 12:34:11 PDT 2013 x86_64.
%%Title: figs/eps/hadgem1_scenario_regime_shift.eps
%%CreationDate: 11/05/2013  12:00:20
%%DocumentNeededFonts: Helvetica
%%+ Helvetica-Bold
%%DocumentProcessColors: Cyan Magenta Yellow Black
%%LanguageLevel: 2
%%Pages: 1
%%BoundingBox:     2    29   527   257
%%EndComments

%%BeginProlog
% MathWorks dictionary
/MathWorks 160 dict begin
% definition operators
/bdef {bind def} bind def
/ldef {load def} bind def
/xdef {exch def} bdef
/xstore {exch store} bdef
% operator abbreviations
/c  /clip ldef
/cc /concat ldef
/cp /closepath ldef
/gr /grestore ldef
/gs /gsave ldef
/mt /moveto ldef
/np /newpath ldef
/cm /currentmatrix ldef
/sm /setmatrix ldef
/rm /rmoveto ldef
/rl /rlineto ldef
/s {show newpath} bdef
/sc {setcmykcolor} bdef
/sr /setrgbcolor ldef
/sg /setgray ldef
/w /setlinewidth ldef
/j /setlinejoin ldef
/cap /setlinecap ldef
/rc {rectclip} bdef
/rf {rectfill} bdef
% page state control
/pgsv () def
/bpage {/pgsv save def} bdef
/epage {pgsv restore} bdef
/bplot /gsave ldef
/eplot {stroke grestore} bdef
% orientation switch
/portraitMode 0 def /landscapeMode 1 def /rotateMode 2 def
% coordinate system mappings
/dpi2point 0 def
% font control
/FontSize 0 def
/FMS {/FontSize xstore findfont [FontSize 0 0 FontSize neg 0 0]
  makefont setfont} bdef
/reencode {exch dup where {pop load} {pop StandardEncoding} ifelse
  exch dup 3 1 roll findfont dup length dict begin
  { 1 index /FID ne {def}{pop pop} ifelse } forall
  /Encoding exch def currentdict end definefont pop} bdef
/isroman {findfont /CharStrings get /Agrave known} bdef
/FMSR {3 1 roll 1 index dup isroman {reencode} {pop pop} ifelse
  exch FMS} bdef
/csm {1 dpi2point div -1 dpi2point div scale neg translate
 dup landscapeMode eq {pop -90 rotate}
  {rotateMode eq {90 rotate} if} ifelse} bdef
% line types: solid, dotted, dashed, dotdash
/SO { [] 0 setdash } bdef
/DO { [.5 dpi2point mul 4 dpi2point mul] 0 setdash } bdef
/DA { [6 dpi2point mul] 0 setdash } bdef
/DD { [.5 dpi2point mul 4 dpi2point mul 6 dpi2point mul 4
  dpi2point mul] 0 setdash } bdef
% macros for lines and objects
/L {lineto stroke} bdef
/MP {3 1 roll moveto 1 sub {rlineto} repeat} bdef
/AP {{rlineto} repeat} bdef
/PDlw -1 def
/W {/PDlw currentlinewidth def setlinewidth} def
/PP {closepath eofill} bdef
/DP {closepath stroke} bdef
/MR {4 -2 roll moveto dup  0 exch rlineto exch 0 rlineto
  neg 0 exch rlineto closepath} bdef
/FR {MR stroke} bdef
/PR {MR fill} bdef
/L1i {{currentfile picstr readhexstring pop} image} bdef
/tMatrix matrix def
/MakeOval {newpath tMatrix currentmatrix pop translate scale
0 0 1 0 360 arc tMatrix setmatrix} bdef
/FO {MakeOval stroke} bdef
/PO {MakeOval fill} bdef
/PD {currentlinewidth 2 div 0 360 arc fill
   PDlw -1 eq not {PDlw w /PDlw -1 def} if} def
/FA {newpath tMatrix currentmatrix pop translate scale
  0 0 1 5 -2 roll arc tMatrix setmatrix stroke} bdef
/PA {newpath tMatrix currentmatrix pop	translate 0 0 moveto scale
  0 0 1 5 -2 roll arc closepath tMatrix setmatrix fill} bdef
/FAn {newpath tMatrix currentmatrix pop translate scale
  0 0 1 5 -2 roll arcn tMatrix setmatrix stroke} bdef
/PAn {newpath tMatrix currentmatrix pop translate 0 0 moveto scale
  0 0 1 5 -2 roll arcn closepath tMatrix setmatrix fill} bdef
/vradius 0 def /hradius 0 def /lry 0 def
/lrx 0 def /uly 0 def /ulx 0 def /rad 0 def
/MRR {/vradius xdef /hradius xdef /lry xdef /lrx xdef /uly xdef
  /ulx xdef newpath tMatrix currentmatrix pop ulx hradius add uly
  vradius add translate hradius vradius scale 0 0 1 180 270 arc 
  tMatrix setmatrix lrx hradius sub uly vradius add translate
  hradius vradius scale 0 0 1 270 360 arc tMatrix setmatrix
  lrx hradius sub lry vradius sub translate hradius vradius scale
  0 0 1 0 90 arc tMatrix setmatrix ulx hradius add lry vradius sub
  translate hradius vradius scale 0 0 1 90 180 arc tMatrix setmatrix
  closepath} bdef
/FRR {MRR stroke } bdef
/PRR {MRR fill } bdef
/MlrRR {/lry xdef /lrx xdef /uly xdef /ulx xdef /rad lry uly sub 2 div def
  newpath tMatrix currentmatrix pop ulx rad add uly rad add translate
  rad rad scale 0 0 1 90 270 arc tMatrix setmatrix lrx rad sub lry rad
  sub translate rad rad scale 0 0 1 270 90 arc tMatrix setmatrix
  closepath} bdef
/FlrRR {MlrRR stroke } bdef
/PlrRR {MlrRR fill } bdef
/MtbRR {/lry xdef /lrx xdef /uly xdef /ulx xdef /rad lrx ulx sub 2 div def
  newpath tMatrix currentmatrix pop ulx rad add uly rad add translate
  rad rad scale 0 0 1 180 360 arc tMatrix setmatrix lrx rad sub lry rad
  sub translate rad rad scale 0 0 1 0 180 arc tMatrix setmatrix
  closepath} bdef
/FtbRR {MtbRR stroke } bdef
/PtbRR {MtbRR fill } bdef
/stri 6 array def /dtri 6 array def
/smat 6 array def /dmat 6 array def
/tmat1 6 array def /tmat2 6 array def /dif 3 array def
/asub {/ind2 exch def /ind1 exch def dup dup
  ind1 get exch ind2 get sub exch } bdef
/tri_to_matrix {
  2 0 asub 3 1 asub 4 0 asub 5 1 asub
  dup 0 get exch 1 get 7 -1 roll astore } bdef
/compute_transform {
  dmat dtri tri_to_matrix tmat1 invertmatrix 
  smat stri tri_to_matrix tmat2 concatmatrix } bdef
/ds {stri astore pop} bdef
/dt {dtri astore pop} bdef
/db {2 copy /cols xdef /rows xdef mul dup 3 mul string
  currentfile 
  3 index 0 eq {/ASCIIHexDecode filter}
  {/ASCII85Decode filter 3 index 2 eq {/RunLengthDecode filter} if }
  ifelse exch readstring pop
  dup 0 3 index getinterval /rbmap xdef
  dup 2 index dup getinterval /gbmap xdef
  1 index dup 2 mul exch getinterval /bbmap xdef pop pop}bdef
/it {gs np dtri aload pop moveto lineto lineto cp c
  cols rows 8 compute_transform 
  rbmap gbmap bbmap true 3 colorimage gr}bdef
/il {newpath moveto lineto stroke}bdef
currentdict end def
%%EndProlog

%%BeginSetup
MathWorks begin

0 cap

end
%%EndSetup

%%Page: 1 1
%%BeginPageSetup
%%PageBoundingBox:     2    29   527   257
MathWorks begin
bpage
%%EndPageSetup

%%BeginObject: obj1
bplot

/dpi2point 12 def
portraitMode 0000 3408 csm

   26   313  6300  2741 rc
23 dict begin %Colortable dictionary
/c0 { 0.000000 0.000000 0.000000 sr} bdef
/c1 { 1.000000 1.000000 1.000000 sr} bdef
/c2 { 0.900000 0.000000 0.000000 sr} bdef
/c3 { 0.000000 0.820000 0.000000 sr} bdef
/c4 { 0.000000 0.000000 0.800000 sr} bdef
/c5 { 0.910000 0.820000 0.320000 sr} bdef
/c6 { 1.000000 0.260000 0.820000 sr} bdef
/c7 { 0.000000 0.820000 0.820000 sr} bdef
c0
1 j
6 w
gs 68 455 5449 2431 rc
1 sg
0 2430 0 0 -5448 0 0 0 0 -2430 0 0 5448 0 68 2885 
8 MP
PP
gr

1 sg
33 w
0 sg
0 2430 -5448 0 0 -2430 5448 0 68 2885 5 MP stroke
gs 68 455 5449 2431 rc
/c8 { 0.847059 0.701961 0.396078 sr} bdef
c8
28 25 0 0 29 0 28 0 29 0 29 24 0 0 28 25 
0 0 29 26 0 0 28 0 29 0 0 0 28 -26 29 0 
0 0 0 -25 0 -24 28 -25 0 0 29 -24 0 0 0 -23 
28 -24 0 0 0 -23 0 0 0 0 -28 23 0 0 -29 24 
-28 0 -29 0 -28 0 -29 0 -28 0 -29 0 -28 0 -29 -24 
0 0 -29 -23 0 0 -28 0 -29 0 0 0 0 23 0 24 
-28 23 0 0 0 24 0 0 3205 1170 53 MP
PP
0 0 0 0 -29 -33 0 0 -28 0 -29 0 -28 0 -29 0 
-28 0 -29 -32 0 0 0 0 -28 32 0 0 -29 33 -28 0 
-29 0 -28 0 -29 0 0 0 -28 33 0 0 0 0 28 35 
0 0 29 35 0 0 28 37 0 0 29 0 28 0 29 0 
28 37 0 0 29 0 28 0 0 0 0 0 -28 0 -29 -37 
0 0 -28 0 -29 0 -28 0 -29 -37 29 -35 28 0 29 0 
0 0 0 0 -29 0 -28 0 -29 -35 29 -33 28 0 29 0 
28 0 29 33 0 0 28 0 29 0 28 0 0 0 0 -33 
29 -33 28 33 0 0 29 0 809 694 69 MP
PP
1 sg
-28 -24 0 -25 28 -24 0 0 29 -23 28 23 0 0 0 0 
29 -23 28 23 0 0 29 24 -29 25 0 0 -28 24 0 0 
-29 25 -28 -25 0 0 -29 0 3034 1121 21 MP
PP
c8
0 0 0 -26 0 -26 0 0 -29 0 -28 0 -29 0 -28 0 
-29 0 -28 0 -29 0 -28 0 0 0 0 26 -29 26 -28 0 
-29 0 -28 0 -29 -26 0 0 0 0 0 26 0 0 29 0 
28 0 29 0 28 0 29 0 0 0 0 -26 28 -26 29 26 
0 0 28 26 0 0 0 0 29 -26 28 26 -28 26 0 0 
0 0 28 0 29 0 0 0 28 -26 29 0 866 1044 47 MP
PP
0 0 0 -20 0 -19 0 0 -29 0 -28 -20 0 0 -29 -19 
0 0 -28 -20 0 0 -29 -19 0 -19 0 0 0 0 -28 19 
0 0 0 19 0 20 0 19 0 20 0 0 28 0 29 19 
0 0 28 0 29 0 28 20 0 0 29 0 1351 1663 31 MP
PP
0 0 0 -35 0 0 0 0 -28 35 -29 0 -28 -35 0 0 
-29 -35 0 -33 0 0 -28 0 0 0 -29 33 -28 0 0 0 
0 35 0 0 28 0 29 35 0 0 28 0 29 0 28 0 
29 0 28 0 1437 591 27 MP
PP
0 0 0 0 -28 -30 0 -29 0 0 -29 -29 0 -28 0 0 
-28 -27 0 0 0 0 -29 27 0 0 0 28 0 29 0 0 
29 0 28 29 -28 30 0 0 0 0 28 0 29 31 0 0 
0 0 28 -31 781 821 27 MP
PP
29 21 0 0 28 22 0 0 0 0 0 -22 0 0 -28 -21 
28 -22 29 22 0 0 0 0 29 -22 28 0 29 0 0 0 
28 -21 29 0 28 0 29 0 0 0 28 -20 0 0 0 0 
-28 0 0 0 -29 20 -28 -20 0 -21 0 0 0 0 -29 21 
0 0 -28 20 -29 -20 0 0 0 0 -28 20 -29 0 -29 0 
-28 0 0 0 0 21 -29 22 0 0 0 0 4375 1418 47 MP
PP
29 27 0 0 0 0 28 -27 29 0 28 0 29 0 28 0 
0 0 0 -28 0 -26 0 -26 29 -26 0 0 28 -26 0 0 
0 0 -28 0 -29 0 0 0 -28 26 -29 0 0 0 0 0 
29 26 0 26 0 26 -29 28 -28 -28 0 0 0 0 -29 28 
-28 -28 0 0 0 0 -29 28 0 0 0 0 3405 964 39 MP
PP
0 0 0 0 -29 -22 0 -22 0 0 0 0 -28 22 0 0 
0 22 -29 22 0 0 -28 23 0 0 0 0 28 22 -28 23 
0 0 -29 24 0 0 0 0 29 23 -29 24 0 0 0 0 
29 0 0 0 0 -24 0 -23 28 -24 0 0 29 -23 0 0 
28 -22 0 0 0 -23 29 -22 1465 1331 37 MP
PP
0 0 0 -19 0 0 -29 -19 0 0 -28 0 -29 0 0 0 
-29 19 -28 -19 0 0 -29 0 -28 0 -29 0 0 0 0 19 
0 0 29 0 28 19 0 0 29 0 28 0 29 0 29 0 
28 0 29 0 1807 1952 27 MP
PP
28 0 29 0 28 0 29 29 -29 30 0 0 0 0 29 0 
0 0 28 -30 29 0 28 0 0 0 29 -29 28 0 0 0 
0 -29 29 -28 0 0 0 0 -29 0 0 0 -28 28 -29 0 
0 0 -28 29 -29 0 -28 0 -29 0 -28 0 -29 0 -28 0 
0 0 0 0 4631 880 35 MP
PP
1 sg
-29 -25 29 -24 0 0 28 -23 29 0 29 23 0 24 -29 25 
-29 -25 0 0 0 0 -28 25 3148 1145 13 MP
PP
c8
0 0 0 0 -28 -22 28 -21 0 0 0 0 -28 0 -29 0 
-28 -20 0 0 0 0 -29 20 0 0 0 21 0 0 29 0 
28 22 0 0 29 21 0 0 0 0 28 -21 1437 1418 23 MP
PP
29 0 28 22 0 0 29 21 0 22 0 22 0 0 0 0 
0 -22 28 -22 0 0 0 0 -28 -21 28 -22 0 0 0 -21 
0 0 -28 0 -29 0 0 0 -28 21 -29 0 0 0 0 0 
4660 1440 25 MP
PP
0 0 0 -26 0 0 -29 -26 0 0 0 0 -28 26 -29 -26 
0 0 -28 0 0 0 0 26 0 26 0 26 0 0 0 0 
0 -26 28 -26 29 0 28 26 0 0 29 0 2663 1018 23 MP
PP
0 0 0 0 -29 -25 0 0 -28 -24 0 0 -29 -23 0 -24 
0 0 -28 -23 0 0 0 0 0 23 0 0 28 24 -28 23 
0 0 0 0 28 0 29 24 0 0 28 25 0 0 29 0 
1351 1145 25 MP
PP
0 0 0 -33 0 -33 0 0 0 0 -28 33 -29 0 0 0 
0 0 29 33 0 35 0 0 0 0 28 -35 1323 661 15 MP
PP
29 27 0 0 0 0 28 -27 29 0 28 0 29 27 0 0 
0 0 28 -27 0 0 0 0 -28 0 -29 0 -28 0 -29 0 
-28 -28 0 0 0 0 -29 28 0 0 0 0 3947 964 23 MP
PP
0 0 29 -29 0 0 28 -29 0 0 0 -28 0 -27 0 0 
0 0 0 27 -28 28 0 0 -29 29 0 0 0 29 0 0 
3234 851 17 MP
PP
29 0 28 0 29 0 0 0 28 -26 0 0 0 0 -28 0 
-29 0 0 0 -28 26 -29 0 0 0 0 0 4175 992 15 MP
PP
29 23 0 0 0 0 28 -23 0 0 29 -24 28 0 0 0 
0 0 -28 0 -29 0 0 0 -28 24 -29 0 0 0 0 0 
4717 1217 17 MP
PP
28 22 0 22 0 0 29 22 0 0 28 0 29 0 0 0 
0 0 -29 0 -28 -22 0 0 -29 -22 0 -22 0 0 -28 0 
0 0 0 0 4745 1375 19 MP
PP
0 0 0 0 -29 0 -28 -26 0 0 0 0 0 26 0 0 
28 26 0 0 0 0 29 -26 1893 1044 13 MP
PP
0 0 0 0 -28 0 0 0 0 26 0 26 -29 28 0 0 
0 0 29 0 0 0 0 -28 0 -26 28 -26 1608 1044 15 MP
PP
28 0 29 0 29 0 0 0 0 0 -29 -26 0 0 0 0 
-29 26 -28 0 0 0 0 0 3747 992 13 MP
PP
29 0 0 0 28 -23 29 0 0 0 0 0 -29 0 -28 0 
0 0 -29 23 0 0 0 0 3519 1286 13 MP
PP
0 0 28 -20 0 0 0 0 -28 -20 0 0 0 0 0 20 
0 20 0 0 3490 2280 11 MP
PP
29 19 0 0 28 0 0 0 0 0 -28 -19 0 0 -29 0 
0 0 0 0 4489 1663 11 MP
PP
0 0 0 -20 28 -19 0 0 0 -20 0 0 0 0 -28 20 
0 0 0 19 0 20 0 0 3433 2162 13 MP
PP
0 0 0 0 -29 -37 0 0 0 0 0 37 0 0 29 0 
1351 554 9 MP
PP
0 0 28 -33 0 0 0 0 -28 0 0 0 0 33 0 0 
3747 661 9 MP
PP
29 30 0 0 0 0 0 -30 0 0 -29 0 0 0 0 0 
4717 851 9 MP
PP
/c9 { 0.352941 0.705882 0.674510 sr} bdef
c9
29 30 0 0 0 0 0 -30 0 0 -29 0 0 0 0 0 
4717 851 9 MP
PP
c8
28 0 0 0 0 -29 0 0 0 0 -28 29 0 0 0 0 
3148 880 9 MP
PP
0 0 0 0 -28 0 0 0 0 28 0 0 0 0 28 -28 
724 937 9 MP
PP
1 sg
-28 0 0 0 0 -27 0 -28 0 0 0 0 0 28 28 27 
0 0 0 0 353 937 11 MP
PP
c8
29 0 0 0 0 -28 0 0 0 0 -29 28 0 0 0 0 
3576 964 9 MP
PP
29 0 0 0 0 -22 0 0 0 0 -29 22 0 0 0 0 
3947 1331 9 MP
PP
29 0 0 0 0 -21 0 0 0 0 -29 21 0 0 0 0 
4489 1397 9 MP
PP
0 0 0 -21 0 0 -29 0 -28 0 0 0 0 0 28 0 
29 21 0 0 1893 2422 11 MP
PP
c9
15 0 14 -14 0 -14 0 0 0 0 -29 28 0 0 0 0 
3405 964 9 MP
PP
c8
0 0 28 -19 0 0 0 0 -28 0 0 0 0 19 0 0 
4802 2143 9 MP
PP
29 0 0 0 0 0 -29 0 0 0 0 0 5145 727 7 MP
PP
0 0 0 -19 0 0 0 0 0 19 0 0 3091 2085 7 MP
PP
0 0 0 -19 0 0 0 0 0 19 0 0 3034 2085 7 MP
PP
c9
29 0 0 0 0 0 -29 0 0 0 0 0 5145 727 7 MP
PP
c8
28 0 0 0 0 0 -28 0 0 0 0 0 3975 1418 7 MP
PP
c9
0 0 0 -19 0 0 0 0 0 19 0 0 3091 2085 7 MP
PP
0 0 0 -19 0 0 0 0 0 19 0 0 3034 2085 7 MP
PP
0 0 0 0 -14 0 14 0 3947 1418 5 MP
PP
c8
0 0 0 0 0 0 0 0 666 661 5 MP
PP
0 0 0 0 0 0 0 0 695 727 5 MP
PP
0 0 0 0 0 0 0 0 4802 851 5 MP
PP
0 0 0 0 0 0 0 0 4831 880 5 MP
PP
0 0 0 0 0 0 0 0 3062 2066 5 MP
PP
0 0 0 0 0 0 0 0 5116 2009 5 MP
PP
0 0 0 0 0 0 0 0 3319 1952 5 MP
PP
c9
0 0 0 0 0 0 0 0 666 661 5 MP
PP
0 0 0 0 0 0 0 0 695 727 5 MP
PP
0 0 0 0 0 0 0 0 4802 851 5 MP
PP
0 0 0 0 0 0 0 0 4831 880 5 MP
PP
0 0 0 0 0 0 0 0 3062 2066 5 MP
PP
0 0 0 0 0 0 0 0 5116 2009 5 MP
PP
0 0 0 0 0 0 0 0 3319 1952 5 MP
PP
c8
29 0 29 0 28 0 29 0 0 0 0 0 -29 0 -28 0 
-29 0 -29 0 0 0 0 0 3120 2182 13 MP
PP
1 sg
29 0 0 0 0 0 -29 0 0 0 0 0 5516 851 7 MP
PP
0 0 0 -23 0 0 0 0 0 23 0 0 5430 2617 7 MP
PP
0 0 0 0 0 0 0 0 5401 2663 5 MP
PP
0 0 0 0 0 0 0 0 267 1018 5 MP
PP
0 0 0 0 0 0 0 0 5287 964 5 MP
PP
0 0 0 0 0 0 0 0 5259 694 5 MP
PP
0 0 0 0 0 0 0 0 5259 1018 5 MP
PP
0 0 0 0 0 0 0 0 5202 661 5 MP
PP
0 0 0 0 0 0 0 0 467 937 5 MP
PP
0 0 0 0 0 0 0 0 5116 2485 5 MP
PP
0 0 0 0 0 0 0 0 5088 2104 5 MP
PP
0 0 0 0 0 0 0 0 5088 2507 5 MP
PP
0 0 0 0 0 0 0 0 5059 626 5 MP
PP
0 0 0 0 0 0 0 0 5059 2124 5 MP
PP
0 0 0 0 0 0 0 0 552 909 5 MP
PP
0 0 0 0 0 0 0 0 5031 661 5 MP
PP
0 0 0 0 0 0 0 0 5002 2124 5 MP
PP
0 0 0 0 0 0 0 0 609 909 5 MP
PP
0 0 0 -26 0 -25 0 0 0 0 0 25 0 26 0 0 
4974 1070 9 MP
PP
29 0 0 0 0 0 -29 0 0 0 0 0 4974 2143 7 MP
PP
0 0 0 0 0 0 0 0 4945 591 5 MP
PP
0 0 0 0 0 0 0 0 4945 1286 5 MP
PP
0 0 0 0 0 0 0 0 4945 2085 5 MP
PP
0 0 0 0 0 0 0 0 4917 1331 5 MP
PP
0 0 0 0 0 0 0 0 4831 1440 5 MP
PP
0 0 0 0 0 0 0 0 4802 1418 5 MP
PP
0 0 0 0 0 0 0 0 809 964 5 MP
PP
0 0 0 0 0 0 0 0 4774 1353 5 MP
PP
0 0 0 0 0 0 0 0 4774 1397 5 MP
PP
0 0 0 0 0 0 0 0 838 992 5 MP
PP
28 0 0 0 0 0 -28 0 0 0 0 0 4688 626 7 MP
PP
0 0 0 0 0 0 0 0 923 964 5 MP
PP
0 0 0 0 0 0 0 0 4603 1121 5 MP
PP
0 0 0 0 0 0 0 0 4603 1331 5 MP
PP
0 0 0 0 0 0 0 0 4574 1096 5 MP
PP
0 0 0 0 0 0 0 0 4574 1264 5 MP
PP
0 0 0 0 0 0 0 0 4517 1353 5 MP
PP
0 0 0 -19 0 0 0 0 0 19 0 0 4460 1761 7 MP
PP
0 0 0 0 0 0 0 0 1151 1217 5 MP
PP
0 0 0 0 0 0 0 0 4432 1096 5 MP
PP
0 0 0 0 0 0 0 0 4432 1702 5 MP
PP
0 0 0 0 0 0 0 0 1180 1331 5 MP
PP
0 0 0 0 0 0 0 0 1180 1604 5 MP
PP
0 0 0 0 0 0 0 0 4375 1375 5 MP
PP
0 0 0 0 0 0 0 0 1237 694 5 MP
PP
0 0 0 0 0 0 0 0 4346 1145 5 MP
PP
0 0 0 0 0 0 0 0 1265 1018 5 MP
PP
0 0 0 0 0 0 0 0 1265 1604 5 MP
PP
0 0 0 0 0 0 0 0 4318 964 5 MP
PP
0 0 0 0 0 0 0 0 1294 1070 5 MP
PP
0 0 0 0 0 0 0 0 4289 1121 5 MP
PP
0 0 0 0 0 0 0 0 1323 964 5 MP
PP
0 0 0 0 0 0 0 0 1323 1584 5 MP
PP
28 0 0 0 0 0 -28 0 0 0 0 0 4260 1096 7 MP
PP
-29 0 0 0 0 0 29 0 0 0 0 0 1351 1096 7 MP
PP
0 0 0 0 0 0 0 0 4203 1397 5 MP
PP
0 0 0 0 0 0 0 0 4203 1502 5 MP
PP
0 0 0 0 0 0 0 0 1408 1375 5 MP
PP
0 0 0 0 0 0 0 0 1437 992 5 MP
PP
0 0 0 0 0 0 0 0 1437 1309 5 MP
PP
0 0 0 0 0 0 0 0 1437 1353 5 MP
PP
0 0 0 0 0 0 0 0 4146 1564 5 MP
PP
0 0 0 0 0 0 0 0 1465 1044 5 MP
PP
0 0 0 0 0 0 0 0 4118 1070 5 MP
PP
0 0 0 0 0 0 0 0 4118 1121 5 MP
PP
0 0 0 0 0 0 0 0 1494 1170 5 MP
PP
-29 0 0 0 0 0 29 0 0 0 0 0 1522 759 7 MP
PP
0 0 0 0 0 0 0 0 1522 1121 5 MP
PP
0 0 0 -22 0 0 0 0 0 22 0 0 4061 1418 7 MP
PP
0 0 0 0 0 0 0 0 1551 1145 5 MP
PP
28 0 0 0 0 0 -28 0 0 0 0 0 4032 909 7 MP
PP
28 0 29 0 0 0 0 0 -29 0 -28 0 0 0 0 0 
4032 992 9 MP
PP
0 0 0 0 0 0 0 0 4032 1461 5 MP
PP
0 0 0 0 0 0 0 0 1579 1418 5 MP
PP
-28 0 0 0 0 0 28 0 0 0 0 0 1608 1397 7 MP
PP
0 0 0 0 0 0 0 0 3975 1375 5 MP
PP
0 0 0 -24 0 0 0 0 0 24 0 0 1636 1121 7 MP
PP
0 0 0 0 0 0 0 0 1636 1353 5 MP
PP
0 0 0 0 0 0 0 0 3947 1741 5 MP
PP
0 0 0 0 0 0 0 0 1665 694 5 MP
PP
0 0 0 0 0 0 0 0 1665 790 5 MP
PP
0 0 0 0 0 0 0 0 1665 1070 5 MP
PP
-28 0 0 0 0 0 28 0 0 0 0 0 1665 1309 7 MP
PP
0 0 0 0 0 0 0 0 1665 2162 5 MP
PP
0 0 0 0 0 0 0 0 1693 1121 5 MP
PP
0 0 0 0 0 0 0 0 1693 2182 5 MP
PP
0 0 0 -23 0 0 0 0 0 23 0 0 1693 2572 7 MP
PP
0 0 0 0 0 0 0 0 3890 880 5 MP
PP
0 0 0 0 0 0 0 0 1722 1241 5 MP
PP
-28 0 -29 0 0 0 0 0 29 0 28 0 0 0 0 0 
1722 1799 9 MP
PP
0 0 0 0 0 0 0 0 1722 1952 5 MP
PP
0 0 0 -23 0 -23 0 0 0 0 0 23 0 23 0 0 
1722 2640 9 MP
PP
0 0 0 -24 0 0 0 0 0 24 0 0 1722 2734 7 MP
PP
-29 0 0 0 0 0 29 0 0 0 0 0 1750 1096 7 MP
PP
0 0 0 0 0 0 0 0 1750 1145 5 MP
PP
0 0 0 -25 0 0 0 0 0 25 0 0 1750 2783 7 MP
PP
0 0 0 0 0 0 0 0 1779 694 5 MP
PP
0 0 0 0 0 0 0 0 1779 2300 5 MP
PP
0 0 0 0 0 0 0 0 1807 1818 5 MP
PP
-28 0 -29 0 0 0 0 0 29 0 28 0 0 0 0 0 
1836 1096 9 MP
PP
0 0 0 0 0 0 0 0 3747 880 5 MP
PP
0 0 0 0 0 0 0 0 1864 1838 5 MP
PP
0 0 0 0 0 0 0 0 1864 2300 5 MP
PP
0 0 0 0 0 0 0 0 1864 2464 5 MP
PP
0 0 0 0 0 0 0 0 1893 1818 5 MP
PP
0 0 0 0 0 0 0 0 1893 2280 5 MP
PP
0 0 0 0 0 0 0 0 1893 2381 5 MP
PP
0 0 0 0 0 0 0 0 1893 2528 5 MP
PP
0 0 0 0 0 0 0 0 3633 821 5 MP
PP
0 0 0 0 0 0 0 0 1979 2464 5 MP
PP
0 0 0 0 0 0 0 0 3604 851 5 MP
PP
0 0 0 0 0 0 0 0 2007 2260 5 MP
PP
0 0 0 0 0 0 0 0 3576 2162 5 MP
PP
28 0 29 0 0 0 0 0 -29 0 -28 0 0 0 0 0 
3547 727 9 MP
PP
0 0 0 0 0 0 0 0 3547 1264 5 MP
PP
0 0 0 -20 0 0 0 0 0 20 0 0 3547 2260 7 MP
PP
0 0 0 0 0 0 0 0 3490 1933 5 MP
PP
0 0 0 0 0 0 0 0 3462 964 5 MP
PP
0 0 0 0 0 0 0 0 3462 1241 5 MP
PP
0 0 0 -19 0 0 0 0 0 19 0 0 2150 2009 7 MP
PP
0 0 0 0 0 0 0 0 3433 937 5 MP
PP
0 0 0 0 0 0 0 0 2178 1990 5 MP
PP
0 0 0 0 0 0 0 0 2178 2066 5 MP
PP
0 0 0 0 0 0 0 0 2178 2162 5 MP
PP
0 0 0 0 0 0 0 0 3405 1241 5 MP
PP
0 0 0 -19 0 0 0 0 0 19 0 0 3376 2028 7 MP
PP
0 0 0 0 0 0 0 0 3319 1761 5 MP
PP
0 0 0 0 0 0 0 0 3319 1914 5 MP
PP
28 0 0 0 0 0 -28 0 0 0 0 0 3319 2260 7 MP
PP
0 0 0 0 0 0 0 0 3291 790 5 MP
PP
0 0 0 -20 0 0 0 0 0 20 0 0 3291 2201 7 MP
PP
0 0 0 0 0 0 0 0 3262 1780 5 MP
PP
0 0 0 0 0 0 0 0 3234 1264 5 MP
PP
29 0 0 0 0 0 -29 0 0 0 0 0 3234 1799 7 MP
PP
0 0 0 0 0 0 0 0 3234 2221 5 MP
PP
0 0 0 -30 0 0 0 0 0 30 0 0 3177 821 7 MP
PP
0 0 0 0 0 0 0 0 3148 661 5 MP
PP
0 0 0 0 0 0 0 0 3148 727 5 MP
PP
0 0 0 -26 0 0 0 0 0 26 0 0 3148 992 7 MP
PP
0 0 0 0 0 0 0 0 3120 790 5 MP
PP
0 0 0 0 0 0 0 0 3091 694 5 MP
PP
0 0 0 0 0 0 0 0 3091 821 5 MP
PP
0 0 0 0 0 0 0 0 3091 2143 5 MP
PP
-28 0 0 0 0 0 28 0 0 0 0 0 2521 821 7 MP
PP
28 0 0 0 0 0 -28 0 0 0 0 0 3062 478 7 MP
PP
0 0 0 0 0 0 0 0 3062 727 5 MP
PP
0 0 0 0 0 0 0 0 3062 851 5 MP
PP
0 0 0 0 0 0 0 0 3062 2240 5 MP
PP
0 0 0 0 0 0 0 0 3034 821 5 MP
PP
0 0 0 0 0 0 0 0 3034 909 5 MP
PP
0 0 0 0 0 0 0 0 3034 2221 5 MP
PP
0 0 0 0 0 0 0 0 2578 790 5 MP
PP
0 0 0 0 0 0 0 0 3005 937 5 MP
PP
28 0 0 0 0 0 -28 0 0 0 0 0 3005 1799 7 MP
PP
0 0 0 0 0 0 0 0 3005 2143 5 MP
PP
0 0 0 0 0 0 0 0 2606 1799 5 MP
PP
-28 0 -29 0 0 0 0 0 29 0 28 0 0 0 0 0 
2635 1780 9 MP
PP
0 0 0 0 0 0 0 0 2948 909 5 MP
PP
0 0 0 0 0 0 0 0 2749 1264 5 MP
PP
0 0 0 0 0 0 0 0 2806 1096 5 MP
PP
0 0 0 0 0 0 0 0 2806 1780 5 MP
PP
9 w
0 sg
10 0 0 11 -10 -1 5516 797 4 MP stroke
0 -15 30 0 -6 -11 42 -5 -5 10 34 -8 23 0 16 -10 
24 -5 29 -8 18 -10 14 -10 1 -10 -7 -12 26 -3 23 -5 
27 -2 25 -3 -7 -17 0 -14 -21 -5 -10 -12 19 -4 15 11 
17 7 15 0 11 7 12 -7 -20 -9 8 -5 13 7 13 -4 
-8 -12 -21 -7 -8 -7 24 5 24 4 0 14 -6 12 4 14 
15 10 5 -5 -14 -7 -1 -10 7 -9 14 -5 9 -14 -10 -9 
-8 -12 8 -11 3 -14 -4 -15 -24 -3 14 -6 1 -13 -5 -16 
13 -10 7 -11 15 -9 14 -6 17 11 -20 8 -11 9 -10 10 
0 11 -6 11 15 11 0 14 -1 16 0 27 13 12 -9 12 
-7 11 0 10 23 7 -5 8 8 9 16 -5 9 -12 9 -12 
2 -14 8 -12 19 -9 3 -12 -8 -11 6 -12 0 -9 -14 -4 
-7 -14 -12 -6 8 -13 13 6 10 9 16 4 14 7 15 2 
17 9 19 3 24 9 16 11 8 -9 -9 -7 -15 -7 -5 -9 
-9 -9 9 -6 10 -2 0 -9 11 2 0 15 14 -4 14 -9 
17 2 15 -2 5 -9 13 9 1 13 14 -6 14 -7 16 -4 
13 -7 17 -6 13 -5 0 -15 13 -6 15 0 8 8 14 5 
-9 10 -18 3 7 11 8 6 18 0 19 5 -14 -11 0 -16 
5 -13 -10 -4 0 -13 9 -8 12 4 15 2 10 -8 15 -7 
13 -8 -8 -10 -7 -13 17 3 13 4 14 6 13 2 6 -8 
-11 -10 -12 0 0 -13 19 0 15 10 17 6 0 36 15 10 
13 7 9 12 -14 -8 -18 -4 -15 -7 -14 -2 -15 -2 -17 -4 
-18 2 -16 6 -10 9 0 13 5 10 14 9 15 7 15 8 
15 9 18 7 20 4 22 3 0 9 15 4 13 -4 19 2 
19 9 -19 -2 -18 9 15 7 17 7 20 4 14 -16 4 12 
15 -10 -1 17 13 -5 8 -9 14 7 16 -7 12 -12 20 -4 
19 0 13 -14 17 -4 0 -9 -9 -3 14 -8 1 8 10 -6 
-4 13 13 -9 14 -6 -9 -7 20 -4 12 -11 -17 8 -15 3 
-18 2 18 -13 5 -11 13 -11 7 -11 5 -10 7 -11 6 -12 
13 -8 10 -15 9 -10 9 -10 9 6 6 -10 8 -8 15 -2 
10 -10 10 -7 11 -8 -5 -8 7 -8 -3 -9 -1 -10 -8 -9 
5 -8 -2 -8 -12 2 8 -7 1 -10 -6 -5 -13 -6 -12 -1 
-13 5 -8 7 -11 10 -8 0 -5 7 -7 -5 -4 -13 -5 -11 
-5 -13 -5 -11 -9 -9 3 -7 -5 -9 0 -7 -10 0 -9 0 
2 7 -8 9 -10 0 -9 0 -6 12 -3 13 -2 9 0 11 
-3 7 -11 8 -12 6 5 3 -8 6 -4 6 4 7 10 8 
10 7 1 10 -2 12 -2 11 -5 6 -10 12 -11 8 -10 6 
-13 6 -5 8 -10 8 10 7 -8 8 1 6 -8 4 -7 8 
-11 -2 -10 0 -10 2 3178 770 300 MP stroke
-13 -8 0 -12 10 -4 9 -13 13 -10 12 -12 13 -10 6 -12 
-1 -11 -6 -12 5 -12 0 -7 -12 -6 -7 -6 -14 -4 -14 2 
-14 4 -14 4 -14 4 -18 0 -11 -10 -10 2 -7 -9 15 3 
13 -7 7 -6 16 0 14 4 14 -2 13 -2 10 -5 0 -10 
-4 -9 -9 -2 0 -22 8 -5 9 1 5 8 7 5 12 -2 
5 -11 5 -7 0 -12 -1 -11 5 -11 11 -5 4 -9 7 -3 
9 0 5 10 13 -1 13 -4 10 -7 12 -2 13 -5 8 2 
9 3 -7 4 5 7 7 -5 10 -2 6 -4 8 -5 9 0 
-3 7 14 5 0 6 9 5 -5 10 -6 11 -11 4 0 7 
9 0 0 7 -3 9 0 7 10 -1 6 -8 11 -2 7 -5 
2 -7 0 -11 -1 -9 -8 -5 0 -11 -5 -7 5 -3 -5 -6 
7 -5 1 -7 8 4 10 0 5 -5 14 0 9 -4 0 -8 
-7 -2 0 -5 7 -5 6 3 0 10 5 -1 3 -9 3 -7 
5 -6 7 -7 9 -4 10 -5 9 -3 2 -7 1 -8 7 -3 
7 -2 7 -3 2 -8 9 1 8 -1 3 8 9 0 -5 -10 
-2 -12 9 0 10 -1 5 6 10 -1 8 -4 8 -1 -1 -10 
-6 -3 -8 0 -9 -5 -10 -2 -2 -3 -7 -6 2 -5 -4 -5 
-8 -5 -4 -7 2 -11 1 -11 1 -8 3 -11 4 -5 7 -1 
9 1 13 2 12 -3 11 3 11 1 11 -1 11 0 11 4 
5 -7 9 -2 4 -4 -7 -11 2 -8 -2 -6 -2 -9 1 -7 
3 -9 1 -11 5 -6 1 -9 -4 -6 -6 0 1 -9 0 -8 
3 -8 -9 2 -8 -2 -6 3 -6 0 -8 -4 -2 -4 -5 -9 
-8 -3 -8 7 -7 3 -9 2 -9 0 -9 0 -9 0 -5 7 
-8 9 -7 0 -3 7 -5 6 -9 6 8 6 1 7 -5 8 
-7 9 -8 10 -8 3 -8 3 -9 6 -8 5 1 10 2 10 
-9 4 -7 5 -8 -3 -11 -2 -8 -4 -9 1 -7 6 -9 5 
-8 3 -4 6 -7 3 -7 -1 -5 -3 -9 -2 -1 -9 -4 -8 
-8 -7 -1 -7 -8 0 -7 -7 -7 -8 -7 -4 -10 0 -7 -6 
-6 -5 -5 -2 -4 -7 -10 -3 -1 -6 -4 -7 -1 -8 3 -4 
3 -8 0 -4 -5 0 -3 4 -5 5 0 7 -7 3 0 8 
7 4 -2 9 -4 6 -6 -3 -8 -1 -1 -6 -5 -2 -3 6 
8 7 7 5 8 5 9 4 7 3 -3 6 12 0 9 5 
8 4 3 5 2 8 4 7 7 5 6 5 7 6 1 6 
-2 6 3 5 -1 6 -6 0 -8 5 -7 -2 2 -4 -1 -7 
-4 -4 -5 3 -1 6 -10 -6 -2 -8 -4 -5 0 -6 -8 -5 
-4 -4 -9 -2 -11 -7 -9 -8 -9 -5 -8 -6 -7 -4 1 -8 
1 -10 0 -9 -6 -5 -5 -7 -4 -6 -5 -9 -6 -8 -12 -1 
-11 1 -5 -6 -9 -1 3163 1346 300 MP stroke
-8 -6 0 10 -9 -3 7 3 1 6 6 3 5 5 3 6 
5 6 5 7 -1 10 -8 -7 -7 0 -3 5 4 4 -8 0 
-4 5 -7 -2 -7 2 -8 -2 -6 -6 -7 1 6 -5 0 -5 
-6 6 -8 6 -5 5 -11 1 -10 0 -9 -6 7 -2 -1 -4 
9 0 10 0 9 0 9 0 6 -6 3 -10 -13 1 3 -4 
-2 -11 -2 -4 4 -2 5 5 1 -6 -8 -3 -6 -3 1 -6 
-6 -4 5 -6 -8 0 -7 0 2 -4 -9 0 -10 -8 -7 -3 
-12 5 -2 7 -9 -1 -12 -5 -3 -6 -8 -3 -6 3 -7 0 
-7 6 -7 6 -10 -4 -5 0 -7 6 -2 -5 5 -6 -2 -6 
2 -5 0 -12 -1 -8 5 -8 4 -10 4 -8 2 -9 3 -8 
5 -8 5 -6 11 -1 9 -2 5 4 3 -5 6 3 -1 5 
10 2 9 -2 9 -4 7 -4 8 -2 9 5 9 0 7 2 
7 3 9 2 9 1 8 -1 4 7 9 0 9 2 9 2 
1 7 9 3 10 1 9 -1 9 -3 9 -7 4 -6 -3 -5 
-1 -7 2 -7 5 -4 7 -3 7 1 8 6 10 5 13 3 
9 1 7 5 4 4 0 8 9 3 9 4 9 2 11 1 
10 0 8 3 9 4 2 7 7 -1 6 3 1 7 -5 4 
-6 6 -4 7 1 7 5 3 3 10 -5 3 -4 8 10 -5 
4 9 8 1 7 -1 6 -4 8 -2 11 3 7 -3 11 3 
7 -4 7 -2 5 3 9 2 9 0 6 -2 8 0 7 -3 
11 -1 11 -2 8 -4 7 -6 8 -1 7 -2 4 -6 10 -4 
8 -1 9 4 6 -2 10 0 7 -1 10 6 4 6 7 -2 
4 -9 3 -7 3 -7 4 -7 9 -6 9 -3 8 -4 5 -7 
6 -6 0 -5 4 -7 5 -4 0 -14 -4 -6 4 -10 5 -7 
6 -6 9 -5 5 -6 10 -5 12 -1 5 -7 2 -8 4 -5 
8 -4 4 -5 2 -8 3 -6 3 -10 7 -7 5 -6 4 -7 
3 -11 4 -6 5 -4 2 -8 1 -8 -7 -6 -6 -6 0 -8 
5 -5 -5 -8 -2 -8 0 -8 1 -8 2 -8 3 -8 0 -10 
5 -6 4 -7 6 -4 -6 -4 -4 -7 -1 -9 1 -8 0 -9 
-6 -4 -7 -4 -6 1 -1 -10 -7 -3 -5 -6 -3 -6 -7 -4 
-6 -7 -5 -6 -1 -8 -2 -6 -2 -6 -8 -8 -7 -4 -8 -4 
-6 -6 -11 -5 -7 -8 -6 -5 -8 -5 -9 -6 -8 -3 -6 -1 
-7 5 -9 1 -7 5 -9 2 -9 1 -6 1 -7 0 -12 -2 
-8 -2 -8 -3 -7 3 -7 3 -7 1 -6 4 -9 5 -10 0 
-4 5 -9 3 -7 1 -8 0 -9 1 -9 0 -7 -2 -8 -7 
-4 -10 -2 -10 -9 -5 -8 0 -7 1 -8 1 -7 0 -7 2 
-6 0 -1 -8 -7 -1 -3 -7 -6 -6 3 -9 1 -9 3 -6 
4 -6 -5 -3 3 -6 2948 1944 300 MP stroke
0 -8 2 -7 7 -5 -4 -8 -2 -8 -5 -6 -5 -8 -8 -5 
-5 -5 -5 -5 -5 -5 -4 -6 -5 -7 -4 -6 0 -6 -2 -4 
-2 -7 -4 -5 -3 -7 -2 -8 -3 -6 -3 -8 6 -8 -2 -4 
-3 -7 -3 -7 -4 -5 -2 -9 2 -9 2 -6 4 -7 6 -3 
5 -7 3 -9 3 -9 2 -8 1 -7 4 -8 0 -8 1 -8 
0 -6 -1 -8 -4 -9 -5 -6 -4 -6 -3 -8 -5 -8 -3 -9 
-5 -7 -3 -7 -6 -6 -2 -7 1 -7 -1 -9 0 -8 -2 -7 
-3 -9 0 -8 -2 -7 -2 -8 -3 -10 -1 -8 -5 -5 -4 -7 
-8 -6 -5 -7 -2 -9 -4 -7 -2 -10 -4 -7 -5 -7 -5 -10 
-2 -9 4 -5 4 0 -6 -10 -3 -7 0 -7 -5 3 -6 -6 
-7 -5 -9 0 -5 4 -8 1 -11 0 -5 4 -9 2 -8 -2 
-7 3 -9 -3 -7 -1 -5 4 -10 0 -4 5 -9 0 -8 1 
-6 6 -9 5 -6 5 -5 5 -7 7 -5 6 -6 6 -7 6 
-3 8 -4 8 -5 7 -4 7 -8 5 -6 4 -2 9 -3 9 
-3 8 0 13 6 2 -6 10 -7 3 -5 2 -10 4 -8 3 
-5 4 -4 8 1 8 -1 7 0 9 3 7 2 10 3 10 
5 5 -1 8 -7 5 -5 4 -5 7 -6 2 -7 8 -5 7 
-5 6 -7 3 -7 2 -10 2 -5 5 -7 7 -5 5 -6 6 
-3 7 -2 7 3 10 0 7 2 9 -1 9 0 7 1 7 
-1 8 0 8 5 5 5 4 3 7 4 10 1 10 0 9 
-4 7 6 8 7 8 -3 7 -2 8 -4 7 -4 7 -5 9 
-5 9 0 8 -6 -1 -7 7 -6 5 -4 7 -5 5 -5 8 
-8 6 -3 7 -7 5 -6 3 -7 7 -6 5 -7 2 -7 5 
-6 5 -5 7 -7 6 -5 5 -6 7 -4 6 -4 8 -5 5 
-6 5 -2 9 -3 6 -4 8 -4 6 -2 8 -4 5 -4 6 
-5 8 0 9 -4 6 -1 9 -1 12 9 2 6 -6 9 -3 
9 -2 7 1 8 -3 9 0 9 -5 7 -1 9 1 8 -4 
7 -2 8 1 5 4 5 6 5 6 5 4 -7 3 2 8 
7 6 6 7 5 6 8 7 6 8 8 2 9 4 3 8 
5 1 4 7 1 7 2 10 4 7 3 7 8 7 8 3 
3 10 2 6 1 9 -1 8 0 6 5 6 0 10 5 2 
6 4 5 4 4 8 1 6 -1 6 5 6 4 8 4 7 
3 8 3 6 5 9 1 6 4 6 1 7 5 5 5 7 
4 7 2 7 3 7 -3 3 -3 -7 -4 -9 -4 -5 -2 -6 
-5 -5 -7 -6 -3 3 0 7 -4 10 -5 9 0 -8 2 -8 
3 -9 -8 0 -5 -6 -4 -7 -5 -8 -5 -9 -5 -5 -5 -8 
-2 -8 -4 -8 -8 -4 -6 -6 -5 -8 -4 -8 -1 -8 1 -5 
-1 -7 -2 -9 -5 -5 3407 1634 300 MP stroke
-2 -6 -10 -2 -7 -7 -3 -8 -4 -8 -4 -7 -4 -7 -5 -4 
-5 -8 -4 -8 -1 -6 1 -7 -1 -7 -3 -9 -2 -9 -3 -4 
2 -8 -6 -8 -6 -1 -8 1 -7 1 -8 3 -4 5 -6 0 
-7 -1 -8 1 -5 4 -6 5 -8 0 -8 3 -5 6 -7 4 
-9 3 -8 2 -7 3 -8 3 -8 2 0 5 -2 6 -8 3 
-7 3 -8 4 -8 1 -6 -1 -6 4 -3 8 -7 2 -7 2 
-3 2 -3 8 -5 4 -6 1 -7 3 3 7 -2 7 -3 7 
-7 0 -4 7 -3 5 -5 4 -4 8 -4 8 6 4 5 7 
4 6 9 3 8 1 7 4 7 6 6 6 0 18 -1 4 
4 1 2 -5 6 -4 6 -5 5 -6 7 -5 4 -7 6 -1 
9 1 8 0 5 -4 9 1 2 4 7 0 -5 8 -2 9 
2 8 3 5 4 -1 1 -7 5 -7 3 4 5 7 -1 7 
2 7 7 5 6 7 6 7 4 7 4 8 2 8 7 3 
-9 3 -4 7 -5 8 -5 -4 -5 -4 -6 2 -5 -5 -6 -10 
-6 -8 -2 -8 -4 -7 -10 -3 -7 -4 -6 -7 -8 -1 -5 -6 
-7 2 -7 -4 -8 4 -7 2 -7 3 -8 0 -5 -5 -1 -7 
-3 -8 -10 -2 -9 -1 -9 -3 -7 -1 -8 0 -9 -1 -6 -2 
-10 -1 -9 1 -8 2 -9 0 -5 2 -6 -2 -7 -2 -7 2 
-6 1 -8 1 -8 -1 -3 -6 -6 -4 -2 -6 -1 -7 -8 -3 
-6 -4 -5 -6 -8 -6 -9 0 -9 3 3 -8 7 -3 9 0 
-3 -8 -6 -5 -6 -7 -7 -4 -9 0 -8 3 -6 5 -2 10 
-2 6 -4 -1 1 -8 -1 -7 -4 -6 2 -10 1 -7 -3 -8 
-2 -4 2 -6 -2 -9 -3 -9 -1 -8 -1 -9 -3 -6 -4 -8 
-5 -8 -5 -8 -1 -7 -3 -8 -2 -8 -3 -9 -4 -6 -5 -7 
-3 -6 -3 -8 -3 -8 -2 -9 -3 -9 -5 -6 -5 -5 -6 -3 
-6 4 -3 9 -6 4 -7 1 0 8 -5 8 -7 0 0 9 
1 6 0 8 -4 6 -4 8 -1 9 1 9 2 9 1 9 
-1 7 -4 6 -9 -1 -3 6 -5 2 -7 1 -4 4 -1 6 
-4 3 -6 4 -5 6 -6 4 -6 3 -6 5 -5 7 -4 5 
-6 5 -7 2 -7 2 -5 7 -4 6 1 6 -2 5 -8 3 
-6 2 -3 6 -2 -10 -7 2 -7 1 -8 1 -8 2 -5 5 
-5 4 -7 5 -6 -6 -2 -7 -1 -7 -3 -6 -5 -7 -6 -7 
-4 -5 -5 0 -4 -6 3 -4 -4 -7 -5 0 -3 -8 -2 -9 
-2 -9 3 -9 2 -8 -7 -4 -5 -1 -7 0 -5 5 -6 4 
-8 4 -2 5 -5 -3 -5 -6 -3 -8 -1 -8 -1 -9 -3 -8 
-2 -9 -5 -9 -3 -9 4 -9 -4 -7 0 -7 4 -5 0 -17 
4 -9 0 -7 -3 -7 -4 3 -6 -6 -5 -8 -5 -5 -5 -5 
-4 -9 0 -6 -1 -9 4333 1874 300 MP stroke
-4 -5 1 -8 -5 -8 -6 -6 -2 -8 -7 -5 -5 -5 -8 -4 
-6 -3 -5 -4 -12 0 3 9 5 8 5 6 0 30 5 8 
6 5 7 5 6 5 5 6 9 2 5 3 3 9 2 8 
5 5 2 10 7 -1 3 8 0 9 -3 9 -4 5 -2 8 
-3 6 0 10 -1 9 -6 3 -8 -3 0 -9 -8 -1 -6 0 
-6 -7 -5 -2 -4 -5 -3 -7 -3 -6 -7 -5 -9 0 -3 -5 
-8 -3 3 -8 0 -7 -3 -7 -6 5 -7 6 -7 1 -5 6 
0 9 -9 0 -7 4 -6 4 -6 4 -8 4 -3 5 0 6 
-1 10 0 15 1 7 3 8 3 9 6 7 5 6 6 5 
8 7 5 6 6 7 2 5 6 6 5 9 -2 8 -3 6 
-8 5 -3 7 -7 5 -7 4 -7 4 -7 3 -8 0 -6 -4 
-5 0 1 -7 -1 -4 -3 -6 -5 0 -4 2 4 7 -3 5 
-7 3 -9 1 -8 4 -7 2 -8 2 -1 8 -6 -5 -3 8 
-8 -7 -5 7 -7 0 -8 1 -7 2 -8 4 -8 5 -6 4 
-6 5 -5 4 0 6 -8 0 -2 6 -6 5 -3 5 -4 7 
-1 5 1 7 -5 -1 -5 5 -4 7 -4 7 -4 5 -5 0 
-2 4 1 4 -3 9 -3 0 -2 9 -1 5 6 1 5 3 
9 -2 5 3 -7 2 -4 4 -5 2 -6 2 1 5 9 7 
-9 0 2 7 7 6 5 3 1 7 3 7 2 7 3 9 
9 4 8 4 -3 7 -4 6 -8 6 -7 4 -3 8 -10 3 
-8 4 -5 -3 -4 9 8 1 8 0 6 2 5 4 8 -3 
5 -4 4 -5 6 0 6 5 2 7 7 4 6 5 6 6 
-2 6 -5 6 -6 -3 -9 1 -4 5 -2 6 -8 4 -8 3 
-6 7 -6 7 -10 -2 -5 -7 5 -8 6 -4 2 -5 -5 -6 
8 -7 -6 1 -8 5 -5 6 -9 3 -8 3 -8 1 -9 -3 
-7 -1 -5 -3 4 -9 3 -8 3 -7 -8 -7 -12 1 -7 -6 
-3 -7 9 -1 -5 -11 -4 -10 6 -7 0 -9 -3 -8 -9 6 
-9 2 -12 2 -8 4 -4 7 -2 7 0 9 2 9 2 9 
5 7 5 6 4 7 7 6 7 5 -2 6 2 4 -7 2 
-7 2 -7 5 -8 6 -6 3 0 9 1 5 -8 9 -9 3 
-2 6 -5 0 -5 8 -4 4 -9 0 0 -6 -11 -4 -10 2 
-9 7 -10 4 -8 10 -3 7 -10 8 -9 10 -8 7 -7 8 
-5 8 -4 11 -7 8 -8 10 -10 10 -3 10 -2 8 0 11 
1 10 -1 10 -4 9 -5 8 -4 7 4 5 0 9 -4 8 
9 5 8 6 1 5 10 3 10 0 9 -10 14 -4 -5 7 
0 9 9 -2 6 -8 0 17 12 -2 10 4 1 5 -11 5 
-10 9 -11 7 -10 9 -9 11 -7 7 -11 8 -8 5 -5 7 
-7 8 -10 5 -5 8 4966 931 300 MP stroke
-10 5 -15 2 -16 0 -13 0 -6 -3 -8 5 -14 -4 -12 2 
-10 -2 -1 4 -1 6 -8 2 -10 -4 -10 -2 -8 2 -5 -6 
9 -5 -4 -6 -10 0 -14 4 -6 4 -10 -2 -18 2 5 5 
10 2 -5 11 -8 10 -11 8 -9 9 -9 10 -15 4 -14 2 
-10 -4 -13 4 8 -14 -2 -8 -3 -7 -13 7 -10 8 -9 8 
-10 2 0 9 -5 10 -18 4 -5 -4 10 -6 3 -11 2 -14 
4 -8 13 -3 11 -6 5 -8 10 -9 13 -10 6 -9 10 -9 
12 -9 11 -6 10 0 -2 -7 5 -9 10 -4 4 -11 4 -11 
1 -12 -1 -9 -3 -10 -2 -9 -3 -12 -1 -12 -5 -12 -2 -10 
0 -9 -2 -6 -10 6 -9 9 -8 12 -2 12 -9 7 -12 0 
2 8 -2 10 -7 8 -12 3 -7 -2 -6 6 6 8 1 11 
-5 9 -8 3 -6 -5 -6 4 2 11 7 3 0 9 -8 9 
9 6 8 -4 2 9 -6 9 -9 10 -4 9 -2 10 -13 3 
-9 -3 -9 7 -13 4 0 -13 -10 9 -10 6 -11 4 -14 -2 
-10 -6 -8 -7 -5 11 -13 6 -12 7 -12 8 -11 8 -12 2 
-11 7 -14 4 -11 6 -18 0 5516 851 125 MP stroke
11 2 19 7 23 0 20 2 21 2 21 3 0 -16 -6 -11 
9 -7 12 -2 4 9 16 4 1 9 -14 0 -4 7 18 4 
9 -9 10 -6 20 4 25 2 27 -2 24 0 18 7 -8 11 
5 12 13 7 20 2 23 2 22 -4 16 0 17 -3 0 10 
12 7 14 0 10 7 3 14 20 4 26 0 24 7 21 3 
22 2 26 3 -7 -10 21 0 7 -7 -6 -9 -7 -12 24 2 
29 -2 13 5 13 -3 8 -7 14 5 14 12 5 -12 4 -12 
12 -9 14 5 13 11 11 14 -12 12 -5 14 19 15 25 5 
32 7 28 0 3 -10 -8 -9 20 -3 31 3 23 5 -3 12 
22 0 20 5 16 -3 18 -5 13 17 -8 11 19 2 8 -5 
-19 -8 -3 -12 15 0 13 5 15 5 10 -7 -10 -8 21 -5 
19 -4 16 0 -10 12 -18 5 -20 12 -20 10 -23 13 -18 10 
-2 15 5 13 16 11 19 5 24 2 22 0 5 -7 21 0 
-16 15 4441 455 106 MP stroke
7 -5 0 -7 6 -3 -2 -10 0 -8 2 -2 -5 -3 -6 -7 
-2 7 -6 0 3 -5 2 -7 5 -3 8 -5 7 -7 0 -6 
-2 -8 -5 -7 5 -5 -5 -4 -8 -4 -5 -5 -5 -6 -2 -9 
-8 -5 -5 -8 -3 -8 -2 -7 -3 -8 -7 -10 -3 -8 -5 -8 
-2 -5 -5 -5 -3 -8 -5 -10 1 -8 -6 -8 -5 -5 -5 -5 
-10 -6 -8 -2 -8 -6 -10 -5 -5 -2 -7 -5 -8 -4 -5 -6 
-5 -3 -8 -6 0 -8 -1 -10 -3 -10 2 -8 0 -8 -2 -8 
2 -8 1 -8 4 -8 0 -16 1 -8 -1 -8 0 -7 4 -5 
-3 -10 5 -11 0 -8 4 -8 1 -8 4 -9 -3 -5 -1 -11 
5 -4 2 -9 -2 -9 -1 -9 0 -6 -3 -5 6 -11 -2 -9 
4 -6 1 -8 4 -9 5 -8 3 -9 2 -9 4 -3 0 -9 
6 0 3 -10 -4 -7 0 -7 -1 -8 -1 -9 6 -9 0 -10 
2 -8 -1 -7 -2 -6 -7 -2 -2 6 -8 -3 4 -6 -4 -3 
4 -3 0 -12 4 -8 -3 -6 5 -8 -2 -5 6 -4 -1 -6 
4 -10 1 6 2 4 -3 6 1 4 -3 5 5 6 7 -6 
4 -8 -3 -7 3 -5 2 -6 -2 -5 7 -2 -4 -5 12 -7 
0 -7 -8 5 -7 -3 -8 0 6 -12 2 -7 0 -10 6 11 
6 -1 2 -7 0 -8 2 -12 -2 -5 1 -8 -8 -1 5 -5 
0 -12 -12 15 2 -8 -2 -7 5 2 2 -10 5 -9 -12 5 
-3 7 -2 -10 2 -7 10 2 0 -10 -7 -4 -5 5 -3 -8 
-8 -2 0 -5 -5 -5 -10 -5 -7 5 -8 8 -6 -1 3 -7 
14 -5 -3 -6 -12 -3 -5 2 0 10 -2 10 -12 6 -6 0 
-1 5 -8 0 -10 -2 7 10 3 9 2 8 -2 10 -8 7 
-10 3 -2 10 -3 10 -8 6 -10 7 -7 6 -3 10 1 6 
12 0 7 7 7 6 1 10 -5 9 -5 5 -10 5 -9 0 
0 6 -6 3 0 9 1 6 -4 7 -10 6 10 3 -8 6 
-5 -6 -7 0 -2 5 3 9 11 -5 8 5 0 10 3 9 
-6 5 -7 -5 -8 -3 -12 0 -11 5 -1 6 3 4 -4 9 
-3 6 5 6 -1 8 -4 -5 -11 0 -11 2 -8 1 -10 2 
-10 3 -8 2 -9 5 -2 7 -7 8 -5 8 2 9 6 2 
4 7 -4 9 5 5 13 6 2 6 -2 5 -8 -7 -10 0 
-5 -4 -9 -3 -9 2 -10 -2 -8 2 -7 4 -7 5 -1 6 
-7 6 -7 8 -2 9 -7 5 -7 6 -8 6 -5 8 -5 9 
-3 8 -5 8 -6 8 -6 6 -4 3 -3 8 -1 8 1 8 
0 19 -6 7 -6 7 -8 7 -6 6 -8 3 -9 5 -5 -2 
-6 8 -8 0 3 5 -10 1 -8 -1 -8 0 -7 1 -8 0 
0 7 -7 4 -8 4 0 8 -3 8 -7 8 -3 8 -7 8 
-2 8 0 8 -1 7 2205 2229 300 MP stroke
-5 6 0 7 -1 10 -3 9 2 8 0 7 1 8 -1 8 
-2 10 -7 5 -7 7 -6 9 -4 7 -5 8 -4 4 -7 5 
-4 7 -6 6 -4 6 -4 8 -4 8 -1 10 1 8 3 8 
2 9 4 9 9 3 7 -2 8 2 5 5 8 4 5 5 
5 5 8 5 7 5 8 5 7 0 8 -2 8 0 7 3 
8 0 7 4 8 1 8 -3 8 -3 -2 8 4 6 2 6 
8 -2 2 5 11 2 7 3 9 5 9 0 5 -2 5 -12 
4 3 -3 6 -2 10 9 3 7 -2 8 2 6 -4 0 -9 
3 -10 3 10 9 -4 -1 9 -2 8 -7 5 -5 5 -6 7 
-1 12 8 1 3 10 5 10 0 9 8 8 5 4 7 5 
7 5 7 4 7 2 5 2 7 2 8 1 8 0 7 -1 
8 0 9 1 3 5 6 4 7 5 6 -1 -1 6 3 7 
7 5 8 5 9 5 11 -2 -2 8 2 8 9 3 6 2 
5 -1 6 6 5 5 -13 3 9 0 10 0 9 0 7 -6 
8 -3 9 1 6 3 3 4 6 0 6 -2 9 0 9 -1 
3 5 1 7 6 4 8 1 6 0 3 10 6 -4 -2 -6 
6 -4 6 -3 7 -2 0 -9 -5 -9 0 -9 9 -3 1 7 
4 5 -4 8 -4 5 3 6 3 8 -7 3 -4 6 2 4 
6 1 5 -4 3 -5 7 -2 5 -4 7 -4 11 1 3 -5 
7 1 6 -2 4 -6 1 -7 0 -8 6 -1 4 -7 8 -6 
0 -11 6 7 5 5 5 5 7 6 6 1 6 2 8 0 
4 -5 7 -2 8 -3 9 -2 5 3 6 0 3 7 6 4 
6 5 4 6 4 7 3 6 -3 7 0 7 -3 9 0 17 
-3 6 0 12 2 3 7 2 6 7 6 1 5 1 8 -1 
8 1 7 -2 8 -2 9 3 9 -4 6 4 6 3 -7 5 
-4 10 0 8 -1 13 -4 -6 -4 8 -1 9 -2 8 -1 7 
-2 8 -7 7 0 7 4 2 8 0 6 2 8 -2 7 -2 
8 -2 7 -1 5 -3 2 -9 1 -7 3 -5 0 -6 5 -3 
5 -4 -2 -4 9 -2 0 2 9 1 9 -3 9 -2 9 -2 
5 0 5 5 7 2 8 3 5 7 4 6 4 8 5 5 
4 6 2 6 -2 6 7 5 3 8 -3 7 0 24 -2 8 
-3 8 -4 7 2 6 0 9 2 8 -1 8 -5 5 -8 6 
-7 5 -8 2 -5 4 -5 4 4 7 -5 3 0 -7 -8 4 
-6 1 -9 2 -8 -3 -7 -1 -7 4 -7 -6 -2 -5 -7 -2 
-9 2 -5 2 -5 -1 -4 -4 -3 3 8 5 0 3 -4 3 
-1 4 6 0 7 -1 5 1 -4 7 -8 -4 -7 4 -7 0 
-7 -1 -4 4 -3 -6 -7 0 -8 2 -7 1 -5 -4 -8 -3 
-3 -7 -7 1 -7 5 1522 1481 300 MP stroke
-7 1 -7 -6 -6 -9 -4 -2 -2 -8 1 -7 0 -5 -5 1 
2 -8 -1 -6 -5 -5 -4 -7 -3 -8 -7 -5 -2 -7 -7 1 
-3 3 -4 8 -2 10 0 9 4 10 4 9 0 6 5 8 
3 8 3 9 2 8 1 8 -4 9 -4 8 -7 7 -8 4 
-7 6 -5 6 -4 5 -8 5 -6 1 -7 6 -6 6 -9 1 
-4 4 8 0 -8 6 -5 0 -2 4 0 6 6 0 8 0 
-7 3 -5 1 -3 -1 -4 -6 4 6 1 7 2 6 7 6 
0 6 -2 7 9 6 -7 -2 1 6 1 9 -2 6 -7 3 
3 -6 0 -6 2 -7 -6 -3 1 -5 -5 0 3 -5 2 -9 
-3 1 -3 9 -5 7 -4 5 7 10 2 9 -5 -3 -4 -6 
-7 6 -5 9 -3 9 5 3 -5 6 -8 5 -7 3 -8 0 
-7 0 -8 3 -3 6 -3 -5 -7 3 0 -3 -10 3 0 6 
0 -4 8 0 2 7 5 3 -3 5 1 4 -4 7 -5 6 
0 3 -8 3 -9 3 -5 8 -3 -3 -9 3 -8 3 -8 5 
0 6 -11 0 -10 3 -12 6 2 -6 -10 2 10 -7 6 -3 
9 -6 4 -8 -3 -8 -7 -4 -8 6 -8 6 -5 6 -7 0 
-10 5 -16 5 -12 3 -3 6 -9 3 -9 7 11 6 -2 10 
4 3 5 -8 8 -8 0 -8 7 2 9 -4 10 2 12 6 
9 3 5 10 1 11 -3 8 13 -3 10 10 -15 0 -8 3 
-8 5 0 6 5 5 10 4 11 -2 12 -2 10 -5 9 -3 
10 -5 9 -6 6 -8 6 -7 7 -6 10 -3 -6 6 -5 6 
-7 7 -5 6 -6 8 -9 7 -10 8 -10 0 -3 8 -6 7 
-12 3 -9 0 -10 0 -11 2 -9 -2 -9 0 -10 0 -8 -3 
-11 2 -14 0 -8 6 -6 7 -6 7 -13 5 -15 1 -10 7 
-8 5 5 14 -2 9 10 10 11 0 1 8 16 2 -13 7 
8 6 14 1 5 7 16 2 3 9 12 5 7 7 0 11 
-7 7 8 6 0 7 7 8 8 11 6 11 9 11 8 11 
5 8 8 -8 6 -5 -5 -8 6 -9 12 -6 5 -7 15 -6 
10 13 9 2 8 9 0 8 -2 11 4 10 -2 9 11 2 
11 0 12 6 -4 8 11 6 11 8 11 5 18 -4 10 0 
14 4 15 2 10 -6 0 -9 -9 -6 4 -10 5 -9 -8 -6 
-2 -12 0 -9 8 -9 10 -2 1 -8 -9 -7 -9 -4 -5 -13 
-2 -9 -4 -12 0 -15 7 -9 12 -9 11 -7 12 -5 -5 -9 
-4 -8 -2 -12 0 -11 -6 -10 9 -10 13 -7 -2 -7 11 7 
5 9 7 6 7 9 10 8 -3 11 0 8 4 9 -4 16 
13 5 15 0 15 0 16 9 12 3 10 4 9 9 14 7 
15 4 16 7 11 -4 9 -3 0 7 5 9 0 9 6 13 
10 2 11 -2 5 10 1364 929 300 MP stroke
0 11 -2 13 -3 10 -4 9 -8 12 -7 10 -11 3 0 12 
-14 4 -15 4 2 12 -11 14 -22 0 -12 12 -11 13 0 12 
-15 17 11 8 -19 2 -6 -6 -21 -4 -16 10 -19 11 -4 15 
19 7 0 13 -17 6 0 17 22 3 3 9 20 5 19 0 
0 -14 -1 -15 0 -16 16 -8 0 -11 12 -4 14 15 -3 13 
0 11 14 13 15 -18 12 14 10 11 16 7 -16 11 9 14 
11 9 13 12 10 14 -10 9 7 9 -14 5 -17 0 -9 13 
-10 12 -8 7 15 6 31 4 30 -5 6 -12 -5 -12 -4 -15 
0 -26 13 -7 6 -15 8 -15 -16 -16 -26 -11 10 -12 -6 -13 
14 -13 5 -1 5 -12 15 8 2 15 -21 10 13 15 23 14 
10 -14 15 -9 -24 -11 10 -8 1 -16 19 -2 27 4 19 8 
24 8 17 15 19 -4 20 -5 11 -8 -17 -7 5 -11 16 4 
15 7 21 -4 21 -5 18 5 18 0 -4 8 -15 4 9 11 
20 7 23 0 20 6 22 7 16 10 25 0 8 -13 13 2 
1 15 14 -15 13 4 7 14 20 13 8 -16 14 -4 6 11 
21 -7 21 -9 12 -7 12 5 16 -2 11 -9 1 -11 20 6 
16 9 17 7 23 1 13 6 15 7 18 0 16 -3 17 6 
20 0 23 7 20 0 18 0 15 11 28 0 8 7 22 6 
19 -13 22 -1 22 -11 17 -3 17 -11 5 -13 7 -9 21 -5 
18 -2 2 -13 -14 -10 -19 -8 -8 -13 -15 -8 -11 -11 6 -8 
24 0 2 10 12 0 17 -6 16 -6 15 -11 -8 -4 -14 -2 
5 -8 -5 -8 -22 -5 -19 2 -15 -3 -12 6 -14 4 4 -10 
-7 -11 3 -12 19 -2 12 -10 14 6 11 -6 3 -8 10 -11 
8 -16 -12 -10 -5 -11 -9 -12 -7 -9 -13 0 -13 9 -7 -13 
3 -7 -5 -10 -9 4 -21 0 -10 -11 -4 7 -10 -2 -9 2 
1 -13 3 -13 10 -7 10 -9 14 -7 9 -11 14 -2 14 -5 
9 -9 15 -5 15 -9 -2 -5 -17 7 -13 7 -12 3 -9 6 
-14 3 -14 5 -13 4 -5 9 -11 6 -15 7 -8 9 -14 9 
-14 7 -8 8 -7 9 11 4 -4 7 -11 6 -9 9 -4 12 
-8 7 -16 8 -11 0 8 -8 13 -3 2 -14 7 -11 -7 -4 
7 -7 -15 1 -11 8 -10 8 -13 0 -8 11 3 13 -13 -4 
-13 0 -10 -5 -15 -8 -15 -6 -15 0 -16 0 -14 -5 -12 -2 
-9 6 -3 -12 -12 -5 -12 -10 -10 -7 -11 -6 -5 -11 -10 -9 
-5 -11 -7 -12 0 14 4 13 0 11 10 7 -7 0 -3 9 
-5 -9 1 -7 -4 -11 0 -9 -7 5 -4 7 -5 -7 -6 -7 
12 3 8 -7 -3 -11 -7 2 0 -9 -4 -7 -5 -5 -9 -6 
-6 -8 0 12 7 12 7 9 -8 -3 -8 0 2 -7 -6 -9 
-6 -7 -9 -5 -10 3 827 1020 300 MP stroke
5 -10 -4 -6 9 -5 -6 -10 -9 -5 -9 -13 -11 -5 -4 -10 
-6 -7 0 -6 -12 -7 -11 -3 -12 -5 -8 -7 -9 -7 -9 -5 
-9 5 0 -9 -6 -5 -5 -9 2 -3 -5 -8 4 -10 1 4 
6 -4 -6 9 9 4 10 0 13 5 1 -5 -3 -4 -3 -9 
-4 -9 -1 -6 -2 -7 -11 -3 11 0 0 -6 -1 -8 3 -8 
0 -10 1 -9 2 -11 4 -11 -1 -9 -4 -6 -2 -9 1 -9 
4 -9 0 -4 -5 -5 -4 -6 0 -6 -1 -7 -6 -6 -6 -5 
1 -6 -7 -1 0 4 -5 -1 2 -3 -4 -7 7 4 -1 -7 
-4 -6 -5 0 0 -7 1 -5 -8 -6 -5 -7 -7 -8 0 -9 
-12 -3 -9 -3 -7 -3 -5 0 -2 -5 -5 0 -7 -6 -4 -7 
-3 -9 -5 -8 -2 -7 -4 -6 0 -4 -5 -4 0 -7 -4 -1 
-1 -10 -8 -3 -7 -7 -6 -5 -5 -6 0 -7 7 -4 9 2 
-8 -6 -3 -5 -5 -3 -6 -4 -6 0 -5 -5 -8 -5 -4 -8 
0 -8 4 -5 -10 -4 -6 -6 -7 -6 -7 -6 -5 -10 -9 8 
5 6 6 8 6 0 4 7 -2 3 5 5 0 6 5 8 
2 8 8 8 5 8 6 6 3 8 5 7 6 7 5 7 
7 4 4 5 -2 7 3 7 1 7 -1 6 -9 -4 -5 1 
-5 -4 -7 -3 0 -7 -3 -8 -2 -6 -5 -7 -3 -8 -8 -8 
-8 -9 -9 -1 0 -8 -8 -7 -4 -5 -4 0 -4 -6 3 -5 
0 -4 -7 -4 -10 -4 -5 -10 -6 -5 -6 -6 -7 -8 -5 -5 
-6 -7 -5 -5 -3 -11 -5 -4 0 -5 5 -5 -2 -4 5 -4 
-5 -8 -7 -8 -9 -4 -7 -5 -5 -7 -10 -4 -9 -1 -4 0 
-6 -5 -9 -7 -8 -2 -8 -3 -7 -4 -8 -1 -7 -4 -8 -4 
-9 -1 -9 -3 -9 -3 -8 4 -8 4 -8 0 -6 -1 -6 -3 
-7 -4 -3 -3 -7 -7 -6 -5 -5 -5 -8 -4 -7 -3 -8 0 
-8 -4 -3 -3 -7 0 -7 -4 -7 0 -9 0 -2 4 -5 -7 
5 0 -5 -6 -5 -6 -7 -6 -6 -5 -6 -5 0 -7 1 -6 
-3 -6 -5 -2 -2 -2 -5 5 -4 -5 -9 -5 -5 -6 1 -7 
-7 -1 -4 -4 -4 2 -8 -1 -7 -3 -4 -5 -8 0 -1 -9 
-6 2 -8 3 7 6 1 5 -7 2 -5 4 -3 6 -5 0 
-7 -3 -4 -7 -5 0 4 -5 -4 -9 -6 -6 -5 -7 1 -6 
-1 -10 0 -8 -1 -7 2 -8 -5 -5 5 -6 4 -9 9 0 
5 -8 -1 -6 6 -1 -3 -7 8 -4 10 -5 1 -10 1588 1952 264 MP stroke
-7 -2 -7 -9 -9 -3 -7 0 -9 0 -9 0 -4 5 -6 5 
-6 0 -5 7 -5 2 -11 1 -9 0 -8 0 -11 0 -7 0 
-8 0 -6 6 -1 8 -11 3 -7 3 -9 6 -6 2 -11 -1 
-8 1 -8 2 -9 4 -7 3 -9 1 -10 0 -8 0 -8 0 
-7 -2 -7 -5 -8 0 -9 -3 -8 -2 -6 -4 2 -8 -10 -4 
-2 -8 -4 -8 -3 -7 -4 -7 -3 7 -7 6 -6 6 -8 4 
-3 9 -6 5 -1 -12 5 -8 2 -8 1 -6 6 -3 1 -4 
-6 1 -6 0 -3 8 -2 8 -5 -7 -3 -6 3 -7 3 -4 
-10 1 -7 -6 -6 -7 -3 -7 2 -5 -2 -5 -5 -6 -7 -6 
-7 -2 -4 -6 -5 3 -8 -1 -6 -2 -6 -4 -7 -3 -7 6 
-7 4 -6 8 -3 -11 -7 3 -1 -7 -7 -4 -6 -5 -6 9 
-7 4 -9 6 -5 3 -9 2 -10 0 -7 4 -2 7 0 8 
-2 9 -1 8 -5 9 -4 6 -4 10 -4 8 -2 7 -5 7 
-7 5 -4 7 -3 7 -3 7 -3 8 0 7 -3 10 -2 8 
-1 8 -2 6 2 8 3 10 2 8 1 10 0 6 4 10 
4 7 6 8 6 8 7 2 5 6 3 6 0 8 6 4 
6 6 4 -6 4 8 3 8 2 6 5 4 0 6 8 4 
7 6 5 6 8 1 9 6 1 5 4 5 -1 8 1 8 
4 5 5 7 0 9 2 8 0 7 7 5 5 6 7 -3 
5 3 3 9 0 7 4 9 4 8 2 8 1 9 7 4 
5 -7 0 -9 5 -5 0 -13 1 -9 1 -7 0 -8 -1 -8 
1 -8 2 -8 3 -7 4 -7 0 -8 8 -4 7 -1 9 7 
4 6 8 3 9 4 5 4 6 5 12 0 2 8 6 2 
7 5 -3 7 -4 5 0 14 -8 0 -2 8 -5 6 8 6 
6 -8 4 6 9 -2 9 2 9 3 8 1 8 5 10 3 
-5 -7 4 -7 10 0 10 0 9 -7 4 -6 -3 -7 8 -1 
2 -6 7 -7 -8 -5 3 -7 9 6 6 0 7 -6 0 8 
6 5 6 7 9 1 4 -5 7 -1 3 -6 10 0 1 -6 
8 -6 1 -8 4 -7 9 4 2 -8 -5 -5 6 -8 4 7 
4 9 6 -8 7 -6 -1 -7 -2 -5 7 -7 3 -8 5 -5 
7 -5 9 -1 9 -3 8 0 7 -5 7 0 8 -6 8 0 
7 0 8 -2 6 -4 5 -7 7 -3 7 -4 4 -6 4 8 
4 -7 2 -7 -2 -6 0 -7 6 -7 -1 -8 -3 -9 -4 -7 
-4 -7 0 -9 7 5 4 7 -5 -15 7 7 -2 -8 -7 -6 
-4 -11 0 -6 -6 -9 -5 -8 -1 -7 0 -8 -3 -8 -4 -9 
-2 -7 -4 -5 0 -10 1 -10 -1 -6 4 -4 6 -1 0 -11 
4558 2493 289 MP stroke
-13 -6 -23 -6 12 -7 -16 -8 -29 -7 -19 7 -29 1 -27 0 
-25 -11 -25 -4 0 -11 -13 -11 -15 -14 0 -15 -13 -12 -2 -12 
5 -18 -8 -11 6 -14 -7 -7 -19 0 -10 9 -9 -16 -18 -5 
-5 -14 24 8 22 1 5 -16 3 -16 -17 -10 -23 5 -14 12 
-8 -16 4 -20 24 0 12 -11 5 -15 1 -15 -4 -13 0 -12 
-16 -13 -7 -14 0 -15 -10 -8 -1 -10 -14 -18 -4 -8 -9 -13 
-7 -12 -16 -14 -20 -1 -14 -4 -9 -10 -19 -7 -10 3 -6 12 
-1 11 -4 12 -8 12 7 15 -14 8 -12 12 -4 12 -1 12 
9 17 -15 -2 -5 10 -18 4 -23 0 -20 9 -14 8 -13 9 
-7 10 -7 11 -12 11 -13 6 -20 0 -19 7 -19 4 -19 7 
-16 7 -15 9 -16 9 -10 9 19 2 20 7 19 -7 0 7 
-17 7 4 14 -15 4 -4 -9 -4 -12 -14 -4 -19 2 -1 14 
0 12 13 11 16 10 14 9 -19 -6 -20 -6 -4 10 4 14 
15 4 -12 6 -9 5 -19 1 0 11 17 5 -34 7 -6 13 
19 0 -10 16 0 16 8 15 23 3 -1 12 -16 8 -30 -6 
-2 8 2528 455 122 MP stroke
-9 -3 -6 -1 0 -6 -7 -4 -7 0 -8 1 -9 3 3 -8 
9 0 6 -4 8 2 3 -3 -5 -1 -6 -5 -1 -5 -1 -7 
-7 0 -6 8 -6 -5 -8 -4 -6 -4 -9 -1 -9 -3 -9 -3 
-9 -3 -8 -4 -5 -5 -3 -9 -3 -9 -3 -7 8 -2 4 -6 
5 -9 -9 0 -9 4 -9 0 -9 1 -3 -5 -5 -5 -7 -5 
-7 -1 -8 0 -9 -3 -9 4 -2 4 2 6 -6 3 -4 3 
-5 7 -8 0 -5 -3 -8 -4 -7 -1 -4 -7 -3 -7 -8 -6 
-6 -5 -3 -5 -7 -2 -9 -1 -9 -1 -8 -2 -4 -5 -8 2 
-3 6 9 1 6 3 -4 5 7 0 7 2 -2 7 10 -1 
5 7 1 9 8 4 7 8 3 6 -6 1 -7 2 0 7 
7 5 9 -1 8 5 8 1 0 9 5 7 6 3 8 6 
8 3 7 4 8 2 9 3 6 3 8 2 7 3 9 4 
6 0 8 2 8 3 9 5 7 4 10 -4 4 -6 8 -2 
6 -6 4 -5 4 -6 6 0 6 5 3 7 6 3 3 7 
-3 8 4 10 10 0 7 5 10 0 5 -5 9 -2 6 -8 
4796 1972 121 MP stroke
-15 -12 -11 -14 -14 -11 -24 -9 -22 0 -30 -5 -16 2 -22 -11 
-13 5 -14 13 -9 -11 -25 -14 5 -17 -18 8 -11 -13 -19 -9 
-5 -13 -5 -10 10 -9 11 -11 13 -8 -14 -13 15 -8 20 0 
23 4 3 -8 9 -2 5 -10 -9 -11 -23 0 -11 6 -17 -1 
-15 -7 -14 -4 -13 -6 0 -10 -12 -8 -12 -4 -15 -4 -5 -6 
-14 -5 -14 -4 -15 -2 0 9 11 8 13 10 11 8 7 10 
-18 -6 -14 -8 -17 -8 -19 0 -3 16 11 10 1 12 10 9 
17 10 9 12 -4 17 -25 -12 -8 -15 -18 -8 -5 12 -18 4 
-3 11 -10 15 11 8 15 9 17 8 14 11 24 0 20 11 
0 13 -20 5 17 11 -6 11 13 14 21 9 23 17 18 7 
24 2 0 14 5 9 22 -2 16 6 15 3 18 -10 18 0 
15 -8 -5 14 10 13 -5 14 8 7 19 -2 21 -10 18 -12 
1 -15 1 -12 -5 -11 16 9 1 12 1 12 -6 12 -9 8 
-23 8 22 1 24 0 15 -7 16 -12 8 -13 6 -12 0 -16 
1437 612 113 MP stroke
-7 -2 -9 7 -13 -3 -3 8 -10 2 -11 -4 -10 5 -12 -1 
-11 0 -13 3 -7 8 12 2 -6 9 -9 5 -4 8 4 7 
9 3 6 0 5 -5 4 4 -5 5 3 7 3 5 3 7 
4 9 10 3 5 9 3 10 5 7 10 4 10 0 -8 5 
-6 8 -5 9 -4 7 1 7 13 0 10 0 12 -2 -5 10 
-13 7 2 5 14 -1 14 0 5 -10 7 -7 1 -7 8 3 
5 -3 -7 -6 -10 0 7 -10 0 -8 -9 4 1 -9 10 -7 
-9 0 0 -7 -7 8 -7 -7 7 -12 -6 -7 -11 4 -11 3 
5 -9 -7 -7 -7 0 5 -8 0 -9 9 -2 14 2 -3 -5 
5 -7 -9 0 0 -10 8 -4 9 -5 -3 -5 -10 2 -7 -2 
-8 -5 -10 5 5 -8 7 0 9 0 7 -9 7 -6 9 -7 
2721 1119 89 MP stroke
-5 8 -5 9 -4 8 -10 -3 -4 6 -7 2 1 5 -9 3 
-10 2 -11 8 -8 -2 -10 0 -8 0 -9 -6 -7 -8 -3 -10 
-1 -8 -5 -4 9 0 9 -2 9 5 11 -2 9 -6 -4 -10 
8 2 10 0 1 -5 -9 -3 -6 -9 -3 -9 -7 -7 -10 0 
-3 -4 5 -8 -1 -7 -5 -9 1 7 -5 6 -10 2 -4 -8 
-6 -6 -7 -6 9 -6 10 0 9 3 4 -9 -1 -6 -12 0 
2 -7 -3 -8 -6 -1 4 -11 0 -12 -4 -11 1 -6 11 2 
12 -3 13 -3 8 3 11 5 2 5 10 1 8 3 1 9 
1 9 2 10 -7 0 -1 6 -3 9 -5 6 -7 2 9 2 
7 8 3 8 5 7 6 5 7 7 6 10 0 13 5 10 
6 3 0 6 3516 1222 83 MP stroke
-3 -10 -8 0 -2 -8 1 -9 3 -9 -2 -6 -6 0 -8 1 
2 8 -2 8 0 15 3 8 -6 5 -7 0 0 -5 3 -7 
-4 -6 -8 -4 2 -9 -7 -2 -5 3 0 -11 -5 -5 -7 5 
0 9 5 6 5 8 6 5 -5 5 4 6 4 5 6 8 
-9 4 -6 5 -7 6 -9 0 6 5 8 -2 8 -3 8 0 
6 -6 8 0 1 6 8 4 0 9 -4 8 -5 1 -5 -1 
-7 1 -9 0 -7 0 -8 0 -8 -3 -7 2 -9 2 -6 8 
-4 6 4 4 3 -4 5 -5 8 -4 9 0 6 -1 7 2 
7 2 9 1 8 2 4 -8 10 0 1 -5 1 -8 0 -8 
5 -5 3 -6 0 -9 2 -8 6 -6 4613 1995 78 MP stroke
0 -7 -9 1 -8 -1 -5 5 -9 2 -9 3 -6 1 -9 4 
-6 -1 -9 0 5 -7 0 -7 -4 -8 -5 -1 -6 9 -9 7 
4 6 -4 5 -8 -7 -12 0 -9 9 -3 -9 -4 11 -7 0 
-4 5 1 -10 -9 4 -1 6 -5 4 3 7 -2 11 -4 4 
-1 10 1 9 -2 4 -6 0 0 8 -5 6 -2 10 3 9 
5 7 1 8 -1 6 9 3 1 -6 -5 0 0 -4 6 0 
5 4 5 -9 0 -22 3 -8 5 -7 3 -9 7 -5 4 -7 
6 -4 9 -3 9 -4 0 5 -2 8 6 -5 1 -7 5 -7 
5 -6 0 -7 5 -3 7 4 9 -1 10 -2 11 -1 8 0 
6 -7 8 -6 6 -4 8 -3 4797 1408 77 MP stroke
-1 -8 -4 -6 0 -7 -7 -5 -5 -8 0 -7 -3 -9 -1 -9 
-9 -1 -8 1 -5 2 -1 -11 -8 3 -7 0 -7 3 -8 -5 
-8 2 -5 -6 -1 -6 -7 3 -7 3 -8 4 -2 8 -6 10 
6 8 -7 6 -6 5 -4 6 -1 9 -3 8 -4 5 -7 0 
-9 1 5 5 6 5 7 7 -4 5 5 6 4 8 -5 6 
-2 9 -10 2 5 7 -7 2 -8 3 8 4 7 5 8 2 
0 8 8 5 3 4 5 -7 8 -5 3 -6 8 -8 0 -6 
11 0 7 -4 8 -9 6 -5 4 -6 8 -5 8 -1 8 -2 
3 -9 3 -10 8 2 9 1 7 4 7 -7 2 -9 4463 1937 72 MP stroke
-6 6 -2 10 -9 1 -1 10 0 7 -5 7 -8 3 -2 6 
1 9 -9 4 -6 6 -4 8 -9 0 -10 0 4 -7 -11 -4 
-9 3 -9 -5 10 -3 6 -8 -9 -3 -5 -3 3 -8 -5 -5 
-8 3 -5 5 -7 2 -8 4 -8 -1 -9 1 -5 0 -3 -6 
-7 -3 -5 -3 -7 -2 -8 -4 -8 -8 -5 -5 -7 -4 -10 -5 
-4 -3 -3 -8 -4 -6 2 -6 7 -4 9 -6 9 -2 9 2 
9 -2 9 -1 7 3 7 -2 7 5 7 0 5 7 10 0 
5 6 7 -1 11 0 8 1 11 -3 7 -4 8 -5 7 -4 
9 1 10 -1 10 1 9 3 8 6 3 8 6 7 3224 1264 72 MP stroke
0 -6 -1 -8 -4 -7 -1 -11 -1 -9 -7 -8 -6 -5 -6 -4 
-8 1 -6 4 -8 3 -6 -2 -5 8 -3 7 -2 8 -3 5 
-1 7 -1 7 -2 6 -2 7 -3 7 -2 6 -2 7 -2 7 
-3 8 -2 7 -4 10 -1 7 -2 10 0 6 -3 4 -2 7 
2 13 -7 -7 -5 8 2 8 2 11 4 9 1 9 4 8 
5 8 6 -7 0 -7 2 -7 6 -2 8 -2 -2 -7 5 -4 
-1 -7 6 0 7 -8 6 -3 8 -4 7 -3 8 -4 6 0 
4 -12 5 -7 -1 -10 -4 -9 0 -6 -4 -9 1 -7 6 -8 
2 -7 5 -6 5 -10 3464 2291 68 MP stroke
-1 -8 -4 -6 -6 -7 -8 -8 -5 -1 -5 -6 -7 -6 -2 -8 
-8 -4 -7 -5 0 -5 -4 -8 -3 -10 -8 -4 -3 -5 -6 -6 
-2 -6 -5 -9 -1 -6 -6 -8 -7 -9 -7 -5 -3 -5 -6 -7 
-10 -7 -8 -5 -6 -8 -5 -2 -3 3 -6 0 -6 -3 -2 7 
-1 9 0 18 -4 8 4 5 5 5 8 0 2 6 5 4 
3 10 9 0 5 5 -4 6 -1 7 6 6 6 0 -1 8 
6 1 7 8 7 1 8 7 8 -1 6 8 5 7 8 5 
7 4 7 5 5 7 3 6 7 5 10 1 9 0 6 6 
9 0 4256 1865 66 MP stroke
12 -5 0 -13 -27 -3 -39 -2 -18 5 -20 -3 -17 6 -9 -11 
-30 8 -19 13 9 5 1614 455 12 MP stroke
-10 0 -3 5 -9 0 -5 4 -5 4 -8 -1 -10 -2 8 -2 
-5 -4 -8 -2 -11 0 -5 -4 -7 -1 -7 -3 -8 2 -2 -3 
-2 -7 -7 -5 -12 0 -2 -5 5 -4 4 -4 -10 0 -8 1 
-8 0 -7 -1 -8 0 -5 2 -7 2 1 2 4 0 5 6 
7 1 5 -1 -1 6 6 2 8 1 8 5 6 3 6 4 
8 4 7 3 8 0 5 5 6 3 7 2 7 0 8 3 
8 0 7 -3 8 -1 7 -1 8 -4 5 -4 0 -6 8 -2 
1515 1614 57 MP stroke
-5 8 -5 8 -5 6 -4 0 -15 3 -8 2 -6 -2 -13 0 
3 6 -8 0 -10 -1 -10 0 -10 -2 -14 -3 -8 -9 -8 -11 
5 -7 13 5 9 8 -3 -6 3 -8 4 -9 0 -11 10 -5 
4 9 4 10 7 -3 7 -7 0 7 -8 9 0 11 4 6 
7 3 7 3 7 0 5 -9 12 -5 2 -8 4 -7 0 -8 
-2 -8 -2 -9 3 -11 4 -6 6 -3 6 0 5 9 0 11 
2 8 -3 7 -2 11 -2 6 -3 8 11 -6 1467 1225 55 MP stroke
1 1 5 -5 8 -4 9 3 9 3 2 7 1 9 7 3 
-2 -12 4 4 5 0 2 11 3 6 0 5 4 6 5 6 
10 1 8 9 -4 -7 -1 -7 -5 -6 -5 -7 -5 -8 -4 -7 
-8 -2 4 -4 -2 -6 -2 -7 4 -8 1 -8 8 -3 5 -5 
5449 2583 33 MP stroke
-8 -6 -6 -3 -6 -3 -3 -6 3 -10 4 -8 -7 -4 -9 3 
-5 7 -4 6 -5 8 -3 9 1 4 -3 5 -6 3 -6 0 
-2 6 -2 1 5516 2571 19 MP stroke
-3 -9 -11 4 -13 -2 -11 0 -12 0 -10 -2 0 -6 8 -5 
-9 -1 -8 9 -6 2 -8 -2 4 -9 -7 4 0 -7 -9 0 
-3 9 -2 10 7 -2 -3 10 5 -2 5 -8 3 3 -2 7 
-11 9 11 -1 4 6 -8 9 8 3 10 0 10 -2 9 7 
-6 5 8 3 12 -7 -5 10 -5 7 -7 10 -3 10 7 0 
10 -5 5 -7 4 -8 7 -10 3 -12 8 -9 5 -9 -5 -1 
8 -7 6 -4 1903 1161 51 MP stroke
-13 0 -6 1 -1 6 10 0 7 3 7 5 10 6 9 6 
2 8 1 6 8 9 1760 2835 12 MP stroke
6 -2 6 2 3 -5 8 0 3 -10 -4 -4 -12 4 -1 -4 
11 -5 -1 -11 5 2 3 10 7 -10 5 4 12 3 6 5 
13 7 10 5 10 5 -2 -5 -8 -5 -8 -1 5 -6 -7 -5 
0 -5 -10 0 -3 -7 -7 0 0 -5 -13 -7 -18 0 1741 2885 32 MP stroke
-19 -7 5 -9 -16 -8 -25 -2 -22 1 -20 -8 20 -7 23 0 
19 -1 -5 -17 -19 -7 -21 0 -11 -18 -21 2 -25 3 -24 6 
-21 5 -16 9 -14 -10 -19 -7 -19 3 -17 8 8 10 -18 3 
-2 12 25 5 22 8 15 10 -3 16 9 16 5 11 -12 14 
-8 11 13 8 24 -1 12 -14 9 -15 24 10 19 -5 17 7 
20 -10 6 16 18 0 14 -8 19 -5 15 -8 0 -8 13 -7 
3 -12 995 616 50 MP stroke
-1 -12 2 -10 0 -10 -5 -7 -1 -9 1 -10 -1 -10 0 -10 
1 -8 3 -6 -3 -5 -3 -10 3 -8 0 -11 4 -8 -4 -13 
-4 10 -5 5 -6 -2 -7 -7 0 10 6 3 1 7 5 4 
2 7 -1 10 -4 8 -1 6 -5 5 -8 0 -8 -5 2 8 
4 10 4 10 2 10 3 10 4 11 -2 10 0 10 3 10 
1 11 4 7 6 -2 -4 -9 4 -5 8 -5 4962 1053 47 MP stroke
-1 -10 -1 -6 -1 -8 -8 -5 -1 5 -5 -4 5 -5 0 -6 
-9 -3 -8 5 -6 -4 -8 -9 0 7 1 5 -7 -4 -5 -9 
-7 -3 -5 2 7 6 2 5 -5 2 9 4 6 2 5 0 
6 -4 6 3 2 8 4 10 -2 8 -7 6 -5 7 -2 8 
5 5 0 8 -3 9 7 -4 6 1 6 4 7 -1 2 -8 
3 -7 -3 -6 3 -9 0 -8 7 3 4629 1702 46 MP stroke
-3 -5 -8 -1 -5 1 -4 -4 -7 -2 -11 -3 -10 3 -7 5 
-7 6 -5 8 -2 8 -3 8 -2 6 -9 5 -7 6 -10 0 
5 5 -1 6 -6 3 -5 8 -7 7 -5 6 0 9 6 2 
2 6 5 -5 5 -3 1 8 8 4 6 -4 0 -8 3 -6 
7 -3 3 -7 4 -8 8 -6 8 -6 8 -7 10 -6 8 -1 
6 -7 5 -6 8 -6 3 -6 5 -10 5339 2704 46 MP stroke
-1 -5 -2 7 -4 6 -5 1 -2 -6 -5 1 -5 5 -6 -2 
-4 -4 4 -5 0 -9 -5 -4 -7 -4 -5 0 -5 -5 -5 8 
3 5 4 5 -3 4 -4 5 -4 -6 -2 -9 -3 7 -3 7 
0 6 3 9 0 9 5 8 9 6 -1 -10 5 -4 5 2 
3 -7 6 -1 5 -6 1 7 5 2 7 -2 4 -5 7 -3 
4 -4 1 -9 4662 1843 43 MP stroke
-7 -2 -9 -3 1 -4 -8 -2 -8 -1 -7 -4 -9 -1 -6 1 
-9 0 -6 -1 -8 -4 -7 -1 -8 -1 -8 0 -7 -3 -9 3 
-8 -3 -6 -2 -6 -2 0 14 7 2 8 -2 9 3 1 6 
5 4 8 1 9 3 7 4 5 -8 7 0 7 1 8 0 
6 2 4 6 7 1 8 4 5 1 7 -2 8 2 4 -7 
5 -5 4411 2053 42 MP stroke
1 -6 -4 -5 0 -10 -7 4 -9 3 6 5 7 3 -2 4 
-5 0 -4 -3 -6 3 -7 2 -11 -6 -11 -5 -1 6 -5 7 
-8 6 -9 -2 -9 5 -7 4 9 -1 0 4 3 3 -5 10 
10 -6 8 1 9 3 9 6 5 5 5 8 6 6 7 -4 
-4 -10 1 -8 1 -6 5 -5 -1 -6 1 -4 8 0 6 1 
-1 -6 9 -6 4933 1262 43 MP stroke
-17 -11 -16 -10 -22 -4 -25 -3 -11 5 20 9 9 12 4 14 
-1 14 -9 12 -13 12 -13 13 -12 12 -18 12 -14 13 -23 10 
-24 11 -25 5 -27 7 -24 8 -4 16 21 5 26 -8 13 -10 
30 -5 31 0 29 -11 16 -10 11 -8 26 -8 0 -10 13 -17 
16 -12 -7 -10 16 -7 12 -15 -4 -10 16 -7 0 -14 3592 617 40 MP stroke
-26 -15 -5 15 3069 455 3 MP stroke
-11 -5 -2 3 -8 0 -6 -2 -6 2 -8 -2 -6 -8 -5 7 
0 4 -8 3 0 -4 -8 1 -8 3 -8 0 -5 -6 -5 7 
6 6 13 3 -7 4 9 0 3 5 9 2 7 1 11 0 
5 -3 8 4 9 0 5 -4 -7 0 -4 -5 0 -5 -6 -7 
6 -4 8 0 6 3 8 1 5 -4 1672 1670 38 MP stroke
-11 -2 -13 4 -10 -4 12 -8 17 -8 -21 0 -9 -13 11 -10 
-26 0 -16 -6 -19 -4 -16 8 -14 2 -14 8 -20 7 -13 12 
0 14 15 6 2 15 14 -2 8 6 9 -8 12 -4 10 4 
15 -2 6 -7 9 7 2 -13 16 -4 1 15 12 8 11 2 
0 -6 10 0 2 -9 8 -8 2436 778 37 MP stroke
-8 6 -8 6 -8 7 -10 3 -6 5 -6 6 -10 5 -5 7 
-11 -5 -13 0 -5 -10 -6 -6 -12 0 0 -7 -5 -5 2 -8 
-4 -8 7 0 0 5 13 -1 13 -5 10 0 6 8 10 -2 
0 6 -10 7 8 0 11 -8 12 -5 11 -5 6 8 10 -4 
8 0 1405 1185 34 MP stroke
-8 0 -10 -2 -8 1 -6 3 -6 1 -8 1 -8 1 -7 -2 
-8 0 -7 -1 -8 1 -8 -1 -6 2 -9 3 -10 2 11 3 
8 -8 6 4 8 -1 8 2 7 3 8 -3 7 -4 8 5 
9 0 10 3 -4 -6 7 1 8 0 8 2 6 -2 2 -8 
4570 2088 33 MP stroke
-22 -4 -17 -5 -15 9 -15 -10 19 -6 -8 -7 -19 -2 -16 3 
-15 8 -18 6 -32 -1 -19 2 -2 13 -5 13 20 4 24 10 
9 15 13 -7 11 -10 -14 -5 4 -8 -10 -11 30 3 9 10 
11 8 24 8 22 2 10 -11 12 -14 9 -13 1014 509 31 MP stroke
-3 -8 -8 -6 -13 2 -11 4 -11 6 -14 2 -3 8 -2 9 
1 10 2 9 -10 7 3 11 5 6 10 2 11 2 12 -4 
6 -8 -7 -4 5 -5 8 0 11 0 3 -7 -7 -3 7 -6 
-7 -6 -8 0 8 -11 4 -10 8 0 2649 1077 30 MP stroke
0 -104 -5 3 -6 12 10 9 -14 8 -2 -10 -5 -11 -13 -2 
-10 4 -15 -4 -3 -10 -11 -6 -17 -8 -15 -5 -4 11 -9 8 
0 12 -16 0 -8 8 -11 7 15 10 13 11 23 4 20 0 
7 11 13 9 17 8 19 7 14 9 13 9 68 685 31 MP stroke
1 -10 -17 -13 -28 2 -17 -8 -5 -12 5 -13 -2 -16 -31 -6 
-27 -2 -26 -1 -26 0 -17 9 -23 -7 -26 5 -9 12 0 12 
26 8 23 0 27 3 29 -7 30 4 22 8 -8 6 17 6 
7 9 27 0 20 9 21 2 1350 455 29 MP stroke
-9 2 -5 -3 0 -6 6 -4 -4 -6 -5 -6 -5 4 3 8 
-6 -3 -3 6 -4 -6 -8 2 0 6 8 1 0 14 2 -6 
7 -4 -2 7 7 1 -1 9 8 0 2 4 9 1 -3 -6 
1 -8 2 -7 4660 1792 27 MP stroke
-18 0 -7 6 -2 8 -11 2 9 8 4 5 -18 0 -5 -5 
-12 -4 -10 1 -7 8 -5 6 -13 4 -11 0 -16 -4 18 0 
-5 -6 17 -2 12 -6 7 -11 11 -4 13 -4 2 -8 8 2 
12 -4 12 0 15 8 1026 882 28 MP stroke
-14 4 -12 1 -6 7 -7 7 -7 5 -7 7 -8 8 -9 9 
-5 9 -5 9 -6 8 -1 7 -4 6 -6 -4 4 -11 2 -12 
2 -10 6 -11 10 -10 8 -7 12 -3 12 -7 5 -10 10 -4 
12 -3 14 5 4381 1089 27 MP stroke
-6 8 -1 8 -5 1 -8 0 -4 8 -5 -3 0 6 -10 4 
-4 -4 -10 5 5 -6 5 -8 0 -5 -7 -8 -5 -6 5 -5 
6 -1 0 -10 9 -9 10 -3 3 3 10 0 10 0 0 11 
2 4 0 10 3691 1217 27 MP stroke
-19 7 -18 5 -20 5 -20 8 -17 -4 13 -6 11 -7 -21 -2 
-22 2 7 -8 5 -11 24 4 -10 -11 25 -13 -8 12 3 8 
14 -8 2 -8 23 0 -7 14 -12 4 -15 7 15 6 24 -3 
23 -1 903 763 26 MP stroke
-3 11 -8 5 -9 6 -8 -1 -12 1 -12 -1 -7 -2 -8 2 
-7 -2 -7 3 -7 0 7 -6 12 -2 10 5 7 -3 13 3 
13 -3 6 -5 9 -3 -1 -7 2 -14 4 7 6 6 3923 1206 24 MP stroke
0 -9 -3 -10 -3 -8 -2 -6 -2 -8 -4 -6 -8 -4 -8 -2 
-6 8 -5 6 -6 -5 -1 10 -3 7 -2 3 0 18 5 3 
10 -3 9 -3 9 0 10 6 10 3 5009 2607 22 MP stroke
-1 6 4 9 -3 8 3 7 -4 11 -1 -11 -4 -9 -3 -9 
-2 -8 4 -7 -7 -5 -6 -5 1 -5 -4 -9 -3 -8 -2 -7 
9 2 -1 8 4 10 7 7 5 7 4 8 3251 2043 23 MP stroke
-14 0 -10 -7 0 -7 4 -5 -3 -12 -7 4 -8 -2 3 -9 
-4 -6 -5 -5 -4 -9 11 -1 -1 6 5 7 0 7 10 8 
9 5 0 10 -4 5 7 6 6 -6 5 11 1267 1058 23 MP stroke
-1 -3 -8 -2 -5 -5 -8 -1 -7 0 -8 0 -7 4 -7 6 
-6 0 -1 9 -5 5 2 8 12 0 -3 -12 6 0 7 -9 
6 0 6 0 9 -1 9 0 9 1 5061 2036 22 MP stroke
-9 3 -7 7 -10 5 -11 1 -11 6 -13 2 -9 2 -5 -4 
9 -1 9 -6 7 0 -4 -5 -5 -4 8 -7 6 -10 10 2 
9 0 9 -3 8 3 4 6 5 3 3329 1200 22 MP stroke
-5 7 2 11 0 3 4 15 -1 4 -7 -5 -1 -10 -1 -8 
-5 -9 2 -9 0 -9 -1 -9 -5 -7 -1 -10 4 7 5 -2 
1 7 5 5 0 6 2 7 2 6 3324 2138 22 MP stroke
-4 -8 -6 0 -1 5 -4 -5 0 -7 5 -5 0 -14 -9 -2 
-9 5 -1 9 -4 8 -4 7 4 7 2 7 7 0 3 5 
7 -2 7 -6 7 -4 4776 1427 20 MP stroke
-20 0 -1 -12 -14 2 -10 10 -9 8 -12 0 -12 -6 -13 -8 
-14 10 15 6 8 10 11 9 18 8 15 10 5 13 16 -11 
3 -10 3 -14 -4 -15 15 -10 1480 823 21 MP stroke
-4 9 -9 0 -9 -2 -3 -10 -5 -11 -4 -10 -7 -12 -6 -8 
4 -14 9 -3 0 8 -1 9 -2 8 8 -3 1 10 12 0 
0 7 7 5 4 10 5 7 1296 1053 21 MP stroke
-1 7 -1 6 2 7 -2 9 -9 5 -9 1 -7 0 -8 -3 
-4 -7 3 -5 2 -9 5 -6 5 -5 -8 -2 6 -5 10 0 
8 3 6 -7 2 11 3288 1983 20 MP stroke
-8 -10 -11 -5 -10 -5 2 -5 -9 -3 -7 -5 -7 0 0 -5 
-12 -5 -8 -3 -8 3 8 8 11 8 9 8 7 10 12 4 
14 3 11 5 6 -3 854 1107 20 MP stroke
-22 -11 -11 -17 -21 7 -17 3 -14 14 -7 18 -21 10 -20 8 
-22 9 23 10 15 12 28 0 27 8 22 -8 27 -5 -10 -17 
4 -15 10 -14 9 -12 900 603 20 MP stroke
-9 -8 -5 -11 -17 0 -15 -12 -14 -14 -18 10 -21 4 -3 17 
7 16 21 6 -15 13 10 15 17 -6 20 2 17 -5 2 -10 
-14 -14 23 2 14 -5 1240 579 20 MP stroke
-4 -7 -1 -6 1 -6 -5 -7 -7 -5 6 8 1 6 -1 8 
-8 0 4 5 -6 4 0 7 9 -4 4 7 -3 6 6 -4 
2 -6 2 -6 4743 1935 19 MP stroke
0 -9 -1 -6 -3 -10 -4 -6 -6 0 -9 2 -6 5 -3 8 
0 9 5 6 4 8 5 7 5 8 9 5 -2 -6 3 -7 
2 -7 1 -7 4019 1829 19 MP stroke
-7 2 -8 2 -6 8 -8 5 -7 3 -8 2 -8 4 -5 5 
8 0 8 -1 8 -1 9 -3 4 -5 8 -3 6 -2 4 -5 
2 -11 4685 2110 18 MP stroke
-6 4 -9 0 -10 5 -5 6 -9 2 -6 -2 -5 4 -10 0 
-11 0 7 -6 9 -4 10 -5 9 -3 9 -4 8 -2 9 0 
10 5 1536 1277 18 MP stroke
-3 -7 -7 -4 2 -7 6 2 0 -9 -5 -2 0 -9 -7 2 
4 6 0 6 -11 0 3 10 0 6 4 6 7 -1 7 1 
4697 1761 17 MP stroke
-6 -7 -5 0 -10 -6 -7 -2 -5 -5 -11 -2 -2 6 2 6 
-2 8 -5 8 10 -3 11 -2 9 0 7 3 7 0 7 -4 
2993 1346 17 MP stroke
-2 10 -10 0 0 7 7 2 5 6 -11 -4 -9 -6 1 -9 
-3 -8 -7 -6 0 -8 7 -4 7 0 0 10 10 4 5 6 
3331 868 17 MP stroke
8 -3 17 -12 21 -8 917 478 4 MP stroke
-16 -12 -18 1 -20 -2 -17 10 -9 11 -21 -7 -21 13 5 9 
1034 455 9 MP stroke
-12 -13 -4 -10 -15 -13 -23 6 -14 -17 -34 0 -8 16 3 13 
0 12 23 9 27 1 10 -9 1 -13 15 11 15 9 16 -2 
1208 468 17 MP stroke
-8 -6 1 -7 -2 -4 -7 0 -3 -6 -6 6 -6 -6 4 10 
2 7 -7 -1 5 8 8 5 7 3 8 -3 4 -6 3126 1349 16 MP stroke
0 -7 -4 -7 0 -9 2 -9 -7 -6 -5 6 -6 0 -3 8 
-1 7 0 8 1 7 7 8 7 -6 5 -2 4 2 2930 1292 16 MP stroke
-14 -16 -18 -2 -19 5 -23 5 -13 -5 -17 7 -16 11 0 8 
16 5 11 0 19 10 15 -13 31 13 23 -8 5 -20 4892 509 16 MP stroke
-2 -8 -8 -3 -2 5 -3 5 -7 2 -5 -4 -4 6 -5 4 
1 6 8 3 7 -2 4 -5 8 1 2 -6 6 -4 4818 1424 16 MP stroke
0 -8 -2 -9 -5 -3 -3 -7 -2 10 -6 6 -2 8 -3 10 
-3 8 0 8 5 3 7 -5 5 -6 4 -7 5 -8 4634 1585 16 MP stroke
-10 -8 -8 5 -5 -2 -3 -5 -10 2 -5 5 -11 3 0 7 
9 3 10 -3 10 3 13 -1 -5 -7 5 -5 10 3 1875 2820 16 MP stroke
-5 8 -9 3 -10 2 -7 1 -10 -1 -5 4 -9 3 2 -6 
-1 -9 10 -3 9 -2 9 2 9 0 10 -3 7 1 1593 1250 16 MP stroke
-1 -5 3 -3 -2 -7 0 -4 -4 -2 -2 3 -3 2 -5 1 
-3 3 3 2 2 4 4 2 4 2 4 2 434 1639 15 MP stroke
-5 -9 -7 -7 -6 -4 -5 -4 -7 -4 -7 -5 -8 0 5 5 
5 5 8 3 5 5 5 7 9 4 8 4 5304 2264 15 MP stroke
-8 0 -7 -1 -5 -4 -11 1 -10 1 -1 4 8 -2 0 4 
8 -1 7 2 7 -1 2 3 9 1 1 -7 3163 1394 15 MP stroke
0 -7 -1 -6 -8 -4 -6 0 -8 4 -5 5 -2 8 -5 5 
0 5 7 0 8 0 6 -1 8 -5 6 -4 4459 1654 15 MP stroke
-3 6 -9 6 -10 0 -6 -6 -10 -4 -5 -8 0 -7 5 -8 
11 0 4 -5 6 0 3 9 5 10 9 7 3262 884 15 MP stroke
-5 2 -8 -1 -3 -5 0 -5 -9 -1 -8 0 3 -8 7 -3 
7 -4 3 4 2 5 5 4 2 7 4 5 3005 1736 15 MP stroke
-11 5 -3 5 -7 5 -3 8 -6 2 -7 6 2 12 5 -12 
7 -7 5 -5 7 -7 7 -5 4 -7 4589 1823 14 MP stroke
-9 -4 -6 2 -8 -2 -12 -2 -8 -4 0 6 5 7 8 0 
6 3 9 -1 10 0 5 -5 4752 2000 13 MP stroke
-3 -5 -9 -2 -7 2 -3 4 -6 0 2 4 -9 7 9 -3 
8 -1 6 -2 4 -2 8 -2 3296 1397 13 MP stroke
-5 -8 4 -8 -9 3 -5 -3 -3 4 -6 0 -2 7 8 -2 
5 -1 6 5 5 6 2 -3 3853 2760 13 MP stroke
-1 -12 -8 -5 -4 -10 -6 -9 -13 -8 5 10 8 5 -3 7 
5 10 -5 10 10 0 12 2 781 1036 13 MP stroke
-5 0 -5 -6 -7 -1 -5 3 -5 -2 -5 0 3 6 6 2 
8 2 7 1 7 -3 1 -2 1614 1672 13 MP stroke
-9 8 -8 5 -7 10 -8 0 -9 -6 -9 0 -9 -4 13 -3 
15 0 12 -4 5 -8 14 2 1113 939 13 MP stroke
-9 -6 -9 -7 -5 -1 -5 -10 -4 -10 -4 7 3 7 10 6 
5 4 9 5 9 5 5100 1991 12 MP stroke
-12 -11 -10 6 -5 7 -13 4 4 7 8 2 -14 5 6 6 
12 -8 10 -7 14 -11 450 970 12 MP stroke
-7 -1 -4 -4 1 -6 -11 -5 -2 7 5 1 3 7 4 7 
7 -1 4 -5 4407 1981 11 MP stroke
5 -10 -5 -13 -20 -4 -16 4 -24 -3 -2 9 5 12 16 5 
22 2 19 -2 1581 554 11 MP stroke
-5 -5 -9 -5 -13 -5 0 6 -8 5 12 -1 9 0 9 3 
1 6 4 -4 1828 1185 11 MP stroke
-10 -5 -4 -5 -9 -3 -10 -2 -9 0 5 7 8 3 9 3 
10 2 10 0 1826 1124 11 MP stroke
-5 8 -3 7 5 9 -5 7 -7 9 -7 -11 9 -5 0 -18 
13 -6 1238 990 10 MP stroke
-3 -5 -7 0 -5 -2 -7 -5 -7 4 6 6 8 4 7 0 
8 -2 4616 2096 10 MP stroke
2 -7 -2 -6 -7 -8 -3 9 -2 6 1 6 0 10 4 -6 
7 -4 2938 1264 10 MP stroke
-2 -5 4 -4 -7 -7 -4 -8 -3 5 4 6 0 5 4 8 
4 0 1615 1561 10 MP stroke
3 -9 0 -6 2 -12 -9 -2 -4 8 3 6 -5 6 1 6 
9 3 1680 2628 10 MP stroke
-4 -5 -8 0 -3 -4 -9 0 5 2 7 2 1 4 11 1 
175 2157 9 MP stroke
6 0 5 -4 2 -7 5503 2229 4 MP stroke
-7 -2 -6 0 5516 2231 3 MP stroke
-5 -7 -2 -8 -4 -5 -6 5 0 8 5 5 6 2 6 0 
4638 1746 9 MP stroke
-6 3 0 9 -5 2 -2 4 4 -2 3 -4 6 -8 0 -4 
2589 1513 9 MP stroke
-3 -11 -9 -1 -9 3 4 4 -6 5 2 8 10 -4 11 -4 
2974 1003 9 MP stroke
-9 2 10 -9 -8 0 -5 6 0 -9 -4 12 4 6 12 -8 
1589 992 9 MP stroke
-10 2 -10 2 -10 4 5 3 7 -3 8 -1 9 -2 1 -5 
1680 1299 9 MP stroke
-6 -1 -7 1 -6 0 -4 4 5 4 9 0 9 0 0 -8 
1784 1675 9 MP stroke
-3 -3 -1 -3 -4 0 -3 2 5 4 3 -1 3 1 422 1628 8 MP stroke
1 -4 -4 -5 -6 0 -6 -1 -5 4 8 5 12 1 5232 2093 8 MP stroke
-2 -9 -5 -8 -5 -5 -8 4 6 6 8 10 6 2 5159 2034 8 MP stroke
-9 0 -5 -2 -7 6 2 4 9 -3 7 3 3 -8 4785 2133 8 MP stroke
-12 -16 -30 -10 -19 0 -8 13 27 5 29 3 13 5 5034 499 8 MP stroke
-9 6 -10 6 -10 8 8 -4 6 1 8 -6 7 -11 5041 1228 8 MP stroke
-9 -5 -10 -2 -10 3 0 6 9 2 10 -2 10 -2 259 905 8 MP stroke
0 -8 -15 2 -14 -8 -15 6 15 2 10 6 19 0 193 823 8 MP stroke
-6 -13 -18 3 -10 6 -2 11 7 9 18 0 11 -16 1631 723 8 MP stroke
-4 -5 -11 3 -3 -2 2 4 4 0 7 -3 5 3 1604 1536 8 MP stroke
-2 -3 2 -2 -4 -1 -5 2 3 4 3 3 3 -3 1542 1615 8 MP stroke
-9 0 -4 4 0 7 10 -1 -2 -1 0 -7 5 -2 1865 1799 8 MP stroke
-11 -6 -10 -5 -9 -9 -3 7 7 6 11 5 15 2 2228 2864 8 MP stroke
1 -7 -5 -4 5 -4 -5 -2 -5 5 4 6 5 6 1415 1951 8 MP stroke
-2 -8 0 -6 -7 3 2 7 3 -4 4 8 5342 2178 7 MP stroke
-5 -7 -7 -2 -5 4 2 6 8 1 7 -2 4723 2001 7 MP stroke
-7 6 -2 9 2 8 4 -7 3 -7 0 -9 4845 2057 7 MP stroke
-4 -4 -12 0 -7 4 10 5 9 -2 4 -3 4883 2523 7 MP stroke
-2 -10 -8 5 0 9 -6 5 11 -3 5 -6 3081 964 7 MP stroke
-16 -7 -29 -2 0 9 19 13 19 -3 7 -10 4944 562 7 MP stroke
0 -6 -10 4 -4 6 0 5 6 -6 8 -3 5166 1115 7 MP stroke
-5 -3 -6 0 -8 4 6 2 8 1 5 -4 3617 1762 7 MP stroke
-10 3 -9 5 0 6 11 0 0 -7 8 -7 255 1053 7 MP stroke
-19 -5 -24 -5 0 16 12 11 18 0 13 -17 1337 517 7 MP stroke
-13 1 -14 10 0 2 10 0 12 -4 5 -9 1533 858 7 MP stroke
-1 -6 -3 4 -4 0 3 4 1 -4 4 2 1865 1702 7 MP stroke
-4 -2 -3 0 -1 5 4 0 4 -3 374 1611 6 MP stroke
-7 -3 -5 -5 -7 6 6 4 13 -2 4546 2076 6 MP stroke
-2 -4 -6 2 1 4 5 1 2 -3 2565 1515 6 MP stroke
-4 -6 -3 3 -3 7 5 -3 5 -1 2550 1509 6 MP stroke
-7 -2 -6 -4 -5 7 8 5 10 -6 2840 1316 6 MP stroke
-5 -5 -8 4 -7 5 13 2 7 -6 3138 946 6 MP stroke
-5 -5 -8 2 -4 3 8 2 9 -2 2973 1022 6 MP stroke
-5 -9 -10 0 0 7 7 4 8 -2 2954 1008 6 MP stroke
-13 10 -4 11 13 -8 0 -7 4 -6 2695 963 6 MP stroke
-19 4 -5 9 17 9 10 -9 -3 -13 3547 694 6 MP stroke
-1 -8 -4 -3 -5 1 6 11 4 -1 4308 1967 6 MP stroke
-5 -5 -7 -6 0 6 8 8 4 -3 4285 1932 6 MP stroke
-2 -5 -7 0 -1 2 4 4 6 -1 3645 2276 6 MP stroke
-13 9 -5 3 0 5 8 -2 10 -15 232 1065 6 MP stroke
-15 -3 -6 8 -5 12 17 -7 9 -10 988 499 6 MP stroke
-9 -3 -10 -4 3 9 7 2 9 -4 1558 1060 6 MP stroke
2 -13 -7 -6 -6 10 -1 9 12 0 1588 855 6 MP stroke
-8 0 -2 7 2 -4 5 1 3 -4 1685 1629 6 MP stroke
-10 -4 -8 -3 -2 8 9 -1 11 0 1542 1201 6 MP stroke
-2 -5 -7 0 5 7 4 -2 398 1618 5 MP stroke
-1 -4 -6 -2 3 5 4 1 530 2220 5 MP stroke
-5 -3 1 -5 -6 7 10 1 116 2663 5 MP stroke
-7 -8 -9 -1 5 6 11 3 5259 2107 5 MP stroke
-8 -8 -6 2 5 6 9 0 4864 1962 5 MP stroke
-7 -4 -7 2 7 4 7 -2 4788 1954 5 MP stroke
-7 -5 -8 5 8 0 7 0 4525 2058 5 MP stroke
-6 -1 -4 8 9 2 1 -9 4444 1999 5 MP stroke
-6 6 0 7 5 -5 1 -8 4801 2073 5 MP stroke
-9 0 -4 7 10 -1 3 -6 4720 2073 5 MP stroke
-4 -1 -2 5 3 2 3 -6 2935 1901 5 MP stroke
-1 -5 -5 4 -3 6 9 -5 3227 1377 5 MP stroke
-2 -3 -9 2 8 6 3 -5 3145 934 5 MP stroke
-7 -1 -9 8 14 -1 2 -6 2693 861 5 MP stroke
-3 -9 -10 2 0 7 13 0 4938 540 5 MP stroke
0 -15 -12 -3 -27 8 13 10 26 0 68 618 6 MP stroke
-17 9 3 6 8 -4 6 -11 5290 942 5 MP stroke
-5 -5 -7 9 9 3 3 -7 4894 1022 5 MP stroke
-5 2 -10 9 7 -3 8 -8 5080 1205 5 MP stroke
-6 0 0 5 4 3 2 -8 3678 2268 5 MP stroke
-6 -3 -7 2 8 3 5 -2 5430 1062 5 MP stroke
-5 -7 1 -8 -3 8 7 7 1626 1533 5 MP stroke
-2 1 0 1 2 -2 368 1614 4 MP stroke
-3 -9 -6 1 9 8 5351 2196 4 MP stroke
13 20 -2 -7 -4 -6 -7 -7 5263 2099 5 MP stroke
18 13 -5 -4 -8 -5 -5 -4 5235 2079 5 MP stroke
-13 0 9 5 4 -5 4743 1977 4 MP stroke
-13 2 10 3 3 -5 4697 2080 4 MP stroke
-10 7 4 6 6 -13 5355 2731 4 MP stroke
-8 12 1 -4 6 -2 1 -6 4749 1546 5 MP stroke
0 -12 -14 2 14 10 2519 505 4 MP stroke
-9 2 6 3 3 -5 114 1087 4 MP stroke
-18 0 10 10 8 -10 1212 513 4 MP stroke
-5 -5 1 3 4 2 1875 1725 4 MP stroke
-5 -4 1 2 4 2 1754 1763 4 MP stroke
15 10 -9 -6 -6 -4 5199 2062 4 MP stroke
-4 -3 0 5 4 -2 3201 1323 4 MP stroke
-5 -6 0 10 5 -4 2782 903 4 MP stroke
-10 9 5 -4 5 -5 5019 1239 4 MP stroke
-3 23 1 -11 2 -12 4216 1771 4 MP stroke
-10 7 2 -5 8 -2 146 1079 4 MP stroke
-3 -7 -4 4 7 3 94 1082 4 MP stroke
-8 8 2 -6 6 -2 1650 1395 4 MP stroke
-16 0 10 4 6 -4 1703 1617 4 MP stroke
-2 -11 -6 6 8 5 1675 1598 4 MP stroke
-9 -14 0 8 9 6 1639 1555 4 MP stroke
-6 0 6 0 414 1626 3 MP stroke
9 7 -9 -7 5207 2081 3 MP stroke
8 0 -8 0 5045 1983 3 MP stroke
11 0 -11 0 4711 1978 3 MP stroke
-10 0 10 0 2413 1348 3 MP stroke
-7 -3 7 3 2370 1334 3 MP stroke
0 -4 3201 1340 2 MP stroke
-8 -6 8 6 2756 927 3 MP stroke
-7 6 7 -6 5114 1182 3 MP stroke
-5 4 5 -4 4773 1512 3 MP stroke
-9 -5 9 5 4265 1910 3 MP stroke
-15 10 15 -10 2669 638 3 MP stroke
-13 -12 13 12 5328 1013 3 MP stroke
-8 2 8 -2 1561 1571 3 MP stroke
-6 -1 6 1 1693 1605 3 MP stroke
-7 -13 7 13 1660 1585 3 MP stroke
-5 -8 5 8 1655 1569 3 MP stroke
gr

9 w
%%IncludeResource: font Helvetica
/Helvetica /ISOLatin1Encoding 120 FMSR

  51 2928 mt 
( ) s
5500  497 mt 
( ) s
6 w
21 w
1 sg
0 2045 170 0 0 -2045 5789 2727 4 MP
PP
-170 0 0 2045 170 0 0 -2045 5789 2727 5 MP stroke
gs 5789 682 171 2046 rc
/mwscm { [/Indexed /DeviceRGB 1
  <
    d8b365 5ab4ac 
  >
] setcolorspace } bdef mwscm
gs np 5789 682 mt 0 2045 rl 171 0 rl 0 -2045 rl cp c np
[510 0 0 2045 5619 682] cc
<< % Image dictionary
  /ImageType 1
  /Width 1 /Height 2
  /BitsPerComponent 1
  /Decode [0 1]
  /ImageMatrix [1.000000 0 0 2.000000 0 0]
  /DataSource currentfile
  /ASCII85Decode filter
  /RunLengthDecode filter
>>
image
!It0#
~>
gr
gr

0 sg
%%IncludeResource: font Helvetica-Bold
/Helvetica-Bold /ISOLatin1Encoding 168 FMSR

6043 2991 mt 
([-]) s
14 w
DO
SO
21 w
5789 2727 mt 5959 2727 L
5789  682 mt 5959  682 L
5789 2727 mt 5789  682 L
5959 2727 mt 5959  682 L
5789 2727 mt 5959 2727 L
5959 2727 mt 5959  682 L
5959 2727 mt 5754 2727 L
5789 2727 mt 5993 2727 L
%%IncludeResource: font Helvetica
/Helvetica /ISOLatin1Encoding 192 FMSR

5993 2798 mt 
( -1) s
5959 1704 mt 5754 1704 L
5789 1704 mt 5993 1704 L
5993 1775 mt 
(  0) s
5959  682 mt 5754  682 L
5789  682 mt 5993  682 L
5993  753 mt 
(  1) s
5789 2727 mt 5959 2727 L
5789  682 mt 5959  682 L
5789 2727 mt 5789  682 L
5959 2727 mt 5959  682 L

end %%Color Dict

eplot
%%EndObject

epage
end

showpage

%%Trailer
%%EOF
