%!PS-Adobe-3.0 EPSF-3.0
%%Creator: MATLAB, The Mathworks, Inc. Version 7.5.0.338 (R2007b). Operating System: Linux 3.8.4 #1 SMP Thu Mar 21 12:34:11 PDT 2013 x86_64.
%%Title: figs/eps/hadgem1_tm_coeffs_all_june.eps
%%CreationDate: 08/21/2013  15:45:28
%%DocumentNeededFonts: Helvetica
%%+ Helvetica-Bold
%%DocumentProcessColors: Cyan Magenta Yellow Black
%%LanguageLevel: 2
%%Pages: 1
%%BoundingBox:     2   206   571   643
%%EndComments

%%BeginProlog
% MathWorks dictionary
/MathWorks 160 dict begin
% definition operators
/bdef {bind def} bind def
/ldef {load def} bind def
/xdef {exch def} bdef
/xstore {exch store} bdef
% operator abbreviations
/c  /clip ldef
/cc /concat ldef
/cp /closepath ldef
/gr /grestore ldef
/gs /gsave ldef
/mt /moveto ldef
/np /newpath ldef
/cm /currentmatrix ldef
/sm /setmatrix ldef
/rm /rmoveto ldef
/rl /rlineto ldef
/s {show newpath} bdef
/sc {setcmykcolor} bdef
/sr /setrgbcolor ldef
/sg /setgray ldef
/w /setlinewidth ldef
/j /setlinejoin ldef
/cap /setlinecap ldef
/rc {rectclip} bdef
/rf {rectfill} bdef
% page state control
/pgsv () def
/bpage {/pgsv save def} bdef
/epage {pgsv restore} bdef
/bplot /gsave ldef
/eplot {stroke grestore} bdef
% orientation switch
/portraitMode 0 def /landscapeMode 1 def /rotateMode 2 def
% coordinate system mappings
/dpi2point 0 def
% font control
/FontSize 0 def
/FMS {/FontSize xstore findfont [FontSize 0 0 FontSize neg 0 0]
  makefont setfont} bdef
/reencode {exch dup where {pop load} {pop StandardEncoding} ifelse
  exch dup 3 1 roll findfont dup length dict begin
  { 1 index /FID ne {def}{pop pop} ifelse } forall
  /Encoding exch def currentdict end definefont pop} bdef
/isroman {findfont /CharStrings get /Agrave known} bdef
/FMSR {3 1 roll 1 index dup isroman {reencode} {pop pop} ifelse
  exch FMS} bdef
/csm {1 dpi2point div -1 dpi2point div scale neg translate
 dup landscapeMode eq {pop -90 rotate}
  {rotateMode eq {90 rotate} if} ifelse} bdef
% line types: solid, dotted, dashed, dotdash
/SO { [] 0 setdash } bdef
/DO { [.5 dpi2point mul 4 dpi2point mul] 0 setdash } bdef
/DA { [6 dpi2point mul] 0 setdash } bdef
/DD { [.5 dpi2point mul 4 dpi2point mul 6 dpi2point mul 4
  dpi2point mul] 0 setdash } bdef
% macros for lines and objects
/L {lineto stroke} bdef
/MP {3 1 roll moveto 1 sub {rlineto} repeat} bdef
/AP {{rlineto} repeat} bdef
/PDlw -1 def
/W {/PDlw currentlinewidth def setlinewidth} def
/PP {closepath eofill} bdef
/DP {closepath stroke} bdef
/MR {4 -2 roll moveto dup  0 exch rlineto exch 0 rlineto
  neg 0 exch rlineto closepath} bdef
/FR {MR stroke} bdef
/PR {MR fill} bdef
/L1i {{currentfile picstr readhexstring pop} image} bdef
/tMatrix matrix def
/MakeOval {newpath tMatrix currentmatrix pop translate scale
0 0 1 0 360 arc tMatrix setmatrix} bdef
/FO {MakeOval stroke} bdef
/PO {MakeOval fill} bdef
/PD {currentlinewidth 2 div 0 360 arc fill
   PDlw -1 eq not {PDlw w /PDlw -1 def} if} def
/FA {newpath tMatrix currentmatrix pop translate scale
  0 0 1 5 -2 roll arc tMatrix setmatrix stroke} bdef
/PA {newpath tMatrix currentmatrix pop	translate 0 0 moveto scale
  0 0 1 5 -2 roll arc closepath tMatrix setmatrix fill} bdef
/FAn {newpath tMatrix currentmatrix pop translate scale
  0 0 1 5 -2 roll arcn tMatrix setmatrix stroke} bdef
/PAn {newpath tMatrix currentmatrix pop translate 0 0 moveto scale
  0 0 1 5 -2 roll arcn closepath tMatrix setmatrix fill} bdef
/vradius 0 def /hradius 0 def /lry 0 def
/lrx 0 def /uly 0 def /ulx 0 def /rad 0 def
/MRR {/vradius xdef /hradius xdef /lry xdef /lrx xdef /uly xdef
  /ulx xdef newpath tMatrix currentmatrix pop ulx hradius add uly
  vradius add translate hradius vradius scale 0 0 1 180 270 arc 
  tMatrix setmatrix lrx hradius sub uly vradius add translate
  hradius vradius scale 0 0 1 270 360 arc tMatrix setmatrix
  lrx hradius sub lry vradius sub translate hradius vradius scale
  0 0 1 0 90 arc tMatrix setmatrix ulx hradius add lry vradius sub
  translate hradius vradius scale 0 0 1 90 180 arc tMatrix setmatrix
  closepath} bdef
/FRR {MRR stroke } bdef
/PRR {MRR fill } bdef
/MlrRR {/lry xdef /lrx xdef /uly xdef /ulx xdef /rad lry uly sub 2 div def
  newpath tMatrix currentmatrix pop ulx rad add uly rad add translate
  rad rad scale 0 0 1 90 270 arc tMatrix setmatrix lrx rad sub lry rad
  sub translate rad rad scale 0 0 1 270 90 arc tMatrix setmatrix
  closepath} bdef
/FlrRR {MlrRR stroke } bdef
/PlrRR {MlrRR fill } bdef
/MtbRR {/lry xdef /lrx xdef /uly xdef /ulx xdef /rad lrx ulx sub 2 div def
  newpath tMatrix currentmatrix pop ulx rad add uly rad add translate
  rad rad scale 0 0 1 180 360 arc tMatrix setmatrix lrx rad sub lry rad
  sub translate rad rad scale 0 0 1 0 180 arc tMatrix setmatrix
  closepath} bdef
/FtbRR {MtbRR stroke } bdef
/PtbRR {MtbRR fill } bdef
/stri 6 array def /dtri 6 array def
/smat 6 array def /dmat 6 array def
/tmat1 6 array def /tmat2 6 array def /dif 3 array def
/asub {/ind2 exch def /ind1 exch def dup dup
  ind1 get exch ind2 get sub exch } bdef
/tri_to_matrix {
  2 0 asub 3 1 asub 4 0 asub 5 1 asub
  dup 0 get exch 1 get 7 -1 roll astore } bdef
/compute_transform {
  dmat dtri tri_to_matrix tmat1 invertmatrix 
  smat stri tri_to_matrix tmat2 concatmatrix } bdef
/ds {stri astore pop} bdef
/dt {dtri astore pop} bdef
/db {2 copy /cols xdef /rows xdef mul dup 3 mul string
  currentfile 
  3 index 0 eq {/ASCIIHexDecode filter}
  {/ASCII85Decode filter 3 index 2 eq {/RunLengthDecode filter} if }
  ifelse exch readstring pop
  dup 0 3 index getinterval /rbmap xdef
  dup 2 index dup getinterval /gbmap xdef
  1 index dup 2 mul exch getinterval /bbmap xdef pop pop}bdef
/it {gs np dtri aload pop moveto lineto lineto cp c
  cols rows 8 compute_transform 
  rbmap gbmap bbmap true 3 colorimage gr}bdef
/il {newpath moveto lineto stroke}bdef
currentdict end def
%%EndProlog

%%BeginSetup
MathWorks begin

0 cap

end
%%EndSetup

%%Page: 1 1
%%BeginPageSetup
%%PageBoundingBox:     2   206   571   643
MathWorks begin
bpage
%%EndPageSetup

%%BeginObject: obj1
bplot

/dpi2point 12 def
portraitMode 0000 10212 csm

   26  2493  6832  5245 rc
31 dict begin %Colortable dictionary
/c0 { 0.000000 0.000000 0.000000 sr} bdef
/c1 { 1.000000 1.000000 1.000000 sr} bdef
/c2 { 0.900000 0.000000 0.000000 sr} bdef
/c3 { 0.000000 0.820000 0.000000 sr} bdef
/c4 { 0.000000 0.000000 0.800000 sr} bdef
/c5 { 0.910000 0.820000 0.320000 sr} bdef
/c6 { 1.000000 0.260000 0.820000 sr} bdef
/c7 { 0.000000 0.820000 0.820000 sr} bdef
c0
1 j
6 w
gs 68 2575 5687 1595 rc
1 sg
0 1594 0 0 -5686 0 0 0 0 -1594 0 0 5686 0 68 4169 
8 MP
PP
gr

1 sg
33 w
0 sg
0 1594 -5686 0 0 -1594 5686 0 68 4169 5 MP stroke
gs 68 2575 5687 1595 rc
/c8 { 0.113725 0.568627 0.752941 sr} bdef
c8
0 0 0 -44 0 -45 0 -43 0 -43 0 -43 0 -42 0 -42 
0 -41 0 -41 0 -40 0 -40 0 -40 0 -39 0 -40 0 0 
-53 0 -53 0 -54 0 -53 0 -53 0 -53 0 -54 0 -53 0 
-53 0 -54 0 -53 0 -53 0 0 0 0 40 0 39 0 40 
0 40 0 40 0 41 0 41 0 42 0 42 0 43 0 43 
0 43 0 45 0 44 0 0 53 0 53 0 54 0 53 0 
53 0 54 0 53 0 53 0 53 0 54 0 53 0 53 0 
903 3284 57 MP
PP
/c9 { 0.498039 0.803922 0.733333 sr} bdef
c9
0 0 0 -44 0 -45 0 -43 0 -43 0 -43 0 -42 0 -42 
0 -41 0 -41 0 -40 0 -40 0 -40 0 -39 0 -40 0 0 
-53 0 -53 0 -54 0 -53 0 -53 0 -53 0 -54 0 -53 0 
-53 0 -54 0 -53 0 -48 0 -5 4 0 36 0 39 0 40 
0 40 0 40 0 41 0 41 0 42 0 42 0 43 0 43 
0 43 0 45 0 44 0 0 53 0 53 0 54 0 53 0 
53 0 54 0 53 0 53 0 53 0 54 0 53 0 53 0 
903 3284 57 MP
PP
0.878431 sg
0 0 0 -44 0 -45 0 -32 -53 0 -7 -11 -2 -43 9 -11 
53 -11 0 -21 0 -42 0 -42 0 -41 0 -41 0 -40 0 -40 
0 -40 0 -39 0 -40 0 0 -53 0 -53 0 -54 0 -53 0 
-53 0 -53 0 -54 0 -53 0 -45 0 -8 5 -6 -5 -48 0 
-53 0 -37 0 -16 10 0 30 0 39 0 40 0 40 0 40 
0 41 0 41 0 42 0 42 0 43 0 43 0 43 0 45 
0 44 0 0 53 0 53 0 54 0 53 0 53 0 54 0 
53 0 53 0 53 0 54 0 53 0 53 0 903 3284 63 MP
PP
0 0 0 -44 0 -45 0 -10 -53 0 -20 -33 -7 -43 27 -32 
27 -11 26 -11 0 -31 0 -42 0 -41 0 -41 0 -40 0 -40 
0 -40 0 -39 0 -40 0 0 -53 0 -53 0 -54 0 -53 0 
-53 0 -53 0 -54 0 -53 0 -27 0 -26 15 -16 -15 -38 0 
-53 0 -27 0 -26 17 0 23 0 39 0 40 0 40 0 40 
0 41 0 41 0 42 0 42 0 43 0 43 0 43 0 45 
0 44 0 0 53 0 53 0 54 0 53 0 53 0 54 0 
53 0 53 0 53 0 54 0 53 0 53 0 903 3284 63 MP
PP
/c10 { 0.996078 0.850980 0.462745 sr} bdef
c10
0 0 0 -33 -26 -11 -27 -22 -13 -23 -20 -43 -11 -43 31 -43 
13 -11 53 -21 0 -10 0 -42 0 -41 0 -41 0 -40 0 -40 
0 -40 0 -39 0 -40 0 0 -53 0 -53 0 -54 0 -26 0 
26 20 14 20 -14 19 -8 20 -45 25 -53 -5 -53 0 -14 -20 
14 -20 26 -19 14 -40 -40 0 -54 0 -53 0 -9 0 -44 25 
-27 -25 -27 0 -53 0 -16 0 -37 23 0 17 0 39 0 40 
0 40 0 40 0 41 0 41 0 42 0 42 0 43 0 43 
0 43 0 45 0 44 0 0 53 0 53 0 54 0 53 0 
53 0 54 0 53 0 53 0 53 0 54 0 53 0 53 0 
903 3284 73 MP
PP
c8
53 0 53 0 54 0 53 0 53 0 54 0 53 0 53 0 
54 0 53 0 53 0 0 0 0 0 -53 0 -53 -53 53 -51 
0 0 0 -51 53 -50 0 0 0 -49 0 -48 0 -47 0 -47 
0 -46 0 -46 0 -44 0 -45 0 0 -53 0 -53 0 -54 0 
-53 0 -53 0 -54 0 0 0 -53 45 -53 -45 0 0 -54 0 
-53 0 -53 0 0 0 0 45 0 44 0 46 0 46 0 47 
0 47 0 48 0 49 0 50 0 51 0 51 0 53 0 0 
5167 2796 57 MP
PP
/c11 { 0.992157 0.552941 0.235294 sr} bdef
c11
0 0 0 -11 -53 -11 -27 -22 -13 -45 -7 -43 -6 -22 -14 -21 
14 -22 13 -21 40 -32 27 -10 13 -42 13 -20 0 -21 0 -41 
0 -40 0 -40 0 -40 0 -39 0 -40 0 0 -53 0 -53 0 
-27 0 13 40 -13 39 -27 20 -53 15 -27 5 -26 20 -53 0 
-27 -20 -13 -40 13 -39 27 -20 13 -20 -13 0 -54 0 -26 0 
-27 20 -53 15 -38 -35 -16 0 -53 0 -5 0 -48 30 0 10 
0 39 0 40 0 40 0 40 0 41 0 41 0 42 0 42 
0 43 0 43 0 43 0 45 0 44 0 0 53 0 53 0 
54 0 53 0 53 0 54 0 53 0 53 0 53 0 54 0 
53 0 53 0 903 3284 75 MP
PP
c9
53 0 53 0 54 0 53 0 53 0 54 0 53 0 53 0 
54 0 53 0 53 0 0 0 0 0 -53 0 -53 -53 53 -51 
0 0 0 -51 27 -50 26 -5 0 -44 0 -48 0 -47 0 -47 
0 -46 0 -46 0 -44 0 -45 0 0 -53 0 -53 0 -54 0 
-53 0 -48 0 -5 5 -7 -5 -47 0 0 0 -53 45 -53 -34 
-40 34 -14 22 -5 -22 -48 -40 -9 -5 -44 0 0 0 0 45 
0 44 0 46 0 46 0 47 0 47 0 48 0 49 0 50 
0 51 0 51 0 53 0 0 5167 2796 61 MP
PP
0.878431 sg
53 0 53 0 54 0 53 0 53 0 54 0 53 0 53 0 
54 0 53 0 53 0 0 0 0 0 -53 0 -53 -53 53 -51 
0 0 0 -51 0 -37 -7 -13 7 -6 53 -8 0 -35 0 -48 
0 -47 0 -47 0 -46 0 -46 0 -44 0 -45 0 0 -53 0 
-53 0 -54 0 -53 0 -37 0 -16 14 -20 -14 -34 0 0 0 
-53 45 -53 -11 -14 11 -31 44 -9 6 -53 0 -13 -6 13 -5 
37 -39 -37 -31 -26 -14 -27 0 0 0 0 45 0 44 0 46 
0 46 0 47 0 47 0 48 0 49 0 50 0 51 0 51 
0 53 0 0 5167 2796 67 MP
PP
53 0 53 0 54 0 53 0 53 0 54 0 26 0 27 -9 
27 9 26 0 54 0 53 0 53 0 0 0 0 0 -53 0 
-53 -53 53 -51 0 0 0 -51 0 -12 -20 -38 20 -18 53 -6 
0 -25 0 -48 0 -47 0 -47 0 -46 0 -46 0 -44 0 -45 
0 0 -53 0 -53 0 -54 0 -53 0 -27 0 -26 23 -34 22 
-20 16 -53 -9 -53 4 -27 33 -27 17 -53 0 -40 -17 40 -16 
27 -28 -27 -22 -44 -23 -9 0 0 0 0 45 0 44 0 46 
0 46 0 47 0 47 0 48 0 49 0 50 0 51 0 51 
0 53 0 0 5167 2796 67 MP
PP
c10
53 0 27 26 26 0 54 0 53 0 27 0 26 -13 54 0 
53 -13 53 13 27 13 27 0 53 0 53 0 0 0 0 0 
-53 0 -53 -26 -14 -27 14 -12 53 -39 0 0 0 -26 -13 -25 
-20 -50 33 -30 53 -4 0 -15 0 -48 0 -47 0 -47 0 -46 
0 -46 0 -44 0 -45 0 0 -53 0 -53 0 -54 0 -53 0 
-16 0 -37 31 -20 14 -34 28 -53 -6 -53 11 -9 11 -45 29 
-53 0 -53 -6 0 23 0 46 0 47 0 47 0 48 0 49 
0 50 0 51 0 51 0 27 5167 2822 61 MP
PP
c11
53 0 27 25 26 27 27 -27 27 -25 53 0 27 25 26 14 
54 0 53 -5 53 5 14 -14 40 -38 26 -13 -13 -51 -7 -50 
47 -43 53 -1 0 -5 0 -48 0 -47 0 -47 0 -46 0 -46 
0 -44 0 -45 0 0 -53 0 -53 0 -27 0 -27 23 -26 -23 
-27 0 -5 0 -48 40 -7 5 -47 39 -53 -2 -27 7 -26 23 
-54 17 -53 0 -26 6 -27 23 0 23 0 47 0 47 0 48 
0 49 0 50 0 51 0 26 5167 2874 53 MP
PP
/c12 { 0.741176 0.000000 0.149020 sr} bdef
c12
0 -21 0 -40 0 -40 0 -40 0 -39 0 -40 0 0 -53 0 
-27 0 0 40 0 39 -26 20 -27 20 -27 20 -26 20 -27 20 
-53 0 -53 0 -54 0 -26 -20 -27 -20 -27 -20 0 -40 -26 -20 
-27 -19 -21 -40 -6 0 -26 0 -27 20 -53 16 0 4 0 39 
0 40 0 40 0 40 0 41 0 41 0 42 0 42 0 21 
26 22 0 43 0 43 0 45 27 22 27 22 26 0 54 0 
53 0 53 0 54 0 26 0 27 -22 26 -22 -26 -22 -27 -23 
27 -21 53 0 27 -22 26 -22 14 -21 13 -43 27 -21 26 -21 
27 -21 13 -21 14 -41 26 -20 903 3647 69 MP
PP
53 0 53 0 54 0 26 -25 0 -49 27 -24 53 0 27 24 
27 25 26 -25 27 -24 53 0 0 -24 0 -24 -26 -23 -27 -24 
-27 -23 -26 -23 -27 -23 -27 -23 -26 -23 -27 -22 -53 0 -27 22 
-27 23 -26 23 0 46 -27 23 -53 0 -27 24 0 47 0 48 
0 49 27 25 5007 2976 35 MP
PP
0.878431 sg
-40 -15 13 -39 27 -20 27 20 0 39 -27 15 1116 3773 7 MP
PP
c10
53 -17 16 -16 -16 -14 -53 -20 0 34 0 33 5167 3295 7 MP
PP
c11
-26 -21 26 -20 27 20 -27 21 1063 3565 5 MP
PP
53 -6 6 -5 -6 -5 -53 -6 0 11 0 11 5167 3317 7 MP
PP
/c13 { 0.329412 0.188235 0.019608 sr} bdef
c13
19 -14 -19 -14 -19 14 19 14 1489 3774 5 MP
PP
c9
-13 -5 13 -20 9 20 -9 5 1116 3783 5 MP
PP
0.878431 sg
20 -23 -20 0 0 0 0 23 4901 3350 5 MP
PP
c9
-26 -5 26 -8 7 8 -7 5 4901 3323 5 MP
PP
c10
7 -8 -7 0 0 0 0 8 4901 3365 5 MP
PP
c11
53 0 0 0 0 0 -53 0 -40 0 40 0 4634 2796 7 MP
PP
c12
53 0 0 0 0 0 -53 0 -13 0 13 0 4634 2796 7 MP
PP
9 w
0 sg
-7 12 -12 0 -7 12 -7 10 -9 8 -8 15 -7 15 12 7 
10 12 7 13 16 5 14 2 15 8 12 10 11 13 0 32 
-2 8 7 3 5 -11 12 -7 9 -10 10 -10 14 -11 7 -12 
12 -3 16 3 15 0 9 -7 17 2 4 7 12 0 -9 16 
-3 15 3 15 7 10 7 -3 2 -12 10 -13 5 8 9 12 
-2 13 5 13 11 10 12 13 12 12 7 13 7 16 5 15 
12 5 -17 5 -7 13 -9 16 -10 -8 -9 -8 -12 6 -10 -11 
-9 -18 -12 -15 -5 -16 -7 -13 -19 -5 -12 -7 -11 -13 -15 -2 
-9 -11 -14 3 -12 -8 -17 8 -12 5 -14 5 -14 0 -9 -10 
-3 -13 -5 -15 -19 -3 -16 -2 -17 -5 -14 -3 -10 0 5754 4010 80 MP stroke
1 7 -3 15 0 10 10 12 0 17 9 5 12 8 10 7 
7 15 2 10 -2 13 9 10 7 15 7 13 7 15 5 13 
10 15 2 12 7 11 3 12 9 11 9 12 7 13 3 13 
7 13 -7 5 -5 -13 -7 -15 -7 -10 -5 -10 -9 -11 -12 -10 
-7 5 0 13 -7 18 -10 18 0 -16 5 -15 5 -15 -15 0 
-9 -13 -7 -13 -9 -15 -10 -15 -10 -11 -9 -15 -5 -15 -7 -15 
-14 -8 -12 -10 -9 -15 -7 -15 -3 -15 3 -9 -3 -13 -2 -17 
-10 -10 -5 -10 -18 -5 -3 -2 5197 4169 61 MP stroke
19 -7 17 -23 23 -19 24 -23 24 -18 11 -23 -2 -22 -12 -21 
10 -22 0 -14 -21 -11 -15 -11 -26 -7 -26 3 -26 8 -26 7 
-26 7 -33 0 -21 -18 -19 4 -12 -18 28 7 24 -14 12 -10 
31 0 25 6 27 -3 23 -3 19 -11 0 -18 -7 -17 -16 -3 
0 -41 14 -11 16 4 10 14 14 10 21 -4 10 -20 9 -14 
0 -23 -2 -20 9 -20 22 -10 7 -16 14 -7 17 0 9 20 
24 -4 23 -6 19 -13 24 -3 24 -10 14 3 17 7 -12 6 
9 13 12 -10 19 -3 12 -6 14 -10 17 0 -5 13 26 10 
0 9 16 10 -9 20 -12 20 -19 7 0 13 17 0 0 14 
-7 17 0 13 19 -3 11 -14 22 -3 12 -10 5 -14 0 -20 
-3 -17 -14 -10 0 -19 -10 -13 10 -7 -10 -10 12 -10 3 -12 
14 6 19 0 9 -10 26 0 17 -6 0 -16 -12 -3 0 -10 
12 -9 12 6 0 19 9 -3 5 -16 7 -13 10 -12 12 -13 
16 -6 19 -10 17 -6 4 -12 3 -16 12 -6 14 -3 11 -6 
5 -16 17 3 14 -3 7 16 17 0 -10 -19 -4 -21 16 0 
19 -3 10 12 19 -3 14 -6 16 -3 -2 -18 -12 -7 -14 0 
-17 -9 -19 -3 -4 -6 -12 -12 2 -9 -7 -8 -14 -9 -7 -15 
2 -21 3 -20 2 -15 5 -20 7 -9 14 -3 16 3 24 3 
24 -6 19 6 21 3 21 -3 19 0 22 9 9 -15 17 -3 
7 -8 -12 -20 2 -14 -2 -12 -5 -17 3 -14 4 -17 3 -19 
9 -12 3 -16 -8 -11 -11 0 2 -17 0 -16 5 -14 -17 3 
-14 -3 -12 6 -12 0 -14 -8 -5 -9 -9 -16 -14 -5 -15 13 
-14 6 -16 2 -17 0 -17 0 -16 0 -10 14 -14 17 -14 0 
-5 13 -9 11 -17 11 14 11 3 14 -10 14 -14 17 -14 20 
-14 5 -17 6 -17 11 -14 9 3 20 2 17 -16 8 -12 9 
-17 -6 -19 -3 -16 -8 -17 3 -12 11 -17 9 -16 6 -7 11 
-12 6 -14 -3 -10 -6 -16 -3 -3 -17 -7 -14 -14 -15 -2 -11 
-15 0 -14 -14 -12 -14 -14 -9 -19 0 -12 -11 -12 -9 -9 -3 
-7 -13 -19 -6 -2 -11 -8 -14 -2 -14 7 -8 5 -14 0 -8 
-10 0 -4 8 -10 8 0 14 -14 6 0 13 14 9 -5 17 
-7 11 -11 -6 -15 -3 -2 -11 -10 -3 -4 12 14 13 14 9 
14 8 17 9 14 6 -7 11 24 0 16 8 14 9 8 8 
2 15 7 14 14 9 12 9 12 11 2 12 -4 12 7 8 
-3 12 -11 0 -15 9 -14 -3 5 -9 -3 -12 -7 -9 -9 6 
-3 12 -18 -12 -3 -14 -7 -9 0 -12 -16 -8 -8 -9 -16 -3 
-21 -14 -17 -15 -17 -8 -14 -11 -14 -9 2 -14 3 -20 0 -17 
-12 -8 -10 -14 -7 -11 -9 -17 -12 -14 -21 -2 -22 2 -9 -11 
-17 -2 -14 -11 0 19 4730 3605 300 MP stroke
-17 -6 12 6 3 11 11 6 10 8 5 11 9 11 10 14 
-3 19 -14 -13 -14 0 -5 8 7 8 -14 0 -7 9 -14 -3 
-12 3 -17 -3 -9 -11 -14 2 11 -11 0 -8 -11 11 -15 11 
-9 9 -22 3 -18 0 -17 -12 14 -3 -2 -8 16 0 19 0 
17 0 17 0 11 -11 5 -20 -23 3 4 -8 -2 -19 -5 -9 
7 -3 10 9 2 -11 -14 -6 -12 -5 2 -11 -12 -9 10 -10 
-14 0 -15 0 5 -9 -16 0 -19 -13 -14 -5 -22 8 -5 13 
-16 -3 -21 -8 -8 -10 -14 -6 -12 6 -11 0 -15 10 -12 11 
-19 -8 -9 0 -14 11 -2 -8 9 -11 -5 -11 5 -11 0 -21 
-2 -16 9 -14 7 -18 7 -16 5 -16 5 -16 9 -16 10 -10 
21 -3 16 -2 10 8 5 -11 12 5 -3 11 19 2 17 -2 
16 -8 15 -8 14 -3 16 8 17 0 14 6 12 5 17 2 
16 3 17 -3 7 14 17 0 16 5 17 2 2 13 17 6 
19 2 16 -2 17 -6 16 -13 8 -10 -5 -11 -3 -13 5 -13 
10 -7 11 -6 15 3 14 10 19 11 23 5 17 3 14 7 
7 8 0 16 17 5 16 8 17 3 22 2 18 0 15 6 
16 8 5 13 12 -3 12 6 2 13 -9 8 -12 11 -7 13 
2 13 10 6 4 19 -9 5 -7 14 19 -8 7 16 14 3 
14 -3 12 -8 14 -3 21 6 12 -6 22 6 12 -9 14 -2 
9 5 17 3 16 0 12 -3 14 0 14 -5 20 -3 21 -3 
14 -8 14 -11 15 -2 14 -3 7 -11 19 -8 14 -3 17 8 
12 -2 18 0 12 -3 19 11 7 11 15 -3 7 -16 4 -14 
7 -13 7 -13 17 -11 17 -5 14 -8 9 -14 12 -10 0 -11 
7 -13 10 -8 0 -26 -7 -10 7 -18 9 -13 12 -13 17 -8 
9 -13 19 -7 22 -3 9 -13 5 -15 7 -10 14 -8 7 -7 
5 -16 5 -12 7 -18 12 -13 9 -12 7 -12 7 -21 7 -12 
10 -8 2 -14 3 -15 -12 -10 -12 -13 0 -9 3588 4169 215 MP stroke
6 -3 19 -27 17 -19 16 -19 17 11 12 -19 14 -14 28 -4 
19 -19 19 -14 21 -15 -9 -14 12 -15 -5 -18 -2 -18 -14 -17 
9 -15 -5 -14 -21 4 14 -14 3 -18 -12 -10 -24 -10 -24 -4 
-23 11 -15 13 -21 18 -14 0 -9 14 -15 -11 -7 -24 -9 -21 
-10 -23 -9 -21 -17 -17 7 -13 -9 -17 0 -13 -19 0 -17 0 
2 13 -14 17 -19 0 -16 0 -12 23 -5 24 -5 17 0 21 
-4 13 -21 15 -22 10 10 7 -17 10 -7 11 7 14 19 14 
19 15 2 18 -4 21 -3 22 -9 11 -19 23 -22 14 -18 12 
-24 11 -10 15 -19 15 19 12 -10 11 4655 2575 70 MP stroke
-12 -19 33 4 24 8 18 7 38 0 6 -7 -22 -19 -21 0 
0 -23 35 0 29 19 31 11 0 19 5033 2575 14 MP stroke
-9 6 -5 -21 -23 -11 -22 -18 -19 -13 -21 -11 -9 -20 -19 -17 
-10 -21 -12 -23 0 27 7 24 0 20 19 14 -14 0 -5 17 
-9 -17 2 -14 -7 -20 0 -18 -14 11 -7 13 -10 -13 -12 -14 
24 7 14 -14 -4 -20 -14 3 0 -16 -8 -14 -9 -10 -17 -10 
-12 -16 0 23 15 23 11 17 -14 -7 -14 0 2 -13 -9 -17 
-12 -13 -16 -10 -20 7 10 -20 -7 -9 17 -10 -12 -20 -17 -9 
-16 -23 -22 -9 -7 -19 -12 -13 0 -12 -21 -13 -21 -6 -22 -9 
-16 -13 -17 -12 -16 -10 -17 10 0 -19 -12 -9 -9 -15 4 -6 
-9 -15 7 -19 2 7 12 -7 -12 16 17 9 19 0 24 9 
2 -9 -5 -9 -7 -16 -7 -18 -2 -11 -3 -13 -21 -5 21 0 
0 -12 -2 -15 5 -15 0 -17 2 -18 5 -20 7 -20 -2 -17 
-8 -11 -4 -17 2 -17 7 -17 0 -9 -9 -8 -7 -11 0 -12 
-3 -13 -9 -11 -12 -9 2 -11 -14 -2 0 8 -9 -3 4 -5 
-7 -14 12 8 -2 -14 -7 -10 -10 0 0 -14 2 -8 -14 -11 
-9 -14 -15 -16 0 -16 -21 -5 -16 -5 -15 -6 -9 0 -3 -10 
-9 0 -14 -11 -7 -13 -5 -16 -9 -16 -5 -13 -7 -10 0 -8 
-10 -8 0 -13 -7 -3 -2 -18 -14 -5 -15 -13 -9 -10 -10 -10 
0 -13 12 -8 17 2 -14 -10 -5 -10 -10 -5 -12 -8 -11 0 
-10 -10 -14 -7 -7 -16 0 -15 7 -10 -19 -8 -12 -10 -12 -12 
-14 -10 -9 -20 -17 15 9 12 12 15 12 0 7 13 -4 5 
9 10 0 10 9 15 5 16 14 15 10 15 12 10 5 16 
9 13 12 13 9 12 12 8 7 11 -2 13 5 13 2 13 
-2 10 -17 -8 -10 3 -9 -8 -12 -5 0 -13 -7 -16 -2 -10 
-10 -13 -7 -16 -14 -15 -14 -15 -17 -3 0 -15 -16 -13 -8 -10 
-7 0 -7 -10 5 -11 0 -7 -12 -8 -19 -7 -9 -18 -12 -10 
-12 -10 -12 -15 -9 -10 -12 -13 -10 -9 -4 -20 -10 -8 0 -10 
10 -10 -5 -7 9 -8 -6 -9 1050 4169 213 MP stroke
3 5 9 9 7 10 5 13 -5 10 14 10 5 15 -5 12 
0 45 -5 15 -4 15 -7 13 2 13 0 15 5 15 -3 15 
-9 11 -14 10 -14 10 -15 3 -9 7 -10 8 7 13 -9 5 
0 -13 -14 8 -12 3 -17 2 -14 -5 -14 -3 -12 8 -14 -10 
-2 -10 -15 -3 -16 3 -10 5 -9 -3 -7 -8 -5 6 14 10 
0 5 -7 5 -2 8 12 0 11 -3 10 3 -7 13 -14 -8 
-15 8 -12 0 -14 -2 -7 7 -5 -10 -14 0 -14 3 -14 2 
-10 -8 -14 -5 -5 -13 -14 3 -12 7 -14 3 -12 -10 -12 -18 
-7 -3 -4 -16 2 -12 0 -11 -9 3 4 -15 -2 -11 -10 -10 
-7 -12 -7 -16 -12 -10 -5 -12 -11 2 -7 5 -7 15 -3 18 
0 18 7 18 7 18 0 10 10 15 4 16 8 15 2 16 
2 16 -7 15 -7 16 -14 13 -14 8 -15 11 -9 10 -7 11 
-14 8 -12 3 -12 10 -12 11 -17 3 -7 8 15 0 -15 10 
-9 0 -5 8 0 11 12 0 14 0 -12 6 -9 3 -7 -3 
-7 -11 7 11 2 13 5 11 12 11 0 11 -3 14 17 11 
-14 -3 2 11 2 17 -4 10 -12 6 5 -11 0 -11 4 -14 
-11 -5 2 -9 -9 0 4 -10 5 -17 -7 3 -5 16 -9 14 
-7 8 11 20 5 16 -9 -6 -7 -10 -15 10 -9 17 -5 17 
10 6 -10 11 -14 8 -14 6 -15 0 -14 0 -14 6 -5 11 
-7 -8 -12 5 0 -5 -19 5 0 12 0 -9 15 0 4 14 
10 6 -7 8 2 9 -7 12 -9 11 0 6 -15 6 -16 5 
-10 15 -7 -6 -16 6 -15 6 -14 8 0 12 -21 0 -19 6 
-22 12 3 -12 -19 3 19 -12 12 -5 16 -12 8 -15 -5 -14 
-15 -9 -14 12 -14 11 -9 12 -15 0 -19 9 -28 8 -24 6 
-4 12 -17 6 -17 12 19 11 -2 18 7 6 10 -15 14 -14 
0 -15 14 3 16 -6 19 3 22 12 16 6 10 17 2 21 
-5 15 24 -6 19 18 -28 0 -15 7 -16 9 0 12 9 9 
19 6 22 -3 21 -3 19 -9 17 -6 19 -9 16 -13 12 -14 
12 -13 12 -12 19 -6 -12 13 -10 11 -12 12 -9 13 -12 15 
-16 12 -19 15 -20 0 -4 16 -12 12 -21 6 -17 0 -19 0 
-21 3 -17 -3 -16 0 -19 0 -14 -6 -22 3 -26 0 -14 13 
-12 12 -12 13 -24 9 -28 3 -19 13 -14 9 9 26 -4 16 
19 19 21 0 2 16 29 4 -24 13 14 9 26 4 10 13 
30 3 5 17 24 10 12 13 0 20 -12 14 14 10 0 14 
14 13 15 21 11 21 17 21 14 21 10 14 14 -14 12 -11 
-10 -13 12 -18 22 -11 9 -13 28 -11 19 24 17 4 14 17 
0 14 -2 21 7 18 -5 18 22 4 21 0 21 11 -7 14 
21 11 19 15 22 11 1953 2691 300 MP stroke
33 -8 19 0 26 8 28 3 19 -11 0 -18 -16 -11 7 -18 
9 -18 -14 -11 -5 -21 0 -18 15 -17 18 -4 3 -14 -17 -13 
-16 -7 -10 -24 -5 -17 -7 -24 0 -27 15 -17 21 -16 21 -13 
21 -10 -9 -16 -7 -17 -3 -22 0 -19 -11 -20 16 -19 24 -12 
-2 -13 19 13 9 16 14 12 12 16 19 16 -5 19 0 16 
8 17 -8 29 24 10 28 0 29 0 28 17 24 6 19 7 
16 17 27 13 28 7 28 14 22 -7 16 -7 0 14 10 17 
0 17 12 24 19 3 19 -3 9 17 0 21 -2 25 -7 18 
-7 18 -15 22 -14 18 -19 7 0 22 -26 7 -29 8 3 22 
-19 27 -43 0 -21 22 -21 23 1574 2575 77 MP stroke
-5 14 -12 13 0 12 7 5 14 0 12 3 14 -3 15 -5 
14 -2 14 -3 9 -5 3 -17 2 -12 1475 4169 14 MP stroke
-1 -3 0 -27 -19 -15 -3 -19 -26 -34 -7 -15 -16 -25 -15 -22 
-28 -25 -38 -4 -26 -7 -17 -18 -35 -14 -19 7 -12 21 -2 22 
-7 22 -15 21 12 30 -26 15 -21 22 -7 23 -3 22 13 23 
2886 2575 25 MP stroke
2233 2575 PD
7 -15 -16 -19 -43 0 -21 11 -31 -3 -28 -12 -26 -7 -24 -12 
0 -19 -24 -14 -21 -8 -29 -7 -9 -11 -26 -11 -26 -8 -28 -3 
0 18 21 15 23 18 22 15 12 19 -34 -11 -26 -15 -30 -15 
-36 0 -7 30 21 19 3 22 19 16 12 7 2166 2575 31 MP stroke
-14 -3 -17 12 -23 -6 -5 15 -19 4 -22 -6 -18 9 -22 -3 
-21 0 -24 6 -14 16 24 3 -12 16 -17 9 -7 16 7 13 
17 6 12 0 9 -9 7 6 -9 9 4 13 8 10 4 13 
8 16 19 7 9 16 5 20 9 13 19 7 19 0 -14 10 
-12 13 -10 17 -7 14 3 14 23 0 20 0 21 -4 -10 17 
-23 14 4 10 26 -3 26 0 10 -17 12 -14 2 -13 14 6 
10 -6 -12 -11 -19 0 12 -20 0 -14 -17 7 3 -17 19 -13 
-17 0 0 -13 -14 16 -12 -13 12 -23 -10 -13 -21 6 -21 7 
9 -16 -12 -13 -14 0 10 -17 0 -16 16 -3 26 3 -5 -10 
10 -12 -17 0 0 -19 15 -7 16 -9 -5 -10 -19 3 -14 -3 
-14 -9 -19 9 10 -15 14 0 16 0 12 -16 14 -12 17 -13 
3889 3189 89 MP stroke
-9 14 -9 18 -7 15 -19 -6 -8 12 -14 2 3 9 -17 6 
-19 3 -21 15 -15 -2 -18 0 -15 0 -16 -13 -15 -14 -4 -18 
-3 -15 -9 -9 16 0 17 -3 17 9 21 -3 17 -12 -8 -17 
15 3 19 0 2 -9 -17 -6 -11 -17 -5 -17 -14 -12 -19 0 
-5 -9 10 -14 -3 -14 -9 -17 2 14 -9 12 -20 2 -7 -14 
-11 -11 -12 -11 16 -12 19 0 17 6 7 -17 -2 -11 -22 0 
3 -14 -5 -14 -12 -3 7 -19 0 -22 -7 -22 2 -11 22 3 
21 -6 24 -5 16 5 19 11 5 8 19 3 14 6 3 16 
2 17 2 19 -12 0 -2 11 -5 17 -9 11 -14 3 16 5 
14 15 5 14 10 14 12 8 11 15 12 17 0 26 10 17 
11 6 0 12 5375 3381 83 MP stroke
-11 11 -3 17 -16 3 -3 18 0 14 -9 12 -14 5 -5 12 
2 18 -16 6 -12 12 -7 14 -17 0 -19 0 7 -11 -21 -9 
-17 6 -16 -9 19 -6 11 -15 -16 -6 -9 -6 4 -14 -9 -9 
-14 6 -10 9 -14 2 -14 9 -14 -3 -17 3 -10 0 -7 -11 
-12 -6 -9 -6 -14 -3 -14 -9 -15 -14 -9 -9 -14 -8 -19 -9 
-7 -6 -5 -14 -7 -11 2 -12 14 -8 17 -12 16 -2 17 2 
17 -2 16 -3 14 5 12 -2 14 8 12 0 10 14 19 0 
9 12 14 -3 20 0 16 3 19 -6 14 -9 14 -8 15 -9 
16 3 19 -3 19 3 17 6 14 11 5 14 11 15 4830 3459 72 MP stroke
-14 2 2 5 7 0 10 10 14 2 10 -2 -3 12 12 3 
14 2 14 10 12 5 12 8 14 7 14 5 15 0 9 10 
12 5 12 5 14 0 14 5 15 0 14 -5 14 -2 14 -3 
14 -8 10 -7 0 -10 14 -5 1636 4115 29 MP stroke
-19 0 -5 10 -16 0 -10 8 -9 7 -14 -3 -19 -2 14 -5 
-10 -8 -14 -2 -21 0 -9 -7 -12 -3 -15 -5 -14 3 -5 -5 
-2 -13 -14 -10 -21 0 -5 -10 9 -7 3 -2 1844 4169 23 MP stroke
-9 14 -10 15 -9 12 -7 0 -29 6 -14 3 -12 -3 -24 0 
5 12 -14 0 -19 -3 -19 0 -19 -3 -26 -6 -14 -18 -14 -21 
9 -11 24 9 16 14 -4 -12 4 -14 7 -17 0 -21 20 -8 
7 17 7 17 14 -5 12 -12 0 12 -15 17 0 20 7 12 
15 6 12 6 14 0 9 -18 22 -8 4 -15 7 -15 0 -14 
-4 -15 -3 -17 5 -20 7 -11 12 -6 12 0 9 17 0 20 
3 15 -5 14 -5 20 -2 12 -7 15 21 -12 1546 3387 55 MP stroke
-4 -16 -22 7 -24 -4 -21 0 -21 0 -19 -3 0 -11 14 -9 
-17 -4 -14 18 -12 4 -14 -4 7 -18 -14 9 0 -14 -17 0 
-4 18 -5 18 14 -4 -7 18 9 -2 10 -16 7 6 -5 12 
-21 19 21 -3 8 12 -15 15 15 6 19 0 18 -3 17 13 
-12 9 17 6 21 -12 -9 18 -10 12 -12 19 -7 19 14 0 
19 -9 10 -13 7 -16 12 -18 7 -22 14 -18 10 -15 -10 -3 
14 -12 12 -9 2361 3268 51 MP stroke
26 -11 -41 0 -16 -23 21 -19 -50 0 -28 -11 -36 -8 -30 15 
-26 4 -27 15 -37 12 -24 23 0 3 3659 2575 14 MP stroke
-14 11 -17 12 -14 13 -19 5 -11 9 -10 13 -19 9 -10 12 
-21 -9 -24 0 -9 -18 -12 -12 -21 0 0 -13 -10 -9 3 -14 
-7 -15 14 0 0 8 23 -2 24 -9 19 0 12 14 19 -3 
0 12 -19 13 14 0 22 -16 21 -9 21 -8 12 15 19 -9 
14 0 1430 3313 34 MP stroke
-7 -15 -14 -10 -24 3 -21 7 -22 12 -26 3 -4 16 -5 16 
2 20 5 16 -19 13 5 19 9 13 19 4 22 3 21 -7 
12 -16 -14 -6 9 -10 16 0 19 0 8 -13 -15 -7 15 -9 
-15 -13 -14 0 14 -19 7 -20 17 0 3754 3111 30 MP stroke
-34 0 -14 11 -2 14 -21 4 16 15 7 11 -33 0 -10 -11 
-21 -8 -19 4 -14 15 -9 11 -24 7 -21 0 -29 -7 33 0 
-9 -11 31 -4 23 -11 12 -22 22 -7 23 -7 5 -15 14 4 
24 -7 21 0 29 14 721 2746 28 MP stroke
5 -2 5 6 19 0 19 0 0 20 5 9 0 17 5701 3373 8 MP stroke
-12 15 -3 15 -9 3 -14 0 -7 14 -8 -4 5754 3330 7 MP stroke
42 0 544 2575 2 MP stroke
15 -7 -5 7 613 2575 3 MP stroke
-27 0 -19 -12 0 -13 7 -10 -4 -22 -14 7 -15 -4 5 -15 
-7 -13 -9 -9 -8 -16 22 -3 -3 13 10 12 0 13 19 15 
16 10 0 19 -7 9 12 10 12 -10 10 19 1171 3076 23 MP stroke
-17 6 -12 12 -18 9 -22 2 -21 12 -24 4 -16 2 -10 -6 
17 -3 16 -11 14 0 -7 -9 -9 -6 14 -15 12 -18 19 3 
17 0 16 -6 14 6 7 12 10 6 5026 3340 22 MP stroke
3 -15 -7 -27 29 -18 1569 2635 4 MP stroke
-39 0 -2 -23 -26 4 -19 19 -17 15 -21 0 -23 -12 -24 -15 
-26 19 28 11 14 19 22 16 16 7 1686 2575 14 MP stroke
-7 16 -17 0 -16 -3 -8 -19 -9 -19 -7 -20 -12 -22 -12 -15 
8 -25 16 -7 0 16 -2 16 -3 15 14 -6 3 19 21 0 
0 13 14 9 8 19 9 13 1226 3066 21 MP stroke
-17 -19 -19 -9 -19 -9 3 -10 -17 -6 -12 -9 -14 0 0 -9 
-21 -9 -17 -6 -14 6 14 15 22 15 16 16 14 18 22 7 
26 5 21 10 12 -6 399 3167 20 MP stroke
-12 9 -16 0 -19 8 -10 11 -16 3 -12 -3 -9 9 -20 0 
-19 0 12 -11 17 -9 19 -8 16 -6 17 -9 17 -2 16 0 
19 8 1674 3485 18 MP stroke
-10 -14 -9 0 -19 -11 -15 -3 -9 -11 -19 -2 -5 11 5 10 
-5 17 -9 14 19 -6 21 -3 17 0 12 6 14 0 12 -8 
4398 3613 17 MP stroke
-4 19 -19 0 0 14 14 4 9 11 -21 -7 -16 -11 2 -19 
-7 -14 -12 -11 0 -15 12 -7 14 0 0 18 19 8 9 10 
5029 2721 17 MP stroke
-14 -11 2 -13 -5 -9 -11 0 -8 -10 -9 10 -12 -10 7 19 
5 13 -14 -3 9 17 14 8 15 6 14 -6 7 -11 4647 3619 16 MP stroke
0 -12 -7 -13 0 -17 2 -17 -11 -11 -10 11 -12 0 -5 14 
-2 14 0 14 2 14 12 14 15 -11 9 -3 7 3 4280 3513 16 MP stroke
-10 15 -17 6 -18 3 -15 2 -19 -2 -9 8 -17 6 5 -12 
-2 -17 19 -6 16 -3 17 3 16 0 19 -5 15 2 1780 3434 16 MP stroke
-14 0 -14 -3 -10 -6 -19 1 -19 2 -2 9 14 -6 0 8 
17 -1 12 4 14 -3 2 6 17 2 2 -13 4716 3703 15 MP stroke
-4 11 -17 11 -19 0 -12 -11 -19 -7 -9 -14 0 -15 9 -14 
22 0 7 -10 12 0 4 17 10 18 16 14 4901 2750 15 MP stroke
-4 -11 -17 -3 -14 4 -5 7 -12 0 5 8 -17 13 17 -5 
14 -3 12 -2 7 -6 14 -2 4965 3708 13 MP stroke
-3 -23 -14 -10 -7 -19 -12 -16 -23 -16 9 19 14 10 -4 12 
9 20 -9 19 18 0 22 4 264 3033 13 MP stroke
-16 14 -15 10 -14 18 -14 0 -17 -10 -16 0 -17 -8 24 -7 
28 0 22 -6 9 -15 26 4 885 2852 13 MP stroke
-9 -9 -17 -9 -24 -9 0 12 -14 9 21 -3 17 0 17 5 
2 13 7 -9 2221 3313 11 MP stroke
-19 -10 -7 -9 -17 -6 -19 -3 -16 0 9 12 14 6 17 7 
19 3 19 0 2216 3198 11 MP stroke
-10 14 -7 13 10 18 -10 13 -12 17 -14 -20 17 -10 0 -35 
26 -10 1117 2948 10 MP stroke
2 -15 -2 -11 -14 -14 -5 17 -5 11 2 12 0 17 8 -12 
14 -5 4294 3459 10 MP stroke
-2 -10 7 -8 -14 -12 -8 -15 -4 10 7 10 0 10 7 15 
7 0 1823 4015 10 MP stroke
-12 5 0 18 -9 3 -2 8 7 -3 4 -8 12 -15 0 -8 
3643 3926 9 MP stroke
-5 -20 -16 -3 -17 6 7 8 -11 9 4 16 19 -8 19 -8 
4363 2973 9 MP stroke
-17 3 19 -16 -17 0 -9 10 0 -17 -7 23 7 10 24 -13 
1773 2951 9 MP stroke
-19 3 -19 3 -19 9 10 5 14 -5 14 -3 17 -3 2 -9 
1944 3525 9 MP stroke
-7 -9 -21 6 -6 -4 4 6 8 0 14 -5 8 6 1802 3968 8 MP stroke
-3 -5 2 -4 -6 -1 -9 3 4 9 6 4 6 -6 1686 4117 8 MP stroke
-5 -17 -14 8 0 17 -12 9 22 -6 9 -11 4562 2900 7 MP stroke
-24 3 -26 19 0 3 19 0 21 -7 10 -18 1669 2702 7 MP stroke
-3 -8 -10 2 1 8 9 3 3 -5 3599 3928 6 MP stroke
-7 -10 -7 5 -5 12 9 -6 10 -1 3569 3918 6 MP stroke
-13 -3 -10 -8 -10 14 14 8 19 -11 4112 3558 6 MP stroke
-10 -10 -14 9 -14 8 23 5 15 -12 4668 2866 6 MP stroke
-10 -10 -14 3 -7 7 14 3 17 -3 4360 3007 6 MP stroke
-9 -17 -18 0 -1 13 13 8 15 -4 4325 2982 6 MP stroke
-23 17 -7 21 23 -14 0 -14 7 -10 3842 2897 6 MP stroke
-17 -6 -19 -6 7 15 12 4 17 -7 1716 3079 6 MP stroke
3 -26 -12 -10 -12 18 -3 18 24 0 1771 2695 6 MP stroke
-14 0 -5 12 5 -7 9 2 5 -7 1953 4142 6 MP stroke
-18 -6 -15 -6 -5 15 17 -3 21 0 1686 3343 6 MP stroke
-3 -10 -9 7 -5 12 17 -9 4834 3670 5 MP stroke
-2 -7 -17 5 15 10 4 -8 4683 2843 5 MP stroke
-14 -4 -17 17 26 -3 5 -10 3837 2706 5 MP stroke
-9 -12 1 -15 -6 15 14 12 1842 3963 5 MP stroke
-7 -6 0 8 7 -2 4787 3570 4 MP stroke
-8 -10 0 18 8 -8 4004 2786 4 MP stroke
-17 16 5 -10 12 -6 1887 3706 4 MP stroke
-29 0 18 7 11 -7 1987 4120 4 MP stroke
-4 -19 -11 11 15 8 1934 4085 4 MP stroke
-17 -25 0 14 17 11 1866 4005 4 MP stroke
-19 0 19 0 3313 3617 3 MP stroke
-14 -5 14 5 3233 3592 3 MP stroke
0 -8 4787 3602 2 MP stroke
-15 -10 15 10 3955 2831 3 MP stroke
-14 3 14 -3 1722 4033 3 MP stroke
-11 -3 11 3 1969 4097 3 MP stroke
-13 -24 13 24 1907 4060 3 MP stroke
-11 -15 11 15 1896 4030 3 MP stroke
gr

9 w
%%IncludeResource: font Helvetica-Bold
/Helvetica-Bold /ISOLatin1Encoding 240 FMSR

2015 4019 mt 
(data-obs\)) s
6 w
gs 68 4312 5687 1595 rc
1 sg
0 1594 0 0 -5686 0 0 0 0 -1594 0 0 5686 0 68 5906 
8 MP
PP
gr

1 sg
33 w
0 sg
0 1594 -5686 0 0 -1594 5686 0 68 5906 5 MP stroke
gs 68 4312 5687 1595 rc
/c14 { 0.301961 0.000000 0.294118 sr} bdef
c14
0 0 0 -44 0 -45 0 -43 0 -43 0 -43 0 -42 0 -42 
0 -41 0 -41 0 -40 0 -40 0 -40 0 -39 0 -40 0 0 
-53 0 -53 0 -54 0 -53 0 -53 0 -53 0 -54 0 -53 0 
-53 0 -54 0 -53 0 -53 0 0 0 0 40 0 39 0 40 
0 40 0 40 0 41 0 41 0 42 0 42 0 43 0 43 
0 43 0 45 0 44 0 0 53 0 53 0 54 0 53 0 
53 0 54 0 53 0 53 0 53 0 54 0 53 0 53 0 
903 5021 57 MP
PP
/c15 { 0.145098 0.203922 0.580392 sr} bdef
c15
0 0 0 -44 0 -45 0 -43 0 -43 0 -43 0 -42 0 -42 
0 -41 0 -41 0 -40 0 -40 0 -40 0 -39 0 -40 0 0 
-53 0 -53 0 -54 0 -53 0 -53 0 -53 0 -54 0 -53 0 
-53 0 -54 0 -53 0 -53 0 0 0 0 40 0 39 0 40 
0 40 0 40 0 41 0 41 0 42 0 42 0 43 0 43 
0 43 0 45 0 44 0 0 53 0 53 0 54 0 53 0 
53 0 54 0 53 0 53 0 53 0 54 0 53 0 53 0 
903 5021 57 MP
PP
c8
0 0 0 -22 -53 0 -13 -22 -14 -45 27 -21 27 -22 26 -7 
0 -36 0 -43 0 -42 0 -42 0 -41 0 -41 0 -40 0 -40 
0 -40 0 -39 0 -40 0 0 -53 0 -53 0 -54 0 -53 0 
-53 0 -53 0 -54 0 -53 0 -53 0 -54 0 -53 0 -53 0 
0 0 0 40 0 39 0 40 0 40 0 40 0 41 0 41 
0 42 0 42 0 43 0 43 0 43 0 45 0 44 0 0 
53 0 53 0 54 0 53 0 53 0 54 0 53 0 53 0 
53 0 54 0 53 0 53 0 903 5021 61 MP
PP
c9
0 -21 0 -43 0 -42 0 -42 0 -41 0 -41 0 -40 0 -40 
0 -40 0 -39 0 -40 0 0 -53 0 -53 0 -54 0 -40 0 
40 30 9 10 -9 19 -26 20 -27 20 -27 20 -26 6 -53 4 
-54 -5 -5 -5 -8 -40 13 -20 27 -19 27 -20 26 -20 -26 0 
-54 0 -26 0 -27 5 -53 -1 -6 -4 -48 0 -53 0 -53 0 
0 0 0 40 0 39 0 40 0 40 0 40 0 41 0 41 
0 42 0 42 0 43 0 32 5 11 0 43 -5 6 0 39 
0 44 0 0 53 0 53 0 54 0 53 0 53 0 54 0 
53 0 53 0 53 0 54 0 26 0 -13 -44 -13 -22 -27 -23 
13 -43 7 -43 7 -11 40 -32 13 -7 27 7 -14 43 40 21 
903 5175 81 MP
PP
c14
53 0 53 0 54 0 53 0 53 0 54 0 53 0 53 0 
54 0 53 0 53 0 0 0 0 0 -53 0 -53 -53 53 -51 
0 0 0 -51 53 -50 0 0 0 -49 0 -48 0 -47 0 -47 
0 -46 0 -46 0 -44 0 -45 0 0 -53 0 -53 0 -54 0 
-53 0 -53 0 -54 0 0 0 -53 45 -53 -45 0 0 -54 0 
-53 0 -53 0 0 0 0 45 0 44 0 46 0 46 0 47 
0 47 0 48 0 49 0 50 0 51 0 51 0 53 0 0 
5167 4533 57 MP
PP
c15
53 0 53 0 54 0 53 0 53 0 54 0 53 0 53 0 
54 0 53 0 53 0 0 0 0 0 -53 0 -53 -53 53 -51 
0 0 0 -51 53 -50 0 0 0 -49 0 -48 0 -47 0 -47 
0 -46 0 -46 0 -44 0 -45 0 0 -53 0 -53 0 -54 0 
-53 0 -53 0 -54 0 0 0 -53 45 -53 -45 0 0 -54 0 
-53 0 -53 0 0 0 0 45 0 44 0 46 0 46 0 47 
0 47 0 48 0 49 0 50 0 51 0 51 0 53 0 0 
5167 4533 57 MP
PP
c8
53 0 53 0 54 0 53 0 53 0 54 0 53 0 53 0 
54 0 53 0 53 0 0 0 0 0 -53 0 -53 -53 53 -51 
0 0 0 -51 53 -50 0 0 0 -49 0 -48 0 -47 0 -47 
0 -46 0 -46 0 -44 0 -45 0 0 -53 0 -53 0 -27 0 
-27 23 -26 -23 -27 0 -53 0 -54 0 0 0 -53 45 -53 -45 
0 0 -54 0 -53 0 -53 0 0 0 0 45 0 44 0 46 
0 46 0 47 0 47 0 48 0 49 0 50 0 51 0 51 
0 53 0 0 5167 4533 59 MP
PP
0.878431 sg
0 -31 0 -42 0 -41 0 -41 0 -40 0 -40 0 -40 0 -39 
0 -40 0 0 -53 0 -53 0 -54 0 -13 0 13 10 27 30 
-20 39 -7 7 -44 33 -9 6 -53 14 -53 10 -54 -15 -16 -15 
-24 -40 31 -39 -44 -25 -53 -3 -16 -12 -38 0 -53 0 -53 0 
0 0 0 40 0 39 0 40 0 40 0 40 0 41 0 41 
0 42 0 42 0 43 0 10 16 33 0 43 -16 17 0 28 
0 44 0 0 53 0 53 0 54 0 53 0 53 0 54 0 
53 0 53 0 27 0 13 -44 5 -45 8 -21 14 -22 20 -43 
20 -32 13 -11 40 -21 53 10 903 5250 69 MP
PP
0 -10 0 -21 -9 -21 9 -10 0 -31 0 -41 0 -40 0 -40 
0 -40 0 -39 0 -40 0 0 -53 0 -53 0 -27 0 18 40 
-25 39 -20 20 -26 20 -27 20 -53 13 -27 7 -26 6 -14 -6 
-40 -15 -26 -25 -27 -33 -9 -7 9 -10 27 -29 -27 -15 -53 -5 
-27 -20 -27 0 -53 0 -53 0 0 0 0 40 0 39 0 40 
0 40 0 40 0 41 0 41 0 42 0 42 0 32 9 11 
17 43 0 43 -26 28 0 17 0 33 9 11 44 0 53 0 
54 0 53 0 53 0 54 0 53 0 26 0 27 -22 13 -22 
14 -45 13 -43 13 -11 20 -32 25 -43 9 -11 53 -24 53 3 
903 5271 73 MP
PP
c9
53 0 53 0 54 0 53 0 53 0 40 0 5 -53 9 -12 
9 12 44 44 53 -17 6 26 48 0 53 0 53 0 0 0 
0 0 -53 0 -53 -53 53 -51 0 0 0 -51 53 -50 0 0 
0 -49 0 -48 0 -47 0 -47 0 -23 -53 -12 -53 -5 -7 -6 
7 -23 26 -23 27 -11 13 11 40 34 0 -34 0 -44 0 -45 
0 0 -53 0 -40 0 -13 23 -27 22 -27 7 -26 -7 -27 -22 
-53 -12 -6 -11 -48 0 0 0 -53 45 -53 -22 -9 22 9 22 
26 22 -26 23 -54 0 -26 23 -27 11 -40 35 -13 23 0 24 
0 47 0 48 0 49 0 38 53 4 27 8 -27 25 -26 26 
-14 51 -13 27 0 26 0 0 5167 4533 77 MP
PP
c10
0 -10 0 -41 0 -40 0 -40 0 -40 0 -39 0 -40 0 0 
-53 0 -44 0 0 40 -9 9 -20 30 -34 33 -8 7 -45 33 
-27 7 -26 10 -53 10 -40 -20 -14 -5 -37 -35 -16 -20 -27 -20 
27 -30 9 -9 -9 -5 -53 -7 -38 -28 -16 0 -53 0 -53 0 
0 0 0 40 0 39 0 40 0 40 0 40 0 41 0 41 
0 42 0 42 0 11 26 32 11 43 0 43 -37 39 0 6 
0 11 26 33 27 0 53 0 54 0 53 0 53 0 54 0 
40 0 13 -11 40 -33 13 -22 9 -23 4 -43 40 -33 7 -10 
20 -43 27 -32 26 -10 27 -11 27 -31 26 -31 903 5354 71 MP
PP
c11
0 -21 0 -40 0 -40 0 -40 0 -39 0 -40 0 0 -53 0 
-27 0 0 40 -26 29 -7 10 -20 40 -27 20 -26 20 -27 20 
-53 10 -53 3 -54 -13 -26 -20 -22 -40 -5 -7 -45 -33 18 -39 
-26 -4 -48 -36 -6 0 -26 0 -27 10 -8 -10 -45 0 0 0 
0 40 0 39 0 40 0 40 0 40 0 41 0 41 0 42 
0 21 26 21 18 43 4 43 0 43 -22 45 18 44 9 0 
27 0 26 -22 27 22 27 0 53 0 53 0 54 0 13 0 
40 -33 13 -11 13 -45 0 -43 0 -43 27 -22 53 0 9 -21 
18 -42 -27 -21 -26 -21 26 -20 54 10 26 10 27 11 9 -11 
18 -41 26 -20 903 5384 75 MP
PP
0.878431 sg
53 12 53 13 54 0 13 12 -13 25 -27 26 -27 13 -53 13 
-13 25 13 27 27 26 26 0 54 0 53 0 53 0 14 0 
13 -53 -27 -38 -13 -13 13 -9 27 9 27 13 26 -13 -13 -51 
40 -37 27 -13 26 -8 54 -6 13 14 -7 50 -6 6 -54 19 
-26 26 -27 13 -27 38 27 27 40 -27 13 -25 7 25 9 53 
38 0 53 0 53 0 0 0 0 0 -53 0 -53 -53 53 -51 
0 0 0 -51 53 -50 0 0 0 -49 0 -48 0 -47 0 -39 
-26 -8 -27 -12 -53 -17 -20 -17 6 -46 -40 -22 -53 -15 -27 -7 
-26 -11 -16 -34 -38 0 0 0 -53 45 -47 0 47 39 13 5 
-13 23 -27 23 -26 23 -54 0 -53 11 -13 12 -13 47 0 47 
-14 48 -13 25 0 24 0 13 5167 4725 85 MP
PP
53 4 54 0 40 37 -14 51 27 26 13 -26 40 -26 40 -25 
14 -12 40 -38 13 -24 53 0 54 0 22 24 -2 50 -20 19 
-45 32 11 51 7 53 27 0 53 0 53 0 0 0 0 0 
-53 0 -53 -53 53 -51 0 0 0 -51 53 -50 0 0 0 -49 
0 -48 0 -47 0 -24 -53 -15 -13 -8 -40 -17 -34 -29 -6 -46 
-14 -7 -53 -15 -53 -15 -9 -7 -18 -45 -27 0 0 0 -53 45 
-33 0 33 28 40 16 -31 46 -9 11 -40 35 -13 8 -54 15 
-26 24 -13 47 -14 24 -13 24 -13 49 26 9 5114 4729 63 MP
PP
c10
54 12 26 12 27 25 27 25 26 9 14 -9 40 -37 13 -13 
27 -49 13 -12 27 12 26 8 54 7 31 34 2 50 -33 32 
-27 19 7 51 4 53 16 0 53 0 53 0 0 0 0 0 
-53 0 -53 -53 53 -51 0 0 0 -51 53 -50 0 0 0 -49 
0 -48 0 -47 0 -8 -53 -16 -40 -23 -13 -6 -47 -40 -7 -23 
-26 -23 -27 -7 -53 -15 -27 -22 -11 -45 -16 0 0 0 -53 45 
-20 0 20 16 53 17 14 11 -14 12 -26 34 -27 34 -13 12 
-40 23 -40 24 -14 23 -13 24 -13 48 26 25 5061 4762 63 MP
PP
c11
53 12 27 24 26 25 27 -25 27 -24 13 -25 40 -36 53 12 
27 24 27 5 40 44 6 50 -46 44 -9 7 2 51 1 53 
6 0 53 0 53 0 0 0 0 0 -53 0 -53 -53 53 -51 
0 0 0 -51 53 -50 0 0 0 -36 -26 -13 0 -48 0 -47 
-27 -8 -53 -16 -27 -23 -27 -23 -26 -23 -27 -23 -27 -23 -26 -7 
-14 7 -40 34 -8 12 -18 46 -27 23 -53 16 -14 8 -13 47 
0 48 27 13 5007 4774 51 MP
PP
c12
27 -21 0 -40 0 -40 0 -40 0 -39 0 -40 -27 0 -9 0 
0 40 -18 39 0 40 0 40 -26 20 -54 0 -26 20 26 21 
27 20 27 10 26 -10 27 -20 956 5384 21 MP
PP
27 -20 -27 -20 -26 -19 -27 -10 -23 -30 -30 0 0 0 0 40 
0 39 0 20 26 20 27 20 27 -20 26 -20 1436 5505 15 MP
PP
0.878431 sg
40 33 13 12 0 -12 0 -44 0 -34 -26 -11 -27 0 -13 0 
-14 45 27 11 4634 5054 11 MP
PP
c15
-26 -23 26 -11 27 -33 26 -34 27 34 -27 33 -26 11 -27 23 
5114 4998 9 MP
PP
c9
9 -11 31 -45 -40 0 -40 0 14 45 26 11 5114 5054 7 MP
PP
0.878431 sg
53 0 27 0 -27 -26 -53 0 -27 26 27 0 5007 4533 7 MP
PP
c11
53 6 9 -11 -3 -45 -6 0 0 0 -53 45 -7 0 7 5 
4954 5060 9 MP
PP
c12
53 -25 0 0 0 -12 -53 -12 -5 24 5 25 4634 4713 7 MP
PP
26 -22 -26 -22 -27 22 27 22 1382 5131 5 MP
PP
26 -21 -26 -21 -27 21 27 21 1382 5218 5 MP
PP
27 -21 -27 -20 -27 20 27 21 1489 5343 5 MP
PP
0.878431 sg
27 -27 -27 -12 -26 12 26 27 5061 4559 5 MP
PP
c8
-13 -25 13 -12 27 12 -27 25 4794 4663 5 MP
PP
0.878431 sg
9 -27 -9 -12 -26 12 26 27 4901 4559 5 MP
PP
c8
0 -23 0 -21 -26 21 26 23 903 5087 5 MP
PP
c12
26 -21 -26 -20 0 20 0 21 1542 5302 5 MP
PP
26 -21 -26 -20 0 20 0 21 1542 5384 5 MP
PP
c8
-27 -25 27 -5 4 5 -4 25 4687 4713 5 MP
PP
0.878431 sg
0 -22 0 -11 -26 11 26 22 4581 5043 5 MP
PP
c12
0 0 0 -26 -27 26 27 0 4634 4637 5 MP
PP
0.878431 sg
14 -23 -14 0 -13 0 13 23 5114 5087 5 MP
PP
13 -9 -13 -12 -9 12 9 9 4794 4577 5 MP
PP
c13
15 -27 -15 0 0 0 0 27 1542 5577 5 MP
PP
c14
-8 -11 8 -11 9 11 -9 11 5061 5054 5 MP
PP
0.878431 sg
0 -7 0 -22 -13 22 13 7 903 5189 5 MP
PP
c12
53 0 0 0 0 0 -53 0 -40 0 40 0 4634 4533 7 MP
PP
c13
25 0 -25 0 -12 0 12 0 4634 4533 5 MP
PP
9 w
0 sg
-7 12 -12 0 -7 12 -7 10 -9 8 -8 15 -7 15 12 7 
10 12 7 13 16 5 14 2 15 8 12 10 11 13 0 32 
-2 8 7 3 5 -11 12 -7 9 -10 10 -10 14 -11 7 -12 
12 -3 16 3 15 0 9 -7 17 2 4 7 12 0 -9 16 
-3 15 3 15 7 10 7 -3 2 -12 10 -13 5 8 9 12 
-2 13 5 13 11 10 12 13 12 12 7 13 7 16 5 15 
12 5 -17 5 -7 13 -9 16 -10 -8 -9 -8 -12 6 -10 -11 
-9 -18 -12 -15 -5 -16 -7 -13 -19 -5 -12 -7 -11 -13 -15 -2 
-9 -11 -14 3 -12 -8 -17 8 -12 5 -14 5 -14 0 -9 -10 
-3 -13 -5 -15 -19 -3 -16 -2 -17 -5 -14 -3 -10 0 5754 5747 80 MP stroke
1 7 -3 15 0 10 10 12 0 17 9 5 12 8 10 7 
7 15 2 10 -2 13 9 10 7 15 7 13 7 15 5 13 
10 15 2 12 7 11 3 12 9 11 9 12 7 13 3 13 
7 13 -7 5 -5 -13 -7 -15 -7 -10 -5 -10 -9 -11 -12 -10 
-7 5 0 13 -7 18 -10 18 0 -16 5 -15 5 -15 -15 0 
-9 -13 -7 -13 -9 -15 -10 -15 -10 -11 -9 -15 -5 -15 -7 -15 
-14 -8 -12 -10 -9 -15 -7 -15 -3 -15 3 -9 -3 -13 -2 -17 
-10 -10 -5 -10 -18 -5 -3 -2 5197 5906 61 MP stroke
19 -7 17 -23 23 -19 24 -23 24 -18 11 -23 -2 -22 -12 -21 
10 -22 0 -14 -21 -11 -15 -11 -26 -7 -26 3 -26 8 -26 7 
-26 7 -33 0 -21 -18 -19 4 -12 -18 28 7 24 -14 12 -10 
31 0 25 6 27 -3 23 -3 19 -11 0 -18 -7 -17 -16 -3 
0 -41 14 -11 16 4 10 14 14 10 21 -4 10 -20 9 -14 
0 -23 -2 -20 9 -20 22 -10 7 -16 14 -7 17 0 9 20 
24 -4 23 -6 19 -13 24 -3 24 -10 14 3 17 7 -12 6 
9 13 12 -10 19 -3 12 -6 14 -10 17 0 -5 13 26 10 
0 9 16 10 -9 20 -12 20 -19 7 0 13 17 0 0 14 
-7 17 0 13 19 -3 11 -14 22 -3 12 -10 5 -14 0 -20 
-3 -17 -14 -10 0 -19 -10 -13 10 -7 -10 -10 12 -10 3 -12 
14 6 19 0 9 -10 26 0 17 -6 0 -16 -12 -3 0 -10 
12 -9 12 6 0 19 9 -3 5 -16 7 -13 10 -12 12 -13 
16 -6 19 -10 17 -6 4 -12 3 -16 12 -6 14 -3 11 -6 
5 -16 17 3 14 -3 7 16 17 0 -10 -19 -4 -21 16 0 
19 -3 10 12 19 -3 14 -6 16 -3 -2 -18 -12 -7 -14 0 
-17 -9 -19 -3 -4 -6 -12 -12 2 -9 -7 -8 -14 -9 -7 -15 
2 -21 3 -20 2 -15 5 -20 7 -9 14 -3 16 3 24 3 
24 -6 19 6 21 3 21 -3 19 0 22 9 9 -15 17 -3 
7 -8 -12 -20 2 -14 -2 -12 -5 -17 3 -14 4 -17 3 -19 
9 -12 3 -16 -8 -11 -11 0 2 -17 0 -16 5 -14 -17 3 
-14 -3 -12 6 -12 0 -14 -8 -5 -9 -9 -16 -14 -5 -15 13 
-14 6 -16 2 -17 0 -17 0 -16 0 -10 14 -14 17 -14 0 
-5 13 -9 11 -17 11 14 11 3 14 -10 14 -14 17 -14 20 
-14 5 -17 6 -17 11 -14 9 3 20 2 17 -16 8 -12 9 
-17 -6 -19 -3 -16 -8 -17 3 -12 11 -17 9 -16 6 -7 11 
-12 6 -14 -3 -10 -6 -16 -3 -3 -17 -7 -14 -14 -15 -2 -11 
-15 0 -14 -14 -12 -14 -14 -9 -19 0 -12 -11 -12 -9 -9 -3 
-7 -13 -19 -6 -2 -11 -8 -14 -2 -14 7 -8 5 -14 0 -8 
-10 0 -4 8 -10 8 0 14 -14 6 0 13 14 9 -5 17 
-7 11 -11 -6 -15 -3 -2 -11 -10 -3 -4 12 14 13 14 9 
14 8 17 9 14 6 -7 11 24 0 16 8 14 9 8 8 
2 15 7 14 14 9 12 9 12 11 2 12 -4 12 7 8 
-3 12 -11 0 -15 9 -14 -3 5 -9 -3 -12 -7 -9 -9 6 
-3 12 -18 -12 -3 -14 -7 -9 0 -12 -16 -8 -8 -9 -16 -3 
-21 -14 -17 -15 -17 -8 -14 -11 -14 -9 2 -14 3 -20 0 -17 
-12 -8 -10 -14 -7 -11 -9 -17 -12 -14 -21 -2 -22 2 -9 -11 
-17 -2 -14 -11 0 19 4730 5342 300 MP stroke
-17 -6 12 6 3 11 11 6 10 8 5 11 9 11 10 14 
-3 19 -14 -13 -14 0 -5 8 7 8 -14 0 -7 9 -14 -3 
-12 3 -17 -3 -9 -11 -14 2 11 -11 0 -8 -11 11 -15 11 
-9 9 -22 3 -18 0 -17 -12 14 -3 -2 -8 16 0 19 0 
17 0 17 0 11 -11 5 -20 -23 3 4 -8 -2 -19 -5 -9 
7 -3 10 9 2 -11 -14 -6 -12 -5 2 -11 -12 -9 10 -10 
-14 0 -15 0 5 -9 -16 0 -19 -13 -14 -5 -22 8 -5 13 
-16 -3 -21 -8 -8 -10 -14 -6 -12 6 -11 0 -15 10 -12 11 
-19 -8 -9 0 -14 11 -2 -8 9 -11 -5 -11 5 -11 0 -21 
-2 -16 9 -14 7 -18 7 -16 5 -16 5 -16 9 -16 10 -10 
21 -3 16 -2 10 8 5 -11 12 5 -3 11 19 2 17 -2 
16 -8 15 -8 14 -3 16 8 17 0 14 6 12 5 17 2 
16 3 17 -3 7 14 17 0 16 5 17 2 2 13 17 6 
19 2 16 -2 17 -6 16 -13 8 -10 -5 -11 -3 -13 5 -13 
10 -7 11 -6 15 3 14 10 19 11 23 5 17 3 14 7 
7 8 0 16 17 5 16 8 17 3 22 2 18 0 15 6 
16 8 5 13 12 -3 12 6 2 13 -9 8 -12 11 -7 13 
2 13 10 6 4 19 -9 5 -7 14 19 -8 7 16 14 3 
14 -3 12 -8 14 -3 21 6 12 -6 22 6 12 -9 14 -2 
9 5 17 3 16 0 12 -3 14 0 14 -5 20 -3 21 -3 
14 -8 14 -11 15 -2 14 -3 7 -11 19 -8 14 -3 17 8 
12 -2 18 0 12 -3 19 11 7 11 15 -3 7 -16 4 -14 
7 -13 7 -13 17 -11 17 -5 14 -8 9 -14 12 -10 0 -11 
7 -13 10 -8 0 -26 -7 -10 7 -18 9 -13 12 -13 17 -8 
9 -13 19 -7 22 -3 9 -13 5 -15 7 -10 14 -8 7 -7 
5 -16 5 -12 7 -18 12 -13 9 -12 7 -12 7 -21 7 -12 
10 -8 2 -14 3 -15 -12 -10 -12 -13 0 -9 3588 5906 215 MP stroke
6 -3 19 -27 17 -19 16 -19 17 11 12 -19 14 -14 28 -4 
19 -19 19 -14 21 -15 -9 -14 12 -15 -5 -18 -2 -18 -14 -17 
9 -15 -5 -14 -21 4 14 -14 3 -18 -12 -10 -24 -10 -24 -4 
-23 11 -15 13 -21 18 -14 0 -9 14 -15 -11 -7 -24 -9 -21 
-10 -23 -9 -21 -17 -17 7 -13 -9 -17 0 -13 -19 0 -17 0 
2 13 -14 17 -19 0 -16 0 -12 23 -5 24 -5 17 0 21 
-4 13 -21 15 -22 10 10 7 -17 10 -7 11 7 14 19 14 
19 15 2 18 -4 21 -3 22 -9 11 -19 23 -22 14 -18 12 
-24 11 -10 15 -19 15 19 12 -10 11 4655 4312 70 MP stroke
-12 -19 33 4 24 8 18 7 38 0 6 -7 -22 -19 -21 0 
0 -23 35 0 29 19 31 11 0 19 5033 4312 14 MP stroke
-9 6 -5 -21 -23 -11 -22 -18 -19 -13 -21 -11 -9 -20 -19 -17 
-10 -21 -12 -23 0 27 7 24 0 20 19 14 -14 0 -5 17 
-9 -17 2 -14 -7 -20 0 -18 -14 11 -7 13 -10 -13 -12 -14 
24 7 14 -14 -4 -20 -14 3 0 -16 -8 -14 -9 -10 -17 -10 
-12 -16 0 23 15 23 11 17 -14 -7 -14 0 2 -13 -9 -17 
-12 -13 -16 -10 -20 7 10 -20 -7 -9 17 -10 -12 -20 -17 -9 
-16 -23 -22 -9 -7 -19 -12 -13 0 -12 -21 -13 -21 -6 -22 -9 
-16 -13 -17 -12 -16 -10 -17 10 0 -19 -12 -9 -9 -15 4 -6 
-9 -15 7 -19 2 7 12 -7 -12 16 17 9 19 0 24 9 
2 -9 -5 -9 -7 -16 -7 -18 -2 -11 -3 -13 -21 -5 21 0 
0 -12 -2 -15 5 -15 0 -17 2 -18 5 -20 7 -20 -2 -17 
-8 -11 -4 -17 2 -17 7 -17 0 -9 -9 -8 -7 -11 0 -12 
-3 -13 -9 -11 -12 -9 2 -11 -14 -2 0 8 -9 -3 4 -5 
-7 -14 12 8 -2 -14 -7 -10 -10 0 0 -14 2 -8 -14 -11 
-9 -14 -15 -16 0 -16 -21 -5 -16 -5 -15 -6 -9 0 -3 -10 
-9 0 -14 -11 -7 -13 -5 -16 -9 -16 -5 -13 -7 -10 0 -8 
-10 -8 0 -13 -7 -3 -2 -18 -14 -5 -15 -13 -9 -10 -10 -10 
0 -13 12 -8 17 2 -14 -10 -5 -10 -10 -5 -12 -8 -11 0 
-10 -10 -14 -7 -7 -16 0 -15 7 -10 -19 -8 -12 -10 -12 -12 
-14 -10 -9 -20 -17 15 9 12 12 15 12 0 7 13 -4 5 
9 10 0 10 9 15 5 16 14 15 10 15 12 10 5 16 
9 13 12 13 9 12 12 8 7 11 -2 13 5 13 2 13 
-2 10 -17 -8 -10 3 -9 -8 -12 -5 0 -13 -7 -16 -2 -10 
-10 -13 -7 -16 -14 -15 -14 -15 -17 -3 0 -15 -16 -13 -8 -10 
-7 0 -7 -10 5 -11 0 -7 -12 -8 -19 -7 -9 -18 -12 -10 
-12 -10 -12 -15 -9 -10 -12 -13 -10 -9 -4 -20 -10 -8 0 -10 
10 -10 -5 -7 9 -8 -6 -9 1050 5906 213 MP stroke
3 5 9 9 7 10 5 13 -5 10 14 10 5 15 -5 12 
0 45 -5 15 -4 15 -7 13 2 13 0 15 5 15 -3 15 
-9 11 -14 10 -14 10 -15 3 -9 7 -10 8 7 13 -9 5 
0 -13 -14 8 -12 3 -17 2 -14 -5 -14 -3 -12 8 -14 -10 
-2 -10 -15 -3 -16 3 -10 5 -9 -3 -7 -8 -5 6 14 10 
0 5 -7 5 -2 8 12 0 11 -3 10 3 -7 13 -14 -8 
-15 8 -12 0 -14 -2 -7 7 -5 -10 -14 0 -14 3 -14 2 
-10 -8 -14 -5 -5 -13 -14 3 -12 7 -14 3 -12 -10 -12 -18 
-7 -3 -4 -16 2 -12 0 -11 -9 3 4 -15 -2 -11 -10 -10 
-7 -12 -7 -16 -12 -10 -5 -12 -11 2 -7 5 -7 15 -3 18 
0 18 7 18 7 18 0 10 10 15 4 16 8 15 2 16 
2 16 -7 15 -7 16 -14 13 -14 8 -15 11 -9 10 -7 11 
-14 8 -12 3 -12 10 -12 11 -17 3 -7 8 15 0 -15 10 
-9 0 -5 8 0 11 12 0 14 0 -12 6 -9 3 -7 -3 
-7 -11 7 11 2 13 5 11 12 11 0 11 -3 14 17 11 
-14 -3 2 11 2 17 -4 10 -12 6 5 -11 0 -11 4 -14 
-11 -5 2 -9 -9 0 4 -10 5 -17 -7 3 -5 16 -9 14 
-7 8 11 20 5 16 -9 -6 -7 -10 -15 10 -9 17 -5 17 
10 6 -10 11 -14 8 -14 6 -15 0 -14 0 -14 6 -5 11 
-7 -8 -12 5 0 -5 -19 5 0 12 0 -9 15 0 4 14 
10 6 -7 8 2 9 -7 12 -9 11 0 6 -15 6 -16 5 
-10 15 -7 -6 -16 6 -15 6 -14 8 0 12 -21 0 -19 6 
-22 12 3 -12 -19 3 19 -12 12 -5 16 -12 8 -15 -5 -14 
-15 -9 -14 12 -14 11 -9 12 -15 0 -19 9 -28 8 -24 6 
-4 12 -17 6 -17 12 19 11 -2 18 7 6 10 -15 14 -14 
0 -15 14 3 16 -6 19 3 22 12 16 6 10 17 2 21 
-5 15 24 -6 19 18 -28 0 -15 7 -16 9 0 12 9 9 
19 6 22 -3 21 -3 19 -9 17 -6 19 -9 16 -13 12 -14 
12 -13 12 -12 19 -6 -12 13 -10 11 -12 12 -9 13 -12 15 
-16 12 -19 15 -20 0 -4 16 -12 12 -21 6 -17 0 -19 0 
-21 3 -17 -3 -16 0 -19 0 -14 -6 -22 3 -26 0 -14 13 
-12 12 -12 13 -24 9 -28 3 -19 13 -14 9 9 26 -4 16 
19 19 21 0 2 16 29 4 -24 13 14 9 26 4 10 13 
30 3 5 17 24 10 12 13 0 20 -12 14 14 10 0 14 
14 13 15 21 11 21 17 21 14 21 10 14 14 -14 12 -11 
-10 -13 12 -18 22 -11 9 -13 28 -11 19 24 17 4 14 17 
0 14 -2 21 7 18 -5 18 22 4 21 0 21 11 -7 14 
21 11 19 15 22 11 1953 4428 300 MP stroke
33 -8 19 0 26 8 28 3 19 -11 0 -18 -16 -11 7 -18 
9 -18 -14 -11 -5 -21 0 -18 15 -17 18 -4 3 -14 -17 -13 
-16 -7 -10 -24 -5 -17 -7 -24 0 -27 15 -17 21 -16 21 -13 
21 -10 -9 -16 -7 -17 -3 -22 0 -19 -11 -20 16 -19 24 -12 
-2 -13 19 13 9 16 14 12 12 16 19 16 -5 19 0 16 
8 17 -8 29 24 10 28 0 29 0 28 17 24 6 19 7 
16 17 27 13 28 7 28 14 22 -7 16 -7 0 14 10 17 
0 17 12 24 19 3 19 -3 9 17 0 21 -2 25 -7 18 
-7 18 -15 22 -14 18 -19 7 0 22 -26 7 -29 8 3 22 
-19 27 -43 0 -21 22 -21 23 1574 4312 77 MP stroke
-5 14 -12 13 0 12 7 5 14 0 12 3 14 -3 15 -5 
14 -2 14 -3 9 -5 3 -17 2 -12 1475 5906 14 MP stroke
-1 -3 0 -27 -19 -15 -3 -19 -26 -34 -7 -15 -16 -25 -15 -22 
-28 -25 -38 -4 -26 -7 -17 -18 -35 -14 -19 7 -12 21 -2 22 
-7 22 -15 21 12 30 -26 15 -21 22 -7 23 -3 22 13 23 
2886 4312 25 MP stroke
2233 4312 PD
7 -15 -16 -19 -43 0 -21 11 -31 -3 -28 -12 -26 -7 -24 -12 
0 -19 -24 -14 -21 -8 -29 -7 -9 -11 -26 -11 -26 -8 -28 -3 
0 18 21 15 23 18 22 15 12 19 -34 -11 -26 -15 -30 -15 
-36 0 -7 30 21 19 3 22 19 16 12 7 2166 4312 31 MP stroke
-14 -3 -17 12 -23 -6 -5 15 -19 4 -22 -6 -18 9 -22 -3 
-21 0 -24 6 -14 16 24 3 -12 16 -17 9 -7 16 7 13 
17 6 12 0 9 -9 7 6 -9 9 4 13 8 10 4 13 
8 16 19 7 9 16 5 20 9 13 19 7 19 0 -14 10 
-12 13 -10 17 -7 14 3 14 23 0 20 0 21 -4 -10 17 
-23 14 4 10 26 -3 26 0 10 -17 12 -14 2 -13 14 6 
10 -6 -12 -11 -19 0 12 -20 0 -14 -17 7 3 -17 19 -13 
-17 0 0 -13 -14 16 -12 -13 12 -23 -10 -13 -21 6 -21 7 
9 -16 -12 -13 -14 0 10 -17 0 -16 16 -3 26 3 -5 -10 
10 -12 -17 0 0 -19 15 -7 16 -9 -5 -10 -19 3 -14 -3 
-14 -9 -19 9 10 -15 14 0 16 0 12 -16 14 -12 17 -13 
3889 4926 89 MP stroke
-9 14 -9 18 -7 15 -19 -6 -8 12 -14 2 3 9 -17 6 
-19 3 -21 15 -15 -2 -18 0 -15 0 -16 -13 -15 -14 -4 -18 
-3 -15 -9 -9 16 0 17 -3 17 9 21 -3 17 -12 -8 -17 
15 3 19 0 2 -9 -17 -6 -11 -17 -5 -17 -14 -12 -19 0 
-5 -9 10 -14 -3 -14 -9 -17 2 14 -9 12 -20 2 -7 -14 
-11 -11 -12 -11 16 -12 19 0 17 6 7 -17 -2 -11 -22 0 
3 -14 -5 -14 -12 -3 7 -19 0 -22 -7 -22 2 -11 22 3 
21 -6 24 -5 16 5 19 11 5 8 19 3 14 6 3 16 
2 17 2 19 -12 0 -2 11 -5 17 -9 11 -14 3 16 5 
14 15 5 14 10 14 12 8 11 15 12 17 0 26 10 17 
11 6 0 12 5375 5118 83 MP stroke
-11 11 -3 17 -16 3 -3 18 0 14 -9 12 -14 5 -5 12 
2 18 -16 6 -12 12 -7 14 -17 0 -19 0 7 -11 -21 -9 
-17 6 -16 -9 19 -6 11 -15 -16 -6 -9 -6 4 -14 -9 -9 
-14 6 -10 9 -14 2 -14 9 -14 -3 -17 3 -10 0 -7 -11 
-12 -6 -9 -6 -14 -3 -14 -9 -15 -14 -9 -9 -14 -8 -19 -9 
-7 -6 -5 -14 -7 -11 2 -12 14 -8 17 -12 16 -2 17 2 
17 -2 16 -3 14 5 12 -2 14 8 12 0 10 14 19 0 
9 12 14 -3 20 0 16 3 19 -6 14 -9 14 -8 15 -9 
16 3 19 -3 19 3 17 6 14 11 5 14 11 15 4830 5196 72 MP stroke
-14 2 2 5 7 0 10 10 14 2 10 -2 -3 12 12 3 
14 2 14 10 12 5 12 8 14 7 14 5 15 0 9 10 
12 5 12 5 14 0 14 5 15 0 14 -5 14 -2 14 -3 
14 -8 10 -7 0 -10 14 -5 1636 5852 29 MP stroke
-19 0 -5 10 -16 0 -10 8 -9 7 -14 -3 -19 -2 14 -5 
-10 -8 -14 -2 -21 0 -9 -7 -12 -3 -15 -5 -14 3 -5 -5 
-2 -13 -14 -10 -21 0 -5 -10 9 -7 3 -2 1844 5906 23 MP stroke
-9 14 -10 15 -9 12 -7 0 -29 6 -14 3 -12 -3 -24 0 
5 12 -14 0 -19 -3 -19 0 -19 -3 -26 -6 -14 -18 -14 -21 
9 -11 24 9 16 14 -4 -12 4 -14 7 -17 0 -21 20 -8 
7 17 7 17 14 -5 12 -12 0 12 -15 17 0 20 7 12 
15 6 12 6 14 0 9 -18 22 -8 4 -15 7 -15 0 -14 
-4 -15 -3 -17 5 -20 7 -11 12 -6 12 0 9 17 0 20 
3 15 -5 14 -5 20 -2 12 -7 15 21 -12 1546 5124 55 MP stroke
-4 -16 -22 7 -24 -4 -21 0 -21 0 -19 -3 0 -11 14 -9 
-17 -4 -14 18 -12 4 -14 -4 7 -18 -14 9 0 -14 -17 0 
-4 18 -5 18 14 -4 -7 18 9 -2 10 -16 7 6 -5 12 
-21 19 21 -3 8 12 -15 15 15 6 19 0 18 -3 17 13 
-12 9 17 6 21 -12 -9 18 -10 12 -12 19 -7 19 14 0 
19 -9 10 -13 7 -16 12 -18 7 -22 14 -18 10 -15 -10 -3 
14 -12 12 -9 2361 5005 51 MP stroke
26 -11 -41 0 -16 -23 21 -19 -50 0 -28 -11 -36 -8 -30 15 
-26 4 -27 15 -37 12 -24 23 0 3 3659 4312 14 MP stroke
-14 11 -17 12 -14 13 -19 5 -11 9 -10 13 -19 9 -10 12 
-21 -9 -24 0 -9 -18 -12 -12 -21 0 0 -13 -10 -9 3 -14 
-7 -15 14 0 0 8 23 -2 24 -9 19 0 12 14 19 -3 
0 12 -19 13 14 0 22 -16 21 -9 21 -8 12 15 19 -9 
14 0 1430 5050 34 MP stroke
-7 -15 -14 -10 -24 3 -21 7 -22 12 -26 3 -4 16 -5 16 
2 20 5 16 -19 13 5 19 9 13 19 4 22 3 21 -7 
12 -16 -14 -6 9 -10 16 0 19 0 8 -13 -15 -7 15 -9 
-15 -13 -14 0 14 -19 7 -20 17 0 3754 4848 30 MP stroke
-34 0 -14 11 -2 14 -21 4 16 15 7 11 -33 0 -10 -11 
-21 -8 -19 4 -14 15 -9 11 -24 7 -21 0 -29 -7 33 0 
-9 -11 31 -4 23 -11 12 -22 22 -7 23 -7 5 -15 14 4 
24 -7 21 0 29 14 721 4483 28 MP stroke
5 -2 5 6 19 0 19 0 0 20 5 9 0 17 5701 5110 8 MP stroke
-12 15 -3 15 -9 3 -14 0 -7 14 -8 -4 5754 5067 7 MP stroke
42 0 544 4312 2 MP stroke
15 -7 -5 7 613 4312 3 MP stroke
-27 0 -19 -12 0 -13 7 -10 -4 -22 -14 7 -15 -4 5 -15 
-7 -13 -9 -9 -8 -16 22 -3 -3 13 10 12 0 13 19 15 
16 10 0 19 -7 9 12 10 12 -10 10 19 1171 4813 23 MP stroke
-17 6 -12 12 -18 9 -22 2 -21 12 -24 4 -16 2 -10 -6 
17 -3 16 -11 14 0 -7 -9 -9 -6 14 -15 12 -18 19 3 
17 0 16 -6 14 6 7 12 10 6 5026 5077 22 MP stroke
3 -15 -7 -27 29 -18 1569 4372 4 MP stroke
-39 0 -2 -23 -26 4 -19 19 -17 15 -21 0 -23 -12 -24 -15 
-26 19 28 11 14 19 22 16 16 7 1686 4312 14 MP stroke
-7 16 -17 0 -16 -3 -8 -19 -9 -19 -7 -20 -12 -22 -12 -15 
8 -25 16 -7 0 16 -2 16 -3 15 14 -6 3 19 21 0 
0 13 14 9 8 19 9 13 1226 4803 21 MP stroke
-17 -19 -19 -9 -19 -9 3 -10 -17 -6 -12 -9 -14 0 0 -9 
-21 -9 -17 -6 -14 6 14 15 22 15 16 16 14 18 22 7 
26 5 21 10 12 -6 399 4904 20 MP stroke
-12 9 -16 0 -19 8 -10 11 -16 3 -12 -3 -9 9 -20 0 
-19 0 12 -11 17 -9 19 -8 16 -6 17 -9 17 -2 16 0 
19 8 1674 5222 18 MP stroke
-10 -14 -9 0 -19 -11 -15 -3 -9 -11 -19 -2 -5 11 5 10 
-5 17 -9 14 19 -6 21 -3 17 0 12 6 14 0 12 -8 
4398 5350 17 MP stroke
-4 19 -19 0 0 14 14 4 9 11 -21 -7 -16 -11 2 -19 
-7 -14 -12 -11 0 -15 12 -7 14 0 0 18 19 8 9 10 
5029 4458 17 MP stroke
-14 -11 2 -13 -5 -9 -11 0 -8 -10 -9 10 -12 -10 7 19 
5 13 -14 -3 9 17 14 8 15 6 14 -6 7 -11 4647 5356 16 MP stroke
0 -12 -7 -13 0 -17 2 -17 -11 -11 -10 11 -12 0 -5 14 
-2 14 0 14 2 14 12 14 15 -11 9 -3 7 3 4280 5250 16 MP stroke
-10 15 -17 6 -18 3 -15 2 -19 -2 -9 8 -17 6 5 -12 
-2 -17 19 -6 16 -3 17 3 16 0 19 -5 15 2 1780 5171 16 MP stroke
-14 0 -14 -3 -10 -6 -19 1 -19 2 -2 9 14 -6 0 8 
17 -1 12 4 14 -3 2 6 17 2 2 -13 4716 5440 15 MP stroke
-4 11 -17 11 -19 0 -12 -11 -19 -7 -9 -14 0 -15 9 -14 
22 0 7 -10 12 0 4 17 10 18 16 14 4901 4487 15 MP stroke
-4 -11 -17 -3 -14 4 -5 7 -12 0 5 8 -17 13 17 -5 
14 -3 12 -2 7 -6 14 -2 4965 5445 13 MP stroke
-3 -23 -14 -10 -7 -19 -12 -16 -23 -16 9 19 14 10 -4 12 
9 20 -9 19 18 0 22 4 264 4770 13 MP stroke
-16 14 -15 10 -14 18 -14 0 -17 -10 -16 0 -17 -8 24 -7 
28 0 22 -6 9 -15 26 4 885 4589 13 MP stroke
-9 -9 -17 -9 -24 -9 0 12 -14 9 21 -3 17 0 17 5 
2 13 7 -9 2221 5050 11 MP stroke
-19 -10 -7 -9 -17 -6 -19 -3 -16 0 9 12 14 6 17 7 
19 3 19 0 2216 4935 11 MP stroke
-10 14 -7 13 10 18 -10 13 -12 17 -14 -20 17 -10 0 -35 
26 -10 1117 4685 10 MP stroke
2 -15 -2 -11 -14 -14 -5 17 -5 11 2 12 0 17 8 -12 
14 -5 4294 5196 10 MP stroke
-2 -10 7 -8 -14 -12 -8 -15 -4 10 7 10 0 10 7 15 
7 0 1823 5752 10 MP stroke
-12 5 0 18 -9 3 -2 8 7 -3 4 -8 12 -15 0 -8 
3643 5663 9 MP stroke
-5 -20 -16 -3 -17 6 7 8 -11 9 4 16 19 -8 19 -8 
4363 4710 9 MP stroke
-17 3 19 -16 -17 0 -9 10 0 -17 -7 23 7 10 24 -13 
1773 4688 9 MP stroke
-19 3 -19 3 -19 9 10 5 14 -5 14 -3 17 -3 2 -9 
1944 5262 9 MP stroke
-7 -9 -21 6 -6 -4 4 6 8 0 14 -5 8 6 1802 5705 8 MP stroke
-3 -5 2 -4 -6 -1 -9 3 4 9 6 4 6 -6 1686 5854 8 MP stroke
-5 -17 -14 8 0 17 -12 9 22 -6 9 -11 4562 4637 7 MP stroke
-24 3 -26 19 0 3 19 0 21 -7 10 -18 1669 4439 7 MP stroke
-3 -8 -10 2 1 8 9 3 3 -5 3599 5665 6 MP stroke
-7 -10 -7 5 -5 12 9 -6 10 -1 3569 5655 6 MP stroke
-13 -3 -10 -8 -10 14 14 8 19 -11 4112 5295 6 MP stroke
-10 -10 -14 9 -14 8 23 5 15 -12 4668 4603 6 MP stroke
-10 -10 -14 3 -7 7 14 3 17 -3 4360 4744 6 MP stroke
-9 -17 -18 0 -1 13 13 8 15 -4 4325 4719 6 MP stroke
-23 17 -7 21 23 -14 0 -14 7 -10 3842 4634 6 MP stroke
-17 -6 -19 -6 7 15 12 4 17 -7 1716 4816 6 MP stroke
3 -26 -12 -10 -12 18 -3 18 24 0 1771 4432 6 MP stroke
-14 0 -5 12 5 -7 9 2 5 -7 1953 5879 6 MP stroke
-18 -6 -15 -6 -5 15 17 -3 21 0 1686 5080 6 MP stroke
-3 -10 -9 7 -5 12 17 -9 4834 5407 5 MP stroke
-2 -7 -17 5 15 10 4 -8 4683 4580 5 MP stroke
-14 -4 -17 17 26 -3 5 -10 3837 4443 5 MP stroke
-9 -12 1 -15 -6 15 14 12 1842 5700 5 MP stroke
-7 -6 0 8 7 -2 4787 5307 4 MP stroke
-8 -10 0 18 8 -8 4004 4523 4 MP stroke
-17 16 5 -10 12 -6 1887 5443 4 MP stroke
-29 0 18 7 11 -7 1987 5857 4 MP stroke
-4 -19 -11 11 15 8 1934 5822 4 MP stroke
-17 -25 0 14 17 11 1866 5742 4 MP stroke
-19 0 19 0 3313 5354 3 MP stroke
-14 -5 14 5 3233 5329 3 MP stroke
0 -8 4787 5339 2 MP stroke
-15 -10 15 10 3955 4568 3 MP stroke
-14 3 14 -3 1722 5770 3 MP stroke
-11 -3 11 3 1969 5834 3 MP stroke
-13 -24 13 24 1907 5797 3 MP stroke
-11 -15 11 15 1896 5767 3 MP stroke
gr

9 w
2015 5756 mt 
(tm-obs\)) s
6 w
gs 68 6049 5687 1595 rc
1 sg
0 1594 0 0 -5686 0 0 0 0 -1594 0 0 5686 0 68 7643 
8 MP
PP
gr

1 sg
33 w
0 sg
0 1594 -5686 0 0 -1594 5686 0 68 7643 5 MP stroke
gs 68 6049 5687 1595 rc
c14
0 0 0 -44 0 -45 0 -43 0 -43 0 -43 0 -42 0 -42 
0 -41 0 -41 0 -40 0 -40 0 -40 0 -39 0 -40 0 0 
-53 0 -53 0 -54 0 -53 0 -53 0 -53 0 -54 0 -53 0 
-53 0 -54 0 -53 0 -53 0 0 0 0 40 0 39 0 40 
0 40 0 40 0 41 0 41 0 42 0 42 0 43 0 43 
0 43 0 45 0 44 0 0 53 0 53 0 54 0 53 0 
53 0 54 0 53 0 53 0 53 0 54 0 53 0 53 0 
903 6758 57 MP
PP
c15
0 0 0 -44 0 -45 0 -43 0 -43 0 -43 0 -42 0 -42 
0 -41 0 -41 0 -40 0 -40 0 -40 0 -39 0 -40 0 0 
-53 0 -53 0 -54 0 -53 0 -53 0 -53 0 -54 0 -53 0 
-53 0 -54 0 -53 0 -53 0 0 0 0 40 0 39 0 40 
0 40 0 40 0 41 0 41 0 42 0 21 26 21 -26 21 
0 22 0 43 0 43 0 45 0 44 0 0 53 0 53 0 
54 0 53 0 53 0 54 0 53 0 53 0 53 0 54 0 
53 0 53 0 903 6758 59 MP
PP
c8
0 -32 0 -43 0 -42 0 -42 0 -41 0 -41 0 -40 0 -40 
0 -40 0 -39 0 -40 0 0 -53 0 -53 0 -54 0 -53 0 
-53 0 -53 0 -54 0 -53 0 -27 0 -26 10 -9 -10 -45 0 
-53 0 -53 0 0 0 0 40 0 39 0 40 0 40 0 40 
0 41 0 41 0 35 13 7 40 31 27 11 -27 21 -27 22 
-26 21 0 22 0 22 26 21 -26 23 0 22 0 44 0 0 
53 0 53 0 54 0 53 0 53 0 54 0 53 0 26 0 
27 -22 27 -22 0 -45 26 -21 27 -22 27 -22 26 -21 20 -43 
7 -21 13 21 0 43 -13 21 -27 22 27 22 27 -22 26 -11 
903 6901 73 MP
PP
c14
53 0 53 0 54 0 53 0 53 0 54 0 53 0 53 0 
54 0 53 0 53 0 0 0 0 0 -53 0 -53 -53 53 -51 
0 0 0 -51 53 -50 0 0 0 -49 0 -48 0 -47 0 -47 
0 -46 0 -46 0 -44 0 -45 0 0 -53 0 -53 0 -54 0 
-53 0 -53 0 -54 0 0 0 -53 45 -53 -45 0 0 -54 0 
-53 0 -53 0 0 0 0 45 0 44 0 46 0 46 0 47 
0 47 0 48 0 49 0 50 0 51 0 51 0 53 0 0 
5167 6270 57 MP
PP
c15
53 0 53 0 54 0 53 0 53 0 54 0 53 0 53 0 
54 0 53 0 53 0 0 0 0 0 -53 0 -53 -53 53 -51 
0 0 0 -51 53 -50 0 0 0 -49 0 -48 0 -47 0 -47 
0 -23 -26 -23 -27 -23 -53 0 -14 -23 14 -22 53 0 27 22 
26 23 0 -23 0 -44 0 -22 -26 -23 -27 0 -53 0 -54 0 
-53 0 -53 0 -54 0 0 0 -53 45 -53 -45 0 0 -54 0 
-53 0 -53 0 0 0 0 45 0 44 0 46 0 46 0 47 
0 47 0 48 0 49 0 50 0 51 0 51 0 53 0 0 
5167 6270 65 MP
PP
c8
53 0 53 0 54 0 53 0 53 0 54 0 53 0 53 0 
54 0 53 0 53 0 0 0 0 0 -53 0 -53 -53 53 -51 
0 0 0 -51 53 -50 0 0 0 -49 0 -48 0 -47 0 -24 
-26 -23 -27 -23 -27 23 -26 8 -9 -8 -18 -46 -13 -46 13 -44 
-27 -22 -53 0 -53 0 -4 -23 -50 0 0 0 -53 45 -49 0 
-4 22 -27 22 -27 5 -53 18 -26 -23 0 -44 -27 -22 0 22 
0 44 0 46 0 46 0 47 0 47 0 48 0 25 53 0 
53 12 54 -12 53 0 27 24 0 50 -27 13 -53 12 -54 13 
-53 -13 -26 26 0 51 -27 27 0 26 0 0 5167 6270 71 MP
PP
c9
0 -10 0 -43 0 -42 0 -35 -26 -7 0 -41 26 -20 0 -21 
0 -40 0 -40 0 -40 0 -39 0 -40 0 0 -53 0 -53 0 
-48 0 21 40 -13 39 -14 20 -26 20 26 20 14 20 -14 10 
-53 10 -53 -14 -53 -1 -9 -5 -45 -34 -53 14 -13 -20 -14 -40 
0 -39 -26 -10 -27 -30 -27 0 -53 0 -53 0 0 0 0 40 
0 39 0 40 0 40 0 40 0 41 0 41 0 21 40 -21 
13 -5 53 -15 54 0 5 20 1 42 -6 4 -48 38 -6 11 
-40 32 -13 5 -47 38 47 38 53 -5 9 10 -9 5 -53 1 
-47 39 7 44 40 0 40 0 13 -4 27 4 27 0 26 0 
27 -11 9 11 44 0 54 0 40 0 13 -22 26 -22 14 -45 
13 -21 27 -22 -27 -22 -13 -21 13 -7 27 7 26 21 27 -21 
27 -7 33 -36 7 -42 13 -21 9 21 31 42 0 43 13 10 
903 6923 97 MP
PP
0.878431 sg
0 -20 0 -40 0 -40 0 -39 0 -40 0 0 -53 0 -53 0 
-38 0 29 40 -5 39 -26 40 26 40 14 20 6 20 -6 21 
-27 -21 -27 -10 -26 10 -27 10 -13 -10 -40 -20 -53 -5 -27 -15 
-27 -20 -40 20 -13 6 -27 -6 -13 -40 -13 -20 -7 -20 -2 -39 
-36 -40 -9 0 -26 0 -27 5 -4 -5 -49 0 0 0 0 40 
0 39 0 40 0 40 0 40 0 41 0 41 0 7 13 -7 
40 -15 44 -26 9 -7 54 -13 8 20 8 41 4 42 -20 13 
-38 29 -16 32 -13 11 -40 16 -33 27 33 27 53 -16 27 32 
-27 14 -53 3 -33 28 20 44 13 0 13 0 40 -13 47 -31 
7 -11 26 11 27 11 27 33 26 0 54 0 13 0 31 -44 
9 -22 13 -23 13 -43 -13 -43 40 -22 53 15 54 -15 20 -21 
-7 -42 -13 -21 -9 -21 9 -20 26 -21 27 -5 47 -36 6 -20 
903 7162 97 MP
PP
c9
53 0 9 12 18 48 26 13 54 -5 26 -8 27 -6 53 -6 
54 0 53 -12 9 24 44 31 54 -12 16 30 -5 50 -11 15 
-47 36 -1 51 0 53 48 0 53 0 53 0 0 0 0 0 
-53 0 -53 -53 53 -51 0 0 0 -51 53 -50 0 0 0 -49 
0 -48 0 -24 -26 -23 -27 -24 -53 0 -27 -23 -27 -35 -9 -11 
3 -46 -47 -39 -53 0 -6 -5 -6 -45 -42 0 0 0 -53 45 
-40 0 13 44 27 23 7 23 -7 4 -27 -4 -26 -23 -54 -9 
-46 32 -7 8 -53 3 0 35 0 47 0 35 5167 6584 63 MP
PP
0.878431 sg
53 0 27 36 26 36 54 4 53 -10 53 -18 54 0 26 -12 
27 -6 13 6 14 48 26 19 54 -13 23 43 -4 50 -19 25 
-34 26 -4 51 0 53 38 0 53 0 53 0 0 0 0 0 
-53 0 -53 -53 53 -51 0 0 0 -51 53 -50 0 0 0 -44 
-53 0 -27 -5 27 -24 27 -24 -27 -24 -27 -23 -26 -8 -45 -39 
-9 -12 -26 -34 6 -46 -33 -28 -53 0 -16 -16 -3 -45 -35 0 
0 0 -53 45 -31 0 31 39 53 0 9 5 -9 8 -33 38 
-20 14 -47 32 -6 23 -9 -23 0 -46 -45 -23 -33 23 -20 23 
-53 11 0 12 0 47 0 11 5167 6608 69 MP
PP
6 -7 -6 -21 -9 -21 -18 -42 18 -41 -45 -34 -53 24 -40 -31 
-13 -7 -53 -8 -45 -25 -9 -7 -13 7 -40 20 -40 20 13 41 
0 41 7 42 -33 21 -27 21 -13 43 -5 43 36 43 9 11 
53 23 13 11 31 44 9 0 27 0 27 -11 26 -33 0 -45 
-26 -21 -14 -22 -40 -33 -13 -10 -13 -43 26 -21 40 -21 -6 -42 
20 -15 26 15 0 42 18 42 9 21 53 -14 53 14 54 -14 
1009 6969 49 MP
PP
27 24 18 47 8 12 54 12 53 -6 40 -18 13 -8 54 0 
53 -10 40 18 4 48 9 6 27 -6 27 -24 26 -24 -26 -24 
-9 -23 -45 -39 -9 -8 -35 -46 11 -46 -20 -16 -53 0 -27 16 
-27 23 -20 23 -33 23 -33 23 33 39 9 8 -9 11 -53 0 
-27 -11 0 -47 0 -46 -27 -14 -20 14 -33 38 -26 8 26 23 
5114 6643 41 MP
PP
c10
40 -15 -14 -41 -26 -5 -54 -25 -53 23 -13 7 4 41 -7 41 
9 42 -46 29 -16 13 2 43 -13 43 27 33 26 10 27 11 
27 -11 26 -21 14 -22 -14 -11 -26 11 -27 22 -13 -22 13 -22 
13 -21 -4 -43 44 -35 14 -7 6 -42 34 -26 1222 7086 31 MP
PP
0.878431 sg
40 -21 -40 -30 -9 -10 9 -7 45 -33 -11 -40 -7 -39 -27 -30 
-53 5 -12 -15 -41 0 0 0 0 40 0 39 0 40 0 40 
0 40 0 41 0 21 53 -6 27 -15 26 -20 1436 7121 23 MP
PP
c10
27 24 26 23 54 0 53 -6 53 18 27 -35 -27 -24 -26 -23 
-27 -35 -13 -11 13 -23 7 -23 -7 -5 -53 0 -9 5 -45 38 
-6 8 -47 32 -20 14 20 23 4954 6643 21 MP
PP
14 -7 -14 -10 -26 -30 26 -20 27 -20 -7 -40 -11 -39 -9 -10 
-53 -5 -21 -25 -32 0 0 0 0 40 0 39 0 40 0 40 
0 40 0 31 26 10 27 5 9 -5 44 -34 1436 7135 23 MP
PP
c9
54 0 53 0 53 0 54 0 26 0 -26 -13 -16 -40 -38 -36 
-40 -15 -13 -13 -27 13 -26 13 -54 0 -39 38 0 53 39 0 
5061 6270 17 MP
PP
c15
-13 -5 13 -26 27 -25 0 -50 27 -24 53 0 53 18 54 -12 
10 18 -7 50 -3 5 -54 20 -26 26 -27 8 -27 -8 -26 -26 
-27 26 -27 5 4901 6369 19 MP
PP
0.878431 sg
0 -33 0 -33 -9 -7 0 -39 9 -10 0 -30 0 0 -53 0 
-53 0 -27 0 27 33 9 7 0 39 -9 20 -14 20 14 20 
9 20 11 40 33 26 33 -26 11 -40 9 -7 903 7189 23 MP
PP
c11
9 -6 -2 -40 -7 -20 -26 -19 -27 -5 -29 -35 -24 0 0 0 
0 40 0 39 0 30 26 10 -26 20 0 20 0 40 0 10 
26 -10 27 -20 9 -20 44 -34 1436 7216 21 MP
PP
45 39 8 8 54 0 53 -2 53 5 9 -11 -9 -8 -44 -39 
-9 -12 -40 -34 -13 -23 -27 23 -27 23 -53 18 -7 5 7 8 
4954 6658 17 MP
PP
c10
0 -20 0 -20 -26 -20 0 -39 26 -30 0 -10 0 0 -53 0 
-53 0 -16 0 16 20 26 20 0 39 -13 40 13 40 7 40 
20 15 20 -15 7 -40 26 -20 903 7202 21 MP
PP
c15
-26 20 -27 20 -27 20 -26 20 -53 0 -27 -20 0 -40 27 -20 
26 -19 27 -20 26 20 27 19 27 -19 26 -20 9 20 -9 19 
1063 7282 17 MP
PP
0.878431 sg
27 0 27 -26 13 26 40 0 40 0 13 -9 27 -44 -27 -25 
-53 0 -53 13 -54 0 -13 12 0 53 13 0 5061 6270 15 MP
PP
53 0 53 0 0 0 0 0 -53 0 -53 -53 53 -51 0 0 
0 -51 53 -50 0 0 0 -34 -53 0 -23 34 -4 50 -26 36 
-20 15 -7 51 0 53 27 0 4687 6270 21 MP
PP
c10
53 0 53 0 0 0 0 0 -53 0 -53 -53 53 -51 0 0 
0 -51 53 -50 0 0 0 -24 -53 0 -17 24 -2 50 -34 46 
-7 5 -9 51 0 53 16 0 4687 6270 21 MP
PP
c11
13 -5 -13 -20 -27 -21 -27 -10 -26 10 -14 41 -13 21 -5 20 
5 21 53 0 7 -21 47 -36 1222 7096 13 MP
PP
c10
27 -7 0 -42 -18 -42 18 -41 -27 -20 -40 20 14 41 -14 42 
14 42 26 7 1063 6969 11 MP
PP
c11
0 -6 0 -7 -44 -33 0 -39 31 -40 -40 0 -53 0 -6 0 
6 7 44 33 0 39 -4 40 4 40 2 40 7 5 7 -5 
2 -40 44 -34 903 7216 19 MP
PP
0.878431 sg
53 0 27 -28 0 -45 -27 0 0 0 -53 45 -22 0 22 28 
4954 6774 9 MP
PP
c11
0 0 0 -51 53 -50 0 0 0 -14 -53 0 -10 14 -1 50 
-29 51 40 0 4634 6374 11 MP
PP
0.878431 sg
34 -22 -34 -22 -53 5 -20 17 20 33 53 -11 1436 6780 7 MP
PP
c9
-54 -11 -9 -21 9 -7 54 -25 26 32 -26 32 1222 6944 7 MP
PP
c14
-26 -13 26 -25 27 -25 27 -8 26 8 -26 25 -27 25 -27 13 
5061 6412 9 MP
PP
c10
53 0 16 -16 3 -45 -19 0 0 0 -53 45 -13 0 13 16 
4954 6786 9 MP
PP
8 -11 -8 -22 -54 0 -13 22 13 22 54 -11 1222 6791 7 MP
PP
c8
54 3 0 -34 0 0 -54 0 -46 0 46 31 5061 6816 7 MP
PP
c12
0 0 0 -51 53 -50 0 0 0 -5 -53 0 -3 5 -1 50 
-9 51 13 0 4634 6374 11 MP
PP
c9
40 -40 -40 -25 -27 25 27 40 4794 6283 5 MP
PP
c11
53 0 6 -5 6 -45 -12 0 0 0 -53 45 -4 0 4 5 
4954 6797 9 MP
PP
53 0 53 0 0 0 0 0 -53 0 -53 -53 0 -25 -6 25 
0 53 6 0 4687 6270 11 MP
PP
c10
9 -23 0 -46 -9 -5 -6 5 -20 46 26 23 5061 6643 7 MP
PP
20 -13 -20 -14 -53 8 -7 6 7 11 53 2 1436 6789 7 MP
PP
53 -2 13 -6 -13 -12 -53 0 -27 12 27 8 5007 6564 7 MP
PP
c14
-27 -25 27 -25 27 25 -27 25 4794 6400 5 MP
PP
c9
54 -12 0 -11 0 0 -54 0 -33 0 33 23 5061 6824 7 MP
PP
c14
-27 -22 27 -22 27 22 -27 22 956 6780 5 MP
PP
0.878431 sg
16 -27 -16 -15 -40 15 40 27 4901 6296 5 MP
PP
40 -16 -40 -16 -20 16 20 16 1489 6874 5 MP
PP
c15
-13 -21 13 -21 27 21 -27 21 1436 6997 5 MP
PP
c12
27 -21 -27 -20 -13 20 13 21 1276 7080 5 MP
PP
c10
26 -21 -26 -20 -9 20 9 21 1169 7039 5 MP
PP
c14
-26 -22 26 -5 27 5 -27 22 5061 6780 5 MP
PP
0.878431 sg
0 -31 0 -21 -26 21 26 31 903 6987 5 MP
PP
c8
26 0 -26 -22 -27 22 27 0 1009 6758 5 MP
PP
26 -23 -26 0 -27 0 27 23 4687 6824 5 MP
PP
0 -23 0 -21 -26 21 26 23 903 6824 5 MP
PP
c9
27 -20 -27 0 -27 0 27 20 1116 7321 5 MP
PP
c11
9 -21 -9 -21 -13 21 13 21 1063 6997 5 MP
PP
c14
-27 -25 27 -6 3 6 -3 25 4687 6450 5 MP
PP
c9
13 -10 -13 -21 -13 21 13 10 1489 7008 5 MP
PP
c11
26 -21 -26 -4 -6 4 6 21 1382 6955 5 MP
PP
0.878431 sg
40 -14 -40 0 -20 0 20 14 5061 6833 5 MP
PP
c12
26 -10 -26 -20 0 20 0 10 1542 7252 5 MP
PP
13 -20 -13 0 -27 0 27 20 956 7321 5 MP
PP
c8
-27 -11 27 -11 8 11 -8 11 1222 6965 5 MP
PP
c11
13 -11 -13 -22 -9 22 9 11 1382 6879 5 MP
PP
0.878431 sg
13 0 -13 -26 -13 26 13 0 4954 6270 5 MP
PP
c11
9 -21 -9 -7 -13 7 13 21 1063 7080 5 MP
PP
c15
-6 -14 6 -25 9 25 -9 14 4847 6309 5 MP
PP
c12
16 -32 -16 0 0 0 0 32 1542 7309 5 MP
PP
0.878431 sg
13 -14 -13 -8 -9 8 9 14 4794 6309 5 MP
PP
c9
-7 -21 7 -5 8 5 -8 21 1222 7039 5 MP
PP
c11
7 -4 -7 -5 -26 5 26 4 1436 6798 5 MP
PP
c10
6 -9 -6 -5 -13 5 13 9 4901 6314 5 MP
PP
13 -5 -13 -6 -7 6 7 5 1489 6885 5 MP
PP
0.878431 sg
0 -10 0 -7 -9 7 9 10 903 7008 5 MP
PP
c13
8 -16 -8 0 0 0 0 16 1542 7325 5 MP
PP
0.878431 sg
14 -5 -14 0 -6 0 6 5 5061 6842 5 MP
PP
c12
4 -23 -4 0 0 0 0 23 4901 6824 5 MP
PP
53 0 0 0 0 0 -53 0 -43 0 43 0 4634 6270 7 MP
PP
c13
35 0 -35 0 -21 0 21 0 4634 6270 5 MP
PP
9 w
0 sg
-7 12 -12 0 -7 12 -7 10 -9 8 -8 15 -7 15 12 7 
10 12 7 13 16 5 14 2 15 8 12 10 11 13 0 32 
-2 8 7 3 5 -11 12 -7 9 -10 10 -10 14 -11 7 -12 
12 -3 16 3 15 0 9 -7 17 2 4 7 12 0 -9 16 
-3 15 3 15 7 10 7 -3 2 -12 10 -13 5 8 9 12 
-2 13 5 13 11 10 12 13 12 12 7 13 7 16 5 15 
12 5 -17 5 -7 13 -9 16 -10 -8 -9 -8 -12 6 -10 -11 
-9 -18 -12 -15 -5 -16 -7 -13 -19 -5 -12 -7 -11 -13 -15 -2 
-9 -11 -14 3 -12 -8 -17 8 -12 5 -14 5 -14 0 -9 -10 
-3 -13 -5 -15 -19 -3 -16 -2 -17 -5 -14 -3 -10 0 5754 7484 80 MP stroke
1 7 -3 15 0 10 10 12 0 17 9 5 12 8 10 7 
7 15 2 10 -2 13 9 10 7 15 7 13 7 15 5 13 
10 15 2 12 7 11 3 12 9 11 9 12 7 13 3 13 
7 13 -7 5 -5 -13 -7 -15 -7 -10 -5 -10 -9 -11 -12 -10 
-7 5 0 13 -7 18 -10 18 0 -16 5 -15 5 -15 -15 0 
-9 -13 -7 -13 -9 -15 -10 -15 -10 -11 -9 -15 -5 -15 -7 -15 
-14 -8 -12 -10 -9 -15 -7 -15 -3 -15 3 -9 -3 -13 -2 -17 
-10 -10 -5 -10 -18 -5 -3 -2 5197 7643 61 MP stroke
19 -7 17 -23 23 -19 24 -23 24 -18 11 -23 -2 -22 -12 -21 
10 -22 0 -14 -21 -11 -15 -11 -26 -7 -26 3 -26 8 -26 7 
-26 7 -33 0 -21 -18 -19 4 -12 -18 28 7 24 -14 12 -10 
31 0 25 6 27 -3 23 -3 19 -11 0 -18 -7 -17 -16 -3 
0 -41 14 -11 16 4 10 14 14 10 21 -4 10 -20 9 -14 
0 -23 -2 -20 9 -20 22 -10 7 -16 14 -7 17 0 9 20 
24 -4 23 -6 19 -13 24 -3 24 -10 14 3 17 7 -12 6 
9 13 12 -10 19 -3 12 -6 14 -10 17 0 -5 13 26 10 
0 9 16 10 -9 20 -12 20 -19 7 0 13 17 0 0 14 
-7 17 0 13 19 -3 11 -14 22 -3 12 -10 5 -14 0 -20 
-3 -17 -14 -10 0 -19 -10 -13 10 -7 -10 -10 12 -10 3 -12 
14 6 19 0 9 -10 26 0 17 -6 0 -16 -12 -3 0 -10 
12 -9 12 6 0 19 9 -3 5 -16 7 -13 10 -12 12 -13 
16 -6 19 -10 17 -6 4 -12 3 -16 12 -6 14 -3 11 -6 
5 -16 17 3 14 -3 7 16 17 0 -10 -19 -4 -21 16 0 
19 -3 10 12 19 -3 14 -6 16 -3 -2 -18 -12 -7 -14 0 
-17 -9 -19 -3 -4 -6 -12 -12 2 -9 -7 -8 -14 -9 -7 -15 
2 -21 3 -20 2 -15 5 -20 7 -9 14 -3 16 3 24 3 
24 -6 19 6 21 3 21 -3 19 0 22 9 9 -15 17 -3 
7 -8 -12 -20 2 -14 -2 -12 -5 -17 3 -14 4 -17 3 -19 
9 -12 3 -16 -8 -11 -11 0 2 -17 0 -16 5 -14 -17 3 
-14 -3 -12 6 -12 0 -14 -8 -5 -9 -9 -16 -14 -5 -15 13 
-14 6 -16 2 -17 0 -17 0 -16 0 -10 14 -14 17 -14 0 
-5 13 -9 11 -17 11 14 11 3 14 -10 14 -14 17 -14 20 
-14 5 -17 6 -17 11 -14 9 3 20 2 17 -16 8 -12 9 
-17 -6 -19 -3 -16 -8 -17 3 -12 11 -17 9 -16 6 -7 11 
-12 6 -14 -3 -10 -6 -16 -3 -3 -17 -7 -14 -14 -15 -2 -11 
-15 0 -14 -14 -12 -14 -14 -9 -19 0 -12 -11 -12 -9 -9 -3 
-7 -13 -19 -6 -2 -11 -8 -14 -2 -14 7 -8 5 -14 0 -8 
-10 0 -4 8 -10 8 0 14 -14 6 0 13 14 9 -5 17 
-7 11 -11 -6 -15 -3 -2 -11 -10 -3 -4 12 14 13 14 9 
14 8 17 9 14 6 -7 11 24 0 16 8 14 9 8 8 
2 15 7 14 14 9 12 9 12 11 2 12 -4 12 7 8 
-3 12 -11 0 -15 9 -14 -3 5 -9 -3 -12 -7 -9 -9 6 
-3 12 -18 -12 -3 -14 -7 -9 0 -12 -16 -8 -8 -9 -16 -3 
-21 -14 -17 -15 -17 -8 -14 -11 -14 -9 2 -14 3 -20 0 -17 
-12 -8 -10 -14 -7 -11 -9 -17 -12 -14 -21 -2 -22 2 -9 -11 
-17 -2 -14 -11 0 19 4730 7079 300 MP stroke
-17 -6 12 6 3 11 11 6 10 8 5 11 9 11 10 14 
-3 19 -14 -13 -14 0 -5 8 7 8 -14 0 -7 9 -14 -3 
-12 3 -17 -3 -9 -11 -14 2 11 -11 0 -8 -11 11 -15 11 
-9 9 -22 3 -18 0 -17 -12 14 -3 -2 -8 16 0 19 0 
17 0 17 0 11 -11 5 -20 -23 3 4 -8 -2 -19 -5 -9 
7 -3 10 9 2 -11 -14 -6 -12 -5 2 -11 -12 -9 10 -10 
-14 0 -15 0 5 -9 -16 0 -19 -13 -14 -5 -22 8 -5 13 
-16 -3 -21 -8 -8 -10 -14 -6 -12 6 -11 0 -15 10 -12 11 
-19 -8 -9 0 -14 11 -2 -8 9 -11 -5 -11 5 -11 0 -21 
-2 -16 9 -14 7 -18 7 -16 5 -16 5 -16 9 -16 10 -10 
21 -3 16 -2 10 8 5 -11 12 5 -3 11 19 2 17 -2 
16 -8 15 -8 14 -3 16 8 17 0 14 6 12 5 17 2 
16 3 17 -3 7 14 17 0 16 5 17 2 2 13 17 6 
19 2 16 -2 17 -6 16 -13 8 -10 -5 -11 -3 -13 5 -13 
10 -7 11 -6 15 3 14 10 19 11 23 5 17 3 14 7 
7 8 0 16 17 5 16 8 17 3 22 2 18 0 15 6 
16 8 5 13 12 -3 12 6 2 13 -9 8 -12 11 -7 13 
2 13 10 6 4 19 -9 5 -7 14 19 -8 7 16 14 3 
14 -3 12 -8 14 -3 21 6 12 -6 22 6 12 -9 14 -2 
9 5 17 3 16 0 12 -3 14 0 14 -5 20 -3 21 -3 
14 -8 14 -11 15 -2 14 -3 7 -11 19 -8 14 -3 17 8 
12 -2 18 0 12 -3 19 11 7 11 15 -3 7 -16 4 -14 
7 -13 7 -13 17 -11 17 -5 14 -8 9 -14 12 -10 0 -11 
7 -13 10 -8 0 -26 -7 -10 7 -18 9 -13 12 -13 17 -8 
9 -13 19 -7 22 -3 9 -13 5 -15 7 -10 14 -8 7 -7 
5 -16 5 -12 7 -18 12 -13 9 -12 7 -12 7 -21 7 -12 
10 -8 2 -14 3 -15 -12 -10 -12 -13 0 -9 3588 7643 215 MP stroke
6 -3 19 -27 17 -19 16 -19 17 11 12 -19 14 -14 28 -4 
19 -19 19 -14 21 -15 -9 -14 12 -15 -5 -18 -2 -18 -14 -17 
9 -15 -5 -14 -21 4 14 -14 3 -18 -12 -10 -24 -10 -24 -4 
-23 11 -15 13 -21 18 -14 0 -9 14 -15 -11 -7 -24 -9 -21 
-10 -23 -9 -21 -17 -17 7 -13 -9 -17 0 -13 -19 0 -17 0 
2 13 -14 17 -19 0 -16 0 -12 23 -5 24 -5 17 0 21 
-4 13 -21 15 -22 10 10 7 -17 10 -7 11 7 14 19 14 
19 15 2 18 -4 21 -3 22 -9 11 -19 23 -22 14 -18 12 
-24 11 -10 15 -19 15 19 12 -10 11 4655 6049 70 MP stroke
-12 -19 33 4 24 8 18 7 38 0 6 -7 -22 -19 -21 0 
0 -23 35 0 29 19 31 11 0 19 5033 6049 14 MP stroke
-9 6 -5 -21 -23 -11 -22 -18 -19 -13 -21 -11 -9 -20 -19 -17 
-10 -21 -12 -23 0 27 7 24 0 20 19 14 -14 0 -5 17 
-9 -17 2 -14 -7 -20 0 -18 -14 11 -7 13 -10 -13 -12 -14 
24 7 14 -14 -4 -20 -14 3 0 -16 -8 -14 -9 -10 -17 -10 
-12 -16 0 23 15 23 11 17 -14 -7 -14 0 2 -13 -9 -17 
-12 -13 -16 -10 -20 7 10 -20 -7 -9 17 -10 -12 -20 -17 -9 
-16 -23 -22 -9 -7 -19 -12 -13 0 -12 -21 -13 -21 -6 -22 -9 
-16 -13 -17 -12 -16 -10 -17 10 0 -19 -12 -9 -9 -15 4 -6 
-9 -15 7 -19 2 7 12 -7 -12 16 17 9 19 0 24 9 
2 -9 -5 -9 -7 -16 -7 -18 -2 -11 -3 -13 -21 -5 21 0 
0 -12 -2 -15 5 -15 0 -17 2 -18 5 -20 7 -20 -2 -17 
-8 -11 -4 -17 2 -17 7 -17 0 -9 -9 -8 -7 -11 0 -12 
-3 -13 -9 -11 -12 -9 2 -11 -14 -2 0 8 -9 -3 4 -5 
-7 -14 12 8 -2 -14 -7 -10 -10 0 0 -14 2 -8 -14 -11 
-9 -14 -15 -16 0 -16 -21 -5 -16 -5 -15 -6 -9 0 -3 -10 
-9 0 -14 -11 -7 -13 -5 -16 -9 -16 -5 -13 -7 -10 0 -8 
-10 -8 0 -13 -7 -3 -2 -18 -14 -5 -15 -13 -9 -10 -10 -10 
0 -13 12 -8 17 2 -14 -10 -5 -10 -10 -5 -12 -8 -11 0 
-10 -10 -14 -7 -7 -16 0 -15 7 -10 -19 -8 -12 -10 -12 -12 
-14 -10 -9 -20 -17 15 9 12 12 15 12 0 7 13 -4 5 
9 10 0 10 9 15 5 16 14 15 10 15 12 10 5 16 
9 13 12 13 9 12 12 8 7 11 -2 13 5 13 2 13 
-2 10 -17 -8 -10 3 -9 -8 -12 -5 0 -13 -7 -16 -2 -10 
-10 -13 -7 -16 -14 -15 -14 -15 -17 -3 0 -15 -16 -13 -8 -10 
-7 0 -7 -10 5 -11 0 -7 -12 -8 -19 -7 -9 -18 -12 -10 
-12 -10 -12 -15 -9 -10 -12 -13 -10 -9 -4 -20 -10 -8 0 -10 
10 -10 -5 -7 9 -8 -6 -9 1050 7643 213 MP stroke
3 5 9 9 7 10 5 13 -5 10 14 10 5 15 -5 12 
0 45 -5 15 -4 15 -7 13 2 13 0 15 5 15 -3 15 
-9 11 -14 10 -14 10 -15 3 -9 7 -10 8 7 13 -9 5 
0 -13 -14 8 -12 3 -17 2 -14 -5 -14 -3 -12 8 -14 -10 
-2 -10 -15 -3 -16 3 -10 5 -9 -3 -7 -8 -5 6 14 10 
0 5 -7 5 -2 8 12 0 11 -3 10 3 -7 13 -14 -8 
-15 8 -12 0 -14 -2 -7 7 -5 -10 -14 0 -14 3 -14 2 
-10 -8 -14 -5 -5 -13 -14 3 -12 7 -14 3 -12 -10 -12 -18 
-7 -3 -4 -16 2 -12 0 -11 -9 3 4 -15 -2 -11 -10 -10 
-7 -12 -7 -16 -12 -10 -5 -12 -11 2 -7 5 -7 15 -3 18 
0 18 7 18 7 18 0 10 10 15 4 16 8 15 2 16 
2 16 -7 15 -7 16 -14 13 -14 8 -15 11 -9 10 -7 11 
-14 8 -12 3 -12 10 -12 11 -17 3 -7 8 15 0 -15 10 
-9 0 -5 8 0 11 12 0 14 0 -12 6 -9 3 -7 -3 
-7 -11 7 11 2 13 5 11 12 11 0 11 -3 14 17 11 
-14 -3 2 11 2 17 -4 10 -12 6 5 -11 0 -11 4 -14 
-11 -5 2 -9 -9 0 4 -10 5 -17 -7 3 -5 16 -9 14 
-7 8 11 20 5 16 -9 -6 -7 -10 -15 10 -9 17 -5 17 
10 6 -10 11 -14 8 -14 6 -15 0 -14 0 -14 6 -5 11 
-7 -8 -12 5 0 -5 -19 5 0 12 0 -9 15 0 4 14 
10 6 -7 8 2 9 -7 12 -9 11 0 6 -15 6 -16 5 
-10 15 -7 -6 -16 6 -15 6 -14 8 0 12 -21 0 -19 6 
-22 12 3 -12 -19 3 19 -12 12 -5 16 -12 8 -15 -5 -14 
-15 -9 -14 12 -14 11 -9 12 -15 0 -19 9 -28 8 -24 6 
-4 12 -17 6 -17 12 19 11 -2 18 7 6 10 -15 14 -14 
0 -15 14 3 16 -6 19 3 22 12 16 6 10 17 2 21 
-5 15 24 -6 19 18 -28 0 -15 7 -16 9 0 12 9 9 
19 6 22 -3 21 -3 19 -9 17 -6 19 -9 16 -13 12 -14 
12 -13 12 -12 19 -6 -12 13 -10 11 -12 12 -9 13 -12 15 
-16 12 -19 15 -20 0 -4 16 -12 12 -21 6 -17 0 -19 0 
-21 3 -17 -3 -16 0 -19 0 -14 -6 -22 3 -26 0 -14 13 
-12 12 -12 13 -24 9 -28 3 -19 13 -14 9 9 26 -4 16 
19 19 21 0 2 16 29 4 -24 13 14 9 26 4 10 13 
30 3 5 17 24 10 12 13 0 20 -12 14 14 10 0 14 
14 13 15 21 11 21 17 21 14 21 10 14 14 -14 12 -11 
-10 -13 12 -18 22 -11 9 -13 28 -11 19 24 17 4 14 17 
0 14 -2 21 7 18 -5 18 22 4 21 0 21 11 -7 14 
21 11 19 15 22 11 1953 6165 300 MP stroke
33 -8 19 0 26 8 28 3 19 -11 0 -18 -16 -11 7 -18 
9 -18 -14 -11 -5 -21 0 -18 15 -17 18 -4 3 -14 -17 -13 
-16 -7 -10 -24 -5 -17 -7 -24 0 -27 15 -17 21 -16 21 -13 
21 -10 -9 -16 -7 -17 -3 -22 0 -19 -11 -20 16 -19 24 -12 
-2 -13 19 13 9 16 14 12 12 16 19 16 -5 19 0 16 
8 17 -8 29 24 10 28 0 29 0 28 17 24 6 19 7 
16 17 27 13 28 7 28 14 22 -7 16 -7 0 14 10 17 
0 17 12 24 19 3 19 -3 9 17 0 21 -2 25 -7 18 
-7 18 -15 22 -14 18 -19 7 0 22 -26 7 -29 8 3 22 
-19 27 -43 0 -21 22 -21 23 1574 6049 77 MP stroke
-5 14 -12 13 0 12 7 5 14 0 12 3 14 -3 15 -5 
14 -2 14 -3 9 -5 3 -17 2 -12 1475 7643 14 MP stroke
-1 -3 0 -27 -19 -15 -3 -19 -26 -34 -7 -15 -16 -25 -15 -22 
-28 -25 -38 -4 -26 -7 -17 -18 -35 -14 -19 7 -12 21 -2 22 
-7 22 -15 21 12 30 -26 15 -21 22 -7 23 -3 22 13 23 
2886 6049 25 MP stroke
2233 6049 PD
7 -15 -16 -19 -43 0 -21 11 -31 -3 -28 -12 -26 -7 -24 -12 
0 -19 -24 -14 -21 -8 -29 -7 -9 -11 -26 -11 -26 -8 -28 -3 
0 18 21 15 23 18 22 15 12 19 -34 -11 -26 -15 -30 -15 
-36 0 -7 30 21 19 3 22 19 16 12 7 2166 6049 31 MP stroke
-14 -3 -17 12 -23 -6 -5 15 -19 4 -22 -6 -18 9 -22 -3 
-21 0 -24 6 -14 16 24 3 -12 16 -17 9 -7 16 7 13 
17 6 12 0 9 -9 7 6 -9 9 4 13 8 10 4 13 
8 16 19 7 9 16 5 20 9 13 19 7 19 0 -14 10 
-12 13 -10 17 -7 14 3 14 23 0 20 0 21 -4 -10 17 
-23 14 4 10 26 -3 26 0 10 -17 12 -14 2 -13 14 6 
10 -6 -12 -11 -19 0 12 -20 0 -14 -17 7 3 -17 19 -13 
-17 0 0 -13 -14 16 -12 -13 12 -23 -10 -13 -21 6 -21 7 
9 -16 -12 -13 -14 0 10 -17 0 -16 16 -3 26 3 -5 -10 
10 -12 -17 0 0 -19 15 -7 16 -9 -5 -10 -19 3 -14 -3 
-14 -9 -19 9 10 -15 14 0 16 0 12 -16 14 -12 17 -13 
3889 6663 89 MP stroke
-9 14 -9 18 -7 15 -19 -6 -8 12 -14 2 3 9 -17 6 
-19 3 -21 15 -15 -2 -18 0 -15 0 -16 -13 -15 -14 -4 -18 
-3 -15 -9 -9 16 0 17 -3 17 9 21 -3 17 -12 -8 -17 
15 3 19 0 2 -9 -17 -6 -11 -17 -5 -17 -14 -12 -19 0 
-5 -9 10 -14 -3 -14 -9 -17 2 14 -9 12 -20 2 -7 -14 
-11 -11 -12 -11 16 -12 19 0 17 6 7 -17 -2 -11 -22 0 
3 -14 -5 -14 -12 -3 7 -19 0 -22 -7 -22 2 -11 22 3 
21 -6 24 -5 16 5 19 11 5 8 19 3 14 6 3 16 
2 17 2 19 -12 0 -2 11 -5 17 -9 11 -14 3 16 5 
14 15 5 14 10 14 12 8 11 15 12 17 0 26 10 17 
11 6 0 12 5375 6855 83 MP stroke
-11 11 -3 17 -16 3 -3 18 0 14 -9 12 -14 5 -5 12 
2 18 -16 6 -12 12 -7 14 -17 0 -19 0 7 -11 -21 -9 
-17 6 -16 -9 19 -6 11 -15 -16 -6 -9 -6 4 -14 -9 -9 
-14 6 -10 9 -14 2 -14 9 -14 -3 -17 3 -10 0 -7 -11 
-12 -6 -9 -6 -14 -3 -14 -9 -15 -14 -9 -9 -14 -8 -19 -9 
-7 -6 -5 -14 -7 -11 2 -12 14 -8 17 -12 16 -2 17 2 
17 -2 16 -3 14 5 12 -2 14 8 12 0 10 14 19 0 
9 12 14 -3 20 0 16 3 19 -6 14 -9 14 -8 15 -9 
16 3 19 -3 19 3 17 6 14 11 5 14 11 15 4830 6933 72 MP stroke
-14 2 2 5 7 0 10 10 14 2 10 -2 -3 12 12 3 
14 2 14 10 12 5 12 8 14 7 14 5 15 0 9 10 
12 5 12 5 14 0 14 5 15 0 14 -5 14 -2 14 -3 
14 -8 10 -7 0 -10 14 -5 1636 7589 29 MP stroke
-19 0 -5 10 -16 0 -10 8 -9 7 -14 -3 -19 -2 14 -5 
-10 -8 -14 -2 -21 0 -9 -7 -12 -3 -15 -5 -14 3 -5 -5 
-2 -13 -14 -10 -21 0 -5 -10 9 -7 3 -2 1844 7643 23 MP stroke
-9 14 -10 15 -9 12 -7 0 -29 6 -14 3 -12 -3 -24 0 
5 12 -14 0 -19 -3 -19 0 -19 -3 -26 -6 -14 -18 -14 -21 
9 -11 24 9 16 14 -4 -12 4 -14 7 -17 0 -21 20 -8 
7 17 7 17 14 -5 12 -12 0 12 -15 17 0 20 7 12 
15 6 12 6 14 0 9 -18 22 -8 4 -15 7 -15 0 -14 
-4 -15 -3 -17 5 -20 7 -11 12 -6 12 0 9 17 0 20 
3 15 -5 14 -5 20 -2 12 -7 15 21 -12 1546 6861 55 MP stroke
-4 -16 -22 7 -24 -4 -21 0 -21 0 -19 -3 0 -11 14 -9 
-17 -4 -14 18 -12 4 -14 -4 7 -18 -14 9 0 -14 -17 0 
-4 18 -5 18 14 -4 -7 18 9 -2 10 -16 7 6 -5 12 
-21 19 21 -3 8 12 -15 15 15 6 19 0 18 -3 17 13 
-12 9 17 6 21 -12 -9 18 -10 12 -12 19 -7 19 14 0 
19 -9 10 -13 7 -16 12 -18 7 -22 14 -18 10 -15 -10 -3 
14 -12 12 -9 2361 6742 51 MP stroke
26 -11 -41 0 -16 -23 21 -19 -50 0 -28 -11 -36 -8 -30 15 
-26 4 -27 15 -37 12 -24 23 0 3 3659 6049 14 MP stroke
-14 11 -17 12 -14 13 -19 5 -11 9 -10 13 -19 9 -10 12 
-21 -9 -24 0 -9 -18 -12 -12 -21 0 0 -13 -10 -9 3 -14 
-7 -15 14 0 0 8 23 -2 24 -9 19 0 12 14 19 -3 
0 12 -19 13 14 0 22 -16 21 -9 21 -8 12 15 19 -9 
14 0 1430 6787 34 MP stroke
-7 -15 -14 -10 -24 3 -21 7 -22 12 -26 3 -4 16 -5 16 
2 20 5 16 -19 13 5 19 9 13 19 4 22 3 21 -7 
12 -16 -14 -6 9 -10 16 0 19 0 8 -13 -15 -7 15 -9 
-15 -13 -14 0 14 -19 7 -20 17 0 3754 6585 30 MP stroke
-34 0 -14 11 -2 14 -21 4 16 15 7 11 -33 0 -10 -11 
-21 -8 -19 4 -14 15 -9 11 -24 7 -21 0 -29 -7 33 0 
-9 -11 31 -4 23 -11 12 -22 22 -7 23 -7 5 -15 14 4 
24 -7 21 0 29 14 721 6220 28 MP stroke
5 -2 5 6 19 0 19 0 0 20 5 9 0 17 5701 6847 8 MP stroke
-12 15 -3 15 -9 3 -14 0 -7 14 -8 -4 5754 6804 7 MP stroke
42 0 544 6049 2 MP stroke
15 -7 -5 7 613 6049 3 MP stroke
-27 0 -19 -12 0 -13 7 -10 -4 -22 -14 7 -15 -4 5 -15 
-7 -13 -9 -9 -8 -16 22 -3 -3 13 10 12 0 13 19 15 
16 10 0 19 -7 9 12 10 12 -10 10 19 1171 6550 23 MP stroke
-17 6 -12 12 -18 9 -22 2 -21 12 -24 4 -16 2 -10 -6 
17 -3 16 -11 14 0 -7 -9 -9 -6 14 -15 12 -18 19 3 
17 0 16 -6 14 6 7 12 10 6 5026 6814 22 MP stroke
3 -15 -7 -27 29 -18 1569 6109 4 MP stroke
-39 0 -2 -23 -26 4 -19 19 -17 15 -21 0 -23 -12 -24 -15 
-26 19 28 11 14 19 22 16 16 7 1686 6049 14 MP stroke
-7 16 -17 0 -16 -3 -8 -19 -9 -19 -7 -20 -12 -22 -12 -15 
8 -25 16 -7 0 16 -2 16 -3 15 14 -6 3 19 21 0 
0 13 14 9 8 19 9 13 1226 6540 21 MP stroke
-17 -19 -19 -9 -19 -9 3 -10 -17 -6 -12 -9 -14 0 0 -9 
-21 -9 -17 -6 -14 6 14 15 22 15 16 16 14 18 22 7 
26 5 21 10 12 -6 399 6641 20 MP stroke
-12 9 -16 0 -19 8 -10 11 -16 3 -12 -3 -9 9 -20 0 
-19 0 12 -11 17 -9 19 -8 16 -6 17 -9 17 -2 16 0 
19 8 1674 6959 18 MP stroke
-10 -14 -9 0 -19 -11 -15 -3 -9 -11 -19 -2 -5 11 5 10 
-5 17 -9 14 19 -6 21 -3 17 0 12 6 14 0 12 -8 
4398 7087 17 MP stroke
-4 19 -19 0 0 14 14 4 9 11 -21 -7 -16 -11 2 -19 
-7 -14 -12 -11 0 -15 12 -7 14 0 0 18 19 8 9 10 
5029 6195 17 MP stroke
-14 -11 2 -13 -5 -9 -11 0 -8 -10 -9 10 -12 -10 7 19 
5 13 -14 -3 9 17 14 8 15 6 14 -6 7 -11 4647 7093 16 MP stroke
0 -12 -7 -13 0 -17 2 -17 -11 -11 -10 11 -12 0 -5 14 
-2 14 0 14 2 14 12 14 15 -11 9 -3 7 3 4280 6987 16 MP stroke
-10 15 -17 6 -18 3 -15 2 -19 -2 -9 8 -17 6 5 -12 
-2 -17 19 -6 16 -3 17 3 16 0 19 -5 15 2 1780 6908 16 MP stroke
-14 0 -14 -3 -10 -6 -19 1 -19 2 -2 9 14 -6 0 8 
17 -1 12 4 14 -3 2 6 17 2 2 -13 4716 7177 15 MP stroke
-4 11 -17 11 -19 0 -12 -11 -19 -7 -9 -14 0 -15 9 -14 
22 0 7 -10 12 0 4 17 10 18 16 14 4901 6224 15 MP stroke
-4 -11 -17 -3 -14 4 -5 7 -12 0 5 8 -17 13 17 -5 
14 -3 12 -2 7 -6 14 -2 4965 7182 13 MP stroke
-3 -23 -14 -10 -7 -19 -12 -16 -23 -16 9 19 14 10 -4 12 
9 20 -9 19 18 0 22 4 264 6507 13 MP stroke
-16 14 -15 10 -14 18 -14 0 -17 -10 -16 0 -17 -8 24 -7 
28 0 22 -6 9 -15 26 4 885 6326 13 MP stroke
-9 -9 -17 -9 -24 -9 0 12 -14 9 21 -3 17 0 17 5 
2 13 7 -9 2221 6787 11 MP stroke
-19 -10 -7 -9 -17 -6 -19 -3 -16 0 9 12 14 6 17 7 
19 3 19 0 2216 6672 11 MP stroke
-10 14 -7 13 10 18 -10 13 -12 17 -14 -20 17 -10 0 -35 
26 -10 1117 6422 10 MP stroke
2 -15 -2 -11 -14 -14 -5 17 -5 11 2 12 0 17 8 -12 
14 -5 4294 6933 10 MP stroke
-2 -10 7 -8 -14 -12 -8 -15 -4 10 7 10 0 10 7 15 
7 0 1823 7489 10 MP stroke
-12 5 0 18 -9 3 -2 8 7 -3 4 -8 12 -15 0 -8 
3643 7400 9 MP stroke
-5 -20 -16 -3 -17 6 7 8 -11 9 4 16 19 -8 19 -8 
4363 6447 9 MP stroke
-17 3 19 -16 -17 0 -9 10 0 -17 -7 23 7 10 24 -13 
1773 6425 9 MP stroke
-19 3 -19 3 -19 9 10 5 14 -5 14 -3 17 -3 2 -9 
1944 6999 9 MP stroke
-7 -9 -21 6 -6 -4 4 6 8 0 14 -5 8 6 1802 7442 8 MP stroke
-3 -5 2 -4 -6 -1 -9 3 4 9 6 4 6 -6 1686 7591 8 MP stroke
-5 -17 -14 8 0 17 -12 9 22 -6 9 -11 4562 6374 7 MP stroke
-24 3 -26 19 0 3 19 0 21 -7 10 -18 1669 6176 7 MP stroke
-3 -8 -10 2 1 8 9 3 3 -5 3599 7402 6 MP stroke
-7 -10 -7 5 -5 12 9 -6 10 -1 3569 7392 6 MP stroke
-13 -3 -10 -8 -10 14 14 8 19 -11 4112 7032 6 MP stroke
-10 -10 -14 9 -14 8 23 5 15 -12 4668 6340 6 MP stroke
-10 -10 -14 3 -7 7 14 3 17 -3 4360 6481 6 MP stroke
-9 -17 -18 0 -1 13 13 8 15 -4 4325 6456 6 MP stroke
-23 17 -7 21 23 -14 0 -14 7 -10 3842 6371 6 MP stroke
-17 -6 -19 -6 7 15 12 4 17 -7 1716 6553 6 MP stroke
3 -26 -12 -10 -12 18 -3 18 24 0 1771 6169 6 MP stroke
-14 0 -5 12 5 -7 9 2 5 -7 1953 7616 6 MP stroke
-18 -6 -15 -6 -5 15 17 -3 21 0 1686 6817 6 MP stroke
-3 -10 -9 7 -5 12 17 -9 4834 7144 5 MP stroke
-2 -7 -17 5 15 10 4 -8 4683 6317 5 MP stroke
-14 -4 -17 17 26 -3 5 -10 3837 6180 5 MP stroke
-9 -12 1 -15 -6 15 14 12 1842 7437 5 MP stroke
-7 -6 0 8 7 -2 4787 7044 4 MP stroke
-8 -10 0 18 8 -8 4004 6260 4 MP stroke
-17 16 5 -10 12 -6 1887 7180 4 MP stroke
-29 0 18 7 11 -7 1987 7594 4 MP stroke
-4 -19 -11 11 15 8 1934 7559 4 MP stroke
-17 -25 0 14 17 11 1866 7479 4 MP stroke
-19 0 19 0 3313 7091 3 MP stroke
-14 -5 14 5 3233 7066 3 MP stroke
0 -8 4787 7076 2 MP stroke
-15 -10 15 10 3955 6305 3 MP stroke
-14 3 14 -3 1722 7507 3 MP stroke
-11 -3 11 3 1969 7571 3 MP stroke
-13 -24 13 24 1907 7534 3 MP stroke
-11 -15 11 15 1896 7504 3 MP stroke
gr

9 w
2015 7493 mt 
(tm.june-obs\)) s
%%IncludeResource: font Helvetica
/Helvetica /ISOLatin1Encoding 120 FMSR

  51 7686 mt 
( ) s
5738 6091 mt 
( ) s
6 w
21 w
1 sg
0 4087 204 0 0 -4087 5925 7153 4 MP
PP
-204 0 0 4087 204 0 0 -4087 5925 7153 5 MP stroke
gs 5925 3066 205 4088 rc
/mwscm { [/Indexed /DeviceRGB 9
  <
    4d004b 253494 1d91c0 7fcdbb e0e0e0 e0e0e0 fed976 fd8d3c bd0026 543005 
  >
] setcolorspace } bdef mwscm
gs np 5925 3066 mt 0 4087 rl 205 0 rl 0 -4087 rl cp c np
[612 0 0 4087 5721 3066] cc
<< % Image dictionary
  /ImageType 1
  /Width 1 /Height 10
  /BitsPerComponent 4
  /Decode [0 15]
  /ImageMatrix [1.000000 0 0 10.000000 0 0]
  /DataSource currentfile
  /ASCII85Decode filter
  /RunLengthDecode filter
>>
image
$'9[V?r0*B+:nO'
~>
gr
gr

0 sg
%%IncludeResource: font Helvetica-Bold
/Helvetica-Bold /ISOLatin1Encoding 216 FMSR

6225 7565 mt 
([-]) s
14 w
DO
SO
21 w
5925 7153 mt 6129 7153 L
5925 3066 mt 6129 3066 L
5925 7153 mt 5925 3066 L
6129 7153 mt 6129 3066 L
5925 7153 mt 6129 7153 L
6129 7153 mt 6129 3066 L
6129 7153 mt 5863 7153 L
5925 7153 mt 6190 7153 L
%%IncludeResource: font Helvetica
/Helvetica /ISOLatin1Encoding 240 FMSR

6163 7242 mt 
(   0) s
6129 6744 mt 5863 6744 L
5925 6744 mt 6190 6744 L
6163 6833 mt 
(   0.25) s
6129 6335 mt 5863 6335 L
5925 6335 mt 6190 6335 L
6163 6424 mt 
(   0.5) s
6129 5926 mt 5863 5926 L
5925 5926 mt 6190 5926 L
6163 6015 mt 
(   0.8) s
6129 5518 mt 5863 5518 L
5925 5518 mt 6190 5518 L
6163 5607 mt 
(   0.9) s
6129 5109 mt 5863 5109 L
5925 5109 mt 6190 5109 L
6163 5198 mt 
(   1) s
6129 4700 mt 5863 4700 L
5925 4700 mt 6190 4700 L
6163 4789 mt 
(   1.1) s
6129 4292 mt 5863 4292 L
5925 4292 mt 6190 4292 L
6163 4381 mt 
(   1.25) s
6129 3883 mt 5863 3883 L
5925 3883 mt 6190 3883 L
6163 3972 mt 
(   2) s
6129 3474 mt 5863 3474 L
5925 3474 mt 6190 3474 L
6163 3563 mt 
(   4+) s
5925 7153 mt 6129 7153 L
5925 3066 mt 6129 3066 L
5925 7153 mt 5925 3066 L
6129 7153 mt 6129 3066 L

end %%Color Dict

eplot
%%EndObject

epage
end

showpage

%%Trailer
%%EOF
