%!PS-Adobe-3.0 EPSF-3.0
%%Creator: MATLAB, The Mathworks, Inc. Version 7.5.0.338 (R2007b). Operating System: Linux 3.8.4 #1 SMP Thu Mar 21 12:34:11 PDT 2013 x86_64.
%%Title: figs/eps/line_forc_coeffs_all.eps
%%CreationDate: 11/04/2013  10:37:38
%%DocumentNeededFonts: Helvetica
%%+ Helvetica-Bold
%%DocumentProcessColors: Cyan Magenta Yellow Black
%%LanguageLevel: 2
%%Pages: 1
%%BoundingBox:     5     0   707   427
%%EndComments

%%BeginProlog
% MathWorks dictionary
/MathWorks 160 dict begin
% definition operators
/bdef {bind def} bind def
/ldef {load def} bind def
/xdef {exch def} bdef
/xstore {exch store} bdef
% operator abbreviations
/c  /clip ldef
/cc /concat ldef
/cp /closepath ldef
/gr /grestore ldef
/gs /gsave ldef
/mt /moveto ldef
/np /newpath ldef
/cm /currentmatrix ldef
/sm /setmatrix ldef
/rm /rmoveto ldef
/rl /rlineto ldef
/s {show newpath} bdef
/sc {setcmykcolor} bdef
/sr /setrgbcolor ldef
/sg /setgray ldef
/w /setlinewidth ldef
/j /setlinejoin ldef
/cap /setlinecap ldef
/rc {rectclip} bdef
/rf {rectfill} bdef
% page state control
/pgsv () def
/bpage {/pgsv save def} bdef
/epage {pgsv restore} bdef
/bplot /gsave ldef
/eplot {stroke grestore} bdef
% orientation switch
/portraitMode 0 def /landscapeMode 1 def /rotateMode 2 def
% coordinate system mappings
/dpi2point 0 def
% font control
/FontSize 0 def
/FMS {/FontSize xstore findfont [FontSize 0 0 FontSize neg 0 0]
  makefont setfont} bdef
/reencode {exch dup where {pop load} {pop StandardEncoding} ifelse
  exch dup 3 1 roll findfont dup length dict begin
  { 1 index /FID ne {def}{pop pop} ifelse } forall
  /Encoding exch def currentdict end definefont pop} bdef
/isroman {findfont /CharStrings get /Agrave known} bdef
/FMSR {3 1 roll 1 index dup isroman {reencode} {pop pop} ifelse
  exch FMS} bdef
/csm {1 dpi2point div -1 dpi2point div scale neg translate
 dup landscapeMode eq {pop -90 rotate}
  {rotateMode eq {90 rotate} if} ifelse} bdef
% line types: solid, dotted, dashed, dotdash
/SO { [] 0 setdash } bdef
/DO { [.5 dpi2point mul 4 dpi2point mul] 0 setdash } bdef
/DA { [6 dpi2point mul] 0 setdash } bdef
/DD { [.5 dpi2point mul 4 dpi2point mul 6 dpi2point mul 4
  dpi2point mul] 0 setdash } bdef
% macros for lines and objects
/L {lineto stroke} bdef
/MP {3 1 roll moveto 1 sub {rlineto} repeat} bdef
/AP {{rlineto} repeat} bdef
/PDlw -1 def
/W {/PDlw currentlinewidth def setlinewidth} def
/PP {closepath eofill} bdef
/DP {closepath stroke} bdef
/MR {4 -2 roll moveto dup  0 exch rlineto exch 0 rlineto
  neg 0 exch rlineto closepath} bdef
/FR {MR stroke} bdef
/PR {MR fill} bdef
/L1i {{currentfile picstr readhexstring pop} image} bdef
/tMatrix matrix def
/MakeOval {newpath tMatrix currentmatrix pop translate scale
0 0 1 0 360 arc tMatrix setmatrix} bdef
/FO {MakeOval stroke} bdef
/PO {MakeOval fill} bdef
/PD {currentlinewidth 2 div 0 360 arc fill
   PDlw -1 eq not {PDlw w /PDlw -1 def} if} def
/FA {newpath tMatrix currentmatrix pop translate scale
  0 0 1 5 -2 roll arc tMatrix setmatrix stroke} bdef
/PA {newpath tMatrix currentmatrix pop	translate 0 0 moveto scale
  0 0 1 5 -2 roll arc closepath tMatrix setmatrix fill} bdef
/FAn {newpath tMatrix currentmatrix pop translate scale
  0 0 1 5 -2 roll arcn tMatrix setmatrix stroke} bdef
/PAn {newpath tMatrix currentmatrix pop translate 0 0 moveto scale
  0 0 1 5 -2 roll arcn closepath tMatrix setmatrix fill} bdef
/vradius 0 def /hradius 0 def /lry 0 def
/lrx 0 def /uly 0 def /ulx 0 def /rad 0 def
/MRR {/vradius xdef /hradius xdef /lry xdef /lrx xdef /uly xdef
  /ulx xdef newpath tMatrix currentmatrix pop ulx hradius add uly
  vradius add translate hradius vradius scale 0 0 1 180 270 arc 
  tMatrix setmatrix lrx hradius sub uly vradius add translate
  hradius vradius scale 0 0 1 270 360 arc tMatrix setmatrix
  lrx hradius sub lry vradius sub translate hradius vradius scale
  0 0 1 0 90 arc tMatrix setmatrix ulx hradius add lry vradius sub
  translate hradius vradius scale 0 0 1 90 180 arc tMatrix setmatrix
  closepath} bdef
/FRR {MRR stroke } bdef
/PRR {MRR fill } bdef
/MlrRR {/lry xdef /lrx xdef /uly xdef /ulx xdef /rad lry uly sub 2 div def
  newpath tMatrix currentmatrix pop ulx rad add uly rad add translate
  rad rad scale 0 0 1 90 270 arc tMatrix setmatrix lrx rad sub lry rad
  sub translate rad rad scale 0 0 1 270 90 arc tMatrix setmatrix
  closepath} bdef
/FlrRR {MlrRR stroke } bdef
/PlrRR {MlrRR fill } bdef
/MtbRR {/lry xdef /lrx xdef /uly xdef /ulx xdef /rad lrx ulx sub 2 div def
  newpath tMatrix currentmatrix pop ulx rad add uly rad add translate
  rad rad scale 0 0 1 180 360 arc tMatrix setmatrix lrx rad sub lry rad
  sub translate rad rad scale 0 0 1 0 180 arc tMatrix setmatrix
  closepath} bdef
/FtbRR {MtbRR stroke } bdef
/PtbRR {MtbRR fill } bdef
/stri 6 array def /dtri 6 array def
/smat 6 array def /dmat 6 array def
/tmat1 6 array def /tmat2 6 array def /dif 3 array def
/asub {/ind2 exch def /ind1 exch def dup dup
  ind1 get exch ind2 get sub exch } bdef
/tri_to_matrix {
  2 0 asub 3 1 asub 4 0 asub 5 1 asub
  dup 0 get exch 1 get 7 -1 roll astore } bdef
/compute_transform {
  dmat dtri tri_to_matrix tmat1 invertmatrix 
  smat stri tri_to_matrix tmat2 concatmatrix } bdef
/ds {stri astore pop} bdef
/dt {dtri astore pop} bdef
/db {2 copy /cols xdef /rows xdef mul dup 3 mul string
  currentfile 
  3 index 0 eq {/ASCIIHexDecode filter}
  {/ASCII85Decode filter 3 index 2 eq {/RunLengthDecode filter} if }
  ifelse exch readstring pop
  dup 0 3 index getinterval /rbmap xdef
  dup 2 index dup getinterval /gbmap xdef
  1 index dup 2 mul exch getinterval /bbmap xdef pop pop}bdef
/it {gs np dtri aload pop moveto lineto lineto cp c
  cols rows 8 compute_transform 
  rbmap gbmap bbmap true 3 colorimage gr}bdef
/il {newpath moveto lineto stroke}bdef
currentdict end def
%%EndProlog

%%BeginSetup
MathWorks begin

0 cap

end
%%EndSetup

%%Page: 1 1
%%BeginPageSetup
%%PageBoundingBox:     5     0   707   427
MathWorks begin
bpage
%%EndPageSetup

%%BeginObject: obj1
bplot

/dpi2point 12 def
portraitMode 0000 5112 csm

   60   -14  8434  5128 rc
88 dict begin %Colortable dictionary
/c0 { 0.000000 0.000000 0.000000 sr} bdef
/c1 { 1.000000 1.000000 1.000000 sr} bdef
/c2 { 0.900000 0.000000 0.000000 sr} bdef
/c3 { 0.000000 0.820000 0.000000 sr} bdef
/c4 { 0.000000 0.000000 0.800000 sr} bdef
/c5 { 0.910000 0.820000 0.320000 sr} bdef
/c6 { 1.000000 0.260000 0.820000 sr} bdef
/c7 { 0.000000 0.820000 0.820000 sr} bdef
c0
1 j
21 w
1 sg
0 2301 3406 0 0 -2301 1873 2429 4 MP
PP
-3406 0 0 2301 3406 0 0 -2301 1873 2429 5 MP stroke
gs 1873 128 3407 2302 rc
15.6 w
0 sg
0 -2301 4427 2429 2 MP stroke
30 w
gs 2158 1369 2836 464 rc
0 j
0 -86 -86 0 0 86 86 0 2255 1466 5 MP
/c8 { 0.301961 0.686275 0.290196 sr} bdef
c8
DP
0 -86 -86 0 0 86 86 0 3107 1621 5 MP
DP
0 -86 -86 0 0 86 86 0 3958 1649 5 MP
DP
0 -86 -86 0 0 86 86 0 4810 1579 5 MP
DP
gr

c8
gs 2009 1368 2836 477 rc
0 j
0 -86 -86 0 0 86 86 0 2106 1465 5 MP
/c9 { 0.215686 0.494118 0.721569 sr} bdef
c9
DP
0 -86 -86 0 0 86 86 0 2958 1624 5 MP
DP
0 -86 -86 0 0 86 86 0 3809 1661 5 MP
DP
0 -86 -86 0 0 86 86 0 4661 1583 5 MP
DP
gr

c9
gs 2307 871 2836 895 rc
0 j
0 -86 -86 0 0 86 86 0 2404 968 5 MP
/c10 { 0.894118 0.101961 0.109804 sr} bdef
c10
DP
0 -86 -86 0 0 86 86 0 3256 1536 5 MP
DP
0 -86 -86 0 0 86 86 0 4107 1582 5 MP
DP
0 -86 -86 0 0 86 86 0 4959 1362 5 MP
DP
gr

c10
gs 2158 1500 2836 552 rc
0 j
54 71 -54 71 -54 -71 54 -71 2298 1711 5 MP
c8
DP
54 71 -54 71 -54 -71 54 -71 3150 1740 5 MP
DP
54 71 -54 71 -54 -71 54 -71 4001 1982 5 MP
DP
54 71 -54 71 -54 -71 54 -71 4853 1811 5 MP
DP
gr

c8
gs 2009 1523 2836 446 rc
0 j
54 71 -54 71 -54 -71 54 -71 2149 1767 5 MP
c9
DP
54 71 -54 71 -54 -71 54 -71 3001 1734 5 MP
DP
54 71 -54 71 -54 -71 54 -71 3852 1899 5 MP
DP
54 71 -54 71 -54 -71 54 -71 4704 1800 5 MP
DP
gr

c9
gs 2307 1288 2836 1131 rc
0 j
54 71 -54 71 -54 -71 54 -71 2447 1690 5 MP
c10
DP
54 71 -54 71 -54 -71 54 -71 3299 1499 5 MP
DP
54 71 -54 71 -54 -71 54 -71 4150 2349 5 MP
DP
54 71 -54 71 -54 -71 54 -71 5002 1846 5 MP
DP
gr

c10
gr

30 w
c10
0 sg
%%IncludeResource: font Helvetica
/Helvetica /ISOLatin1Encoding 120 FMSR

1856 2472 mt 
( ) s
5263  170 mt 
( ) s
14 w
DO
SO
21 w
1873 2429 mt 5279 2429 L
1873 2429 mt 1873  128 L
2298 2429 mt 2298 2463 L
3150 2429 mt 3150 2463 L
4001 2429 mt 4001 2463 L
4853 2429 mt 4853 2463 L
1873 2186 mt 1838 2186 L
%%IncludeResource: font Helvetica-Bold
/Helvetica-Bold /ISOLatin1Encoding 192 FMSR

1698 2259 mt 
(6) s
1873 1944 mt 1838 1944 L
1873 1702 mt 1838 1702 L
1591 1775 mt 
(10) s
1873 1460 mt 1838 1460 L
1873 1217 mt 1838 1217 L
1591 1290 mt 
(14) s
1873  975 mt 1838  975 L
1873  733 mt 1838  733 L
1591  806 mt 
(18) s
1873  491 mt 1838  491 L
1873  249 mt 1838  249 L
1591  322 mt 
(22) s
14 w
DO
SO
21 w
1873  128 mt 5279  128 L
5279 2429 mt 5279  128 L
2298  128 mt 2298   93 L
3150  128 mt 3150   93 L
4001  128 mt 4001   93 L
4853  128 mt 4853   93 L
5279 2209 mt 5313 2209 L
5347 2282 mt 
(-0.2) s
5279 1990 mt 5313 1990 L
5279 1771 mt 5313 1771 L
5347 1844 mt 
(0) s
5279 1552 mt 5313 1552 L
5279 1333 mt 5313 1333 L
5347 1406 mt 
(0.2) s
5279 1114 mt 5313 1114 L
5279  895 mt 5313  895 L
5347  968 mt 
(0.4) s
5279  675 mt 5313  675 L
5279  456 mt 5313  456 L
5347  529 mt 
(0.6) s
gs 1873 128 3407 2302 rc
30 w
gs 2170 1173 2812 315 rc
c8
2265 1268 mt 2331 1334 L
2331 1268 mt 2265 1334 L
3117 1295 mt 3183 1361 L
3183 1295 mt 3117 1361 L
3968 1326 mt 4034 1392 L
4034 1326 mt 3968 1392 L
4820 1296 mt 4886 1362 L
4886 1296 mt 4820 1362 L
gr

c8
gs 2021 1252 2812 397 rc
c9
2116 1347 mt 2182 1413 L
2182 1347 mt 2116 1413 L
2968 1412 mt 3034 1478 L
3034 1412 mt 2968 1478 L
3819 1487 mt 3885 1553 L
3885 1487 mt 3819 1553 L
4671 1415 mt 4737 1481 L
4737 1415 mt 4671 1481 L
gr

c9
gs 2319 1332 2812 424 rc
c10
2414 1427 mt 2480 1493 L
2480 1427 mt 2414 1493 L
3266 1580 mt 3332 1646 L
3332 1580 mt 3266 1646 L
4117 1594 mt 4183 1660 L
4183 1594 mt 4117 1660 L
4969 1534 mt 5035 1600 L
5035 1534 mt 4969 1600 L
gr

c10
gs 2206 1499 2740 338 rc
0 j
-59 34 0 -68 59 34 2259 1744 4 MP
c8
DP
-59 34 0 -68 59 34 3111 1591 4 MP
DP
-59 34 0 -68 59 34 3962 1593 4 MP
DP
-59 34 0 -68 59 34 4814 1643 4 MP
DP
gr

c8
gs 2057 184 2740 1104 rc
0 j
-59 34 0 -68 59 34 2110 1195 4 MP
c9
DP
-59 34 0 -68 59 34 2962 396 4 MP
DP
-59 34 0 -68 59 34 3813 276 4 MP
DP
-59 34 0 -68 59 34 4665 622 4 MP
DP
gr

c9
gs 2355 418 2740 755 rc
0 j
-59 34 0 -68 59 34 2408 1080 4 MP
c10
DP
-59 34 0 -68 59 34 3260 574 4 MP
DP
-59 34 0 -68 59 34 4111 510 4 MP
DP
-59 34 0 -68 59 34 4963 721 4 MP
DP
gr

c10
21 w
gr

c10
1 sg
0 3726 2151 0 0 -3726 6290 4215 4 MP
PP
-2151 0 0 3726 2151 0 0 -3726 6290 4215 5 MP stroke
14 w
DO
SO
21 w
0 sg
6290 4215 mt 8441 4215 L
6290  489 mt 8441  489 L
6290 4215 mt 6290  489 L
8441 4215 mt 8441  489 L
6290 4215 mt 8441 4215 L
6290 4215 mt 6290  489 L
6290 4215 mt 8441 4215 L
6290  489 mt 8441  489 L
6290 4215 mt 6290  489 L
8441 4215 mt 8441  489 L
%%IncludeResource: font Helvetica-Bold
/Helvetica-Bold /ISOLatin1Encoding 156 FMSR

6850  699 mt 
(ERA-40 Var\(F\)) s
%%IncludeResource: font Helvetica-Bold
/Helvetica-Bold /ISOLatin1Encoding 120 FMSR

7916  621 mt 
(1/2) s
%%IncludeResource: font Helvetica-Bold
/Helvetica-Bold /ISOLatin1Encoding 156 FMSR

6850  884 mt 
(  non-precip) s
gs 6290 489 2152 3727 rc
30 w
gs 6451 579 281 281 rc
0 j
0 -86 -86 0 0 86 86 0 6548 676 5 MP
c8
DP
gr

c8
gr

30 w
c8
0 sg
6850 1116 mt 
(HadGEM1 Var\(F\)) s
%%IncludeResource: font Helvetica-Bold
/Helvetica-Bold /ISOLatin1Encoding 120 FMSR

8059 1038 mt 
(1/2) s
%%IncludeResource: font Helvetica-Bold
/Helvetica-Bold /ISOLatin1Encoding 156 FMSR

6850 1301 mt 
(  non-precip) s
gs 6290 489 2152 3727 rc
gs 6451 996 281 281 rc
0 j
0 -86 -86 0 0 86 86 0 6548 1093 5 MP
c9
DP
gr

c9
gr

c9
0 sg
6850 1533 mt 
(CCSM3.0 Var\(F\)) s
%%IncludeResource: font Helvetica-Bold
/Helvetica-Bold /ISOLatin1Encoding 120 FMSR

7998 1455 mt 
(1/2) s
%%IncludeResource: font Helvetica-Bold
/Helvetica-Bold /ISOLatin1Encoding 156 FMSR

6850 1718 mt 
(  non-precip) s
gs 6290 489 2152 3727 rc
gs 6451 1413 281 281 rc
0 j
0 -86 -86 0 0 86 86 0 6548 1510 5 MP
c10
DP
gr

c10
gr

c10
0 sg
6850 1950 mt 
(ERA-40 Var\(F\)) s
%%IncludeResource: font Helvetica-Bold
/Helvetica-Bold /ISOLatin1Encoding 120 FMSR

7916 1872 mt 
(1/2) s
%%IncludeResource: font Helvetica-Bold
/Helvetica-Bold /ISOLatin1Encoding 156 FMSR

6850 2135 mt 
(  precip) s
gs 6290 489 2152 3727 rc
gs 6451 1830 281 281 rc
0 j
54 71 -54 71 -54 -71 54 -71 6591 2041 5 MP
c8
DP
gr

c8
gr

c8
0 sg
6850 2367 mt 
(HadGEM1 Var\(F\)) s
%%IncludeResource: font Helvetica-Bold
/Helvetica-Bold /ISOLatin1Encoding 120 FMSR

8059 2289 mt 
(1/2) s
%%IncludeResource: font Helvetica-Bold
/Helvetica-Bold /ISOLatin1Encoding 156 FMSR

6850 2552 mt 
(  precip) s
gs 6290 489 2152 3727 rc
gs 6451 2247 281 281 rc
0 j
54 71 -54 71 -54 -71 54 -71 6591 2458 5 MP
c9
DP
gr

c9
gr

c9
0 sg
6850 2784 mt 
(CCSM3.0 Var\(F\)) s
%%IncludeResource: font Helvetica-Bold
/Helvetica-Bold /ISOLatin1Encoding 120 FMSR

7998 2706 mt 
(1/2) s
%%IncludeResource: font Helvetica-Bold
/Helvetica-Bold /ISOLatin1Encoding 156 FMSR

6850 2969 mt 
(  precip) s
gs 6290 489 2152 3727 rc
gs 6451 2664 281 281 rc
0 j
54 71 -54 71 -54 -71 54 -71 6591 2875 5 MP
c10
DP
gr

c10
gr

c10
0 sg
6850 3170 mt 
(ERA-40 lambda) s
gs 6290 489 2152 3727 rc
gs 6463 2983 257 257 rc
c8
6558 3078 mt 6624 3144 L
6624 3078 mt 6558 3144 L
gr

c8
gr

c8
0 sg
6850 3367 mt 
(HadGEM1 lambda) s
gs 6290 489 2152 3727 rc
gs 6463 3180 257 257 rc
c9
6558 3275 mt 6624 3341 L
6624 3275 mt 6558 3341 L
gr

c9
gr

c9
0 sg
6850 3564 mt 
(CCSM3.0 lambda) s
gs 6290 489 2152 3727 rc
gs 6463 3376 257 257 rc
c10
6558 3471 mt 6624 3537 L
6624 3471 mt 6558 3537 L
gr

c10
gr

c10
0 sg
6850 3760 mt 
(ERA-40 chi) s
gs 6290 489 2152 3727 rc
gs 6499 3609 185 185 rc
0 j
-59 34 0 -68 59 34 6552 3701 4 MP
c8
DP
gr

c8
gr

c8
0 sg
6850 3957 mt 
(HadGEM1 chi) s
gs 6290 489 2152 3727 rc
gs 6499 3806 185 185 rc
0 j
-59 34 0 -68 59 34 6552 3898 4 MP
c9
DP
gr

c9
gr

c9
0 sg
6850 4154 mt 
(CCSM3.0 chi) s
gs 6290 489 2152 3727 rc
gs 6499 4002 185 185 rc
0 j
-59 34 0 -68 59 34 6552 4094 4 MP
c10
DP
gr

c10
21 w
gr

21 w
c10
6 w
0 sg
%%IncludeResource: font Helvetica-Bold
/Helvetica-Bold /ISOLatin1Encoding 180 FMSR

  85 1239 mt 
(Box 1:) s
  85 1445 mt 
(Central US) s
21 w
1 sg
0 2302 3406 0 0 -2302 1873 4833 4 MP
PP
-3406 0 0 2302 3406 0 0 -2302 1873 4833 5 MP stroke
gs 1873 2531 3407 2303 rc
15.6 w
0 sg
0 -2302 4427 4833 2 MP stroke
30 w
gs 2158 3462 2836 706 rc
0 j
0 -86 -86 0 0 86 86 0 2255 3559 5 MP
c8
DP
0 -86 -86 0 0 86 86 0 3107 3631 5 MP
DP
0 -86 -86 0 0 86 86 0 3958 3984 5 MP
DP
0 -86 -86 0 0 86 86 0 4810 3724 5 MP
DP
gr

c8
gs 2009 3519 2836 566 rc
0 j
0 -86 -86 0 0 86 86 0 2106 3616 5 MP
c9
DP
0 -86 -86 0 0 86 86 0 2958 3765 5 MP
DP
0 -86 -86 0 0 86 86 0 3809 3901 5 MP
DP
0 -86 -86 0 0 86 86 0 4661 3761 5 MP
DP
gr

c9
gs 2307 2535 2836 1321 rc
0 j
0 -86 -86 0 0 86 86 0 2404 2632 5 MP
c10
DP
0 -86 -86 0 0 86 86 0 3256 3304 5 MP
DP
0 -86 -86 0 0 86 86 0 4107 3672 5 MP
DP
0 -86 -86 0 0 86 86 0 4959 3203 5 MP
DP
gr

c10
gs 2158 3941 2836 473 rc
0 j
54 71 -54 71 -54 -71 54 -71 2298 4321 5 MP
c8
DP
54 71 -54 71 -54 -71 54 -71 3150 4152 5 MP
DP
54 71 -54 71 -54 -71 54 -71 4001 4344 5 MP
DP
54 71 -54 71 -54 -71 54 -71 4853 4272 5 MP
DP
gr

c8
gs 2009 3561 2836 777 rc
0 j
54 71 -54 71 -54 -71 54 -71 2149 3989 5 MP
c9
DP
54 71 -54 71 -54 -71 54 -71 3001 3772 5 MP
DP
54 71 -54 71 -54 -71 54 -71 3852 4268 5 MP
DP
54 71 -54 71 -54 -71 54 -71 4704 4010 5 MP
DP
gr

c9
gs 2307 3587 2836 588 rc
0 j
54 71 -54 71 -54 -71 54 -71 2447 4105 5 MP
c10
DP
54 71 -54 71 -54 -71 54 -71 3299 3798 5 MP
DP
54 71 -54 71 -54 -71 54 -71 4150 3891 5 MP
DP
54 71 -54 71 -54 -71 54 -71 5002 3931 5 MP
DP
gr

c10
gr

30 w
c10
0 sg
1425 3237 mt  -90 rotate
(Forcings [Wm-2]) s
90 rotate
%%IncludeResource: font Helvetica
/Helvetica /ISOLatin1Encoding 120 FMSR

1856 4876 mt 
( ) s
5263 2573 mt 
( ) s
14 w
DO
SO
21 w
1873 4833 mt 5279 4833 L
1873 4833 mt 1873 2531 L
2298 4833 mt 2298 4867 L
%%IncludeResource: font Helvetica-Bold
/Helvetica-Bold /ISOLatin1Encoding 192 FMSR

2130 5085 mt 
(Jun) s
3150 4833 mt 3150 4867 L
3014 5085 mt 
(Jul) s
4001 4833 mt 4001 4867 L
3818 5085 mt 
(Aug) s
4853 4833 mt 4853 4867 L
4405 5085 mt 
(Sum. avg.) s
1873 4590 mt 1838 4590 L
1698 4663 mt 
(6) s
1873 4348 mt 1838 4348 L
1873 4106 mt 1838 4106 L
1591 4179 mt 
(10) s
1873 3863 mt 1838 3863 L
1873 3621 mt 1838 3621 L
1591 3694 mt 
(14) s
1873 3379 mt 1838 3379 L
1873 3136 mt 1838 3136 L
1591 3209 mt 
(18) s
1873 2894 mt 1838 2894 L
1873 2652 mt 1838 2652 L
1591 2725 mt 
(22) s
14 w
DO
SO
21 w
1873 2531 mt 5279 2531 L
5279 4833 mt 5279 2531 L
2298 2531 mt 2298 2496 L
3150 2531 mt 3150 2496 L
4001 2531 mt 4001 2496 L
4853 2531 mt 4853 2496 L
5279 4613 mt 5313 4613 L
5347 4686 mt 
(-0.2) s
5279 4394 mt 5313 4394 L
5279 4175 mt 5313 4175 L
5347 4248 mt 
(0) s
5279 3956 mt 5313 3956 L
5279 3736 mt 5313 3736 L
5347 3809 mt 
(0.2) s
5279 3517 mt 5313 3517 L
5279 3298 mt 5313 3298 L
5347 3371 mt 
(0.4) s
5279 3079 mt 5313 3079 L
5279 2859 mt 5313 2859 L
5347 2932 mt 
(0.6) s
gs 1873 2531 3407 2303 rc
30 w
gs 2170 3502 2812 421 rc
c8
2265 3597 mt 2331 3663 L
2331 3597 mt 2265 3663 L
3117 3665 mt 3183 3731 L
3183 3665 mt 3117 3731 L
3968 3761 mt 4034 3827 L
4034 3761 mt 3968 3827 L
4820 3675 mt 4886 3741 L
4886 3675 mt 4820 3741 L
gr

c8
gs 2021 3392 2812 506 rc
c9
2116 3487 mt 2182 3553 L
2182 3487 mt 2116 3553 L
2968 3736 mt 3034 3802 L
3034 3736 mt 2968 3802 L
3819 3619 mt 3885 3685 L
3885 3619 mt 3819 3685 L
4671 3614 mt 4737 3680 L
4737 3614 mt 4671 3680 L
gr

c9
gs 2319 3587 2812 604 rc
c10
2414 3682 mt 2480 3748 L
2480 3682 mt 2414 3748 L
3266 3971 mt 3332 4037 L
3332 3971 mt 3266 4037 L
4117 4029 mt 4183 4095 L
4183 4029 mt 4117 4095 L
4969 3894 mt 5035 3960 L
5035 3894 mt 4969 3960 L
gr

c10
gs 2206 4228 2740 465 rc
0 j
-59 34 0 -68 59 34 2259 4600 4 MP
c8
DP
-59 34 0 -68 59 34 3111 4466 4 MP
DP
-59 34 0 -68 59 34 3962 4320 4 MP
DP
-59 34 0 -68 59 34 4814 4462 4 MP
DP
gr

c8
gs 2057 3269 2740 840 rc
0 j
-59 34 0 -68 59 34 2110 4016 4 MP
c9
DP
-59 34 0 -68 59 34 2962 3361 4 MP
DP
-59 34 0 -68 59 34 3813 3742 4 MP
DP
-59 34 0 -68 59 34 4665 3706 4 MP
DP
gr

c9
gs 2355 3731 2740 602 rc
0 j
-59 34 0 -68 59 34 2408 4240 4 MP
c10
DP
-59 34 0 -68 59 34 3260 3823 4 MP
DP
-59 34 0 -68 59 34 4111 3858 4 MP
DP
-59 34 0 -68 59 34 4963 3974 4 MP
DP
gr

c10
gr

30 w
c10
0 sg
%%IncludeResource: font Helvetica-Bold
/Helvetica-Bold /ISOLatin1Encoding 180 FMSR

5765 1765 mt  -270 rotate
(TM coefficients [-]) s
270 rotate
21 w
1 sg
0 3726 2151 0 0 -3726 6290 4215 4 MP
PP
-2151 0 0 3726 2151 0 0 -3726 6290 4215 5 MP stroke
14 w
DO
SO
21 w
0 sg
6290 4215 mt 8441 4215 L
6290  489 mt 8441  489 L
6290 4215 mt 6290  489 L
8441 4215 mt 8441  489 L
6290 4215 mt 8441 4215 L
6290 4215 mt 6290  489 L
6290 4215 mt 8441 4215 L
6290  489 mt 8441  489 L
6290 4215 mt 6290  489 L
8441 4215 mt 8441  489 L
%%IncludeResource: font Helvetica-Bold
/Helvetica-Bold /ISOLatin1Encoding 156 FMSR

6850  699 mt 
(ERA-40 Var\(F\)) s
%%IncludeResource: font Helvetica-Bold
/Helvetica-Bold /ISOLatin1Encoding 120 FMSR

7916  621 mt 
(1/2) s
%%IncludeResource: font Helvetica-Bold
/Helvetica-Bold /ISOLatin1Encoding 156 FMSR

6850  884 mt 
(  non-precip) s
gs 6290 489 2152 3727 rc
30 w
gs 6451 579 281 281 rc
0 j
0 -86 -86 0 0 86 86 0 6548 676 5 MP
c8
DP
gr

c8
gr

30 w
c8
0 sg
6850 1116 mt 
(HadGEM1 Var\(F\)) s
%%IncludeResource: font Helvetica-Bold
/Helvetica-Bold /ISOLatin1Encoding 120 FMSR

8059 1038 mt 
(1/2) s
%%IncludeResource: font Helvetica-Bold
/Helvetica-Bold /ISOLatin1Encoding 156 FMSR

6850 1301 mt 
(  non-precip) s
gs 6290 489 2152 3727 rc
gs 6451 996 281 281 rc
0 j
0 -86 -86 0 0 86 86 0 6548 1093 5 MP
c9
DP
gr

c9
gr

c9
0 sg
6850 1533 mt 
(CCSM3.0 Var\(F\)) s
%%IncludeResource: font Helvetica-Bold
/Helvetica-Bold /ISOLatin1Encoding 120 FMSR

7998 1455 mt 
(1/2) s
%%IncludeResource: font Helvetica-Bold
/Helvetica-Bold /ISOLatin1Encoding 156 FMSR

6850 1718 mt 
(  non-precip) s
gs 6290 489 2152 3727 rc
gs 6451 1413 281 281 rc
0 j
0 -86 -86 0 0 86 86 0 6548 1510 5 MP
c10
DP
gr

c10
gr

c10
0 sg
6850 1950 mt 
(ERA-40 Var\(F\)) s
%%IncludeResource: font Helvetica-Bold
/Helvetica-Bold /ISOLatin1Encoding 120 FMSR

7916 1872 mt 
(1/2) s
%%IncludeResource: font Helvetica-Bold
/Helvetica-Bold /ISOLatin1Encoding 156 FMSR

6850 2135 mt 
(  precip) s
gs 6290 489 2152 3727 rc
gs 6451 1830 281 281 rc
0 j
54 71 -54 71 -54 -71 54 -71 6591 2041 5 MP
c8
DP
gr

c8
gr

c8
0 sg
6850 2367 mt 
(HadGEM1 Var\(F\)) s
%%IncludeResource: font Helvetica-Bold
/Helvetica-Bold /ISOLatin1Encoding 120 FMSR

8059 2289 mt 
(1/2) s
%%IncludeResource: font Helvetica-Bold
/Helvetica-Bold /ISOLatin1Encoding 156 FMSR

6850 2552 mt 
(  precip) s
gs 6290 489 2152 3727 rc
gs 6451 2247 281 281 rc
0 j
54 71 -54 71 -54 -71 54 -71 6591 2458 5 MP
c9
DP
gr

c9
gr

c9
0 sg
6850 2784 mt 
(CCSM3.0 Var\(F\)) s
%%IncludeResource: font Helvetica-Bold
/Helvetica-Bold /ISOLatin1Encoding 120 FMSR

7998 2706 mt 
(1/2) s
%%IncludeResource: font Helvetica-Bold
/Helvetica-Bold /ISOLatin1Encoding 156 FMSR

6850 2969 mt 
(  precip) s
gs 6290 489 2152 3727 rc
gs 6451 2664 281 281 rc
0 j
54 71 -54 71 -54 -71 54 -71 6591 2875 5 MP
c10
DP
gr

c10
gr

c10
0 sg
6850 3170 mt 
(ERA-40 lambda) s
gs 6290 489 2152 3727 rc
gs 6463 2983 257 257 rc
c8
6558 3078 mt 6624 3144 L
6624 3078 mt 6558 3144 L
gr

c8
gr

c8
0 sg
6850 3367 mt 
(HadGEM1 lambda) s
gs 6290 489 2152 3727 rc
gs 6463 3180 257 257 rc
c9
6558 3275 mt 6624 3341 L
6624 3275 mt 6558 3341 L
gr

c9
gr

c9
0 sg
6850 3564 mt 
(CCSM3.0 lambda) s
gs 6290 489 2152 3727 rc
gs 6463 3376 257 257 rc
c10
6558 3471 mt 6624 3537 L
6624 3471 mt 6558 3537 L
gr

c10
gr

c10
0 sg
6850 3760 mt 
(ERA-40 chi) s
gs 6290 489 2152 3727 rc
gs 6499 3609 185 185 rc
0 j
-59 34 0 -68 59 34 6552 3701 4 MP
c8
DP
gr

c8
gr

c8
0 sg
6850 3957 mt 
(HadGEM1 chi) s
gs 6290 489 2152 3727 rc
gs 6499 3806 185 185 rc
0 j
-59 34 0 -68 59 34 6552 3898 4 MP
c9
DP
gr

c9
gr

c9
0 sg
6850 4154 mt 
(CCSM3.0 chi) s
gs 6290 489 2152 3727 rc
gs 6499 4002 185 185 rc
0 j
-59 34 0 -68 59 34 6552 4094 4 MP
c10
DP
gr

c10
21 w
gr

21 w
c10
6 w
0 sg
%%IncludeResource: font Helvetica-Bold
/Helvetica-Bold /ISOLatin1Encoding 180 FMSR

  85 3643 mt 
(Box 2:) s
  85 3849 mt 
(Eastern Europe) s

end %%Color Dict

eplot
%%EndObject

epage
end

showpage

%%Trailer
%%EOF
