%!PS-Adobe-3.0 EPSF-3.0
%%Creator: MATLAB, The Mathworks, Inc. Version 7.5.0.338 (R2007b). Operating System: Linux 3.8.4 #1 SMP Thu Mar 21 12:34:11 PDT 2013 x86_64.
%%Title: figs/eps/line_mbar_sig_T_all.eps
%%CreationDate: 11/04/2013  10:43:34
%%DocumentNeededFonts: Helvetica
%%+ Helvetica-Bold
%%DocumentProcessColors: Cyan Magenta Yellow Black
%%LanguageLevel: 2
%%Pages: 1
%%BoundingBox:     5     0   707   427
%%EndComments

%%BeginProlog
% MathWorks dictionary
/MathWorks 160 dict begin
% definition operators
/bdef {bind def} bind def
/ldef {load def} bind def
/xdef {exch def} bdef
/xstore {exch store} bdef
% operator abbreviations
/c  /clip ldef
/cc /concat ldef
/cp /closepath ldef
/gr /grestore ldef
/gs /gsave ldef
/mt /moveto ldef
/np /newpath ldef
/cm /currentmatrix ldef
/sm /setmatrix ldef
/rm /rmoveto ldef
/rl /rlineto ldef
/s {show newpath} bdef
/sc {setcmykcolor} bdef
/sr /setrgbcolor ldef
/sg /setgray ldef
/w /setlinewidth ldef
/j /setlinejoin ldef
/cap /setlinecap ldef
/rc {rectclip} bdef
/rf {rectfill} bdef
% page state control
/pgsv () def
/bpage {/pgsv save def} bdef
/epage {pgsv restore} bdef
/bplot /gsave ldef
/eplot {stroke grestore} bdef
% orientation switch
/portraitMode 0 def /landscapeMode 1 def /rotateMode 2 def
% coordinate system mappings
/dpi2point 0 def
% font control
/FontSize 0 def
/FMS {/FontSize xstore findfont [FontSize 0 0 FontSize neg 0 0]
  makefont setfont} bdef
/reencode {exch dup where {pop load} {pop StandardEncoding} ifelse
  exch dup 3 1 roll findfont dup length dict begin
  { 1 index /FID ne {def}{pop pop} ifelse } forall
  /Encoding exch def currentdict end definefont pop} bdef
/isroman {findfont /CharStrings get /Agrave known} bdef
/FMSR {3 1 roll 1 index dup isroman {reencode} {pop pop} ifelse
  exch FMS} bdef
/csm {1 dpi2point div -1 dpi2point div scale neg translate
 dup landscapeMode eq {pop -90 rotate}
  {rotateMode eq {90 rotate} if} ifelse} bdef
% line types: solid, dotted, dashed, dotdash
/SO { [] 0 setdash } bdef
/DO { [.5 dpi2point mul 4 dpi2point mul] 0 setdash } bdef
/DA { [6 dpi2point mul] 0 setdash } bdef
/DD { [.5 dpi2point mul 4 dpi2point mul 6 dpi2point mul 4
  dpi2point mul] 0 setdash } bdef
% macros for lines and objects
/L {lineto stroke} bdef
/MP {3 1 roll moveto 1 sub {rlineto} repeat} bdef
/AP {{rlineto} repeat} bdef
/PDlw -1 def
/W {/PDlw currentlinewidth def setlinewidth} def
/PP {closepath eofill} bdef
/DP {closepath stroke} bdef
/MR {4 -2 roll moveto dup  0 exch rlineto exch 0 rlineto
  neg 0 exch rlineto closepath} bdef
/FR {MR stroke} bdef
/PR {MR fill} bdef
/L1i {{currentfile picstr readhexstring pop} image} bdef
/tMatrix matrix def
/MakeOval {newpath tMatrix currentmatrix pop translate scale
0 0 1 0 360 arc tMatrix setmatrix} bdef
/FO {MakeOval stroke} bdef
/PO {MakeOval fill} bdef
/PD {currentlinewidth 2 div 0 360 arc fill
   PDlw -1 eq not {PDlw w /PDlw -1 def} if} def
/FA {newpath tMatrix currentmatrix pop translate scale
  0 0 1 5 -2 roll arc tMatrix setmatrix stroke} bdef
/PA {newpath tMatrix currentmatrix pop	translate 0 0 moveto scale
  0 0 1 5 -2 roll arc closepath tMatrix setmatrix fill} bdef
/FAn {newpath tMatrix currentmatrix pop translate scale
  0 0 1 5 -2 roll arcn tMatrix setmatrix stroke} bdef
/PAn {newpath tMatrix currentmatrix pop translate 0 0 moveto scale
  0 0 1 5 -2 roll arcn closepath tMatrix setmatrix fill} bdef
/vradius 0 def /hradius 0 def /lry 0 def
/lrx 0 def /uly 0 def /ulx 0 def /rad 0 def
/MRR {/vradius xdef /hradius xdef /lry xdef /lrx xdef /uly xdef
  /ulx xdef newpath tMatrix currentmatrix pop ulx hradius add uly
  vradius add translate hradius vradius scale 0 0 1 180 270 arc 
  tMatrix setmatrix lrx hradius sub uly vradius add translate
  hradius vradius scale 0 0 1 270 360 arc tMatrix setmatrix
  lrx hradius sub lry vradius sub translate hradius vradius scale
  0 0 1 0 90 arc tMatrix setmatrix ulx hradius add lry vradius sub
  translate hradius vradius scale 0 0 1 90 180 arc tMatrix setmatrix
  closepath} bdef
/FRR {MRR stroke } bdef
/PRR {MRR fill } bdef
/MlrRR {/lry xdef /lrx xdef /uly xdef /ulx xdef /rad lry uly sub 2 div def
  newpath tMatrix currentmatrix pop ulx rad add uly rad add translate
  rad rad scale 0 0 1 90 270 arc tMatrix setmatrix lrx rad sub lry rad
  sub translate rad rad scale 0 0 1 270 90 arc tMatrix setmatrix
  closepath} bdef
/FlrRR {MlrRR stroke } bdef
/PlrRR {MlrRR fill } bdef
/MtbRR {/lry xdef /lrx xdef /uly xdef /ulx xdef /rad lrx ulx sub 2 div def
  newpath tMatrix currentmatrix pop ulx rad add uly rad add translate
  rad rad scale 0 0 1 180 360 arc tMatrix setmatrix lrx rad sub lry rad
  sub translate rad rad scale 0 0 1 0 180 arc tMatrix setmatrix
  closepath} bdef
/FtbRR {MtbRR stroke } bdef
/PtbRR {MtbRR fill } bdef
/stri 6 array def /dtri 6 array def
/smat 6 array def /dmat 6 array def
/tmat1 6 array def /tmat2 6 array def /dif 3 array def
/asub {/ind2 exch def /ind1 exch def dup dup
  ind1 get exch ind2 get sub exch } bdef
/tri_to_matrix {
  2 0 asub 3 1 asub 4 0 asub 5 1 asub
  dup 0 get exch 1 get 7 -1 roll astore } bdef
/compute_transform {
  dmat dtri tri_to_matrix tmat1 invertmatrix 
  smat stri tri_to_matrix tmat2 concatmatrix } bdef
/ds {stri astore pop} bdef
/dt {dtri astore pop} bdef
/db {2 copy /cols xdef /rows xdef mul dup 3 mul string
  currentfile 
  3 index 0 eq {/ASCIIHexDecode filter}
  {/ASCII85Decode filter 3 index 2 eq {/RunLengthDecode filter} if }
  ifelse exch readstring pop
  dup 0 3 index getinterval /rbmap xdef
  dup 2 index dup getinterval /gbmap xdef
  1 index dup 2 mul exch getinterval /bbmap xdef pop pop}bdef
/it {gs np dtri aload pop moveto lineto lineto cp c
  cols rows 8 compute_transform 
  rbmap gbmap bbmap true 3 colorimage gr}bdef
/il {newpath moveto lineto stroke}bdef
currentdict end def
%%EndProlog

%%BeginSetup
MathWorks begin

0 cap

end
%%EndSetup

%%Page: 1 1
%%BeginPageSetup
%%PageBoundingBox:     5     0   707   427
MathWorks begin
bpage
%%EndPageSetup

%%BeginObject: obj1
bplot

/dpi2point 12 def
portraitMode 0000 5112 csm

   60   -14  8434  5128 rc
89 dict begin %Colortable dictionary
/c0 { 0.000000 0.000000 0.000000 sr} bdef
/c1 { 1.000000 1.000000 1.000000 sr} bdef
/c2 { 0.900000 0.000000 0.000000 sr} bdef
/c3 { 0.000000 0.820000 0.000000 sr} bdef
/c4 { 0.000000 0.000000 0.800000 sr} bdef
/c5 { 0.910000 0.820000 0.320000 sr} bdef
/c6 { 1.000000 0.260000 0.820000 sr} bdef
/c7 { 0.000000 0.820000 0.820000 sr} bdef
c0
1 j
21 w
1 sg
0 2301 3406 0 0 -2301 1873 2429 4 MP
PP
-3406 0 0 2301 3406 0 0 -2301 1873 2429 5 MP stroke
14 w
DO
SO
21 w
0 sg
1873 2429 mt 5279 2429 L
1873 2429 mt 1873  128 L
2213 2429 mt 2213 2463 L
2894 2429 mt 2894 2463 L
3576 2429 mt 3576 2463 L
4257 2429 mt 4257 2463 L
4938 2429 mt 4938 2463 L
1873 2429 mt 1838 2429 L
1873 2219 mt 1838 2219 L
%%IncludeResource: font Helvetica-Bold
/Helvetica-Bold /ISOLatin1Encoding 192 FMSR

1591 2292 mt 
(12) s
1873 2010 mt 1838 2010 L
1873 1801 mt 1838 1801 L
1591 1874 mt 
(16) s
1873 1592 mt 1838 1592 L
1873 1383 mt 1838 1383 L
1591 1456 mt 
(20) s
1873 1173 mt 1838 1173 L
1873  964 mt 1838  964 L
1591 1037 mt 
(24) s
1873  755 mt 1838  755 L
1873  546 mt 1838  546 L
1591  619 mt 
(28) s
1873  337 mt 1838  337 L
gs 1873 128 3407 2302 rc
DA
30 w
/c8 { 0.301961 0.686275 0.290196 sr} bdef
c8
681 -1 681 -1 682 53 681 76 2213 1121 5 MP stroke
SO
6 w
gs 1972 880 3208 612 rc
80 W
2213 1121 PD
80 W
2894 1197 PD
80 W
3576 1250 PD
80 W
4257 1249 PD
80 W
4938 1248 PD
gr

DA
30 w
/c9 { 0.596078 0.305882 0.639216 sr} bdef
c9
681 75 681 -41 682 -21 681 -46 2213 817 5 MP stroke
SO
6 w
gs 1972 468 3208 591 rc
80 W
2213 817 PD
80 W
2894 771 PD
80 W
3576 750 PD
80 W
4257 709 PD
80 W
4938 784 PD
gr

30 w
/c10 { 0.215686 0.494118 0.721569 sr} bdef
c10
681 -141 681 81 682 379 681 274 2213 1430 5 MP stroke
6 w
gs 1972 1189 3208 1217 rc
80 W
2213 1430 PD
80 W
2894 1704 PD
80 W
3576 2083 PD
80 W
4257 2164 PD
80 W
4938 2023 PD
gr

30 w
/c11 { 0.894118 0.101961 0.109804 sr} bdef
c11
681 -21 681 169 682 120 681 22 2213 1735 5 MP stroke
6 w
gs 1972 1494 3208 794 rc
80 W
2213 1735 PD
80 W
2894 1757 PD
80 W
3576 1877 PD
80 W
4257 2046 PD
80 W
4938 2025 PD
gr

gr

6 w
c11
0 sg
%%IncludeResource: font Helvetica
/Helvetica /ISOLatin1Encoding 120 FMSR

1856 2472 mt 
( ) s
5263  170 mt 
( ) s
21 w
14 w
DO
SO
21 w
1873  128 mt 5279  128 L
5279 2429 mt 5279  128 L
2213  128 mt 2213   93 L
2894  128 mt 2894   93 L
3576  128 mt 3576   93 L
4257  128 mt 4257   93 L
4938  128 mt 4938   93 L
5279 1968 mt 5313 1968 L
%%IncludeResource: font Helvetica-Bold
/Helvetica-Bold /ISOLatin1Encoding 192 FMSR

5347 2041 mt 
(1) s
5279 1508 mt 5313 1508 L
5347 1581 mt 
(1.5) s
5279 1048 mt 5313 1048 L
5347 1121 mt 
(2) s
5279  588 mt 5313  588 L
5347  661 mt 
(2.5) s
gs 1873 128 3407 2302 rc
30 w
gs 2109 1337 2934 464 rc
0 j
36 47 -36 47 -36 -47 36 -47 2213 1488 5 MP
c8
DP
36 47 -36 47 -36 -47 36 -47 2894 1628 5 MP
DP
36 47 -36 47 -36 -47 36 -47 3576 1743 5 MP
DP
36 47 -36 47 -36 -47 36 -47 4257 1661 5 MP
DP
36 47 -36 47 -36 -47 36 -47 4938 1576 5 MP
DP
gr

c8
gs 2109 1023 2934 549 rc
0 j
36 47 -36 47 -36 -47 36 -47 2213 1174 5 MP
c9
DP
36 47 -36 47 -36 -47 36 -47 2894 1211 5 MP
DP
36 47 -36 47 -36 -47 36 -47 3576 1431 5 MP
DP
36 47 -36 47 -36 -47 36 -47 4257 1514 5 MP
DP
36 47 -36 47 -36 -47 36 -47 4938 1489 5 MP
DP
gr

c9
gs 2109 858 2934 598 rc
0 j
0 -58 -58 0 0 58 58 0 2184 1322 5 MP
c10
DP
0 -58 -58 0 0 58 58 0 2865 1287 5 MP
DP
0 -58 -58 0 0 58 58 0 3547 1096 5 MP
DP
0 -58 -58 0 0 58 58 0 4228 1140 5 MP
DP
0 -58 -58 0 0 58 58 0 4909 933 5 MP
DP
gr

c10
gr

30 w
c10
gs 2109 117 2934 1036 rc
0 j
0 -58 -58 0 0 58 58 0 2184 851 5 MP
c11
DP
0 -58 -58 0 0 58 58 0 2865 652 5 MP
DP
0 -58 -58 0 0 58 58 0 3547 192 5 MP
DP
0 -58 -58 0 0 58 58 0 4228 989 5 MP
DP
0 -58 -58 0 0 58 58 0 4909 1019 5 MP
DP
gr

c11
gs 1873 128 3407 2302 rc
21 w
gr

21 w
1 sg
0 1779 2151 0 0 -1779 6290 3242 4 MP
PP
-2151 0 0 1779 2151 0 0 -1779 6290 3242 5 MP stroke
14 w
DO
SO
21 w
0 sg
6290 3242 mt 8441 3242 L
6290 1463 mt 8441 1463 L
6290 3242 mt 6290 1463 L
8441 3242 mt 8441 1463 L
6290 3242 mt 8441 3242 L
6290 3242 mt 6290 1463 L
6290 3242 mt 8441 3242 L
6290 1463 mt 8441 1463 L
6290 3242 mt 6290 1463 L
8441 3242 mt 8441 1463 L
%%IncludeResource: font Helvetica-Bold
/Helvetica-Bold /ISOLatin1Encoding 156 FMSR

6824 1636 mt 
(ERA-40 mbar) s
gs 6290 1463 2152 1780 rc
DA
30 w
c8
410 0 6372 1578 2 MP stroke
SO
gr

30 w
c8
0 sg
6824 1825 mt 
(NCEP-DOE mbar) s
gs 6290 1463 2152 1780 rc
DA
c9
410 0 6372 1766 2 MP stroke
SO
gr

c9
0 sg
6824 2013 mt 
(HadGEM1 mbar) s
gs 6290 1463 2152 1780 rc
c10
410 0 6372 1954 2 MP stroke
gr

c10
0 sg
6824 2202 mt 
(CCSM3.0 mbar) s
gs 6290 1463 2152 1780 rc
c11
410 0 6372 2143 2 MP stroke
gr

c11
0 sg
6824 2432 mt 
(ERA-40 Var\(T\)) s
%%IncludeResource: font Helvetica-Bold
/Helvetica-Bold /ISOLatin1Encoding 120 FMSR

7890 2354 mt 
(1/2) s
gs 6290 1463 2152 1780 rc
gs 6473 2256 209 209 rc
0 j
36 47 -36 47 -36 -47 36 -47 6577 2407 5 MP
c8
DP
gr

c8
gr

c8
0 sg
%%IncludeResource: font Helvetica-Bold
/Helvetica-Bold /ISOLatin1Encoding 156 FMSR

6824 2678 mt 
(NCEP-DOE Var\(T\)) s
%%IncludeResource: font Helvetica-Bold
/Helvetica-Bold /ISOLatin1Encoding 120 FMSR

8158 2600 mt 
(1/2) s
gs 6290 1463 2152 1780 rc
gs 6473 2502 209 209 rc
0 j
36 47 -36 47 -36 -47 36 -47 6577 2653 5 MP
c9
DP
gr

c9
gr

c9
0 sg
%%IncludeResource: font Helvetica-Bold
/Helvetica-Bold /ISOLatin1Encoding 156 FMSR

6824 2924 mt 
(HadGEM1 Var\(T\)) s
%%IncludeResource: font Helvetica-Bold
/Helvetica-Bold /ISOLatin1Encoding 120 FMSR

8033 2846 mt 
(1/2) s
gs 6290 1463 2152 1780 rc
gs 6473 2748 209 209 rc
0 j
0 -58 -58 0 0 58 58 0 6548 2823 5 MP
c10
DP
gr

c10
gr

c10
0 sg
%%IncludeResource: font Helvetica-Bold
/Helvetica-Bold /ISOLatin1Encoding 156 FMSR

6824 3170 mt 
(CCSM 3.0 Var\(T\)) s
%%IncludeResource: font Helvetica-Bold
/Helvetica-Bold /ISOLatin1Encoding 120 FMSR

8015 3092 mt 
(1/2) s
gs 6290 1463 2152 1780 rc
gs 6473 2994 209 209 rc
0 j
0 -58 -58 0 0 58 58 0 6548 3069 5 MP
c11
DP
gr

c11
21 w
gr

21 w
c11
6 w
0 sg
%%IncludeResource: font Helvetica-Bold
/Helvetica-Bold /ISOLatin1Encoding 180 FMSR

  85 1239 mt 
(Box 1:) s
  85 1445 mt 
(Central US) s
21 w
1 sg
0 2302 3406 0 0 -2302 1873 4833 4 MP
PP
-3406 0 0 2302 3406 0 0 -2302 1873 4833 5 MP stroke
14 w
DO
SO
21 w
0 sg
1873 4833 mt 5279 4833 L
1873 4833 mt 1873 2531 L
2213 4833 mt 2213 4867 L
%%IncludeResource: font Helvetica-Bold
/Helvetica-Bold /ISOLatin1Encoding 192 FMSR

2029 5085 mt 
(May) s
2894 4833 mt 2894 4867 L
2726 5085 mt 
(Jun) s
3576 4833 mt 3576 4867 L
3440 5085 mt 
(Jul) s
4257 4833 mt 4257 4867 L
4074 5085 mt 
(Aug) s
4938 4833 mt 4938 4867 L
4762 5085 mt 
(Sep) s
1873 4833 mt 1838 4833 L
1873 4623 mt 1838 4623 L
1591 4696 mt 
(12) s
1873 4414 mt 1838 4414 L
1873 4205 mt 1838 4205 L
1591 4278 mt 
(16) s
1873 3995 mt 1838 3995 L
1873 3786 mt 1838 3786 L
1591 3859 mt 
(20) s
1873 3577 mt 1838 3577 L
1873 3368 mt 1838 3368 L
1591 3441 mt 
(24) s
1873 3158 mt 1838 3158 L
1873 2949 mt 1838 2949 L
1591 3022 mt 
(28) s
1873 2740 mt 1838 2740 L
gs 1873 2531 3407 2303 rc
DA
30 w
c8
681 -28 681 63 682 3 681 16 2213 3428 5 MP stroke
SO
6 w
gs 1972 3187 3208 565 rc
80 W
2213 3428 PD
80 W
2894 3444 PD
80 W
3576 3447 PD
80 W
4257 3510 PD
80 W
4938 3482 PD
gr

DA
30 w
c9
681 87 681 67 682 43 681 -112 2213 2931 5 MP stroke
SO
6 w
gs 1972 2578 3208 680 rc
80 W
2213 2931 PD
80 W
2894 2819 PD
80 W
3576 2862 PD
80 W
4257 2929 PD
80 W
4938 3016 PD
gr

30 w
c10
681 -63 681 179 682 195 681 269 2213 3478 5 MP stroke
6 w
gs 1972 3237 3208 1126 rc
80 W
2213 3478 PD
80 W
2894 3747 PD
80 W
3576 3942 PD
80 W
4257 4121 PD
80 W
4938 4058 PD
gr

30 w
c11
681 -70 681 72 682 152 681 168 2213 3586 5 MP stroke
6 w
gs 1972 3345 3208 875 rc
80 W
2213 3586 PD
80 W
2894 3754 PD
80 W
3576 3906 PD
80 W
4257 3978 PD
80 W
4938 3908 PD
gr

gr

6 w
c11
0 sg
%%IncludeResource: font Helvetica-Bold
/Helvetica-Bold /ISOLatin1Encoding 180 FMSR

1425 3005 mt  -90 rotate
(mbar  [mm]) s
90 rotate
%%IncludeResource: font Helvetica
/Helvetica /ISOLatin1Encoding 120 FMSR

1856 4876 mt 
( ) s
5263 2573 mt 
( ) s
21 w
14 w
DO
SO
21 w
1873 2531 mt 5279 2531 L
5279 4833 mt 5279 2531 L
2213 2531 mt 2213 2496 L
2894 2531 mt 2894 2496 L
3576 2531 mt 3576 2496 L
4257 2531 mt 4257 2496 L
4938 2531 mt 4938 2496 L
5279 4372 mt 5313 4372 L
%%IncludeResource: font Helvetica-Bold
/Helvetica-Bold /ISOLatin1Encoding 192 FMSR

5347 4445 mt 
(1) s
5279 3912 mt 5313 3912 L
5347 3985 mt 
(1.5) s
5279 3451 mt 5313 3451 L
5347 3524 mt 
(2) s
5279 2991 mt 5313 2991 L
5347 3064 mt 
(2.5) s
gs 1873 2531 3407 2303 rc
30 w
gs 2109 3650 2934 527 rc
0 j
36 47 -36 47 -36 -47 36 -47 2213 3801 5 MP
c8
DP
36 47 -36 47 -36 -47 36 -47 2894 3890 5 MP
DP
36 47 -36 47 -36 -47 36 -47 3576 3984 5 MP
DP
36 47 -36 47 -36 -47 36 -47 4257 4119 5 MP
DP
36 47 -36 47 -36 -47 36 -47 4938 3891 5 MP
DP
gr

c8
gs 2109 3560 2934 525 rc
0 j
36 47 -36 47 -36 -47 36 -47 2213 3711 5 MP
c9
DP
36 47 -36 47 -36 -47 36 -47 2894 3921 5 MP
DP
36 47 -36 47 -36 -47 36 -47 3576 4027 5 MP
DP
36 47 -36 47 -36 -47 36 -47 4257 4016 5 MP
DP
36 47 -36 47 -36 -47 36 -47 4938 3787 5 MP
DP
gr

c9
gs 2109 3405 2934 467 rc
0 j
0 -58 -58 0 0 58 58 0 2184 3647 5 MP
c10
DP
0 -58 -58 0 0 58 58 0 2865 3729 5 MP
DP
0 -58 -58 0 0 58 58 0 3547 3480 5 MP
DP
0 -58 -58 0 0 58 58 0 4228 3738 5 MP
DP
0 -58 -58 0 0 58 58 0 4909 3716 5 MP
DP
gr

c10
gs 2109 3133 2934 592 rc
0 j
0 -58 -58 0 0 58 58 0 2184 3220 5 MP
c11
DP
0 -58 -58 0 0 58 58 0 2865 3208 5 MP
DP
0 -58 -58 0 0 58 58 0 3547 3295 5 MP
DP
0 -58 -58 0 0 58 58 0 4228 3589 5 MP
DP
0 -58 -58 0 0 58 58 0 4909 3591 5 MP
DP
gr

c11
gr

30 w
c11
0 sg
%%IncludeResource: font Helvetica-Bold
/Helvetica-Bold /ISOLatin1Encoding 180 FMSR

5706 1999 mt  -270 rotate
(Var\(T\)) s
270 rotate
%%IncludeResource: font Helvetica-Bold
/Helvetica-Bold /ISOLatin1Encoding 144 FMSR

5796 2508 mt  -270 rotate
(1/2) s
270 rotate
%%IncludeResource: font Helvetica-Bold
/Helvetica-Bold /ISOLatin1Encoding 180 FMSR

5706 2708 mt  -270 rotate
(  [K]) s
270 rotate
21 w
1 sg
0 1779 2151 0 0 -1779 6290 3242 4 MP
PP
-2151 0 0 1779 2151 0 0 -1779 6290 3242 5 MP stroke
14 w
DO
SO
21 w
0 sg
6290 3242 mt 8441 3242 L
6290 1463 mt 8441 1463 L
6290 3242 mt 6290 1463 L
8441 3242 mt 8441 1463 L
6290 3242 mt 8441 3242 L
6290 3242 mt 6290 1463 L
6290 3242 mt 8441 3242 L
6290 1463 mt 8441 1463 L
6290 3242 mt 6290 1463 L
8441 3242 mt 8441 1463 L
%%IncludeResource: font Helvetica-Bold
/Helvetica-Bold /ISOLatin1Encoding 156 FMSR

6824 1636 mt 
(ERA-40 mbar) s
gs 6290 1463 2152 1780 rc
DA
30 w
c8
410 0 6372 1578 2 MP stroke
SO
gr

30 w
c8
0 sg
6824 1825 mt 
(NCEP-DOE mbar) s
gs 6290 1463 2152 1780 rc
DA
c9
410 0 6372 1766 2 MP stroke
SO
gr

c9
0 sg
6824 2013 mt 
(HadGEM1 mbar) s
gs 6290 1463 2152 1780 rc
c10
410 0 6372 1954 2 MP stroke
gr

c10
0 sg
6824 2202 mt 
(CCSM3.0 mbar) s
gs 6290 1463 2152 1780 rc
c11
410 0 6372 2143 2 MP stroke
gr

c11
0 sg
6824 2432 mt 
(ERA-40 Var\(T\)) s
%%IncludeResource: font Helvetica-Bold
/Helvetica-Bold /ISOLatin1Encoding 120 FMSR

7890 2354 mt 
(1/2) s
gs 6290 1463 2152 1780 rc
gs 6473 2256 209 209 rc
0 j
36 47 -36 47 -36 -47 36 -47 6577 2407 5 MP
c8
DP
gr

c8
gr

c8
0 sg
%%IncludeResource: font Helvetica-Bold
/Helvetica-Bold /ISOLatin1Encoding 156 FMSR

6824 2678 mt 
(NCEP-DOE Var\(T\)) s
%%IncludeResource: font Helvetica-Bold
/Helvetica-Bold /ISOLatin1Encoding 120 FMSR

8158 2600 mt 
(1/2) s
gs 6290 1463 2152 1780 rc
gs 6473 2502 209 209 rc
0 j
36 47 -36 47 -36 -47 36 -47 6577 2653 5 MP
c9
DP
gr

c9
gr

c9
0 sg
%%IncludeResource: font Helvetica-Bold
/Helvetica-Bold /ISOLatin1Encoding 156 FMSR

6824 2924 mt 
(HadGEM1 Var\(T\)) s
%%IncludeResource: font Helvetica-Bold
/Helvetica-Bold /ISOLatin1Encoding 120 FMSR

8033 2846 mt 
(1/2) s
gs 6290 1463 2152 1780 rc
gs 6473 2748 209 209 rc
0 j
0 -58 -58 0 0 58 58 0 6548 2823 5 MP
c10
DP
gr

c10
gr

c10
0 sg
%%IncludeResource: font Helvetica-Bold
/Helvetica-Bold /ISOLatin1Encoding 156 FMSR

6824 3170 mt 
(CCSM 3.0 Var\(T\)) s
%%IncludeResource: font Helvetica-Bold
/Helvetica-Bold /ISOLatin1Encoding 120 FMSR

8015 3092 mt 
(1/2) s
gs 6290 1463 2152 1780 rc
gs 6473 2994 209 209 rc
0 j
0 -58 -58 0 0 58 58 0 6548 3069 5 MP
c11
DP
gr

c11
21 w
gr

21 w
c11
6 w
0 sg
%%IncludeResource: font Helvetica-Bold
/Helvetica-Bold /ISOLatin1Encoding 180 FMSR

  85 3643 mt 
(Box 2:) s
  85 3849 mt 
(Eastern Europe) s

end %%Color Dict

eplot
%%EndObject

epage
end

showpage

%%Trailer
%%EOF
