%!PS-Adobe-3.0 EPSF-3.0
%%Creator: MATLAB, The Mathworks, Inc. Version 7.5.0.338 (R2007b). Operating System: Linux 3.8.4 #1 SMP Thu Mar 21 12:34:11 PDT 2013 x86_64.
%%Title: figs/eps/hadgem1_box_regions_dry-wet.eps
%%CreationDate: 08/12/2013  17:45:41
%%DocumentNeededFonts: Helvetica
%%+ Helvetica-Bold
%%DocumentProcessColors: Cyan Magenta Yellow Black
%%LanguageLevel: 2
%%Pages: 1
%%BoundingBox:    34    30   517   255
%%EndComments

%%BeginProlog
% MathWorks dictionary
/MathWorks 160 dict begin
% definition operators
/bdef {bind def} bind def
/ldef {load def} bind def
/xdef {exch def} bdef
/xstore {exch store} bdef
% operator abbreviations
/c  /clip ldef
/cc /concat ldef
/cp /closepath ldef
/gr /grestore ldef
/gs /gsave ldef
/mt /moveto ldef
/np /newpath ldef
/cm /currentmatrix ldef
/sm /setmatrix ldef
/rm /rmoveto ldef
/rl /rlineto ldef
/s {show newpath} bdef
/sc {setcmykcolor} bdef
/sr /setrgbcolor ldef
/sg /setgray ldef
/w /setlinewidth ldef
/j /setlinejoin ldef
/cap /setlinecap ldef
/rc {rectclip} bdef
/rf {rectfill} bdef
% page state control
/pgsv () def
/bpage {/pgsv save def} bdef
/epage {pgsv restore} bdef
/bplot /gsave ldef
/eplot {stroke grestore} bdef
% orientation switch
/portraitMode 0 def /landscapeMode 1 def /rotateMode 2 def
% coordinate system mappings
/dpi2point 0 def
% font control
/FontSize 0 def
/FMS {/FontSize xstore findfont [FontSize 0 0 FontSize neg 0 0]
  makefont setfont} bdef
/reencode {exch dup where {pop load} {pop StandardEncoding} ifelse
  exch dup 3 1 roll findfont dup length dict begin
  { 1 index /FID ne {def}{pop pop} ifelse } forall
  /Encoding exch def currentdict end definefont pop} bdef
/isroman {findfont /CharStrings get /Agrave known} bdef
/FMSR {3 1 roll 1 index dup isroman {reencode} {pop pop} ifelse
  exch FMS} bdef
/csm {1 dpi2point div -1 dpi2point div scale neg translate
 dup landscapeMode eq {pop -90 rotate}
  {rotateMode eq {90 rotate} if} ifelse} bdef
% line types: solid, dotted, dashed, dotdash
/SO { [] 0 setdash } bdef
/DO { [.5 dpi2point mul 4 dpi2point mul] 0 setdash } bdef
/DA { [6 dpi2point mul] 0 setdash } bdef
/DD { [.5 dpi2point mul 4 dpi2point mul 6 dpi2point mul 4
  dpi2point mul] 0 setdash } bdef
% macros for lines and objects
/L {lineto stroke} bdef
/MP {3 1 roll moveto 1 sub {rlineto} repeat} bdef
/AP {{rlineto} repeat} bdef
/PDlw -1 def
/W {/PDlw currentlinewidth def setlinewidth} def
/PP {closepath eofill} bdef
/DP {closepath stroke} bdef
/MR {4 -2 roll moveto dup  0 exch rlineto exch 0 rlineto
  neg 0 exch rlineto closepath} bdef
/FR {MR stroke} bdef
/PR {MR fill} bdef
/L1i {{currentfile picstr readhexstring pop} image} bdef
/tMatrix matrix def
/MakeOval {newpath tMatrix currentmatrix pop translate scale
0 0 1 0 360 arc tMatrix setmatrix} bdef
/FO {MakeOval stroke} bdef
/PO {MakeOval fill} bdef
/PD {currentlinewidth 2 div 0 360 arc fill
   PDlw -1 eq not {PDlw w /PDlw -1 def} if} def
/FA {newpath tMatrix currentmatrix pop translate scale
  0 0 1 5 -2 roll arc tMatrix setmatrix stroke} bdef
/PA {newpath tMatrix currentmatrix pop	translate 0 0 moveto scale
  0 0 1 5 -2 roll arc closepath tMatrix setmatrix fill} bdef
/FAn {newpath tMatrix currentmatrix pop translate scale
  0 0 1 5 -2 roll arcn tMatrix setmatrix stroke} bdef
/PAn {newpath tMatrix currentmatrix pop translate 0 0 moveto scale
  0 0 1 5 -2 roll arcn closepath tMatrix setmatrix fill} bdef
/vradius 0 def /hradius 0 def /lry 0 def
/lrx 0 def /uly 0 def /ulx 0 def /rad 0 def
/MRR {/vradius xdef /hradius xdef /lry xdef /lrx xdef /uly xdef
  /ulx xdef newpath tMatrix currentmatrix pop ulx hradius add uly
  vradius add translate hradius vradius scale 0 0 1 180 270 arc 
  tMatrix setmatrix lrx hradius sub uly vradius add translate
  hradius vradius scale 0 0 1 270 360 arc tMatrix setmatrix
  lrx hradius sub lry vradius sub translate hradius vradius scale
  0 0 1 0 90 arc tMatrix setmatrix ulx hradius add lry vradius sub
  translate hradius vradius scale 0 0 1 90 180 arc tMatrix setmatrix
  closepath} bdef
/FRR {MRR stroke } bdef
/PRR {MRR fill } bdef
/MlrRR {/lry xdef /lrx xdef /uly xdef /ulx xdef /rad lry uly sub 2 div def
  newpath tMatrix currentmatrix pop ulx rad add uly rad add translate
  rad rad scale 0 0 1 90 270 arc tMatrix setmatrix lrx rad sub lry rad
  sub translate rad rad scale 0 0 1 270 90 arc tMatrix setmatrix
  closepath} bdef
/FlrRR {MlrRR stroke } bdef
/PlrRR {MlrRR fill } bdef
/MtbRR {/lry xdef /lrx xdef /uly xdef /ulx xdef /rad lrx ulx sub 2 div def
  newpath tMatrix currentmatrix pop ulx rad add uly rad add translate
  rad rad scale 0 0 1 180 360 arc tMatrix setmatrix lrx rad sub lry rad
  sub translate rad rad scale 0 0 1 0 180 arc tMatrix setmatrix
  closepath} bdef
/FtbRR {MtbRR stroke } bdef
/PtbRR {MtbRR fill } bdef
/stri 6 array def /dtri 6 array def
/smat 6 array def /dmat 6 array def
/tmat1 6 array def /tmat2 6 array def /dif 3 array def
/asub {/ind2 exch def /ind1 exch def dup dup
  ind1 get exch ind2 get sub exch } bdef
/tri_to_matrix {
  2 0 asub 3 1 asub 4 0 asub 5 1 asub
  dup 0 get exch 1 get 7 -1 roll astore } bdef
/compute_transform {
  dmat dtri tri_to_matrix tmat1 invertmatrix 
  smat stri tri_to_matrix tmat2 concatmatrix } bdef
/ds {stri astore pop} bdef
/dt {dtri astore pop} bdef
/db {2 copy /cols xdef /rows xdef mul dup 3 mul string
  currentfile 
  3 index 0 eq {/ASCIIHexDecode filter}
  {/ASCII85Decode filter 3 index 2 eq {/RunLengthDecode filter} if }
  ifelse exch readstring pop
  dup 0 3 index getinterval /rbmap xdef
  dup 2 index dup getinterval /gbmap xdef
  1 index dup 2 mul exch getinterval /bbmap xdef pop pop}bdef
/it {gs np dtri aload pop moveto lineto lineto cp c
  cols rows 8 compute_transform 
  rbmap gbmap bbmap true 3 colorimage gr}bdef
/il {newpath moveto lineto stroke}bdef
currentdict end def
%%EndProlog

%%BeginSetup
MathWorks begin

0 cap

end
%%EndSetup

%%Page: 1 1
%%BeginPageSetup
%%PageBoundingBox:    34    30   517   255
MathWorks begin
bpage
%%EndPageSetup

%%BeginObject: obj1
bplot

/dpi2point 12 def
portraitMode 0000 3408 csm

  417   344  5795  2699 rc
86 dict begin %Colortable dictionary
/c0 { 0.000000 0.000000 0.000000 sr} bdef
/c1 { 1.000000 1.000000 1.000000 sr} bdef
/c2 { 0.900000 0.000000 0.000000 sr} bdef
/c3 { 0.000000 0.820000 0.000000 sr} bdef
/c4 { 0.000000 0.000000 0.800000 sr} bdef
/c5 { 0.910000 0.820000 0.320000 sr} bdef
/c6 { 1.000000 0.260000 0.820000 sr} bdef
/c7 { 0.000000 0.820000 0.820000 sr} bdef
c0
1 j
6 w
gs 885 467 5279 2356 rc
1 sg
0 2355 0 0 -5278 0 0 0 0 -2355 0 0 5278 0 885 2822 
8 MP
PP
0 2355 0 0 -5278 0 0 0 0 -2355 0 0 5278 0 885 2822 
8 MP
PP
DO
1.2 w
0 sg
0 -2355 885 2822 2 MP stroke
0 -2355 1769 2822 2 MP stroke
0 -2355 2653 2822 2 MP stroke
0 -2355 3537 2822 2 MP stroke
0 -2355 4422 2822 2 MP stroke
0 -2355 5306 2822 2 MP stroke
gr

1.2 w
DO
%%IncludeResource: font Helvetica
/Helvetica /ISOLatin1Encoding 144 FMSR

 627 2986 mt 
( 180) s
%%IncludeResource: font Helvetica
/Helvetica /ISOLatin1Encoding 108 FMSR

 907 2914 mt 
(o) s
%%IncludeResource: font Helvetica
/Helvetica /ISOLatin1Encoding 144 FMSR

 967 2986 mt 
(W ) s
1511 2986 mt 
( 120) s
%%IncludeResource: font Helvetica
/Helvetica /ISOLatin1Encoding 108 FMSR

1791 2914 mt 
(o) s
%%IncludeResource: font Helvetica
/Helvetica /ISOLatin1Encoding 144 FMSR

1851 2986 mt 
(W ) s
2415 2986 mt 
(  60) s
%%IncludeResource: font Helvetica
/Helvetica /ISOLatin1Encoding 108 FMSR

2655 2914 mt 
(o) s
%%IncludeResource: font Helvetica
/Helvetica /ISOLatin1Encoding 144 FMSR

2715 2986 mt 
(W ) s
3367 2986 mt 
(   0) s
%%IncludeResource: font Helvetica
/Helvetica /ISOLatin1Encoding 108 FMSR

3567 2914 mt 
(o) s
%%IncludeResource: font Helvetica
/Helvetica /ISOLatin1Encoding 144 FMSR

3627 2986 mt 
(  ) s
4204 2986 mt 
(  60) s
%%IncludeResource: font Helvetica
/Helvetica /ISOLatin1Encoding 108 FMSR

4444 2914 mt 
(o) s
%%IncludeResource: font Helvetica
/Helvetica /ISOLatin1Encoding 144 FMSR

4504 2986 mt 
(E ) s
5068 2986 mt 
( 120) s
%%IncludeResource: font Helvetica
/Helvetica /ISOLatin1Encoding 108 FMSR

5348 2914 mt 
(o) s
%%IncludeResource: font Helvetica
/Helvetica /ISOLatin1Encoding 144 FMSR

5408 2986 mt 
(E ) s
gs 885 467 5279 2356 rc
2639 0 2639 0 885 2723 3 MP stroke
2639 0 2639 0 885 2294 3 MP stroke
2639 0 2639 0 885 1918 3 MP stroke
2639 0 2639 0 885 1541 3 MP stroke
2639 0 2639 0 885 1112 3 MP stroke
2639 0 2639 0 885 527 3 MP stroke
gr

 449 2785 mt 
(  50) s
%%IncludeResource: font Helvetica
/Helvetica /ISOLatin1Encoding 108 FMSR

 689 2713 mt 
(o) s
%%IncludeResource: font Helvetica
/Helvetica /ISOLatin1Encoding 144 FMSR

 749 2785 mt 
(S ) s
 449 2356 mt 
(  25) s
%%IncludeResource: font Helvetica
/Helvetica /ISOLatin1Encoding 108 FMSR

 689 2284 mt 
(o) s
%%IncludeResource: font Helvetica
/Helvetica /ISOLatin1Encoding 144 FMSR

 749 2356 mt 
(S ) s
 545 1980 mt 
(   0) s
%%IncludeResource: font Helvetica
/Helvetica /ISOLatin1Encoding 108 FMSR

 745 1908 mt 
(o) s
%%IncludeResource: font Helvetica
/Helvetica /ISOLatin1Encoding 144 FMSR

 805 1980 mt 
(  ) s
 442 1603 mt 
(  25) s
%%IncludeResource: font Helvetica
/Helvetica /ISOLatin1Encoding 108 FMSR

 682 1531 mt 
(o) s
%%IncludeResource: font Helvetica
/Helvetica /ISOLatin1Encoding 144 FMSR

 742 1603 mt 
(N ) s
 442 1174 mt 
(  50) s
%%IncludeResource: font Helvetica
/Helvetica /ISOLatin1Encoding 108 FMSR

 682 1102 mt 
(o) s
%%IncludeResource: font Helvetica
/Helvetica /ISOLatin1Encoding 144 FMSR

 742 1174 mt 
(N ) s
 442  589 mt 
(  75) s
%%IncludeResource: font Helvetica
/Helvetica /ISOLatin1Encoding 108 FMSR

 682  517 mt 
(o) s
%%IncludeResource: font Helvetica
/Helvetica /ISOLatin1Encoding 144 FMSR

 742  589 mt 
(N ) s
gs 885 467 5279 2356 rc
SO
9 w
10 0 0 10 -10 -1 6163 799 4 MP stroke
0 -15 30 0 -7 -10 41 -6 -5 10 33 -7 22 0 16 -10 
24 -5 28 -8 17 -9 14 -10 1 -10 -8 -12 26 -2 22 -5 
26 -3 25 -2 -8 -16 0 -14 -19 -5 -10 -11 18 -5 15 11 
16 7 15 0 11 7 11 -7 -20 -9 9 -4 12 6 12 -4 
-7 -12 -21 -6 -7 -7 23 5 23 4 0 14 -6 11 4 14 
15 9 5 -4 -14 -7 -1 -10 7 -9 14 -4 8 -14 -9 -9 
-8 -11 8 -11 2 -13 -4 -16 -23 -2 14 -6 1 -13 -5 -15 
12 -10 7 -11 15 -8 14 -6 16 10 -20 9 -10 8 -10 10 
0 11 -6 10 15 11 0 13 -1 15 0 27 12 11 -9 12 
-6 11 0 10 22 7 -5 7 8 9 16 -5 8 -11 9 -12 
2 -14 8 -11 18 -9 3 -12 -8 -11 6 -11 0 -8 -13 -5 
-7 -13 -11 -6 7 -13 12 6 10 9 16 4 14 7 14 2 
16 9 19 2 23 8 16 12 7 -9 -8 -7 -15 -6 -5 -9 
-9 -9 9 -6 10 -2 0 -9 11 2 0 15 13 -4 14 -9 
16 2 15 -2 5 -8 12 8 1 13 14 -6 13 -7 16 -4 
12 -6 16 -7 14 -4 0 -14 12 -7 15 0 7 9 14 4 
-9 10 -17 2 6 11 9 6 17 0 18 5 -13 -11 0 -15 
5 -12 -10 -4 0 -13 8 -8 11 4 15 2 10 -8 15 -6 
12 -8 -7 -10 -8 -12 18 2 12 4 13 6 13 2 6 -8 
-11 -10 -11 0 0 -12 18 0 15 10 16 6 0 34 14 10 
13 6 8 13 -13 -9 -17 -4 -15 -6 -14 -2 -14 -2 -16 -4 
-17 2 -16 6 -10 8 0 13 5 10 13 9 15 6 15 8 
14 9 18 7 19 4 21 2 0 9 15 4 12 -4 19 2 
18 9 -18 -3 -18 9 15 7 16 7 20 4 13 -15 4 11 
15 -9 -2 16 13 -5 8 -9 14 7 15 -7 12 -11 19 -5 
19 0 12 -13 16 -4 0 -9 -8 -2 13 -8 1 8 10 -6 
-4 13 13 -9 13 -6 -8 -7 19 -4 11 -11 -16 9 -14 2 
-18 2 18 -13 4 -10 13 -10 7 -11 5 -10 6 -10 6 -12 
13 -8 9 -14 9 -10 9 -10 8 6 6 -10 8 -7 15 -2 
9 -10 10 -7 11 -8 -5 -7 6 -8 -2 -9 -1 -10 -8 -9 
5 -7 -2 -7 -11 1 7 -7 1 -9 -6 -5 -12 -6 -12 -1 
-13 5 -7 7 -11 9 -7 0 -5 7 -8 -5 -3 -13 -5 -10 
-5 -13 -5 -10 -9 -9 4 -7 -5 -9 0 -6 -10 0 -8 0 
1 6 -8 9 -9 0 -9 0 -6 12 -2 12 -3 9 0 11 
-2 7 -11 8 -11 5 4 3 -8 6 -4 5 4 8 10 7 
9 8 2 9 -3 11 -1 12 -5 5 -10 12 -11 7 -10 6 
-12 6 -5 8 -10 8 10 6 -7 8 1 6 -9 4 -6 8 
-11 -2 -10 0 -9 2 3898 772 300 MP stroke
-13 -8 0 -12 10 -4 9 -12 12 -10 12 -11 13 -10 6 -12 
-1 -11 -7 -11 5 -12 0 -7 -11 -6 -7 -5 -14 -4 -13 2 
-14 4 -13 3 -14 4 -17 0 -11 -9 -10 2 -6 -10 15 4 
12 -7 6 -6 16 0 14 4 13 -2 12 -2 10 -5 0 -9 
-3 -9 -9 -2 0 -21 7 -5 9 1 5 7 7 6 11 -2 
5 -11 5 -7 0 -12 -1 -10 5 -11 11 -5 4 -8 7 -4 
9 0 5 10 12 -1 12 -4 10 -6 12 -2 12 -5 8 2 
8 3 -6 3 5 7 6 -5 10 -2 6 -3 8 -5 8 0 
-2 7 13 5 0 5 9 5 -5 10 -6 11 -10 3 0 7 
9 0 0 7 -4 9 0 7 10 -2 6 -7 11 -2 6 -5 
3 -7 0 -10 -2 -9 -7 -5 0 -11 -5 -6 5 -4 -5 -5 
6 -5 1 -6 8 3 10 0 5 -5 13 0 9 -3 0 -9 
-7 -1 0 -5 7 -5 6 3 0 10 5 -2 2 -8 4 -7 
5 -6 6 -7 8 -3 10 -5 9 -3 2 -7 2 -8 6 -3 
7 -2 6 -3 3 -8 8 2 8 -2 3 8 9 0 -5 -9 
-2 -11 8 0 10 -2 5 6 10 -1 7 -3 9 -2 -1 -9 
-7 -3 -7 0 -9 -5 -9 -2 -3 -3 -6 -6 1 -5 -4 -4 
-7 -5 -4 -8 2 -10 1 -11 1 -7 3 -11 3 -4 8 -2 
8 2 12 1 13 -3 10 3 11 2 11 -2 10 0 11 5 
4 -8 9 -1 4 -5 -6 -10 1 -8 -1 -5 -3 -9 1 -8 
3 -8 1 -10 5 -6 1 -9 -3 -6 -7 0 2 -8 0 -9 
2 -7 -9 2 -7 -2 -6 3 -6 0 -8 -4 -2 -4 -5 -9 
-7 -3 -8 7 -7 3 -9 2 -8 0 -9 0 -8 0 -5 7 
-8 8 -7 0 -2 7 -5 6 -9 6 7 5 2 8 -5 7 
-8 9 -7 10 -7 3 -9 3 -9 6 -7 4 1 10 1 9 
-8 5 -6 4 -9 -3 -10 -1 -8 -5 -9 2 -6 6 -9 4 
-8 3 -4 6 -6 3 -7 -1 -5 -3 -9 -2 -1 -9 -4 -7 
-7 -8 -1 -6 -8 0 -7 -7 -6 -7 -8 -5 -9 0 -7 -6 
-6 -4 -5 -2 -3 -7 -10 -3 -1 -5 -4 -8 -1 -7 3 -4 
3 -7 0 -5 -5 0 -3 5 -4 4 0 7 -8 3 0 7 
8 5 -3 8 -4 6 -6 -3 -7 -1 -1 -6 -5 -2 -3 6 
8 7 7 5 7 4 9 5 7 3 -3 5 12 0 8 5 
8 4 4 5 1 7 4 8 7 4 6 5 6 6 1 6 
-2 6 4 4 -2 6 -6 0 -7 5 -7 -2 2 -4 -1 -6 
-4 -5 -5 3 -1 6 -10 -6 -1 -7 -4 -5 0 -6 -8 -4 
-4 -5 -9 -1 -11 -8 -8 -7 -9 -5 -7 -6 -8 -4 1 -7 
2 -11 0 -8 -6 -5 -5 -7 -4 -6 -5 -8 -6 -8 -11 -1 
-11 1 -5 -5 -9 -2 3884 1331 300 MP stroke
-7 -5 0 10 -9 -3 6 3 2 5 6 3 5 5 2 5 
5 6 5 7 -1 10 -7 -7 -8 0 -2 5 3 4 -7 0 
-4 4 -7 -1 -6 1 -9 -1 -5 -6 -7 1 6 -5 0 -5 
-6 6 -7 6 -5 4 -11 2 -10 0 -9 -6 7 -2 -1 -4 
9 0 10 0 8 0 9 0 6 -6 2 -10 -12 2 3 -5 
-2 -10 -2 -4 4 -2 5 5 1 -6 -8 -3 -6 -3 2 -5 
-7 -5 5 -5 -7 0 -7 0 2 -4 -9 0 -9 -8 -8 -2 
-11 4 -2 7 -9 -1 -11 -5 -4 -5 -7 -3 -6 3 -6 0 
-8 5 -6 6 -10 -4 -5 0 -7 5 -1 -4 5 -6 -3 -5 
3 -6 0 -11 -1 -8 4 -7 4 -10 4 -8 2 -8 3 -8 
5 -9 5 -5 11 -1 8 -2 5 4 3 -5 6 3 -1 5 
9 1 9 -1 9 -4 7 -4 7 -1 9 4 9 0 7 2 
6 3 9 1 8 2 9 -2 3 7 9 0 9 3 8 1 
2 7 8 3 10 1 9 -1 8 -3 9 -7 3 -5 -2 -6 
-1 -6 2 -7 5 -4 6 -3 8 1 7 6 10 5 12 3 
9 1 7 4 4 5 0 8 8 2 9 5 9 1 11 1 
9 0 8 3 8 4 3 7 6 -1 6 2 1 7 -5 4 
-6 6 -3 7 1 7 5 3 2 9 -5 3 -3 7 9 -4 
4 9 7 1 8 -1 6 -5 7 -1 11 3 7 -3 11 3 
6 -4 7 -2 5 3 9 1 8 0 6 -1 8 0 7 -3 
10 -1 11 -2 7 -4 8 -5 7 -2 7 -1 4 -6 10 -4 
7 -2 9 5 6 -2 10 0 6 -1 10 6 4 5 7 -1 
4 -9 2 -7 4 -7 3 -6 9 -6 9 -3 7 -4 5 -7 
6 -5 0 -6 4 -6 5 -5 0 -13 -4 -6 4 -9 5 -7 
6 -6 8 -4 5 -7 10 -4 11 -1 5 -7 2 -8 4 -5 
8 -4 3 -4 3 -8 2 -6 4 -10 6 -6 5 -7 3 -6 
4 -10 4 -7 5 -4 1 -8 1 -7 -6 -5 -6 -7 0 -7 
5 -6 -5 -7 -3 -8 0 -7 2 -8 2 -8 3 -7 0 -10 
5 -6 3 -7 6 -4 -6 -3 -3 -8 -2 -9 2 -7 0 -9 
-7 -4 -6 -3 -6 1 -1 -10 -6 -3 -5 -6 -4 -6 -6 -4 
-6 -6 -5 -6 -1 -7 -2 -7 -2 -6 -7 -7 -8 -4 -7 -4 
-6 -6 -10 -5 -7 -7 -6 -5 -8 -5 -9 -6 -7 -3 -6 -1 
-7 5 -9 1 -6 5 -9 1 -8 2 -7 1 -7 0 -11 -3 
-7 -1 -9 -3 -6 3 -7 3 -6 1 -7 4 -8 5 -10 0 
-4 5 -8 2 -8 1 -7 0 -9 1 -8 0 -8 -2 -7 -6 
-4 -10 -2 -10 -9 -5 -7 0 -7 1 -8 2 -7 0 -6 1 
-6 0 -2 -8 -6 -1 -4 -6 -5 -6 3 -9 1 -8 3 -6 
3 -7 -5 -2 4 -6 3675 1910 300 MP stroke
0 -8 1 -7 8 -5 -4 -7 -2 -7 -5 -7 -5 -7 -8 -5 
-5 -5 -4 -5 -5 -5 -4 -6 -5 -6 -4 -6 0 -6 -2 -4 
-1 -6 -4 -5 -4 -8 -1 -7 -4 -6 -2 -8 6 -7 -2 -4 
-3 -7 -3 -6 -4 -5 -1 -9 1 -9 2 -6 4 -6 6 -4 
5 -6 2 -9 3 -9 2 -7 2 -8 3 -7 0 -8 2 -7 
0 -7 -2 -7 -3 -9 -5 -5 -4 -7 -4 -7 -5 -8 -2 -9 
-5 -6 -2 -7 -7 -6 -2 -7 1 -6 -1 -9 0 -8 -1 -7 
-4 -9 0 -8 -1 -6 -3 -8 -2 -9 -1 -8 -5 -5 -4 -7 
-7 -5 -5 -7 -3 -9 -3 -7 -3 -10 -3 -6 -5 -7 -5 -10 
-1 -9 3 -4 4 0 -6 -10 -3 -7 0 -7 -5 3 -6 -6 
-6 -5 -9 0 -4 4 -9 1 -10 0 -5 5 -8 1 -9 -1 
-6 2 -9 -2 -7 -2 -5 4 -10 0 -4 5 -8 0 -7 1 
-7 6 -8 5 -6 4 -5 5 -6 7 -5 6 -6 5 -7 7 
-3 7 -4 8 -5 7 -4 6 -7 6 -6 4 -2 8 -3 9 
-2 8 0 12 5 2 -5 9 -8 3 -5 3 -10 4 -7 2 
-5 4 -4 8 2 8 -2 6 0 9 3 7 2 10 3 9 
5 5 -1 8 -7 5 -5 4 -4 6 -7 3 -6 7 -5 7 
-4 6 -8 3 -6 2 -10 1 -5 5 -7 7 -5 5 -5 6 
-4 6 -1 8 3 9 0 7 2 9 -1 9 0 6 1 7 
-1 8 0 7 5 5 5 4 2 7 4 9 1 10 0 9 
-4 7 6 7 7 8 -3 7 -2 8 -4 7 -4 6 -5 9 
-5 8 0 9 -6 -1 -6 6 -6 5 -4 7 -4 5 -5 7 
-8 6 -4 7 -6 5 -6 3 -6 6 -6 5 -7 3 -7 5 
-6 5 -5 6 -6 6 -5 5 -6 6 -4 6 -3 7 -5 5 
-6 5 -3 9 -2 6 -4 8 -4 6 -2 7 -4 5 -3 6 
-5 8 0 8 -4 7 -1 8 -1 11 8 3 6 -6 9 -3 
9 -2 7 1 7 -3 9 0 9 -4 7 -2 8 2 8 -4 
7 -3 8 2 4 3 5 6 5 6 5 3 -7 4 2 7 
6 7 7 6 5 6 7 6 6 8 7 2 9 4 4 8 
5 1 3 6 1 8 2 9 3 7 4 7 7 6 8 4 
4 9 1 6 1 9 -1 8 0 5 5 6 0 9 5 3 
6 4 5 4 3 7 1 5 -1 7 5 5 4 8 4 7 
3 7 3 7 5 8 1 6 3 6 2 6 5 6 5 6 
3 7 2 7 3 6 -3 3 -3 -7 -4 -8 -3 -5 -3 -5 
-5 -6 -6 -5 -4 3 0 6 -3 10 -5 9 0 -8 2 -8 
3 -8 -8 0 -5 -7 -3 -6 -5 -8 -5 -8 -5 -5 -5 -8 
-2 -8 -4 -8 -7 -4 -7 -5 -4 -8 -4 -7 -1 -8 1 -5 
-1 -7 -2 -9 -4 -5 4119 1610 300 MP stroke
-3 -5 -10 -3 -6 -6 -4 -8 -3 -7 -4 -8 -4 -6 -4 -4 
-5 -8 -4 -7 -1 -7 1 -6 -1 -7 -3 -9 -2 -9 -3 -4 
1 -7 -4 -8 -7 -1 -7 1 -7 2 -8 2 -3 5 -6 0 
-8 -1 -7 1 -5 4 -6 5 -8 0 -7 2 -5 7 -7 3 
-9 3 -7 2 -8 3 -7 3 -7 2 0 5 -3 5 -7 4 
-8 2 -7 4 -7 1 -6 -1 -7 4 -2 8 -7 2 -7 1 
-3 3 -3 7 -5 4 -6 2 -6 2 3 6 -2 8 -3 7 
-6 0 -4 6 -4 5 -5 4 -3 8 -4 7 6 4 5 7 
4 6 8 3 8 1 7 4 6 5 6 7 0 17 -1 4 
4 1 2 -5 6 -4 5 -5 5 -6 7 -5 4 -6 6 -2 
9 2 7 0 5 -4 9 1 2 4 6 0 -4 8 -2 8 
2 7 3 6 4 -2 1 -6 5 -7 2 4 5 7 -1 6 
3 7 6 5 6 7 6 6 4 7 3 8 3 8 6 3 
-9 2 -3 7 -5 8 -5 -4 -5 -4 -6 3 -5 -6 -5 -9 
-6 -8 -3 -8 -3 -7 -10 -2 -6 -4 -6 -7 -8 -1 -5 -5 
-7 1 -6 -4 -9 4 -6 2 -7 3 -8 0 -5 -5 -1 -7 
-2 -8 -10 -1 -9 -1 -8 -3 -8 -1 -7 0 -9 -1 -6 -2 
-10 -1 -8 1 -8 2 -8 0 -5 2 -6 -2 -6 -2 -8 2 
-6 1 -7 1 -8 -1 -3 -5 -5 -4 -3 -7 -1 -6 -7 -3 
-6 -4 -5 -6 -8 -5 -8 0 -9 2 3 -8 7 -2 9 0 
-4 -8 -5 -5 -6 -6 -8 -4 -8 0 -8 2 -6 5 -1 9 
-2 7 -4 -1 1 -8 -1 -7 -4 -6 2 -9 1 -8 -3 -7 
-2 -4 2 -5 -2 -9 -3 -9 -1 -8 -1 -8 -3 -7 -3 -7 
-5 -8 -5 -7 -1 -8 -3 -7 -2 -8 -3 -9 -3 -6 -5 -6 
-4 -6 -2 -8 -3 -7 -2 -9 -3 -9 -5 -6 -5 -5 -6 -2 
-6 4 -2 8 -6 4 -7 1 0 8 -4 7 -8 0 0 9 
1 6 0 7 -3 7 -4 7 -1 9 1 9 1 8 1 9 
-1 7 -4 6 -8 -2 -3 7 -4 1 -8 1 -4 4 -1 6 
-3 3 -7 4 -4 6 -5 4 -6 2 -7 5 -5 7 -3 5 
-6 5 -7 1 -7 3 -5 6 -4 7 2 5 -3 5 -7 2 
-6 3 -3 5 -2 -9 -6 1 -8 2 -7 1 -7 1 -5 6 
-5 3 -8 6 -5 -7 -2 -6 -1 -7 -3 -6 -5 -7 -6 -6 
-3 -5 -5 0 -4 -7 3 -3 -4 -7 -5 0 -3 -7 -2 -9 
-1 -9 2 -9 3 -8 -8 -3 -5 -2 -6 0 -5 5 -6 4 
-7 4 -3 5 -5 -2 -4 -7 -3 -7 -1 -8 -1 -9 -3 -7 
-2 -9 -5 -9 -3 -8 4 -9 -4 -7 0 -7 4 -5 0 -16 
4 -9 0 -7 -3 -6 -4 2 -6 -6 -5 -7 -4 -5 -5 -5 
-4 -9 0 -6 -1 -9 5017 1843 300 MP stroke
-4 -4 1 -8 -5 -7 -6 -6 -1 -8 -7 -5 -5 -5 -8 -3 
-6 -4 -5 -4 -11 0 3 9 5 9 4 5 0 29 6 7 
6 5 6 5 6 5 5 6 8 2 5 3 3 9 2 7 
5 5 1 10 8 -1 2 7 0 9 -2 9 -4 5 -2 7 
-3 6 0 10 -1 9 -6 3 -8 -3 0 -9 -7 -1 -6 0 
-6 -6 -5 -3 -4 -5 -2 -6 -4 -6 -6 -5 -9 0 -3 -5 
-8 -2 3 -8 0 -7 -3 -6 -6 4 -6 5 -7 2 -5 6 
0 9 -9 0 -6 3 -6 4 -6 4 -8 4 -2 4 0 7 
-1 10 0 13 1 8 2 7 3 9 6 6 5 7 6 5 
7 6 5 6 6 7 2 5 6 5 5 9 -3 7 -2 7 
-8 5 -3 6 -6 6 -8 3 -6 4 -7 3 -8 0 -6 -4 
-5 0 1 -6 -1 -4 -2 -7 -5 0 -4 3 4 6 -3 5 
-7 3 -9 1 -7 4 -7 1 -8 3 -1 8 -6 -5 -3 7 
-7 -6 -5 6 -7 0 -8 2 -7 1 -7 4 -8 5 -6 4 
-6 5 -5 4 0 5 -7 0 -3 7 -5 4 -3 5 -4 6 
-1 6 1 6 -5 -1 -5 5 -3 7 -4 6 -4 6 -5 0 
-2 4 1 4 -2 8 -4 0 -1 9 -2 4 7 1 5 3 
8 -1 5 2 -7 2 -4 4 -5 3 -6 1 1 5 9 7 
-9 0 3 7 6 5 5 3 1 7 2 7 3 7 2 8 
9 4 8 4 -3 7 -4 6 -7 6 -8 4 -2 7 -10 3 
-7 4 -5 -3 -4 8 7 2 8 0 6 1 5 5 7 -3 
5 -5 4 -4 6 0 6 4 1 8 8 4 6 4 5 6 
-2 6 -4 5 -7 -3 -8 2 -4 4 -2 6 -8 4 -7 3 
-6 7 -6 6 -10 -1 -5 -7 5 -8 6 -4 3 -4 -5 -6 
7 -7 -6 1 -8 4 -5 6 -8 3 -7 3 -9 1 -9 -2 
-6 -2 -5 -3 4 -8 2 -8 4 -7 -8 -7 -11 2 -8 -6 
-2 -7 8 -2 -5 -10 -3 -9 6 -7 0 -9 -4 -8 -9 6 
-8 2 -11 2 -9 4 -3 7 -2 7 0 8 2 9 2 8 
5 7 5 6 4 7 6 6 7 4 -2 6 2 4 -7 2 
-6 3 -8 4 -7 6 -6 3 0 9 1 4 -7 9 -9 3 
-2 6 -5 0 -5 7 -4 5 -9 0 0 -6 -11 -5 -10 3 
-8 6 -10 5 -7 9 -3 7 -10 8 -8 9 -9 7 -6 8 
-5 8 -4 10 -7 8 -7 10 -10 9 -2 10 -3 8 0 11 
1 9 -1 10 -4 8 -5 8 -3 7 3 5 0 8 -3 9 
8 5 8 5 1 5 10 3 10 0 8 -10 14 -3 -5 6 
0 9 8 -2 6 -8 0 16 12 -1 9 3 2 5 -11 5 
-10 9 -10 7 -10 8 -9 11 -7 7 -10 7 -8 5 -5 7 
-6 8 -10 5 -5 7 5630 929 300 MP stroke
-10 6 -15 1 -14 0 -14 0 -5 -3 -8 5 -14 -3 -11 1 
-10 -1 -1 3 -1 6 -8 2 -10 -4 -9 -2 -8 2 -5 -6 
9 -5 -4 -5 -9 0 -14 3 -6 4 -10 -2 -17 2 5 5 
10 2 -5 11 -8 9 -11 8 -8 9 -9 9 -15 4 -13 2 
-10 -4 -12 4 7 -13 -1 -7 -4 -8 -12 8 -10 7 -9 7 
-9 2 0 10 -5 9 -18 4 -4 -4 9 -5 3 -12 2 -13 
4 -7 12 -4 11 -6 5 -7 10 -9 12 -9 6 -9 10 -9 
11 -9 11 -6 10 0 -2 -7 5 -8 10 -4 3 -11 4 -10 
1 -12 -1 -9 -3 -10 -2 -8 -2 -12 -2 -11 -5 -12 -1 -10 
0 -8 -2 -6 -10 6 -9 8 -7 12 -2 11 -9 7 -11 0 
1 8 -1 10 -8 7 -11 3 -7 -1 -6 5 6 8 1 11 
-5 8 -7 4 -6 -5 -6 3 2 11 6 3 0 9 -7 9 
9 5 7 -4 2 9 -6 9 -8 9 -4 9 -2 9 -13 4 
-8 -4 -9 8 -12 3 0 -12 -10 9 -10 5 -11 4 -14 -2 
-9 -5 -8 -8 -5 11 -12 6 -12 7 -11 8 -11 7 -11 2 
-11 8 -14 4 -11 5 -17 0 6163 851 125 MP stroke
11 2 18 7 22 0 20 2 20 2 21 2 0 -15 -6 -11 
8 -6 12 -2 4 8 15 5 1 8 -14 0 -3 7 17 4 
9 -8 9 -7 20 4 25 3 25 -3 24 0 17 7 -7 11 
4 11 13 7 19 2 23 2 21 -4 15 0 16 -3 0 10 
13 6 13 0 10 7 3 14 19 4 25 0 23 7 21 3 
21 2 26 2 -8 -9 21 0 6 -7 -5 -9 -7 -12 23 3 
28 -3 13 5 12 -2 9 -7 13 4 14 12 5 -12 3 -11 
11 -9 14 5 13 11 10 14 -11 11 -5 14 19 14 24 5 
31 7 27 0 2 -10 -7 -9 20 -2 29 2 22 5 -2 11 
21 0 19 5 16 -2 17 -5 13 17 -8 10 19 2 7 -5 
-18 -7 -3 -12 15 0 12 5 15 4 10 -7 -10 -7 20 -5 
18 -4 16 0 -10 11 -17 5 -20 12 -19 10 -22 12 -18 10 
-2 15 5 13 16 10 18 5 24 2 20 0 5 -7 21 0 
-16 15 5122 467 106 MP stroke
6 -4 0 -8 6 -2 -2 -10 0 -8 2 -2 -5 -2 -6 -8 
-1 8 -6 0 2 -5 3 -8 5 -2 7 -5 7 -6 0 -6 
-2 -8 -5 -7 5 -5 -5 -4 -7 -3 -5 -5 -5 -7 -3 -8 
-7 -5 -5 -8 -2 -7 -3 -7 -2 -8 -8 -10 -2 -7 -5 -8 
-3 -5 -4 -5 -3 -7 -5 -10 1 -8 -6 -7 -5 -5 -4 -5 
-10 -7 -8 -1 -7 -6 -10 -5 -5 -1 -7 -5 -8 -4 -4 -7 
-5 -2 -8 -6 0 -8 -1 -9 -2 -10 1 -8 0 -8 -1 -7 
1 -8 1 -8 4 -7 0 -16 1 -8 -1 -8 0 -6 3 -5 
-2 -10 5 -10 0 -8 4 -8 1 -8 3 -8 -2 -5 -1 -11 
5 -4 1 -8 -1 -10 -2 -8 0 -5 -2 -6 5 -11 -1 -8 
3 -6 2 -8 3 -8 5 -9 3 -8 2 -8 4 -3 0 -9 
6 0 2 -10 -3 -7 0 -7 -2 -7 -1 -9 6 -8 0 -10 
3 -8 -1 -7 -3 -6 -6 -1 -2 5 -8 -3 4 -5 -4 -3 
4 -3 0 -12 4 -8 -3 -6 5 -7 -2 -5 6 -4 -2 -6 
4 -9 1 6 3 3 -4 6 1 4 -2 5 5 6 6 -6 
4 -8 -3 -7 3 -5 2 -6 -2 -4 7 -2 -4 -5 11 -7 
0 -7 -7 5 -7 -3 -8 0 6 -11 2 -8 0 -9 6 11 
6 -2 1 -6 0 -8 3 -11 -3 -5 1 -8 -7 -1 5 -5 
0 -11 -12 14 2 -8 -2 -6 5 1 2 -9 5 -8 -12 4 
-3 7 -2 -10 2 -6 10 1 0 -10 -7 -3 -5 5 -3 -8 
-7 -2 0 -5 -5 -5 -10 -5 -7 5 -8 8 -6 -1 4 -7 
13 -5 -3 -5 -11 -3 -5 1 0 10 -3 10 -11 5 -6 0 
-1 5 -7 0 -10 -1 7 10 3 8 2 8 -2 10 -8 6 
-10 3 -2 10 -3 9 -7 7 -10 6 -7 6 -2 10 1 6 
11 0 7 6 6 6 1 9 -4 10 -5 4 -10 5 -9 0 
0 6 -6 3 0 9 1 6 -3 6 -10 6 10 3 -8 6 
-5 -6 -7 0 -1 4 2 9 11 -4 8 4 0 10 2 9 
-5 5 -7 -5 -8 -3 -12 0 -10 5 -1 6 3 4 -4 9 
-3 5 5 6 -1 7 -4 -4 -11 0 -11 1 -7 2 -10 1 
-10 3 -7 3 -9 4 -2 7 -6 8 -5 8 1 8 6 2 
4 7 -4 8 5 6 12 5 3 6 -3 5 -7 -7 -10 0 
-5 -4 -8 -2 -9 1 -10 -1 -7 1 -7 4 -7 6 -1 5 
-7 6 -6 8 -3 8 -6 6 -7 5 -8 6 -5 8 -5 8 
-2 8 -5 8 -6 8 -6 5 -4 3 -2 8 -2 8 2 8 
0 18 -6 7 -7 6 -7 7 -6 6 -8 3 -8 5 -5 -2 
-6 7 -7 0 2 6 -10 1 -7 -1 -8 0 -7 1 -7 0 
0 6 -8 4 -7 4 0 8 -3 7 -7 8 -2 8 -8 7 
-1 8 0 8 -1 7 2955 2186 300 MP stroke
-5 5 0 8 -1 9 -3 9 1 7 0 8 2 7 -2 8 
-1 10 -7 5 -6 6 -6 9 -4 7 -5 8 -4 3 -7 5 
-4 7 -6 6 -4 6 -3 7 -4 8 -1 10 1 7 3 9 
2 8 4 9 8 3 8 -2 7 2 5 4 7 4 5 5 
5 5 7 5 8 5 7 5 8 0 7 -3 7 0 8 4 
7 0 7 4 8 1 7 -4 9 -2 -3 7 4 6 2 6 
8 -2 2 5 10 2 7 3 9 5 9 0 5 -3 4 -11 
4 3 -2 6 -3 10 9 2 7 -1 8 1 6 -4 0 -8 
2 -10 4 10 9 -4 -2 9 -2 7 -6 5 -5 5 -6 7 
-2 11 9 1 2 10 5 10 0 9 8 7 5 4 7 5 
6 5 7 3 7 3 5 1 7 3 7 1 8 0 7 -1 
7 0 9 1 4 5 5 3 7 5 6 -1 -1 6 2 6 
8 5 7 5 9 5 11 -2 -3 8 3 8 8 2 6 3 
5 -1 5 6 5 5 -12 2 8 0 10 0 9 0 7 -6 
8 -2 8 1 6 2 3 4 6 0 6 -1 9 0 8 -1 
3 5 1 6 6 4 7 1 7 0 2 10 6 -4 -2 -6 
6 -4 6 -3 6 -2 0 -9 -5 -8 0 -9 9 -3 1 7 
4 5 -4 7 -4 5 3 6 4 8 -8 2 -3 6 2 4 
5 1 5 -3 3 -5 7 -3 5 -3 7 -4 10 1 3 -5 
7 1 6 -2 3 -5 2 -8 0 -7 6 -1 3 -7 8 -6 
0 -11 6 8 5 5 5 4 6 5 6 2 6 2 8 0 
3 -5 8 -2 7 -3 9 -2 5 3 6 0 2 7 6 3 
6 5 4 7 4 6 2 6 -2 6 0 8 -3 8 0 17 
-3 6 0 11 2 3 6 2 6 6 7 2 4 1 8 -1 
7 1 8 -3 7 -1 8 3 9 -4 6 4 6 2 -7 5 
-4 10 0 8 -1 13 -4 -7 -3 8 -2 9 -1 7 -1 8 
-2 8 -7 6 0 7 4 2 7 0 7 1 7 -1 7 -2 
8 -2 7 -1 5 -2 1 -9 1 -7 3 -5 0 -6 5 -3 
5 -4 -1 -4 8 -2 0 2 9 2 8 -4 9 -1 9 -3 
4 0 5 5 8 3 7 2 5 7 4 6 3 8 5 5 
4 5 2 6 -2 5 7 6 3 7 -3 7 0 23 -2 8 
-3 8 -3 6 1 7 0 8 2 8 -1 8 -5 5 -7 5 
-7 6 -8 1 -5 4 -5 4 4 7 -5 2 0 -6 -7 4 
-6 1 -9 1 -7 -2 -8 -2 -6 4 -7 -5 -1 -5 -8 -2 
-8 2 -5 2 -5 -1 -4 -4 -2 3 7 5 0 3 -4 2 
-1 4 6 0 6 -1 5 1 -3 7 -8 -4 -7 4 -6 0 
-8 -1 -3 4 -3 -6 -7 0 -8 2 -7 1 -5 -4 -7 -3 
-3 -6 -7 1 -6 4 2293 1462 300 MP stroke
-8 1 -6 -5 -6 -9 -4 -2 -2 -8 1 -6 0 -6 -5 2 
3 -8 -1 -6 -5 -5 -4 -6 -4 -8 -6 -5 -2 -7 -6 1 
-4 3 -4 8 -1 9 0 9 4 9 3 10 0 5 5 8 
3 8 3 8 2 8 1 8 -4 8 -4 9 -7 6 -7 5 
-8 5 -5 5 -3 6 -8 4 -6 2 -6 5 -6 6 -9 1 
-3 4 7 0 -7 6 -5 0 -3 4 0 6 6 0 8 0 
-6 2 -5 2 -4 -2 -4 -5 4 5 1 7 3 6 6 6 
0 5 -1 7 8 6 -7 -1 1 5 1 9 -2 6 -6 3 
2 -6 0 -6 3 -7 -6 -3 1 -4 -5 0 2 -6 3 -8 
-4 1 -2 9 -5 7 -4 4 6 10 3 9 -5 -3 -4 -6 
-7 6 -5 8 -3 9 5 3 -5 6 -7 4 -7 3 -8 0 
-7 0 -8 3 -2 6 -4 -4 -6 3 0 -3 -10 3 0 5 
0 -4 8 0 2 7 5 3 -4 5 2 4 -4 6 -5 6 
0 3 -7 3 -9 3 -5 8 -4 -3 -8 3 -8 3 -7 4 
0 6 -11 0 -10 3 -11 6 1 -6 -9 2 9 -6 7 -3 
8 -6 4 -8 -3 -7 -7 -5 -7 6 -8 6 -5 6 -7 0 
-10 5 -15 4 -12 3 -2 6 -9 3 -9 7 10 6 -1 9 
4 3 5 -8 7 -7 0 -8 7 1 9 -3 10 2 11 6 
8 3 5 9 2 11 -3 8 13 -3 9 9 -14 0 -8 3 
-8 5 0 6 4 5 10 3 11 -1 11 -2 10 -5 9 -3 
10 -4 8 -7 6 -7 7 -7 6 -6 10 -3 -7 6 -4 6 
-7 7 -5 6 -6 8 -8 6 -10 8 -10 0 -2 8 -7 6 
-11 4 -8 0 -10 0 -11 1 -9 -1 -8 0 -10 0 -7 -4 
-11 2 -14 0 -7 6 -7 7 -6 6 -12 5 -15 2 -9 6 
-8 5 5 14 -3 8 10 10 11 0 2 8 14 2 -12 7 
7 5 14 1 5 7 16 2 2 9 13 5 6 7 0 10 
-6 7 7 5 0 8 7 7 8 10 6 11 8 11 8 11 
5 7 7 -7 6 -5 -5 -8 7 -9 11 -5 4 -7 15 -6 
10 13 9 2 7 9 0 7 -1 11 3 9 -2 10 11 1 
11 0 11 6 -4 7 11 6 10 8 11 5 18 -3 9 0 
14 3 15 2 9 -5 0 -10 -8 -6 4 -9 4 -9 -7 -6 
-2 -11 0 -9 7 -9 10 -2 1 -7 -9 -7 -8 -4 -5 -12 
-3 -9 -3 -12 0 -14 7 -9 11 -9 11 -7 11 -5 -5 -8 
-3 -8 -2 -12 0 -10 -6 -10 9 -10 12 -6 -1 -7 10 7 
5 8 7 6 6 9 10 8 -2 10 0 8 3 9 -3 15 
12 5 15 0 14 0 15 9 12 3 10 4 9 8 13 7 
15 4 15 7 11 -4 8 -3 0 7 5 9 0 8 6 13 
10 2 10 -2 5 9 2141 927 300 MP stroke
0 11 -1 13 -4 9 -3 9 -8 12 -7 9 -10 4 0 11 
-14 4 -14 4 1 12 -10 13 -22 0 -11 12 -11 12 0 12 
-15 16 11 8 -18 2 -6 -6 -20 -4 -16 10 -18 11 -4 14 
18 6 0 13 -16 6 0 16 21 4 3 9 19 4 19 0 
0 -13 -1 -15 0 -15 16 -9 0 -10 11 -4 13 14 -2 13 
0 11 13 13 15 -18 11 13 10 11 16 7 -16 11 8 13 
11 9 13 11 10 14 -10 9 7 9 -14 5 -17 0 -8 12 
-10 11 -7 8 14 5 30 4 29 -5 6 -12 -5 -11 -3 -14 
0 -26 12 -7 6 -14 8 -15 -16 -15 -25 -11 10 -11 -6 -13 
13 -12 5 -1 5 -12 15 8 1 14 -20 10 13 15 22 13 
10 -13 14 -9 -23 -11 10 -8 1 -15 18 -2 26 4 19 7 
23 9 16 14 18 -4 20 -5 11 -8 -17 -6 5 -11 16 4 
15 7 19 -5 21 -4 17 4 17 0 -3 9 -15 3 9 11 
19 6 22 1 20 6 21 6 16 10 24 0 8 -12 12 1 
1 15 14 -15 12 4 8 13 19 14 7 -16 14 -4 6 11 
20 -7 21 -8 11 -8 12 5 15 -2 11 -8 1 -11 20 6 
14 9 18 6 22 1 12 6 15 6 17 0 16 -2 16 6 
20 0 22 7 19 0 17 0 15 10 27 0 8 7 22 6 
18 -13 21 -1 21 -11 17 -2 16 -11 5 -12 7 -10 20 -4 
17 -2 3 -13 -14 -9 -18 -8 -8 -12 -14 -9 -11 -10 6 -8 
23 0 1 10 13 0 15 -6 16 -6 15 -10 -8 -4 -14 -2 
5 -8 -5 -8 -21 -4 -18 2 -15 -4 -11 6 -14 4 4 -10 
-7 -10 3 -12 19 -1 11 -10 14 6 11 -6 2 -8 10 -11 
7 -15 -11 -10 -5 -11 -8 -11 -8 -9 -12 0 -12 9 -8 -13 
4 -7 -5 -9 -9 4 -20 0 -10 -11 -4 7 -10 -2 -8 2 
1 -13 2 -12 10 -7 10 -9 14 -7 8 -10 14 -2 13 -5 
9 -9 15 -5 14 -9 -2 -5 -16 7 -13 7 -12 3 -8 6 
-14 3 -13 5 -13 4 -5 8 -11 6 -14 7 -8 8 -13 9 
-14 7 -7 7 -8 10 11 3 -3 7 -11 6 -9 9 -3 11 
-9 8 -15 7 -11 0 8 -7 13 -4 1 -13 8 -11 -8 -4 
8 -7 -15 2 -11 7 -10 7 -12 0 -8 11 3 13 -12 -3 
-13 0 -10 -6 -14 -7 -15 -6 -15 0 -15 0 -13 -5 -12 -2 
-9 5 -2 -11 -13 -5 -11 -9 -10 -7 -11 -6 -4 -10 -10 -9 
-5 -11 -6 -12 0 14 3 12 0 11 10 7 -7 0 -3 9 
-5 -9 2 -7 -4 -11 0 -8 -7 5 -4 7 -5 -7 -6 -7 
12 3 7 -7 -2 -10 -7 1 0 -8 -4 -7 -5 -5 -9 -5 
-6 -9 0 12 8 12 6 9 -8 -4 -7 0 1 -7 -5 -8 
-6 -7 -8 -5 -10 3 1620 1015 300 MP stroke
5 -10 -4 -5 9 -5 -7 -10 -8 -5 -9 -12 -11 -5 -3 -10 
-7 -6 0 -7 -11 -6 -11 -3 -11 -5 -8 -7 -9 -6 -9 -5 
-8 5 0 -10 -6 -4 -5 -8 2 -3 -5 -8 4 -10 1 4 
6 -4 -6 8 9 5 10 0 12 5 1 -5 -2 -5 -4 -8 
-4 -9 -1 -6 -1 -6 -11 -3 11 0 0 -7 -1 -7 2 -8 
0 -9 1 -9 3 -10 4 -11 -2 -9 -3 -6 -3 -8 1 -9 
4 -9 0 -4 -5 -5 -4 -5 0 -6 -1 -7 -5 -6 -6 -5 
1 -5 -7 -2 0 5 -5 -2 3 -3 -4 -7 6 5 -1 -8 
-4 -5 -5 0 0 -7 2 -5 -8 -5 -5 -7 -7 -9 0 -8 
-11 -3 -9 -2 -7 -3 -5 0 -1 -6 -5 0 -8 -5 -3 -7 
-3 -8 -5 -8 -2 -7 -4 -6 0 -4 -5 -4 0 -7 -3 -1 
-2 -9 -7 -3 -7 -7 -5 -5 -5 -5 0 -7 6 -4 9 1 
-8 -5 -2 -5 -5 -3 -6 -4 -6 0 -5 -5 -8 -4 -3 -8 
0 -8 3 -5 -10 -4 -6 -5 -6 -7 -7 -5 -5 -10 -9 8 
5 6 6 8 6 0 4 6 -2 3 5 5 0 6 4 7 
3 8 7 8 5 8 6 5 3 8 5 7 6 7 5 6 
6 4 4 6 -2 7 3 6 1 7 -1 6 -9 -5 -5 2 
-5 -4 -6 -3 0 -7 -3 -8 -2 -5 -4 -7 -4 -8 -8 -8 
-7 -8 -9 -1 0 -8 -8 -7 -4 -5 -4 0 -3 -5 2 -6 
0 -4 -6 -3 -10 -4 -5 -10 -6 -5 -6 -5 -6 -8 -5 -5 
-6 -6 -5 -6 -2 -10 -5 -4 0 -5 5 -5 -3 -4 5 -4 
-5 -7 -6 -8 -9 -4 -7 -5 -5 -6 -10 -4 -8 -1 -4 0 
-6 -5 -9 -7 -7 -2 -8 -3 -7 -4 -7 -1 -8 -4 -7 -4 
-9 -1 -8 -2 -9 -3 -8 4 -8 4 -7 0 -6 -2 -6 -2 
-7 -4 -3 -3 -6 -7 -7 -5 -4 -5 -8 -4 -7 -2 -8 0 
-7 -4 -4 -4 -6 0 -7 -3 -6 0 -9 0 -2 3 -5 -6 
5 0 -5 -6 -5 -5 -6 -6 -6 -5 -7 -5 0 -6 2 -7 
-3 -6 -5 -1 -2 -3 -5 5 -4 -5 -8 -5 -5 -5 1 -7 
-7 -1 -4 -4 -4 3 -7 -2 -7 -2 -4 -5 -8 0 -1 -9 
-6 2 -7 3 6 5 1 5 -6 3 -5 3 -4 6 -5 0 
-6 -3 -3 -6 -5 0 3 -5 -3 -9 -6 -6 -5 -6 1 -6 
-1 -10 0 -8 -2 -7 3 -8 -5 -4 5 -7 4 -8 8 0 
5 -8 -1 -6 6 -1 -3 -6 8 -4 10 -5 1 -10 2357 1918 264 MP stroke
-7 -3 -6 -8 -9 -3 -7 0 -9 0 -8 0 -4 4 -6 5 
-6 0 -5 7 -5 2 -10 1 -8 0 -9 0 -10 0 -7 0 
-8 0 -6 6 -1 8 -10 3 -7 2 -9 6 -6 3 -10 -2 
-8 2 -8 1 -8 4 -8 3 -8 1 -10 0 -7 0 -8 0 
-7 -3 -6 -4 -9 0 -9 -2 -7 -3 -6 -4 2 -7 -9 -4 
-3 -8 -4 -7 -2 -7 -4 -7 -3 7 -7 5 -6 6 -7 4 
-4 8 -5 6 -1 -13 5 -7 1 -8 1 -5 7 -3 1 -4 
-6 1 -6 0 -3 7 -2 8 -5 -7 -3 -5 3 -7 3 -4 
-9 1 -8 -6 -5 -7 -3 -7 2 -4 -2 -5 -5 -6 -6 -6 
-8 -1 -4 -6 -4 3 -8 -1 -6 -2 -6 -4 -6 -3 -8 6 
-6 4 -6 7 -2 -10 -8 3 -1 -7 -6 -5 -6 -4 -6 9 
-6 4 -9 6 -5 3 -9 1 -9 0 -8 4 -1 7 0 7 
-3 9 -1 8 -5 9 -3 5 -4 10 -4 8 -2 7 -5 7 
-6 4 -4 7 -4 7 -2 7 -2 8 0 6 -4 10 -1 8 
-2 8 -2 5 2 8 3 10 2 8 2 9 0 6 3 9 
4 7 6 8 5 8 7 2 5 6 3 6 0 8 6 4 
6 5 4 -5 3 7 3 8 2 5 5 4 0 6 8 4 
7 5 5 7 7 1 9 5 1 5 4 5 -2 8 2 8 
3 5 5 6 0 9 3 7 0 8 6 5 5 5 7 -3 
5 3 3 9 0 7 3 9 4 7 2 8 2 9 6 3 
5 -6 0 -9 5 -5 0 -12 1 -9 1 -7 0 -8 -1 -7 
1 -8 1 -8 4 -7 4 -6 0 -8 7 -4 7 -1 9 6 
4 7 7 2 9 4 5 4 6 5 11 0 2 7 6 3 
7 5 -3 6 -4 5 0 14 -8 0 -2 7 -4 7 7 5 
6 -8 4 6 8 -2 9 2 9 3 8 1 8 5 9 2 
-5 -6 4 -7 10 0 10 0 8 -6 4 -7 -2 -6 7 -1 
2 -6 7 -7 -8 -5 3 -6 8 5 6 0 8 -5 0 8 
5 5 6 6 8 1 4 -5 8 -1 2 -5 10 0 1 -6 
7 -7 2 -7 3 -7 9 4 2 -7 -5 -5 7 -8 3 6 
4 9 6 -7 6 -7 -1 -6 -1 -5 6 -6 4 -8 5 -5 
6 -5 8 -2 9 -2 8 0 7 -5 7 0 7 -5 8 0 
7 0 7 -3 7 -4 4 -6 7 -3 7 -4 4 -6 3 8 
4 -7 2 -6 -2 -7 0 -6 6 -7 -1 -8 -3 -9 -3 -6 
-4 -7 0 -9 6 5 4 7 -5 -15 7 7 -2 -8 -6 -5 
-4 -11 0 -6 -6 -8 -5 -8 -1 -7 0 -8 -3 -8 -3 -8 
-3 -7 -3 -6 0 -9 1 -10 -1 -5 3 -4 6 -2 0 -9 
5235 2441 289 MP stroke
-12 -6 -22 -6 11 -7 -15 -8 -28 -6 -18 6 -29 2 -25 0 
-25 -11 -25 -5 0 -10 -12 -10 -15 -14 0 -15 -12 -12 -2 -11 
4 -17 -7 -11 6 -14 -7 -7 -18 0 -10 9 -9 -15 -17 -5 
-5 -13 23 8 21 0 5 -15 4 -15 -17 -10 -22 4 -14 12 
-7 -15 3 -20 24 0 11 -10 5 -15 1 -14 -4 -13 0 -12 
-16 -12 -6 -14 0 -14 -10 -8 -1 -10 -14 -17 -3 -8 -9 -13 
-7 -11 -15 -13 -20 -2 -13 -4 -9 -9 -18 -8 -10 4 -6 11 
-1 11 -4 12 -7 11 6 15 -14 8 -11 11 -3 12 -2 12 
9 16 -15 -2 -5 10 -17 4 -22 0 -20 8 -13 8 -12 8 
-8 11 -6 10 -12 11 -13 6 -19 0 -19 6 -18 4 -18 7 
-15 6 -15 9 -16 9 -10 8 19 3 19 6 19 -6 0 6 
-16 7 3 14 -14 4 -4 -9 -4 -11 -13 -5 -19 3 -1 13 
0 11 12 12 17 9 13 9 -18 -6 -20 -6 -4 10 4 14 
15 3 -13 6 -8 5 -19 1 0 11 18 4 -34 8 -6 12 
19 0 -10 15 0 15 8 15 23 3 -2 12 -16 8 -28 -6 
-3 8 3269 467 122 MP stroke
-9 -3 -6 -1 0 -6 -6 -4 -8 0 -7 1 -9 3 3 -7 
8 0 6 -4 8 1 3 -2 -4 -2 -7 -4 -1 -5 -1 -6 
-6 0 -6 7 -6 -5 -8 -4 -6 -3 -8 -2 -9 -2 -9 -4 
-8 -2 -8 -4 -5 -5 -3 -9 -3 -8 -2 -8 7 -1 4 -6 
5 -9 -9 0 -8 4 -9 0 -9 1 -3 -5 -5 -5 -6 -5 
-8 -1 -7 0 -9 -2 -8 3 -3 4 3 6 -6 3 -4 4 
-5 6 -7 0 -5 -3 -9 -3 -6 -2 -4 -7 -3 -6 -8 -6 
-6 -5 -2 -5 -8 -2 -8 -1 -9 -1 -7 -1 -4 -5 -9 1 
-2 6 8 1 7 3 -4 5 6 0 8 2 -3 6 10 -1 
5 8 1 8 7 4 8 7 2 7 -6 1 -6 1 0 7 
6 5 9 -1 8 5 8 1 0 9 5 6 6 4 7 5 
7 3 8 4 7 1 9 4 6 2 7 3 8 2 8 4 
6 0 8 2 7 3 9 5 7 4 10 -4 4 -6 7 -2 
6 -6 4 -5 4 -6 6 0 6 5 2 8 6 2 3 8 
-3 7 4 10 10 0 6 5 10 0 5 -5 8 -3 7 -7 
5465 1937 121 MP stroke
-15 -11 -11 -14 -13 -11 -24 -9 -20 0 -30 -4 -15 2 -22 -11 
-12 5 -14 13 -8 -11 -25 -13 5 -17 -17 8 -11 -13 -18 -8 
-5 -13 -5 -10 10 -8 11 -11 12 -8 -14 -12 15 -8 20 0 
22 4 2 -8 9 -2 5 -10 -9 -10 -22 0 -11 6 -16 -2 
-15 -6 -13 -4 -12 -6 0 -10 -13 -7 -11 -4 -15 -4 -4 -6 
-14 -5 -13 -4 -15 -2 0 9 11 8 12 10 11 8 6 9 
-17 -6 -13 -7 -16 -8 -19 0 -3 15 11 10 1 12 10 8 
16 10 8 12 -3 16 -25 -12 -7 -14 -18 -8 -4 12 -18 4 
-3 10 -10 14 11 9 15 8 16 8 13 11 23 0 20 10 
0 13 -20 5 18 10 -7 11 13 14 21 8 22 16 17 7 
23 2 0 14 5 9 21 -2 16 6 15 2 17 -9 17 0 
15 -8 -5 14 10 13 -5 12 7 8 19 -3 21 -9 17 -12 
1 -14 1 -12 -5 -11 15 9 1 12 2 11 -7 12 -8 8 
-22 8 21 1 23 0 15 -8 16 -11 7 -12 6 -12 0 -16 
2211 620 113 MP stroke
-7 -1 -9 6 -12 -3 -3 8 -10 2 -11 -4 -9 5 -11 -1 
-11 0 -13 3 -7 8 12 2 -6 8 -9 5 -3 8 3 7 
9 3 6 0 5 -5 4 3 -5 5 2 7 4 5 2 7 
4 8 10 3 5 9 2 10 5 7 10 4 10 0 -8 5 
-6 7 -5 9 -3 6 1 8 12 0 10 0 11 -2 -5 9 
-12 7 2 5 14 -2 13 0 5 -9 6 -7 2 -7 7 4 
5 -4 -6 -5 -10 0 6 -10 0 -8 -8 4 1 -9 10 -7 
-9 0 0 -6 -7 8 -6 -7 6 -12 -5 -7 -11 4 -11 3 
4 -8 -6 -7 -7 0 5 -8 0 -9 8 -1 14 1 -3 -5 
6 -6 -9 0 0 -10 7 -4 9 -5 -3 -5 -10 2 -7 -2 
-7 -4 -10 4 5 -8 7 0 9 0 6 -8 7 -6 9 -7 
3455 1111 89 MP stroke
-5 7 -5 9 -4 8 -9 -3 -4 6 -7 2 1 4 -9 3 
-10 2 -11 8 -7 -2 -10 0 -7 0 -9 -6 -7 -8 -3 -9 
-1 -8 -5 -4 9 0 8 -2 9 5 11 -2 9 -6 -4 -9 
7 2 10 0 1 -5 -8 -3 -6 -9 -3 -9 -7 -6 -10 0 
-3 -4 5 -8 -1 -7 -5 -9 1 8 -4 5 -10 2 -4 -7 
-6 -6 -6 -6 8 -6 10 0 9 3 3 -9 -1 -6 -11 0 
1 -7 -2 -7 -6 -2 4 -10 0 -11 -4 -11 1 -6 11 1 
11 -2 13 -3 8 3 10 5 2 4 10 2 8 3 1 8 
1 9 1 10 -6 0 -1 6 -3 8 -5 6 -7 2 9 2 
7 8 3 7 4 7 7 5 6 7 6 9 0 14 5 9 
6 3 0 6 4225 1210 83 MP stroke
-2 -10 -7 0 -3 -7 1 -9 3 -9 -1 -6 -7 0 -7 1 
1 8 -1 7 0 15 2 7 -6 5 -6 0 0 -5 3 -6 
-4 -6 -7 -4 1 -8 -6 -3 -5 4 0 -11 -5 -5 -8 5 
0 8 5 7 5 7 6 5 -5 5 4 6 4 5 6 7 
-9 4 -6 5 -6 6 -8 0 4 5 9 -3 7 -2 8 0 
6 -6 7 0 2 6 7 4 0 8 -4 8 -5 1 -5 -1 
-6 1 -8 0 -8 0 -7 0 -7 -3 -8 2 -8 2 -7 7 
-3 7 3 3 4 -3 5 -5 7 -4 9 0 6 -1 6 2 
8 1 8 2 8 2 3 -8 10 0 1 -5 2 -8 0 -7 
5 -5 2 -6 0 -9 2 -7 5 -6 5289 1959 78 MP stroke
0 -7 -8 2 -8 -2 -5 6 -8 1 -9 3 -6 1 -9 4 
-6 -1 -8 0 5 -7 0 -7 -4 -7 -5 -1 -6 8 -9 7 
4 6 -4 5 -7 -7 -12 0 -9 8 -2 -8 -4 11 -7 0 
-4 5 1 -10 -8 4 -2 6 -5 4 3 7 -1 10 -4 4 
-1 10 1 8 -3 4 -6 0 0 8 -5 5 -1 11 3 8 
4 7 2 8 -2 6 9 3 1 -6 -5 0 0 -5 7 0 
5 5 4 -9 0 -22 3 -7 5 -7 2 -9 8 -4 3 -7 
6 -4 9 -3 9 -4 0 5 -3 7 6 -4 1 -7 5 -7 
5 -6 0 -7 5 -2 6 4 9 -2 10 -1 11 -1 7 0 
6 -8 8 -5 6 -4 7 -3 5467 1391 77 MP stroke
-1 -8 -3 -5 0 -8 -8 -5 -5 -7 0 -7 -2 -9 -1 -9 
-9 -1 -7 1 -5 3 -1 -11 -8 2 -7 0 -6 4 -9 -5 
-7 1 -5 -5 -1 -6 -7 3 -7 3 -7 4 -3 7 -5 10 
5 8 -6 6 -6 5 -4 6 -1 8 -3 8 -3 5 -8 0 
-8 1 5 5 6 5 6 6 -4 5 5 6 4 7 -5 7 
-1 8 -10 3 5 6 -7 2 -8 3 8 3 7 5 7 3 
0 7 8 5 3 4 5 -6 8 -5 2 -6 9 -8 0 -6 
10 0 7 -4 7 -8 6 -5 4 -6 7 -5 9 -1 7 -2 
3 -8 4 -10 7 1 9 1 7 4 6 -6 2 -9 5143 1903 72 MP stroke
-6 6 -1 9 -9 2 -1 9 0 7 -5 6 -7 3 -3 6 
2 9 -9 3 -6 7 -4 7 -8 0 -10 0 4 -6 -11 -4 
-9 3 -9 -5 10 -3 6 -8 -8 -3 -5 -3 2 -7 -5 -5 
-7 3 -5 5 -7 1 -8 5 -7 -2 -9 2 -5 0 -3 -6 
-6 -3 -5 -3 -8 -2 -7 -4 -7 -8 -5 -4 -8 -5 -10 -4 
-3 -3 -3 -8 -3 -6 1 -5 7 -5 9 -6 8 -1 9 1 
9 -1 8 -2 8 3 6 -1 7 4 6 0 5 8 10 0 
5 5 7 -1 10 0 9 1 10 -3 7 -4 7 -4 8 -5 
8 2 10 -2 10 2 8 3 8 6 2 7 6 7 3943 1251 72 MP stroke
0 -6 -1 -8 -4 -6 -1 -11 -1 -9 -6 -8 -6 -5 -7 -4 
-7 1 -6 4 -7 3 -6 -1 -6 7 -2 7 -2 8 -3 5 
-1 7 -1 6 -2 6 -2 7 -2 6 -3 7 -1 6 -3 7 
-2 7 -2 8 -4 9 -1 7 -2 9 0 7 -3 3 -2 7 
2 12 -6 -6 -5 7 1 8 2 11 4 9 1 9 4 7 
5 8 6 -6 0 -8 1 -6 6 -3 8 -1 -2 -7 5 -4 
-1 -6 6 0 7 -8 6 -4 7 -4 7 -2 8 -4 6 0 
4 -11 4 -8 -1 -9 -3 -8 0 -7 -4 -9 1 -6 5 -8 
2 -6 5 -7 5 -9 4175 2246 68 MP stroke
-2 -7 -3 -6 -6 -7 -8 -7 -5 -1 -5 -6 -6 -6 -2 -8 
-7 -4 -8 -5 0 -4 -4 -8 -2 -10 -9 -3 -2 -5 -6 -6 
-1 -6 -5 -9 -2 -6 -6 -8 -6 -8 -7 -5 -3 -5 -6 -6 
-10 -8 -7 -4 -6 -8 -5 -2 -3 3 -6 0 -6 -3 -1 7 
-1 9 0 17 -4 7 4 5 5 5 7 0 2 6 5 4 
3 10 8 0 5 5 -3 6 -2 6 6 6 7 0 -1 7 
6 2 6 7 7 1 7 8 8 -2 6 8 5 7 7 5 
8 4 6 5 5 6 3 6 7 5 9 1 9 0 6 5 
9 0 4942 1834 66 MP stroke
11 -5 0 -13 -26 -3 -38 -2 -17 5 -20 -3 -16 6 -9 -10 
-29 7 -18 13 9 5 2382 467 12 MP stroke
-10 0 -2 6 -9 0 -5 3 -5 4 -7 -1 -10 -1 7 -3 
-4 -4 -8 -1 -11 0 -5 -4 -6 -1 -7 -3 -8 1 -2 -2 
-1 -6 -8 -6 -11 0 -2 -5 5 -4 3 -3 -10 0 -7 1 
-7 0 -8 -1 -7 0 -5 2 -7 1 1 3 4 0 5 5 
7 1 5 -1 -1 7 6 1 7 1 7 5 7 3 6 4 
7 4 7 2 8 0 5 5 6 3 6 2 7 0 8 3 
7 0 8 -3 7 -1 7 -1 8 -4 5 -4 0 -5 7 -3 
2287 1591 57 MP stroke
-5 7 -5 8 -5 6 -4 0 -15 3 -7 2 -6 -2 -12 0 
2 6 -7 0 -10 -1 -10 0 -10 -2 -13 -3 -8 -9 -7 -11 
5 -6 12 5 9 7 -3 -6 3 -7 4 -9 0 -11 9 -4 
4 9 4 9 7 -3 6 -6 0 6 -7 9 0 10 3 6 
8 3 6 3 7 0 5 -9 11 -4 3 -8 4 -7 0 -8 
-3 -7 -1 -9 2 -11 4 -6 6 -2 6 0 5 8 0 11 
1 7 -2 8 -3 10 -1 6 -3 8 11 -6 2240 1213 55 MP stroke
1 1 5 -5 7 -4 9 3 9 3 2 7 1 8 6 3 
-1 -11 4 4 5 0 1 10 4 6 0 5 3 6 5 5 
10 2 8 8 -4 -7 -1 -7 -5 -5 -5 -7 -5 -7 -4 -7 
-7 -2 3 -4 -2 -6 -1 -7 3 -7 2 -9 7 -2 5 -5 
6098 2529 33 MP stroke
-7 -6 -7 -2 -6 -3 -2 -6 2 -10 4 -8 -6 -4 -9 3 
-5 7 -3 6 -5 7 -4 9 1 4 -2 5 -6 3 -6 0 
-2 5 -2 1 6163 2518 19 MP stroke
-2 -8 -11 4 -13 -2 -11 0 -11 0 -10 -2 0 -6 8 -4 
-9 -2 -7 9 -6 2 -8 -2 4 -9 -7 4 0 -7 -9 0 
-2 9 -3 10 7 -2 -3 9 5 -1 5 -8 3 3 -2 6 
-11 10 11 -2 4 6 -8 8 8 4 9 0 10 -2 9 6 
-6 5 8 3 11 -6 -5 10 -4 6 -7 10 -3 9 7 0 
10 -4 5 -7 3 -8 7 -10 3 -11 8 -9 5 -8 -5 -2 
7 -6 6 -5 2663 1152 51 MP stroke
-12 0 -7 2 -1 5 10 0 7 3 6 5 10 5 9 7 
2 7 2 6 7 9 2524 2773 12 MP stroke
6 -2 5 2 4 -5 7 0 3 -10 -4 -4 -11 4 -2 -4 
12 -5 -2 -10 5 2 3 10 7 -10 5 3 11 4 6 5 
12 6 10 5 10 5 -2 -5 -8 -5 -7 -1 5 -5 -8 -5 
0 -5 -9 0 -3 -7 -7 0 0 -5 -12 -7 -18 0 2506 2822 32 MP stroke
-18 -6 5 -9 -15 -8 -24 -2 -21 1 -20 -8 20 -6 22 0 
18 -2 -5 -16 -18 -6 -21 0 -10 -18 -21 2 -24 3 -23 6 
-20 5 -16 8 -14 -9 -18 -7 -19 3 -15 8 7 10 -17 2 
-3 12 25 5 21 7 14 10 -2 16 9 15 5 11 -13 13 
-7 11 12 8 23 -1 13 -14 8 -14 24 9 18 -4 16 6 
20 -10 6 16 17 0 14 -7 18 -6 15 -7 0 -8 12 -7 
2 -12 1784 624 50 MP stroke
-2 -11 3 -10 0 -10 -5 -7 -1 -8 1 -10 -1 -9 0 -10 
1 -8 2 -6 -2 -5 -3 -9 3 -8 0 -11 4 -8 -4 -12 
-4 9 -5 5 -6 -2 -6 -6 0 9 5 4 1 6 5 4 
3 7 -2 9 -3 8 -2 6 -5 5 -7 0 -8 -5 2 8 
4 10 3 9 3 10 2 10 4 10 -1 10 0 10 2 10 
1 10 4 6 6 -1 -3 -9 3 -5 8 -5 5626 1047 47 MP stroke
-2 -9 -1 -6 -1 -8 -7 -5 -2 5 -5 -3 5 -5 0 -7 
-8 -2 -8 5 -6 -4 -7 -9 0 7 1 5 -7 -4 -5 -9 
-6 -2 -5 1 6 6 2 5 -5 1 9 4 6 3 5 0 
5 -4 6 2 3 8 3 10 -2 7 -6 7 -5 6 -3 8 
5 5 0 7 -2 9 6 -4 6 2 6 3 6 -1 3 -7 
2 -7 -2 -6 2 -9 0 -8 8 3 5303 1676 46 MP stroke
-4 -5 -7 -1 -5 1 -4 -4 -7 -2 -10 -3 -10 3 -7 5 
-6 6 -5 8 -3 7 -2 8 -3 6 -8 4 -6 6 -10 0 
5 5 -1 6 -7 3 -5 7 -6 8 -5 6 0 8 6 2 
2 6 5 -5 5 -3 1 8 7 4 6 -4 0 -8 3 -6 
7 -2 3 -8 3 -7 9 -6 7 -6 8 -6 9 -6 8 -2 
6 -6 5 -6 7 -6 4 -6 5 -9 5991 2646 46 MP stroke
-2 -5 -2 7 -4 6 -5 1 -1 -6 -5 1 -5 5 -6 -3 
-3 -3 3 -5 0 -9 -5 -3 -6 -4 -5 0 -5 -5 -5 7 
3 5 4 5 -3 4 -4 5 -3 -6 -3 -9 -2 7 -4 7 
0 6 4 8 0 9 5 7 8 7 -1 -10 5 -4 5 2 
2 -7 7 -1 4 -5 2 6 5 3 6 -3 3 -5 8 -2 
3 -4 2 -9 5335 1812 43 MP stroke
-8 -1 -8 -4 1 -4 -7 -1 -9 -1 -6 -4 -9 -1 -6 1 
-8 0 -6 -1 -8 -4 -7 -1 -8 -1 -7 0 -7 -3 -9 3 
-7 -3 -6 -2 -7 -1 0 13 8 2 7 -2 9 3 1 6 
5 4 7 1 9 2 7 4 5 -7 6 0 8 1 7 0 
6 1 4 6 7 1 8 4 5 1 6 -2 8 2 4 -7 
5 -5 5092 2016 42 MP stroke
1 -6 -4 -5 0 -10 -7 5 -9 2 7 5 6 3 -1 4 
-5 0 -4 -3 -6 3 -8 2 -9 -6 -12 -5 -1 6 -5 6 
-7 6 -9 -1 -8 4 -8 5 9 -2 0 5 4 3 -5 9 
10 -6 7 1 9 3 8 6 5 5 5 7 6 6 6 -4 
-3 -9 1 -8 1 -6 5 -4 -1 -6 1 -5 7 0 7 2 
-2 -6 9 -6 5598 1249 43 MP stroke
-17 -11 -15 -10 -22 -4 -23 -2 -11 4 19 9 9 11 4 14 
-1 14 -9 12 -12 11 -13 12 -12 12 -17 12 -14 13 -22 9 
-23 10 -25 5 -25 8 -24 7 -3 16 19 5 26 -8 12 -10 
30 -5 29 0 28 -10 16 -10 10 -8 26 -7 0 -10 12 -17 
16 -12 -7 -9 16 -7 11 -14 -4 -10 16 -7 0 -13 4299 624 40 MP stroke
-26 -15 -5 15 3793 467 3 MP stroke
-10 -5 -3 2 -7 0 -6 -1 -6 1 -8 -1 -6 -8 -5 7 
0 3 -7 3 0 -4 -7 1 -9 3 -7 0 -5 -5 -5 6 
6 7 12 2 -6 4 9 0 2 5 9 1 7 2 10 0 
5 -3 8 4 9 0 5 -4 -7 0 -4 -5 0 -5 -6 -7 
6 -3 7 0 6 2 8 1 5 -3 2439 1644 38 MP stroke
-11 -2 -12 4 -10 -4 11 -8 17 -8 -21 0 -8 -12 11 -10 
-26 0 -15 -6 -18 -3 -16 7 -13 2 -14 8 -20 6 -12 12 
0 14 15 6 1 14 14 -2 8 6 9 -8 11 -4 10 4 
14 -2 7 -6 8 6 1 -12 16 -4 2 14 11 8 11 2 
0 -6 10 0 1 -8 8 -8 3179 780 37 MP stroke
-8 6 -8 6 -8 7 -9 3 -6 4 -5 7 -10 4 -5 7 
-11 -5 -12 0 -5 -10 -7 -6 -11 0 0 -6 -4 -5 1 -7 
-4 -8 7 0 0 4 13 -1 12 -5 10 0 6 8 10 -2 
0 6 -10 7 7 0 11 -8 11 -5 11 -4 7 8 9 -5 
8 0 2180 1175 34 MP stroke
-7 0 -10 -3 -8 1 -6 3 -6 1 -7 1 -7 2 -8 -3 
-7 0 -8 -1 -7 1 -7 -1 -7 2 -8 3 -10 2 11 3 
7 -8 7 4 7 -1 7 2 8 3 7 -3 8 -3 7 5 
8 0 10 2 -3 -6 6 1 8 0 8 3 6 -3 1 -7 
5247 2049 33 MP stroke
-21 -4 -16 -4 -15 8 -14 -10 18 -6 -7 -6 -19 -2 -16 3 
-14 8 -18 6 -30 -2 -19 2 -2 13 -5 12 20 5 23 9 
9 15 12 -7 11 -10 -14 -5 4 -8 -10 -10 30 2 8 11 
11 8 24 7 21 2 9 -11 12 -14 8 -12 1802 520 31 MP stroke
-4 -8 -7 -5 -12 1 -11 4 -11 6 -14 2 -2 8 -3 9 
1 10 3 8 -10 7 2 10 5 7 10 1 11 2 11 -3 
6 -9 -7 -3 5 -5 9 0 9 0 4 -7 -7 -3 7 -5 
-7 -7 -8 0 8 -10 3 -10 9 0 3385 1070 30 MP stroke
0 -100 -4 3 -7 12 10 8 -13 8 -3 -10 -5 -10 -12 -2 
-10 4 -14 -4 -3 -10 -11 -6 -16 -8 -15 -4 -3 10 -9 8 
0 12 -16 0 -7 8 -11 6 14 10 13 11 22 4 19 0 
8 10 12 8 16 9 19 6 13 9 13 8 885 691 31 MP stroke
1 -10 -17 -13 -27 2 -16 -7 -5 -13 5 -12 -2 -15 -30 -6 
-27 -2 -24 -1 -26 0 -16 9 -22 -7 -26 5 -9 12 0 11 
26 8 22 0 26 3 28 -7 30 3 21 9 -8 6 16 6 
8 8 25 0 20 9 20 2 2127 467 29 MP stroke
-9 1 -5 -2 0 -7 6 -3 -3 -7 -5 -5 -5 4 2 8 
-4 -3 -4 5 -4 -5 -7 1 0 7 7 1 0 13 3 -6 
6 -3 -1 6 6 1 -2 9 9 0 1 3 9 2 -3 -6 
2 -8 1 -6 5334 1762 27 MP stroke
-17 0 -8 6 -1 7 -11 2 9 8 3 5 -17 0 -5 -5 
-11 -4 -9 2 -8 7 -5 6 -12 4 -11 0 -15 -4 17 0 
-5 -6 16 -2 13 -5 6 -12 11 -3 12 -4 3 -7 7 1 
12 -3 11 0 15 7 1813 881 28 MP stroke
-13 4 -11 1 -7 7 -6 7 -7 5 -6 6 -9 9 -9 8 
-4 8 -5 9 -5 8 -1 7 -4 5 -6 -3 3 -10 3 -12 
1 -10 6 -10 10 -10 7 -7 13 -3 11 -7 5 -10 10 -3 
11 -3 13 4 5064 1082 27 MP stroke
-6 8 -1 7 -5 2 -7 0 -4 8 -5 -3 0 6 -10 3 
-3 -3 -10 4 5 -6 5 -7 0 -5 -8 -8 -5 -6 5 -4 
6 -2 0 -9 9 -9 10 -3 2 3 10 0 10 0 0 11 
2 4 0 9 4395 1206 27 MP stroke
-18 7 -17 5 -20 4 -20 9 -16 -4 13 -7 11 -6 -21 -2 
-21 2 6 -8 5 -10 23 4 -10 -11 25 -13 -7 12 2 8 
14 -8 2 -8 22 0 -7 14 -11 4 -15 6 15 6 23 -3 
22 -1 1694 766 26 MP stroke
-4 11 -7 4 -9 6 -7 -1 -13 1 -11 -1 -7 -2 -7 2 
-8 -2 -6 3 -7 0 7 -6 11 -1 10 4 7 -3 13 3 
12 -3 6 -4 9 -3 -2 -7 3 -13 4 6 6 6 4619 1195 24 MP stroke
0 -9 -2 -10 -4 -7 -1 -6 -3 -8 -3 -6 -8 -4 -8 -2 
-5 8 -5 6 -6 -5 -2 9 -2 8 -2 3 0 17 4 3 
10 -3 9 -3 8 0 10 6 10 3 5672 2552 22 MP stroke
-2 6 4 9 -2 7 2 8 -4 9 -1 -9 -4 -9 -2 -9 
-2 -8 3 -7 -6 -4 -6 -5 1 -5 -4 -9 -3 -7 -1 -8 
8 3 -1 7 4 10 7 6 5 8 4 7 3968 2006 23 MP stroke
-14 0 -10 -6 0 -7 4 -5 -2 -12 -8 4 -7 -2 2 -8 
-3 -6 -5 -5 -4 -8 11 -2 -1 6 5 7 0 6 10 8 
8 5 0 10 -4 5 7 5 6 -5 5 10 2046 1052 23 MP stroke
-1 -3 -8 -2 -5 -5 -7 -1 -8 0 -7 0 -7 4 -6 6 
-6 0 -2 9 -5 5 3 7 11 0 -3 -11 7 0 6 -9 
6 0 6 0 9 -1 8 0 9 1 5722 1999 22 MP stroke
-8 3 -6 6 -10 5 -11 1 -11 6 -13 2 -8 2 -5 -4 
9 -1 8 -6 8 0 -4 -5 -5 -3 7 -8 7 -9 9 2 
9 0 8 -3 8 3 4 6 4 3 4045 1189 22 MP stroke
-5 7 3 11 0 2 4 15 -2 4 -6 -5 -1 -10 -1 -7 
-5 -9 2 -9 0 -9 -1 -8 -5 -7 -1 -10 4 7 5 -2 
1 7 5 5 0 6 2 6 1 6 4040 2098 22 MP stroke
-4 -8 -6 0 -1 5 -4 -5 0 -7 5 -4 0 -14 -8 -2 
-9 5 -1 8 -4 8 -4 7 4 7 1 7 8 0 2 4 
8 -1 6 -6 7 -4 5446 1409 20 MP stroke
-19 0 -2 -11 -13 2 -10 9 -9 8 -11 0 -12 -6 -12 -7 
-14 9 15 6 8 10 11 8 17 8 15 10 4 12 15 -10 
4 -10 2 -14 -3 -14 14 -10 2253 824 21 MP stroke
-3 9 -9 0 -9 -2 -3 -10 -5 -10 -4 -10 -6 -12 -6 -8 
4 -13 8 -3 0 8 -1 8 -1 8 7 -3 1 10 12 0 
0 7 7 5 4 10 4 6 2075 1047 21 MP stroke
-1 7 -1 6 2 6 -2 9 -9 5 -9 1 -7 0 -7 -2 
-4 -8 2 -5 3 -8 5 -6 5 -5 -9 -2 6 -4 10 0 
7 2 7 -6 2 10 4004 1948 20 MP stroke
-9 -10 -9 -5 -10 -5 1 -4 -9 -4 -6 -4 -7 0 0 -5 
-11 -5 -9 -3 -7 3 7 8 11 8 9 8 7 10 11 3 
14 3 11 5 6 -3 1646 1099 20 MP stroke
-21 -11 -11 -16 -20 7 -17 2 -14 14 -6 18 -21 10 -19 8 
-21 8 22 10 15 12 27 0 25 7 23 -7 25 -5 -10 -17 
4 -15 10 -13 9 -12 1691 611 20 MP stroke
-9 -8 -5 -11 -16 0 -15 -11 -13 -14 -18 9 -20 5 -3 16 
6 15 21 6 -15 13 10 14 16 -6 20 2 16 -4 2 -10 
-13 -13 22 1 14 -4 2020 587 20 MP stroke
-4 -6 -1 -6 1 -6 -5 -6 -7 -5 6 7 1 6 -1 8 
-7 0 4 5 -7 3 0 8 9 -4 4 6 -3 6 6 -3 
2 -6 2 -7 5414 1902 19 MP stroke
0 -9 -1 -6 -2 -10 -4 -6 -6 0 -9 3 -6 4 -2 8 
0 8 5 7 3 7 5 7 5 8 9 5 -3 -6 4 -7 
1 -7 1 -6 4713 1798 19 MP stroke
-8 1 -7 2 -6 8 -8 5 -7 2 -7 3 -8 3 -5 5 
8 0 7 -1 9 -1 8 -3 4 -5 7 -2 6 -2 4 -5 
3 -10 5357 2070 18 MP stroke
-6 4 -8 0 -10 5 -5 6 -9 1 -6 -1 -5 4 -10 0 
-10 0 7 -6 8 -4 10 -5 9 -3 8 -4 9 -1 8 0 
10 4 2307 1264 18 MP stroke
-2 -8 -8 -4 3 -6 6 2 0 -9 -5 -1 0 -9 -7 1 
3 6 0 6 -9 0 2 9 0 6 4 7 7 -2 6 2 
5370 1732 17 MP stroke
-5 -7 -5 0 -10 -5 -7 -2 -5 -5 -10 -2 -2 6 2 5 
-2 9 -5 7 10 -3 11 -1 8 0 6 3 8 0 6 -5 
3719 1331 17 MP stroke
-2 10 -10 0 0 7 7 2 5 6 -11 -4 -8 -6 1 -9 
-4 -8 -6 -5 0 -8 6 -3 7 0 0 9 10 4 5 5 
4046 868 17 MP stroke
8 -4 16 -11 21 -8 1707 490 4 MP stroke
-16 -12 -17 2 -20 -3 -16 11 -9 10 -21 -7 -19 13 4 9 
1821 467 9 MP stroke
-11 -12 -4 -11 -14 -12 -22 6 -14 -16 -33 0 -8 15 3 12 
0 12 22 9 26 1 10 -9 1 -13 15 12 14 8 15 -2 
1990 480 17 MP stroke
-7 -6 1 -7 -3 -4 -6 0 -3 -6 -5 6 -6 -6 3 10 
3 7 -8 -2 5 9 8 4 7 3 7 -3 4 -5 3848 1333 16 MP stroke
0 -6 -3 -7 0 -8 1 -9 -6 -6 -5 6 -6 0 -3 7 
-1 7 0 8 1 7 6 7 8 -6 5 -1 3 1 3658 1279 16 MP stroke
-13 -15 -18 -2 -18 5 -22 5 -12 -5 -18 7 -14 10 0 7 
14 5 11 0 19 11 15 -13 29 13 22 -8 5 -20 5559 520 16 MP stroke
-3 -8 -7 -3 -3 5 -2 4 -8 3 -4 -4 -4 6 -5 4 
1 5 8 3 7 -1 4 -6 7 2 2 -6 7 -4 5486 1406 16 MP stroke
0 -8 -3 -9 -5 -3 -2 -6 -3 9 -4 6 -3 8 -2 9 
-4 8 0 8 5 3 7 -4 5 -7 4 -6 5 -8 5308 1562 16 MP stroke
-10 -9 -7 5 -5 -1 -2 -5 -10 1 -5 5 -11 4 0 6 
8 3 10 -3 10 3 12 -1 -5 -7 5 -5 10 4 2636 2758 16 MP stroke
-5 7 -9 3 -9 2 -8 1 -10 -1 -4 4 -9 3 2 -6 
-1 -9 10 -3 9 -1 8 1 9 0 10 -3 7 2 2362 1237 16 MP stroke
0 -5 3 -2 -3 -7 1 -4 -4 -2 -2 3 -4 2 -4 1 
-3 3 3 2 2 4 4 2 3 1 4 2 1240 1615 15 MP stroke
-5 -9 -6 -6 -6 -4 -5 -4 -6 -4 -8 -5 -7 0 5 5 
5 5 7 3 5 5 5 6 9 4 7 4 5958 2220 15 MP stroke
-7 0 -7 -2 -5 -3 -10 1 -10 1 -1 4 7 -3 0 5 
9 -1 6 2 7 -1 1 3 9 1 1 -7 3884 1377 15 MP stroke
0 -6 -1 -7 -7 -4 -7 0 -7 4 -5 5 -2 8 -5 5 
0 5 7 0 8 0 6 -1 7 -5 6 -4 5139 1629 15 MP stroke
-3 6 -9 5 -9 0 -6 -5 -10 -4 -5 -7 0 -8 5 -7 
11 0 3 -6 7 0 2 9 5 10 9 7 3979 883 15 MP stroke
-5 3 -7 -1 -4 -5 0 -5 -9 -2 -7 0 2 -7 8 -3 
6 -3 4 3 1 5 5 4 2 6 4 5 3730 1709 15 MP stroke
-10 5 -4 5 -6 5 -4 7 -5 3 -7 6 3 11 4 -11 
7 -8 4 -5 8 -6 6 -5 4 -7 5265 1793 14 MP stroke
-8 -4 -6 1 -8 -1 -12 -2 -7 -4 0 6 5 6 7 0 
6 4 9 -1 10 0 4 -5 5423 1964 13 MP stroke
-2 -5 -9 -2 -7 2 -3 4 -6 0 3 4 -9 7 9 -3 
7 -1 6 -2 4 -3 7 -1 4013 1380 13 MP stroke
-5 -8 4 -8 -9 3 -4 -3 -3 4 -6 0 -3 7 9 -2 
5 -1 5 4 5 7 2 -3 4552 2700 13 MP stroke
-1 -12 -8 -5 -3 -10 -6 -8 -13 -8 5 10 8 5 -3 6 
5 10 -5 10 10 0 11 2 1576 1030 13 MP stroke
-5 0 -5 -5 -6 -1 -5 2 -5 -1 -5 0 3 5 6 3 
7 1 8 1 6 -2 1 -3 2383 1647 13 MP stroke
-8 7 -8 6 -7 9 -7 0 -9 -6 -9 0 -8 -3 12 -4 
15 0 11 -3 5 -8 13 2 1898 936 13 MP stroke
-9 -6 -8 -6 -5 -1 -5 -10 -4 -10 -4 8 3 6 10 6 
5 4 8 5 9 4 5760 1956 12 MP stroke
-12 -11 -9 6 -5 6 -12 4 3 7 8 2 -14 5 6 6 
11 -8 10 -7 14 -10 1255 966 12 MP stroke
-8 -1 -4 -4 2 -6 -11 -5 -2 8 5 1 3 6 3 7 
8 -1 4 -5 5088 1946 11 MP stroke
5 -9 -5 -13 -20 -4 -14 4 -24 -3 -2 9 5 11 16 6 
21 2 18 -3 2351 564 11 MP stroke
-5 -5 -9 -4 -12 -5 0 6 -8 5 11 -2 9 0 9 3 
1 7 4 -5 2590 1175 11 MP stroke
-10 -4 -3 -5 -9 -3 -10 -2 -8 0 4 7 8 3 8 3 
10 1 10 0 2588 1116 11 MP stroke
-5 8 -4 7 5 8 -5 7 -6 9 -7 -10 8 -6 0 -17 
14 -6 2018 986 10 MP stroke
-3 -5 -7 0 -5 -2 -6 -5 -7 4 6 6 7 4 8 0 
7 -2 5291 2057 10 MP stroke
1 -7 -1 -6 -7 -7 -3 8 -2 6 1 6 0 9 4 -6 
7 -3 3665 1251 10 MP stroke
-1 -5 3 -4 -7 -6 -4 -8 -2 5 4 5 0 5 3 8 
4 0 2384 1539 10 MP stroke
3 -9 0 -6 2 -12 -8 -2 -4 8 2 6 -5 6 2 6 
8 3 2447 2572 10 MP stroke
-4 -5 -7 0 -4 -4 -8 0 5 2 7 2 1 3 10 2 
989 2116 9 MP stroke
6 0 5 -4 1 -7 6151 2186 4 MP stroke
-6 -2 -6 0 6163 2188 3 MP stroke
-5 -6 -2 -7 -4 -5 -6 5 0 7 5 5 6 1 6 0 
5312 1719 9 MP stroke
-6 3 0 9 -5 2 -2 4 4 -2 3 -4 6 -8 0 -4 
3327 1493 9 MP stroke
-2 -10 -9 -1 -8 3 3 4 -6 4 3 9 10 -4 9 -5 
3701 999 9 MP stroke
-9 1 10 -8 -9 0 -5 5 0 -9 -3 12 3 6 13 -7 
2358 987 9 MP stroke
-10 2 -9 1 -10 5 5 3 7 -3 7 -2 9 -1 1 -5 
2447 1285 9 MP stroke
-7 -2 -6 2 -6 0 -3 3 4 4 9 0 9 0 0 -7 
2547 1649 9 MP stroke
-3 -3 -1 -3 -3 1 -4 1 5 4 3 -1 3 1 1228 1604 8 MP stroke
1 -4 -4 -5 -6 0 -6 -1 -5 4 9 5 11 1 5888 2054 8 MP stroke
-2 -9 -5 -7 -5 -5 -7 3 6 6 7 10 6 2 5817 1997 8 MP stroke
-9 0 -5 -2 -7 6 2 4 9 -3 6 3 4 -8 5454 2093 8 MP stroke
-11 -15 -30 -10 -18 0 -8 13 26 4 28 3 13 5 5696 510 8 MP stroke
-8 6 -10 6 -10 7 8 -4 6 1 7 -6 7 -10 5703 1216 8 MP stroke
-9 -6 -9 -2 -10 4 0 6 8 1 10 -1 10 -2 1070 903 8 MP stroke
0 -8 -15 3 -13 -8 -15 5 15 3 9 5 19 0 1006 824 8 MP stroke
-6 -12 -17 2 -10 6 -2 11 7 8 17 0 11 -15 2399 727 8 MP stroke
-4 -4 -11 3 -3 -2 2 3 5 0 7 -3 4 3 2373 1515 8 MP stroke
-2 -2 2 -2 -4 -1 -4 2 2 4 3 3 3 -4 2313 1592 8 MP stroke
-9 0 -3 4 0 8 10 -2 -3 -1 0 -6 5 -3 2626 1770 8 MP stroke
-11 -5 -10 -5 -9 -8 -2 7 6 5 11 5 15 1 2977 2802 8 MP stroke
1 -8 -5 -3 5 -4 -5 -2 -5 4 4 7 5 6 2190 1916 8 MP stroke
-1 -8 0 -6 -7 2 2 8 2 -4 4 8 5995 2136 7 MP stroke
-5 -7 -8 -2 -5 4 3 6 7 1 8 -2 5394 1965 7 MP stroke
-7 7 -2 8 2 8 4 -7 3 -7 0 -9 5513 2020 7 MP stroke
-4 -4 -11 0 -7 4 9 5 9 -2 4 -3 5550 2471 7 MP stroke
-2 -9 -8 4 0 9 -6 5 11 -3 5 -6 3804 961 7 MP stroke
-15 -7 -28 -2 0 9 18 12 19 -2 6 -10 5609 571 7 MP stroke
0 -5 -10 4 -4 5 0 5 6 -6 8 -3 5824 1107 7 MP stroke
-5 -2 -6 0 -8 4 6 1 8 1 5 -4 4323 1734 7 MP stroke
-10 4 -9 4 0 6 11 0 0 -7 8 -7 1066 1047 7 MP stroke
-18 -6 -24 -4 0 15 11 11 18 0 13 -16 2114 527 7 MP stroke
-13 2 -13 9 0 2 10 0 11 -4 5 -9 2304 858 7 MP stroke
-1 -5 -3 4 -3 0 2 4 1 -4 4 1 2626 1676 7 MP stroke
-3 -2 -3 0 -2 5 5 0 3 -3 1182 1588 6 MP stroke
-6 -3 -5 -5 -7 7 6 3 12 -2 5224 2038 6 MP stroke
-2 -4 -5 1 0 4 5 2 2 -3 3304 1494 6 MP stroke
-4 -5 -4 3 -2 6 5 -3 5 -1 3289 1489 6 MP stroke
-8 -1 -5 -4 -5 7 8 4 10 -6 3570 1302 6 MP stroke
-5 -5 -7 4 -8 4 13 3 7 -6 3859 943 6 MP stroke
-5 -5 -8 2 -3 3 7 2 9 -2 3699 1017 6 MP stroke
-5 -9 -9 0 -1 7 7 4 8 -2 3681 1003 6 MP stroke
-13 9 -3 10 12 -7 0 -7 4 -5 3430 959 6 MP stroke
-18 4 -5 9 17 8 10 -8 -4 -13 4256 699 6 MP stroke
-1 -8 -4 -3 -5 1 7 11 3 -1 4993 1932 6 MP stroke
-4 -5 -7 -6 0 6 8 8 3 -3 4971 1898 6 MP stroke
-3 -5 -6 0 -1 3 4 4 6 -2 4350 2232 6 MP stroke
-12 8 -5 3 0 5 7 -1 10 -15 1044 1058 6 MP stroke
-15 -3 -6 8 -5 11 17 -7 9 -9 1776 510 6 MP stroke
-8 -4 -10 -3 3 8 7 2 8 -3 2329 1053 6 MP stroke
1 -13 -6 -5 -6 9 -1 9 12 0 2357 855 6 MP stroke
-7 0 -2 7 2 -4 5 1 2 -4 2452 1605 6 MP stroke
-10 -3 -7 -3 -2 8 8 -2 11 0 2313 1191 6 MP stroke
-2 -4 -7 0 5 7 4 -3 1205 1595 5 MP stroke
-1 -4 -5 -1 2 5 4 0 1333 2178 5 MP stroke
-5 -2 1 -5 -6 7 10 0 931 2607 5 MP stroke
-7 -7 -9 -2 5 7 11 2 5914 2068 5 MP stroke
-7 -8 -6 2 5 6 8 0 5532 1927 5 MP stroke
-6 -4 -8 3 8 3 6 -2 5458 1920 5 MP stroke
-7 -4 -7 4 7 0 7 0 5203 2021 5 MP stroke
-6 -1 -4 7 9 3 1 -9 5124 1963 5 MP stroke
-7 5 0 7 5 -5 2 -7 5470 2034 5 MP stroke
-8 0 -4 6 10 -1 2 -5 5392 2034 5 MP stroke
-3 -2 -3 5 4 3 2 -6 3663 1868 5 MP stroke
-1 -5 -5 3 -3 6 9 -4 3945 1360 5 MP stroke
-2 -4 -8 3 7 5 3 -4 3866 931 5 MP stroke
-7 -2 -9 8 14 -1 2 -5 3428 860 5 MP stroke
-2 -10 -10 2 0 8 12 0 5603 549 5 MP stroke
0 -14 -12 -3 -26 8 13 9 25 0 885 626 6 MP stroke
-17 10 3 5 9 -4 5 -11 5944 940 5 MP stroke
-5 -5 -7 9 8 3 4 -7 5560 1017 5 MP stroke
-4 2 -10 9 7 -3 7 -8 5741 1194 5 MP stroke
-6 0 0 5 3 3 3 -8 4382 2224 5 MP stroke
-6 -3 -6 1 8 4 4 -2 6080 1055 5 MP stroke
-5 -6 1 -8 -3 8 7 6 2394 1512 5 MP stroke
-2 1 0 2 2 -3 1176 1591 4 MP stroke
-3 -9 -6 1 9 8 6003 2154 4 MP stroke
12 19 -3 -7 -3 -5 -6 -7 5917 2060 5 MP stroke
18 13 -5 -4 -8 -5 -5 -4 5891 2041 5 MP stroke
-12 0 8 5 4 -5 5414 1942 4 MP stroke
-12 3 10 2 2 -5 5370 2042 4 MP stroke
-10 6 4 6 6 -12 6007 2672 4 MP stroke
-7 11 1 -3 5 -3 1 -5 5420 1524 5 MP stroke
0 -11 -13 1 13 10 3260 516 4 MP stroke
-9 2 7 3 2 -5 930 1080 4 MP stroke
-17 0 10 10 7 -10 1994 524 4 MP stroke
-5 -6 1 3 4 3 2636 1697 4 MP stroke
-5 -4 1 2 4 2 2518 1735 4 MP stroke
15 10 -9 -6 -6 -4 5856 2025 4 MP stroke
-3 -3 0 4 3 -1 3921 1308 4 MP stroke
-5 -5 0 9 5 -4 3514 902 4 MP stroke
-10 9 5 -4 5 -5 5682 1227 4 MP stroke
-4 22 2 -11 2 -11 4903 1742 4 MP stroke
-9 7 2 -5 7 -2 961 1072 4 MP stroke
-3 -7 -3 4 6 3 910 1075 4 MP stroke
-9 9 3 -6 6 -3 2417 1379 4 MP stroke
-15 0 9 3 6 -3 2469 1593 4 MP stroke
-2 -10 -5 6 7 4 2442 1575 4 MP stroke
-9 -14 0 8 9 6 2406 1533 4 MP stroke
-6 0 6 0 1220 1601 3 MP stroke
8 7 -8 -7 5863 2043 3 MP stroke
7 0 -7 0 5706 1948 3 MP stroke
11 0 -11 0 5383 1943 3 MP stroke
-9 0 9 0 3157 1333 3 MP stroke
-7 -3 7 3 3115 1319 3 MP stroke
0 -4 3921 1325 2 MP stroke
-8 -5 8 5 3489 925 3 MP stroke
-6 6 6 -6 5774 1172 3 MP stroke
-5 4 5 -4 5443 1491 3 MP stroke
-9 -5 9 5 4951 1877 3 MP stroke
-14 10 14 -10 3405 645 3 MP stroke
-13 -12 13 12 5981 1008 3 MP stroke
-8 1 8 -1 2331 1548 3 MP stroke
-5 -1 5 1 2460 1582 3 MP stroke
-6 -13 6 13 2428 1562 3 MP stroke
-6 -7 6 7 2422 1547 3 MP stroke
18 w
/c8 { 0.700000 0.000000 0.000000 sr} bdef
c8
0 302 -332 0 0 -302 332 0 1907 1462 5 MP stroke
14.4 w
0 sg
113 -37 2126 1462 2 MP stroke
265 -87 1974 1462 2 MP stroke
332 -108 1907 1434 2 MP stroke
332 -108 1907 1384 2 MP stroke
332 -109 1907 1335 2 MP stroke
332 -108 1907 1285 2 MP stroke
232 -75 1907 1235 2 MP stroke
80 -26 1907 1186 2 MP stroke
gr

14.4 w
SO
c8
%%IncludeResource: font Helvetica-Bold
/Helvetica-Bold /ISOLatin1Encoding 120 FMSR

1627 1268 mt 
(Box) s
1627 1410 mt 
( dry) s
gs 885 467 5279 2356 rc
18 w
0 413 -387 0 0 -413 387 0 2570 2294 5 MP stroke
14.4 w
0 sg
130 -43 2827 2294 2 MP stroke
282 -92 2675 2294 2 MP stroke
387 -126 2570 2278 2 MP stroke
387 -127 2570 2229 2 MP stroke
387 -126 2570 2179 2 MP stroke
387 -126 2570 2129 2 MP stroke
387 -127 2570 2080 2 MP stroke
387 -126 2570 2030 2 MP stroke
306 -99 2570 1980 2 MP stroke
154 -50 2570 1931 2 MP stroke
2 0 2570 1881 2 MP stroke
gr

0 sg
c8
2290 2113 mt 
(Box) s
2290 2255 mt 
( wet) s
0 sg
-88 0 -89 0 -88 0 -89 0 0 53 78 0 78 0 78 0 
78 0 78 0 52 -53 885 2822 12 MP
PP
6 w
-88 0 -88 0 -89 0 -88 0 -89 0 0 53 78 0 78 0 
78 0 78 0 78 0 52 -53 885 2822 13 MP stroke
-89 0 -88 0 -88 0 -89 0 0 53 89 0 88 0 88 0 
89 0 88 0 0 -53 1769 2822 12 MP
PP
-88 0 -89 0 -88 0 -88 0 -89 0 0 53 89 0 88 0 
88 0 89 0 88 0 0 -53 1769 2822 13 MP stroke
-89 0 -88 0 -89 0 -88 0 0 53 88 0 89 0 88 0 
89 0 88 0 0 -53 2653 2822 12 MP
PP
-88 0 -89 0 -88 0 -89 0 -88 0 0 53 88 0 89 0 
88 0 89 0 88 0 0 -53 2653 2822 13 MP stroke
-88 0 -89 0 -88 0 -88 0 0 53 88 0 88 0 89 0 
88 0 89 0 0 -53 3537 2822 12 MP
PP
-89 0 -88 0 -89 0 -88 0 -88 0 0 53 88 0 88 0 
89 0 88 0 89 0 0 -53 3537 2822 13 MP stroke
-88 0 -89 0 -88 0 -89 0 0 53 89 0 88 0 89 0 
88 0 88 0 0 -53 4422 2822 12 MP
PP
-88 0 -88 0 -89 0 -88 0 -89 0 0 53 89 0 88 0 
89 0 88 0 88 0 0 -53 4422 2822 13 MP stroke
-85 0 -86 0 -86 0 -85 0 0 53 85 0 86 0 86 0 
85 0 86 0 0 -53 5306 2822 12 MP
PP
-86 0 -85 0 -86 0 -86 0 -85 0 0 53 85 0 86 0 
86 0 85 0 86 0 0 -53 5306 2822 13 MP stroke
-88 0 -89 0 -88 0 -89 0 0 -53 89 0 88 0 89 0 
88 0 88 0 0 53 1327 467 12 MP
PP
-88 0 -88 0 -89 0 -88 0 -89 0 0 -53 89 0 88 0 
89 0 88 0 88 0 0 53 1327 467 13 MP stroke
-89 0 -88 0 -89 0 -88 0 0 -53 88 0 89 0 88 0 
89 0 88 0 0 53 2211 467 12 MP
PP
-88 0 -89 0 -88 0 -89 0 -88 0 0 -53 88 0 89 0 
88 0 89 0 88 0 0 53 2211 467 13 MP stroke
-88 0 -88 0 -89 0 -88 0 0 -53 88 0 89 0 88 0 
88 0 89 0 0 53 3095 467 12 MP
PP
-89 0 -88 0 -88 0 -89 0 -88 0 0 -53 88 0 89 0 
88 0 88 0 89 0 0 53 3095 467 13 MP stroke
-88 0 -89 0 -88 0 -89 0 0 -53 89 0 88 0 89 0 
88 0 89 0 0 53 3979 467 12 MP
PP
-89 0 -88 0 -89 0 -88 0 -89 0 0 -53 89 0 88 0 
89 0 88 0 89 0 0 53 3979 467 13 MP stroke
-89 0 -88 0 -88 0 -89 0 0 -53 89 0 88 0 88 0 
89 0 88 0 0 53 4864 467 12 MP
PP
-88 0 -89 0 -88 0 -88 0 -89 0 0 -53 89 0 88 0 
88 0 89 0 88 0 0 53 4864 467 13 MP stroke
-86 0 -85 0 -86 0 -86 0 53 -53 75 0 75 0 76 0 
75 0 75 0 0 53 5734 467 12 MP
PP
-86 0 -86 0 -85 0 -86 0 -86 0 53 -53 75 0 75 0 
76 0 75 0 75 0 0 53 5734 467 13 MP stroke
0 10 0 10 0 10 0 10 -52 0 0 1 0 1 0 0 
0 0 0 1 52 -53 885 2822 12 MP
PP
0 10 0 10 0 10 0 10 0 10 -52 0 0 1 0 1 
0 0 0 0 0 1 52 -53 885 2822 13 MP stroke
0 46 0 45 0 44 0 43 -52 0 0 -43 0 -44 0 -45 
0 -46 0 -48 52 0 885 2723 12 MP
PP
0 48 0 46 0 45 0 44 0 43 -52 0 0 -43 0 -44 
0 -45 0 -46 0 -48 52 0 885 2723 13 MP stroke
0 39 0 38 0 38 0 37 -52 0 0 -37 0 -38 0 -38 
0 -39 0 -39 52 0 885 2294 12 MP
PP
0 39 0 39 0 38 0 38 0 37 -52 0 0 -37 0 -38 
0 -38 0 -39 0 -39 52 0 885 2294 13 MP stroke
0 37 0 37 0 37 0 38 -52 0 0 -38 0 -37 0 -37 
0 -37 0 -37 52 0 885 1918 12 MP
PP
0 37 0 37 0 37 0 37 0 38 -52 0 0 -38 0 -37 
0 -37 0 -37 0 -37 52 0 885 1918 13 MP stroke
0 40 0 41 0 41 0 42 -52 0 0 -42 0 -41 0 -41 
0 -40 0 -39 52 0 885 1541 12 MP
PP
0 39 0 40 0 41 0 41 0 42 -52 0 0 -42 0 -41 
0 -41 0 -40 0 -39 52 0 885 1541 13 MP stroke
0 50 0 52 0 54 0 56 -52 0 0 -56 0 -54 0 -52 
0 -50 0 -49 52 0 885 1112 12 MP
PP
0 49 0 50 0 52 0 54 0 56 -52 0 0 -56 0 -54 
0 -52 0 -50 0 -49 52 0 885 1112 13 MP stroke
0 6 0 6 0 6 0 6 -52 0 0 -6 0 -6 0 -6 
0 -6 0 -5 52 0 885 527 12 MP
PP
0 5 0 6 0 6 0 6 0 6 -52 0 0 -6 0 -6 
0 -6 0 -6 0 -5 52 0 885 527 13 MP stroke
0 10 0 10 0 10 0 9 53 0 0 -9 0 -10 0 -10 
0 -10 0 -10 -53 0 6163 2772 12 MP
PP
0 10 0 10 0 10 0 10 0 9 53 0 0 -9 0 -10 
0 -10 0 -10 0 -10 -53 0 6163 2772 13 MP stroke
0 41 0 41 0 40 0 39 53 0 0 -39 0 -40 0 -41 
0 -41 0 -42 -53 0 6163 2497 12 MP
PP
0 42 0 41 0 41 0 40 0 39 53 0 0 -39 0 -40 
0 -41 0 -41 0 -42 -53 0 6163 2497 13 MP stroke
0 37 0 37 0 37 0 36 53 0 0 -36 0 -37 0 -37 
0 -37 0 -38 -53 0 6163 2103 12 MP
PP
0 38 0 37 0 37 0 37 0 36 53 0 0 -36 0 -37 
0 -37 0 -37 0 -38 -53 0 6163 2103 13 MP stroke
0 38 0 38 0 39 0 39 53 0 0 -39 0 -39 0 -38 
0 -38 0 -37 -53 0 6163 1732 12 MP
PP
0 37 0 38 0 38 0 39 0 39 53 0 0 -39 0 -39 
0 -38 0 -38 0 -37 -53 0 6163 1732 13 MP stroke
0 44 0 45 0 46 0 48 53 0 0 -48 0 -46 0 -45 
0 -44 0 -43 -53 0 6163 1338 12 MP
PP
0 43 0 44 0 45 0 46 0 48 53 0 0 -48 0 -46 
0 -45 0 -44 0 -43 -53 0 6163 1338 13 MP stroke
0 61 0 64 0 68 0 72 53 0 0 -72 0 -68 0 -64 
0 -61 0 -59 -53 0 6163 851 12 MP
PP
0 59 0 61 0 64 0 68 0 72 53 0 0 -72 0 -68 
0 -64 0 -61 0 -59 -53 0 6163 851 13 MP stroke
0 7 0 6 0 6 0 6 53 -53 0 5 0 4 0 4 
0 5 0 4 -53 0 6163 498 12 MP
PP
0 6 0 7 0 6 0 6 0 6 53 -53 0 5 0 4 
0 4 0 5 0 4 -53 0 6163 498 13 MP stroke
1 sg
-88 0 -89 0 -88 0 -89 0 0 -53 78 0 78 0 78 0 
78 0 78 0 52 53 885 467 12 MP
PP
0 sg
-88 0 -88 0 -89 0 -88 0 -89 0 0 -53 78 0 78 0 
78 0 78 0 78 0 52 53 885 467 13 MP stroke
1 sg
-89 0 -88 0 -88 0 -89 0 0 -53 89 0 88 0 88 0 
89 0 88 0 0 53 1769 467 12 MP
PP
0 sg
-88 0 -89 0 -88 0 -88 0 -89 0 0 -53 89 0 88 0 
88 0 89 0 88 0 0 53 1769 467 13 MP stroke
1 sg
-89 0 -88 0 -89 0 -88 0 0 -53 88 0 89 0 88 0 
89 0 88 0 0 53 2653 467 12 MP
PP
0 sg
-88 0 -89 0 -88 0 -89 0 -88 0 0 -53 88 0 89 0 
88 0 89 0 88 0 0 53 2653 467 13 MP stroke
1 sg
-88 0 -89 0 -88 0 -88 0 0 -53 88 0 88 0 89 0 
88 0 89 0 0 53 3537 467 12 MP
PP
0 sg
-89 0 -88 0 -89 0 -88 0 -88 0 0 -53 88 0 88 0 
89 0 88 0 89 0 0 53 3537 467 13 MP stroke
1 sg
-88 0 -89 0 -88 0 -89 0 0 -53 89 0 88 0 89 0 
88 0 88 0 0 53 4422 467 12 MP
PP
0 sg
-88 0 -88 0 -89 0 -88 0 -89 0 0 -53 89 0 88 0 
89 0 88 0 88 0 0 53 4422 467 13 MP stroke
1 sg
-85 0 -86 0 -86 0 -85 0 0 -53 85 0 86 0 86 0 
85 0 86 0 0 53 5306 467 12 MP
PP
0 sg
-86 0 -85 0 -86 0 -86 0 -85 0 0 -53 85 0 86 0 
86 0 85 0 86 0 0 53 5306 467 13 MP stroke
1 sg
-88 0 -89 0 -88 0 -89 0 0 53 89 0 88 0 89 0 
88 0 88 0 0 -53 1327 2822 12 MP
PP
0 sg
-88 0 -88 0 -89 0 -88 0 -89 0 0 53 89 0 88 0 
89 0 88 0 88 0 0 -53 1327 2822 13 MP stroke
1 sg
-89 0 -88 0 -89 0 -88 0 0 53 88 0 89 0 88 0 
89 0 88 0 0 -53 2211 2822 12 MP
PP
0 sg
-88 0 -89 0 -88 0 -89 0 -88 0 0 53 88 0 89 0 
88 0 89 0 88 0 0 -53 2211 2822 13 MP stroke
1 sg
-88 0 -88 0 -89 0 -88 0 0 53 88 0 89 0 88 0 
88 0 89 0 0 -53 3095 2822 12 MP
PP
0 sg
-89 0 -88 0 -88 0 -89 0 -88 0 0 53 88 0 89 0 
88 0 88 0 89 0 0 -53 3095 2822 13 MP stroke
1 sg
-88 0 -89 0 -88 0 -89 0 0 53 89 0 88 0 89 0 
88 0 89 0 0 -53 3979 2822 12 MP
PP
0 sg
-89 0 -88 0 -89 0 -88 0 -89 0 0 53 89 0 88 0 
89 0 88 0 89 0 0 -53 3979 2822 13 MP stroke
1 sg
-89 0 -88 0 -88 0 -89 0 0 53 89 0 88 0 88 0 
89 0 88 0 0 -53 4864 2822 12 MP
PP
0 sg
-88 0 -89 0 -88 0 -88 0 -89 0 0 53 89 0 88 0 
88 0 89 0 88 0 0 -53 4864 2822 13 MP stroke
1 sg
-86 0 -85 0 -86 0 -86 0 53 53 75 0 75 0 76 0 
75 0 75 0 0 -53 5734 2822 12 MP
PP
0 sg
-86 0 -86 0 -85 0 -86 0 -86 0 53 53 75 0 75 0 
76 0 75 0 75 0 0 -53 5734 2822 13 MP stroke
1 sg
0 10 0 10 0 10 0 10 53 0 0 1 0 1 0 0 
0 0 0 1 -53 -53 6163 2822 12 MP
PP
0 sg
0 10 0 10 0 10 0 10 0 10 53 0 0 1 0 1 
0 0 0 0 0 1 -53 -53 6163 2822 13 MP stroke
1 sg
0 46 0 45 0 44 0 43 53 0 0 -43 0 -44 0 -45 
0 -46 0 -48 -53 0 6163 2723 12 MP
PP
0 sg
0 48 0 46 0 45 0 44 0 43 53 0 0 -43 0 -44 
0 -45 0 -46 0 -48 -53 0 6163 2723 13 MP stroke
1 sg
0 39 0 38 0 38 0 37 53 0 0 -37 0 -38 0 -38 
0 -39 0 -39 -53 0 6163 2294 12 MP
PP
0 sg
0 39 0 39 0 38 0 38 0 37 53 0 0 -37 0 -38 
0 -38 0 -39 0 -39 -53 0 6163 2294 13 MP stroke
1 sg
0 37 0 37 0 37 0 38 53 0 0 -38 0 -37 0 -37 
0 -37 0 -37 -53 0 6163 1918 12 MP
PP
0 sg
0 37 0 37 0 37 0 37 0 38 53 0 0 -38 0 -37 
0 -37 0 -37 0 -37 -53 0 6163 1918 13 MP stroke
1 sg
0 40 0 41 0 41 0 42 53 0 0 -42 0 -41 0 -41 
0 -40 0 -39 -53 0 6163 1541 12 MP
PP
0 sg
0 39 0 40 0 41 0 41 0 42 53 0 0 -42 0 -41 
0 -41 0 -40 0 -39 -53 0 6163 1541 13 MP stroke
1 sg
0 50 0 52 0 54 0 56 53 0 0 -56 0 -54 0 -52 
0 -50 0 -49 -53 0 6163 1112 12 MP
PP
0 sg
0 49 0 50 0 52 0 54 0 56 53 0 0 -56 0 -54 
0 -52 0 -50 0 -49 -53 0 6163 1112 13 MP stroke
1 sg
0 6 0 6 0 6 0 6 53 0 0 -6 0 -6 0 -6 
0 -6 0 -5 -53 0 6163 527 12 MP
PP
0 sg
0 5 0 6 0 6 0 6 0 6 53 0 0 -6 0 -6 
0 -6 0 -6 0 -5 -53 0 6163 527 13 MP stroke
1 sg
0 10 0 10 0 10 0 9 -52 0 0 -9 0 -10 0 -10 
0 -10 0 -10 52 0 885 2772 12 MP
PP
0 sg
0 10 0 10 0 10 0 10 0 9 -52 0 0 -9 0 -10 
0 -10 0 -10 0 -10 52 0 885 2772 13 MP stroke
1 sg
0 41 0 41 0 40 0 39 -52 0 0 -39 0 -40 0 -41 
0 -41 0 -42 52 0 885 2497 12 MP
PP
0 sg
0 42 0 41 0 41 0 40 0 39 -52 0 0 -39 0 -40 
0 -41 0 -41 0 -42 52 0 885 2497 13 MP stroke
1 sg
0 37 0 37 0 37 0 36 -52 0 0 -36 0 -37 0 -37 
0 -37 0 -38 52 0 885 2103 12 MP
PP
0 sg
0 38 0 37 0 37 0 37 0 36 -52 0 0 -36 0 -37 
0 -37 0 -37 0 -38 52 0 885 2103 13 MP stroke
1 sg
0 38 0 38 0 39 0 39 -52 0 0 -39 0 -39 0 -38 
0 -38 0 -37 52 0 885 1732 12 MP
PP
0 sg
0 37 0 38 0 38 0 39 0 39 -52 0 0 -39 0 -39 
0 -38 0 -38 0 -37 52 0 885 1732 13 MP stroke
1 sg
0 44 0 45 0 46 0 48 -52 0 0 -48 0 -46 0 -45 
0 -44 0 -43 52 0 885 1338 12 MP
PP
0 sg
0 43 0 44 0 45 0 46 0 48 -52 0 0 -48 0 -46 
0 -45 0 -44 0 -43 52 0 885 1338 13 MP stroke
1 sg
0 61 0 64 0 68 0 72 -52 0 0 -72 0 -68 0 -64 
0 -61 0 -59 52 0 885 851 12 MP
PP
0 sg
0 59 0 61 0 64 0 68 0 72 -52 0 0 -72 0 -68 
0 -64 0 -61 0 -59 52 0 885 851 13 MP stroke
1 sg
0 7 0 6 0 6 0 6 -52 -53 0 5 0 4 0 4 
0 5 0 4 52 0 885 498 12 MP
PP
0 sg
0 6 0 7 0 6 0 6 0 6 -52 -53 0 5 0 4 
0 4 0 5 0 4 52 0 885 498 13 MP stroke

end %%Color Dict

eplot
%%EndObject

epage
end

showpage

%%Trailer
%%EOF
