%!PS-Adobe-3.0 EPSF-3.0
%%Creator: MATLAB, The Mathworks, Inc. Version 7.5.0.338 (R2007b). Operating System: Linux 3.8.4 #1 SMP Thu Mar 21 12:34:11 PDT 2013 x86_64.
%%Title: figs/eps/hist_comp_tm_Var_T_bias_2.eps
%%CreationDate: 07/24/2013  10:44:44
%%DocumentNeededFonts: Helvetica-Bold
%%+ Helvetica
%%DocumentProcessColors: Cyan Magenta Yellow Black
%%LanguageLevel: 2
%%Pages: 1
%%BoundingBox:     0     0   341   288
%%EndComments

%%BeginProlog
% MathWorks dictionary
/MathWorks 160 dict begin
% definition operators
/bdef {bind def} bind def
/ldef {load def} bind def
/xdef {exch def} bdef
/xstore {exch store} bdef
% operator abbreviations
/c  /clip ldef
/cc /concat ldef
/cp /closepath ldef
/gr /grestore ldef
/gs /gsave ldef
/mt /moveto ldef
/np /newpath ldef
/cm /currentmatrix ldef
/sm /setmatrix ldef
/rm /rmoveto ldef
/rl /rlineto ldef
/s {show newpath} bdef
/sc {setcmykcolor} bdef
/sr /setrgbcolor ldef
/sg /setgray ldef
/w /setlinewidth ldef
/j /setlinejoin ldef
/cap /setlinecap ldef
/rc {rectclip} bdef
/rf {rectfill} bdef
% page state control
/pgsv () def
/bpage {/pgsv save def} bdef
/epage {pgsv restore} bdef
/bplot /gsave ldef
/eplot {stroke grestore} bdef
% orientation switch
/portraitMode 0 def /landscapeMode 1 def /rotateMode 2 def
% coordinate system mappings
/dpi2point 0 def
% font control
/FontSize 0 def
/FMS {/FontSize xstore findfont [FontSize 0 0 FontSize neg 0 0]
  makefont setfont} bdef
/reencode {exch dup where {pop load} {pop StandardEncoding} ifelse
  exch dup 3 1 roll findfont dup length dict begin
  { 1 index /FID ne {def}{pop pop} ifelse } forall
  /Encoding exch def currentdict end definefont pop} bdef
/isroman {findfont /CharStrings get /Agrave known} bdef
/FMSR {3 1 roll 1 index dup isroman {reencode} {pop pop} ifelse
  exch FMS} bdef
/csm {1 dpi2point div -1 dpi2point div scale neg translate
 dup landscapeMode eq {pop -90 rotate}
  {rotateMode eq {90 rotate} if} ifelse} bdef
% line types: solid, dotted, dashed, dotdash
/SO { [] 0 setdash } bdef
/DO { [.5 dpi2point mul 4 dpi2point mul] 0 setdash } bdef
/DA { [6 dpi2point mul] 0 setdash } bdef
/DD { [.5 dpi2point mul 4 dpi2point mul 6 dpi2point mul 4
  dpi2point mul] 0 setdash } bdef
% macros for lines and objects
/L {lineto stroke} bdef
/MP {3 1 roll moveto 1 sub {rlineto} repeat} bdef
/AP {{rlineto} repeat} bdef
/PDlw -1 def
/W {/PDlw currentlinewidth def setlinewidth} def
/PP {closepath eofill} bdef
/DP {closepath stroke} bdef
/MR {4 -2 roll moveto dup  0 exch rlineto exch 0 rlineto
  neg 0 exch rlineto closepath} bdef
/FR {MR stroke} bdef
/PR {MR fill} bdef
/L1i {{currentfile picstr readhexstring pop} image} bdef
/tMatrix matrix def
/MakeOval {newpath tMatrix currentmatrix pop translate scale
0 0 1 0 360 arc tMatrix setmatrix} bdef
/FO {MakeOval stroke} bdef
/PO {MakeOval fill} bdef
/PD {currentlinewidth 2 div 0 360 arc fill
   PDlw -1 eq not {PDlw w /PDlw -1 def} if} def
/FA {newpath tMatrix currentmatrix pop translate scale
  0 0 1 5 -2 roll arc tMatrix setmatrix stroke} bdef
/PA {newpath tMatrix currentmatrix pop	translate 0 0 moveto scale
  0 0 1 5 -2 roll arc closepath tMatrix setmatrix fill} bdef
/FAn {newpath tMatrix currentmatrix pop translate scale
  0 0 1 5 -2 roll arcn tMatrix setmatrix stroke} bdef
/PAn {newpath tMatrix currentmatrix pop translate 0 0 moveto scale
  0 0 1 5 -2 roll arcn closepath tMatrix setmatrix fill} bdef
/vradius 0 def /hradius 0 def /lry 0 def
/lrx 0 def /uly 0 def /ulx 0 def /rad 0 def
/MRR {/vradius xdef /hradius xdef /lry xdef /lrx xdef /uly xdef
  /ulx xdef newpath tMatrix currentmatrix pop ulx hradius add uly
  vradius add translate hradius vradius scale 0 0 1 180 270 arc 
  tMatrix setmatrix lrx hradius sub uly vradius add translate
  hradius vradius scale 0 0 1 270 360 arc tMatrix setmatrix
  lrx hradius sub lry vradius sub translate hradius vradius scale
  0 0 1 0 90 arc tMatrix setmatrix ulx hradius add lry vradius sub
  translate hradius vradius scale 0 0 1 90 180 arc tMatrix setmatrix
  closepath} bdef
/FRR {MRR stroke } bdef
/PRR {MRR fill } bdef
/MlrRR {/lry xdef /lrx xdef /uly xdef /ulx xdef /rad lry uly sub 2 div def
  newpath tMatrix currentmatrix pop ulx rad add uly rad add translate
  rad rad scale 0 0 1 90 270 arc tMatrix setmatrix lrx rad sub lry rad
  sub translate rad rad scale 0 0 1 270 90 arc tMatrix setmatrix
  closepath} bdef
/FlrRR {MlrRR stroke } bdef
/PlrRR {MlrRR fill } bdef
/MtbRR {/lry xdef /lrx xdef /uly xdef /ulx xdef /rad lrx ulx sub 2 div def
  newpath tMatrix currentmatrix pop ulx rad add uly rad add translate
  rad rad scale 0 0 1 180 360 arc tMatrix setmatrix lrx rad sub lry rad
  sub translate rad rad scale 0 0 1 0 180 arc tMatrix setmatrix
  closepath} bdef
/FtbRR {MtbRR stroke } bdef
/PtbRR {MtbRR fill } bdef
/stri 6 array def /dtri 6 array def
/smat 6 array def /dmat 6 array def
/tmat1 6 array def /tmat2 6 array def /dif 3 array def
/asub {/ind2 exch def /ind1 exch def dup dup
  ind1 get exch ind2 get sub exch } bdef
/tri_to_matrix {
  2 0 asub 3 1 asub 4 0 asub 5 1 asub
  dup 0 get exch 1 get 7 -1 roll astore } bdef
/compute_transform {
  dmat dtri tri_to_matrix tmat1 invertmatrix 
  smat stri tri_to_matrix tmat2 concatmatrix } bdef
/ds {stri astore pop} bdef
/dt {dtri astore pop} bdef
/db {2 copy /cols xdef /rows xdef mul dup 3 mul string
  currentfile 
  3 index 0 eq {/ASCIIHexDecode filter}
  {/ASCII85Decode filter 3 index 2 eq {/RunLengthDecode filter} if }
  ifelse exch readstring pop
  dup 0 3 index getinterval /rbmap xdef
  dup 2 index dup getinterval /gbmap xdef
  1 index dup 2 mul exch getinterval /bbmap xdef pop pop}bdef
/it {gs np dtri aload pop moveto lineto lineto cp c
  cols rows 8 compute_transform 
  rbmap gbmap bbmap true 3 colorimage gr}bdef
/il {newpath moveto lineto stroke}bdef
currentdict end def
%%EndProlog

%%BeginSetup
MathWorks begin

0 cap

end
%%EndSetup

%%Page: 1 1
%%BeginPageSetup
%%PageBoundingBox:     0     0   341   288
MathWorks begin
bpage
%%EndPageSetup

%%BeginObject: obj1
bplot

/dpi2point 12 def
portraitMode 0000 3408 csm

    0   -48  4103  3457 rc
90 dict begin %Colortable dictionary
/c0 { 0.000000 0.000000 0.000000 sr} bdef
/c1 { 1.000000 1.000000 1.000000 sr} bdef
/c2 { 0.900000 0.000000 0.000000 sr} bdef
/c3 { 0.000000 0.820000 0.000000 sr} bdef
/c4 { 0.000000 0.000000 0.800000 sr} bdef
/c5 { 0.910000 0.820000 0.320000 sr} bdef
/c6 { 1.000000 0.260000 0.820000 sr} bdef
/c7 { 0.000000 0.820000 0.820000 sr} bdef
c0
1 j
21 w
1 sg
0 2717 3436 0 0 -2717 576 2973 4 MP
PP
-3436 0 0 2717 3436 0 0 -2717 576 2973 5 MP stroke
gs 576 256 3438 2718 rc
DA
15.6 w
0.4 sg
0 -2717 957 2973 2 MP stroke
0 -2717 1339 2973 2 MP stroke
0 -2717 1721 2973 2 MP stroke
SO
30 w
/c8 { 0.580000 0.000000 0.830000 sr} bdef
c8
2 -1 19 0 19 34 19 -17 19 0 19 -17 19 0 19 0 
19 0 19 0 19 17 20 -17 19 0 19 0 19 0 19 0 
19 0 19 34 19 -34 19 34 19 0 19 -17 20 0 19 -17 
19 0 19 0 19 17 19 -17 19 34 19 -34 19 34 19 -17 
20 -17 19 17 19 0 19 -17 19 0 19 17 19 17 19 -17 
19 17 19 16 19 -50 20 34 19 16 19 -16 19 -17 19 -17 
19 0 19 67 19 -67 19 17 19 0 20 -17 19 0 19 34 
19 -17 19 0 19 0 19 0 19 17 19 0 19 16 19 -33 
20 -17 19 17 19 0 19 50 19 -50 19 -17 19 0 19 17 
19 66 19 -33 19 -16 20 -17 19 17 19 -34 19 17 19 0 
19 50 19 -33 19 66 19 -50 19 -33 20 66 19 17 19 -83 
19 0 19 132 19 -99 19 0 19 50 19 -50 19 33 19 -66 
20 17 19 33 19 -33 19 132 19 -116 19 0 19 50 19 0 
19 -17 19 -49 20 66 19 33 19 0 19 -83 19 132 19 -49 
19 16 19 50 19 -116 19 66 19 0 20 33 19 0 19 -16 
19 33 19 0 19 49 19 33 19 0 19 0 19 -33 19 133 
20 -182 19 248 19 -149 19 83 19 -67 19 83 19 83 19 99 
19 -182 19 430 20 -116 19 -99 19 264 19 -198 19 413 19 198 
19 33 19 -148 19 380 19 198 19 -50 20 -115 19 380 19 -413 
19 -199 19 166 19 -265 19 281 19 -297 19 -83 19 -149 20 -231 
19 -182 19 -16 19 -116 19 -297 19 49 19 -99 19 -33 19 0 
19 0 19 -16 20 0 19 0 19 -17 19 -33 19 33 19 0 
19 -33 19 0 19 0 19 17 19 -34 576 2973 182 MP stroke
/c9 { 0.000000 0.000000 0.500000 sr} bdef
c9
2 1 19 -13 19 7 19 6 19 -13 19 0 19 0 19 7 
19 0 19 0 19 6 20 0 19 -6 19 6 19 12 19 6 
19 -18 19 6 19 -6 19 12 19 -18 19 6 20 -13 19 7 
19 6 19 0 19 0 19 -13 19 0 19 0 19 31 19 -24 
20 12 19 -12 19 30 19 -30 19 6 19 12 19 -25 19 13 
19 -6 19 6 19 24 20 -6 19 0 19 -24 19 0 19 6 
19 0 19 6 19 6 19 -18 19 0 20 24 19 -12 19 -6 
19 12 19 -12 19 6 19 -6 19 12 19 -18 19 0 19 18 
20 -6 19 12 19 0 19 0 19 -12 19 -12 19 6 19 12 
19 0 19 -6 19 24 20 -18 19 12 19 -12 19 -6 19 18 
19 -24 19 -6 19 54 19 -18 19 -6 20 -18 19 0 19 12 
19 6 19 6 19 -6 19 0 19 24 19 -36 19 36 19 -30 
20 12 19 18 19 -18 19 12 19 43 19 -37 19 6 19 -6 
19 -6 19 -6 20 25 19 -31 19 79 19 -55 19 25 19 0 
19 6 19 24 19 0 19 -24 19 6 20 6 19 12 19 55 
19 -49 19 31 19 36 19 -30 19 36 19 31 19 -19 19 -24 
20 6 19 25 19 36 19 55 19 55 19 48 19 -6 19 -36 
19 115 19 -42 20 231 19 0 19 195 19 42 19 -18 19 110 
19 109 19 6 19 384 19 133 19 -146 20 262 19 43 19 -128 
19 -91 19 176 19 -110 19 -170 19 -195 19 -79 19 0 20 -152 
19 -341 19 13 19 -19 19 -219 19 -85 19 -43 19 -67 19 -133 
19 36 19 -67 20 0 19 -48 19 -25 19 -12 19 6 19 -30 
19 12 19 -6 19 0 19 18 19 0 576 2936 182 MP stroke
/c10 { 0.000000 0.400000 0.000000 sr} bdef
c10
2 0 19 11 19 -11 19 0 19 0 19 0 19 11 19 0 
19 -11 19 0 19 11 20 -11 19 11 19 -11 19 0 19 0 
19 0 19 0 19 0 19 11 19 11 19 -22 20 0 19 11 
19 -11 19 11 19 11 19 -22 19 11 19 0 19 -11 19 0 
20 0 19 11 19 -11 19 11 19 -11 19 0 19 11 19 0 
19 -11 19 0 19 0 20 11 19 0 19 -11 19 11 19 -11 
19 33 19 -33 19 11 19 0 19 -11 20 0 19 33 19 -33 
19 0 19 33 19 -33 19 22 19 -22 19 0 19 0 19 0 
20 0 19 0 19 11 19 11 19 -22 19 11 19 0 19 -11 
19 0 19 0 19 11 20 11 19 0 19 0 19 -22 19 11 
19 11 19 11 19 -22 19 -11 19 22 20 -11 19 0 19 44 
19 -22 19 11 19 -22 19 -22 19 33 19 22 19 -44 19 -11 
20 55 19 0 19 -11 19 0 19 -33 19 33 19 11 19 -22 
19 -11 19 44 20 -66 19 22 19 44 19 -33 19 -11 19 0 
19 22 19 32 19 -10 19 10 19 -21 20 54 19 -11 19 -54 
19 163 19 -141 19 54 19 32 19 -21 19 21 19 0 19 -10 
20 75 19 -43 19 33 19 21 19 22 19 0 19 -11 19 11 
19 87 19 -22 20 22 19 -120 19 33 19 98 19 54 19 43 
19 -76 19 163 19 -11 19 271 19 11 20 76 19 152 19 -76 
19 65 19 98 19 227 19 -86 19 108 19 217 19 141 20 -130 
19 -250 19 282 19 87 19 -108 19 -54 19 -380 19 -152 19 -76 
19 22 19 -98 20 -54 19 -54 19 -250 19 120 19 -55 19 -141 
19 109 19 -174 19 98 19 -33 19 -97 576 2636 182 MP stroke
/c11 { 0.700000 0.000000 0.000000 sr} bdef
c11
2 0 19 0 19 6 19 5 19 -11 19 6 19 5 19 0 
19 -5 19 0 19 0 20 0 19 0 19 -6 19 16 19 -16 
19 11 19 0 19 -11 19 0 19 16 19 -5 20 5 19 -5 
19 -5 19 -6 19 11 19 5 19 11 19 -16 19 -5 19 10 
20 -10 19 -6 19 6 19 0 19 0 19 0 19 21 19 -21 
19 21 19 -21 19 0 20 5 19 5 19 0 19 -5 19 0 
19 -5 19 10 19 -10 19 5 19 5 20 -5 19 11 19 -11 
19 5 19 0 19 16 19 -32 19 11 19 21 19 -21 19 11 
20 -11 19 0 19 0 19 -5 19 10 19 6 19 -6 19 11 
19 -16 19 11 19 10 20 -26 19 5 19 21 19 -16 19 0 
19 16 19 -10 19 5 19 5 19 -5 20 -16 19 26 19 -10 
19 5 19 -10 19 21 19 -27 19 21 19 0 19 -10 19 0 
20 5 19 11 19 -11 19 32 19 -27 19 6 19 15 19 22 
19 -48 19 37 20 -11 19 16 19 -37 19 64 19 -11 19 -42 
19 32 19 21 19 -32 19 21 19 48 20 -48 19 26 19 -36 
19 10 19 32 19 -6 19 32 19 -5 19 -27 19 53 19 5 
20 -15 19 79 19 -95 19 142 19 -16 19 37 19 -16 19 21 
19 16 19 -21 20 16 19 32 19 100 19 -37 19 142 19 169 
19 216 19 337 19 158 19 95 19 32 20 79 19 358 19 -63 
19 -169 19 -110 19 -116 19 79 19 -185 19 -279 19 -211 20 79 
19 -153 19 -131 19 -16 19 -90 19 90 19 121 19 -190 19 -89 
19 -111 19 -21 20 37 19 16 19 -195 19 0 19 -106 19 0 
19 5 19 -47 19 -16 19 0 19 -79 576 2920 182 MP stroke
gr

30 w
c11
0 sg
%%IncludeResource: font Helvetica-Bold
/Helvetica-Bold /ISOLatin1Encoding 168 FMSR

 743 3369 mt 
(Var\(T\) ratio, toy model over dataset  [-]) s
  13  153 mt 
(Probability) s
%%IncludeResource: font Helvetica
/Helvetica /ISOLatin1Encoding 120 FMSR

 559 3016 mt 
( ) s
3997  298 mt 
( ) s
14 w
DO
SO
21 w
 576 2973 mt 4012 2973 L
 576  256 mt 4012  256 L
 576 2973 mt  576  256 L
4012 2973 mt 4012  256 L
 576 2973 mt 4012 2973 L
 576 2973 mt  576  256 L
 576 2973 mt  576 3007 L
 576  256 mt  576  221 L
%%IncludeResource: font Helvetica-Bold
/Helvetica-Bold /ISOLatin1Encoding 156 FMSR

 533 3191 mt 
(0) s
 957 2973 mt  957 3007 L
 957  256 mt  957  221 L
 849 3191 mt 
(0.5) s
1148 2973 mt 1148 3007 L
1148  256 mt 1148  221 L
1339 2973 mt 1339 3007 L
1339  256 mt 1339  221 L
1296 3191 mt 
(1) s
1530 2973 mt 1530 3007 L
1530  256 mt 1530  221 L
1721 2973 mt 1721 3007 L
1721  256 mt 1721  221 L
1613 3191 mt 
(1.5) s
2103 2973 mt 2103 3007 L
2103  256 mt 2103  221 L
2060 3191 mt 
(2) s
2485 2973 mt 2485 3007 L
2485  256 mt 2485  221 L
2867 2973 mt 2867 3007 L
2867  256 mt 2867  221 L
2824 3191 mt 
(3) s
3249 2973 mt 3249 3007 L
3249  256 mt 3249  221 L
3631 2973 mt 3631 3007 L
3631  256 mt 3631  221 L
3588 3191 mt 
(4) s
 576 2973 mt  541 2973 L
4013 2973 mt 4047 2973 L
 421 3033 mt 
(0) s
 576 2429 mt  541 2429 L
4013 2429 mt 4047 2429 L
 291 2489 mt 
(0.5) s
 576 1886 mt  541 1886 L
4013 1886 mt 4047 1886 L
 421 1946 mt 
(1) s
 576 1342 mt  541 1342 L
4013 1342 mt 4047 1342 L
 291 1402 mt 
(1.5) s
 576  799 mt  541  799 L
4013  799 mt 4047  799 L
 421  859 mt 
(2) s
 576  256 mt  541  256 L
4013  256 mt 4047  256 L
 576 2973 mt 4012 2973 L
 576  256 mt 4012  256 L
 576 2973 mt  576  256 L
4012 2973 mt 4012  256 L
1 sg
0 642 1169 0 0 -642 2786 958 4 MP
PP
-1169 0 0 642 1169 0 0 -642 2786 958 5 MP stroke
14 w
DO
SO
21 w
0 sg
2786  958 mt 3955  958 L
2786  316 mt 3955  316 L
2786  958 mt 2786  316 L
3955  958 mt 3955  316 L
2786  958 mt 3955  958 L
2786  958 mt 2786  316 L
2786  958 mt 3955  958 L
2786  316 mt 3955  316 L
2786  958 mt 2786  316 L
3955  958 mt 3955  316 L
%%IncludeResource: font Helvetica-Bold
/Helvetica-Bold /ISOLatin1Encoding 120 FMSR

3263  454 mt 
(CCSM3.0) s
gs 2786 316 1170 643 rc
30 w
c11
367 0 2859 410 2 MP stroke
gr

30 w
c11
0 sg
3263  606 mt 
(HadGEM1) s
gs 2786 316 1170 643 rc
c9
367 0 2859 561 2 MP stroke
gr

c9
0 sg
3263  757 mt 
(ERA40) s
gs 2786 316 1170 643 rc
c8
367 0 2859 712 2 MP stroke
gr

c8
0 sg
3263  909 mt 
(NCEP-DOE) s
gs 2786 316 1170 643 rc
c10
367 0 2859 863 2 MP stroke
21 w
gr

21 w
c10

end %%Color Dict

eplot
%%EndObject

epage
end

showpage

%%Trailer
%%EOF
