%!PS-Adobe-3.0 EPSF-3.0
%%Creator: MATLAB, The Mathworks, Inc. Version 7.5.0.338 (R2007b). Operating System: Linux 3.8.4 #1 SMP Thu Mar 21 12:34:11 PDT 2013 x86_64.
%%Title: figs/eps/hist_comp_tm_Var_m_bias_3.eps
%%CreationDate: 07/24/2013  10:58:28
%%DocumentNeededFonts: Helvetica-Bold
%%+ Helvetica
%%DocumentProcessColors: Cyan Magenta Yellow Black
%%LanguageLevel: 2
%%Pages: 1
%%BoundingBox:     0     0   341   288
%%EndComments

%%BeginProlog
% MathWorks dictionary
/MathWorks 160 dict begin
% definition operators
/bdef {bind def} bind def
/ldef {load def} bind def
/xdef {exch def} bdef
/xstore {exch store} bdef
% operator abbreviations
/c  /clip ldef
/cc /concat ldef
/cp /closepath ldef
/gr /grestore ldef
/gs /gsave ldef
/mt /moveto ldef
/np /newpath ldef
/cm /currentmatrix ldef
/sm /setmatrix ldef
/rm /rmoveto ldef
/rl /rlineto ldef
/s {show newpath} bdef
/sc {setcmykcolor} bdef
/sr /setrgbcolor ldef
/sg /setgray ldef
/w /setlinewidth ldef
/j /setlinejoin ldef
/cap /setlinecap ldef
/rc {rectclip} bdef
/rf {rectfill} bdef
% page state control
/pgsv () def
/bpage {/pgsv save def} bdef
/epage {pgsv restore} bdef
/bplot /gsave ldef
/eplot {stroke grestore} bdef
% orientation switch
/portraitMode 0 def /landscapeMode 1 def /rotateMode 2 def
% coordinate system mappings
/dpi2point 0 def
% font control
/FontSize 0 def
/FMS {/FontSize xstore findfont [FontSize 0 0 FontSize neg 0 0]
  makefont setfont} bdef
/reencode {exch dup where {pop load} {pop StandardEncoding} ifelse
  exch dup 3 1 roll findfont dup length dict begin
  { 1 index /FID ne {def}{pop pop} ifelse } forall
  /Encoding exch def currentdict end definefont pop} bdef
/isroman {findfont /CharStrings get /Agrave known} bdef
/FMSR {3 1 roll 1 index dup isroman {reencode} {pop pop} ifelse
  exch FMS} bdef
/csm {1 dpi2point div -1 dpi2point div scale neg translate
 dup landscapeMode eq {pop -90 rotate}
  {rotateMode eq {90 rotate} if} ifelse} bdef
% line types: solid, dotted, dashed, dotdash
/SO { [] 0 setdash } bdef
/DO { [.5 dpi2point mul 4 dpi2point mul] 0 setdash } bdef
/DA { [6 dpi2point mul] 0 setdash } bdef
/DD { [.5 dpi2point mul 4 dpi2point mul 6 dpi2point mul 4
  dpi2point mul] 0 setdash } bdef
% macros for lines and objects
/L {lineto stroke} bdef
/MP {3 1 roll moveto 1 sub {rlineto} repeat} bdef
/AP {{rlineto} repeat} bdef
/PDlw -1 def
/W {/PDlw currentlinewidth def setlinewidth} def
/PP {closepath eofill} bdef
/DP {closepath stroke} bdef
/MR {4 -2 roll moveto dup  0 exch rlineto exch 0 rlineto
  neg 0 exch rlineto closepath} bdef
/FR {MR stroke} bdef
/PR {MR fill} bdef
/L1i {{currentfile picstr readhexstring pop} image} bdef
/tMatrix matrix def
/MakeOval {newpath tMatrix currentmatrix pop translate scale
0 0 1 0 360 arc tMatrix setmatrix} bdef
/FO {MakeOval stroke} bdef
/PO {MakeOval fill} bdef
/PD {currentlinewidth 2 div 0 360 arc fill
   PDlw -1 eq not {PDlw w /PDlw -1 def} if} def
/FA {newpath tMatrix currentmatrix pop translate scale
  0 0 1 5 -2 roll arc tMatrix setmatrix stroke} bdef
/PA {newpath tMatrix currentmatrix pop	translate 0 0 moveto scale
  0 0 1 5 -2 roll arc closepath tMatrix setmatrix fill} bdef
/FAn {newpath tMatrix currentmatrix pop translate scale
  0 0 1 5 -2 roll arcn tMatrix setmatrix stroke} bdef
/PAn {newpath tMatrix currentmatrix pop translate 0 0 moveto scale
  0 0 1 5 -2 roll arcn closepath tMatrix setmatrix fill} bdef
/vradius 0 def /hradius 0 def /lry 0 def
/lrx 0 def /uly 0 def /ulx 0 def /rad 0 def
/MRR {/vradius xdef /hradius xdef /lry xdef /lrx xdef /uly xdef
  /ulx xdef newpath tMatrix currentmatrix pop ulx hradius add uly
  vradius add translate hradius vradius scale 0 0 1 180 270 arc 
  tMatrix setmatrix lrx hradius sub uly vradius add translate
  hradius vradius scale 0 0 1 270 360 arc tMatrix setmatrix
  lrx hradius sub lry vradius sub translate hradius vradius scale
  0 0 1 0 90 arc tMatrix setmatrix ulx hradius add lry vradius sub
  translate hradius vradius scale 0 0 1 90 180 arc tMatrix setmatrix
  closepath} bdef
/FRR {MRR stroke } bdef
/PRR {MRR fill } bdef
/MlrRR {/lry xdef /lrx xdef /uly xdef /ulx xdef /rad lry uly sub 2 div def
  newpath tMatrix currentmatrix pop ulx rad add uly rad add translate
  rad rad scale 0 0 1 90 270 arc tMatrix setmatrix lrx rad sub lry rad
  sub translate rad rad scale 0 0 1 270 90 arc tMatrix setmatrix
  closepath} bdef
/FlrRR {MlrRR stroke } bdef
/PlrRR {MlrRR fill } bdef
/MtbRR {/lry xdef /lrx xdef /uly xdef /ulx xdef /rad lrx ulx sub 2 div def
  newpath tMatrix currentmatrix pop ulx rad add uly rad add translate
  rad rad scale 0 0 1 180 360 arc tMatrix setmatrix lrx rad sub lry rad
  sub translate rad rad scale 0 0 1 0 180 arc tMatrix setmatrix
  closepath} bdef
/FtbRR {MtbRR stroke } bdef
/PtbRR {MtbRR fill } bdef
/stri 6 array def /dtri 6 array def
/smat 6 array def /dmat 6 array def
/tmat1 6 array def /tmat2 6 array def /dif 3 array def
/asub {/ind2 exch def /ind1 exch def dup dup
  ind1 get exch ind2 get sub exch } bdef
/tri_to_matrix {
  2 0 asub 3 1 asub 4 0 asub 5 1 asub
  dup 0 get exch 1 get 7 -1 roll astore } bdef
/compute_transform {
  dmat dtri tri_to_matrix tmat1 invertmatrix 
  smat stri tri_to_matrix tmat2 concatmatrix } bdef
/ds {stri astore pop} bdef
/dt {dtri astore pop} bdef
/db {2 copy /cols xdef /rows xdef mul dup 3 mul string
  currentfile 
  3 index 0 eq {/ASCIIHexDecode filter}
  {/ASCII85Decode filter 3 index 2 eq {/RunLengthDecode filter} if }
  ifelse exch readstring pop
  dup 0 3 index getinterval /rbmap xdef
  dup 2 index dup getinterval /gbmap xdef
  1 index dup 2 mul exch getinterval /bbmap xdef pop pop}bdef
/it {gs np dtri aload pop moveto lineto lineto cp c
  cols rows 8 compute_transform 
  rbmap gbmap bbmap true 3 colorimage gr}bdef
/il {newpath moveto lineto stroke}bdef
currentdict end def
%%EndProlog

%%BeginSetup
MathWorks begin

0 cap

end
%%EndSetup

%%Page: 1 1
%%BeginPageSetup
%%PageBoundingBox:     0     0   341   288
MathWorks begin
bpage
%%EndPageSetup

%%BeginObject: obj1
bplot

/dpi2point 12 def
portraitMode 0000 3408 csm

    0   -48  4103  3457 rc
90 dict begin %Colortable dictionary
/c0 { 0.000000 0.000000 0.000000 sr} bdef
/c1 { 1.000000 1.000000 1.000000 sr} bdef
/c2 { 0.900000 0.000000 0.000000 sr} bdef
/c3 { 0.000000 0.820000 0.000000 sr} bdef
/c4 { 0.000000 0.000000 0.800000 sr} bdef
/c5 { 0.910000 0.820000 0.320000 sr} bdef
/c6 { 1.000000 0.260000 0.820000 sr} bdef
/c7 { 0.000000 0.820000 0.820000 sr} bdef
c0
1 j
21 w
1 sg
0 2717 3436 0 0 -2717 576 2973 4 MP
PP
-3436 0 0 2717 3436 0 0 -2717 576 2973 5 MP stroke
gs 576 256 3438 2718 rc
DA
15.6 w
0.4 sg
0 -2717 957 2973 2 MP stroke
0 -2717 1339 2973 2 MP stroke
0 -2717 1721 2973 2 MP stroke
SO
30 w
/c8 { 0.580000 0.000000 0.830000 sr} bdef
c8
2 1 19 -16 19 0 19 0 19 0 19 0 19 0 19 0 
19 0 19 0 19 0 20 0 19 0 19 0 19 0 19 0 
19 0 19 0 19 0 19 0 19 0 19 16 20 -16 19 0 
19 0 19 0 19 0 19 31 19 0 19 -31 19 0 19 0 
20 16 19 0 19 -16 19 0 19 0 19 0 19 16 19 -16 
19 0 19 0 19 0 20 0 19 0 19 0 19 0 19 0 
19 0 19 0 19 16 19 -16 19 16 20 -16 19 0 19 0 
19 0 19 46 19 -46 19 0 19 16 19 -16 19 16 19 -16 
20 16 19 0 19 0 19 0 19 -16 19 0 19 0 19 0 
19 0 19 0 19 0 20 0 19 0 19 0 19 0 19 0 
19 0 19 0 19 16 19 15 19 -31 20 0 19 46 19 -15 
19 -31 19 0 19 0 19 0 19 31 19 -31 19 0 19 0 
20 31 19 -31 19 0 19 0 19 0 19 0 19 16 19 15 
19 0 19 -31 20 0 19 0 19 16 19 -16 19 16 19 -16 
19 16 19 -16 19 0 19 16 19 -16 20 0 19 0 19 0 
19 16 19 0 19 -16 19 0 19 16 19 -16 19 0 19 31 
20 -15 19 0 19 -16 19 0 19 46 19 16 19 -16 19 16 
19 0 19 -46 20 46 19 106 19 31 19 122 19 76 19 245 
19 274 19 184 19 534 19 -428 19 443 20 137 19 275 19 -473 
19 534 19 15 19 -259 19 -397 19 214 19 -336 19 137 20 -91 
19 -290 19 -199 19 107 19 -427 19 122 19 -137 19 45 19 -137 
19 -61 19 -168 20 92 19 -61 19 -16 19 61 19 -198 19 61 
19 46 19 107 19 -138 19 46 19 443 576 2270 182 MP stroke
/c9 { 0.000000 0.000000 0.500000 sr} bdef
c9
2 -1 19 6 19 -6 19 6 19 -6 19 6 19 -6 19 0 
19 0 19 6 19 0 20 -6 19 6 19 0 19 -6 19 12 
19 -12 19 0 19 0 19 12 19 -6 19 -6 20 0 19 0 
19 0 19 6 19 0 19 11 19 -11 19 0 19 0 19 0 
20 0 19 6 19 -6 19 -6 19 0 19 6 19 0 19 0 
19 -6 19 17 19 -5 20 -6 19 -6 19 0 19 6 19 0 
19 -6 19 6 19 -6 19 0 19 6 20 -6 19 0 19 6 
19 6 19 -12 19 0 19 12 19 0 19 -12 19 0 19 0 
20 0 19 0 19 6 19 6 19 5 19 0 19 -17 19 17 
19 -5 19 -6 19 -6 20 6 19 6 19 -6 19 23 19 -17 
19 -12 19 6 19 -6 19 0 19 17 20 -5 19 -6 19 6 
19 0 19 5 19 0 19 -17 19 12 19 -6 19 17 19 6 
20 -12 19 0 19 -5 19 0 19 5 19 -5 19 -6 19 17 
19 0 19 -17 20 0 19 0 19 28 19 -17 19 -5 19 5 
19 -17 19 12 19 -6 19 23 19 0 20 11 19 -11 19 -29 
19 17 19 17 19 -11 19 23 19 -12 19 0 19 17 19 -39 
20 17 19 -12 19 12 19 17 19 11 19 -6 19 0 19 23 
19 28 19 11 20 23 19 -6 19 293 19 17 19 175 19 197 
19 135 19 231 19 -186 19 293 19 6 20 45 19 -23 19 248 
19 -5 19 -40 19 73 19 29 19 -130 19 68 19 -327 20 -6 
19 -73 19 -85 19 -107 19 -45 19 181 19 -158 19 -186 19 -79 
19 -141 19 -56 20 -90 19 -62 19 -45 19 -17 19 -62 19 -28 
19 -23 19 28 19 6 19 124 19 1791 576 877 182 MP stroke
/c10 { 0.000000 0.400000 0.000000 sr} bdef
c10
2 2 19 -50 19 0 19 0 19 0 19 -11 19 0 19 0 
19 0 19 21 19 -21 20 11 19 10 19 30 19 -40 19 0 
19 0 19 0 19 -11 19 41 19 -41 19 0 20 21 19 -21 
19 41 19 -30 19 0 19 0 19 0 19 0 19 -11 19 21 
20 -10 19 20 19 -31 19 11 19 10 19 -10 19 30 19 -20 
19 -10 19 10 19 0 20 0 19 -21 19 0 19 21 19 0 
19 0 19 -10 19 10 19 10 19 40 20 -50 19 -10 19 0 
19 10 19 0 19 -10 19 30 19 -10 19 -31 19 21 19 -10 
20 30 19 -41 19 0 19 31 19 -31 19 41 19 -10 19 -20 
19 0 19 10 19 0 20 20 19 0 19 -30 19 50 19 -50 
19 20 19 -10 19 -10 19 0 19 10 20 10 19 -31 19 11 
19 50 19 -30 19 10 19 -20 19 20 19 -10 19 30 19 0 
20 -61 19 31 19 10 19 10 19 0 19 -40 19 50 19 -30 
19 60 19 -50 20 -20 19 10 19 30 19 -10 19 -20 19 40 
19 -10 19 0 19 10 19 20 19 30 20 -80 19 60 19 -70 
19 80 19 -90 19 100 19 -70 19 -10 19 70 19 -10 19 -30 
20 20 19 60 19 -50 19 -80 19 60 19 110 19 -80 19 10 
19 -30 19 130 20 -140 19 60 19 60 19 20 19 101 19 -31 
19 101 19 190 19 10 19 251 19 201 20 401 19 -120 19 351 
19 70 19 -140 19 110 19 201 19 -261 19 -391 19 351 20 -251 
19 -60 19 -361 19 30 19 -61 19 -321 19 121 19 -151 19 -150 
19 -50 19 10 20 0 19 -151 19 0 19 -60 19 -10 19 10 
19 0 19 -30 19 40 19 -30 19 562 576 2270 182 MP stroke
/c11 { 0.700000 0.000000 0.000000 sr} bdef
c11
2 0 19 -15 19 15 19 -15 19 0 19 5 19 -5 19 0 
19 0 19 10 19 -10 20 5 19 0 19 5 19 -10 19 5 
19 0 19 -5 19 0 19 10 19 0 19 -10 20 5 19 -5 
19 5 19 -5 19 15 19 -15 19 0 19 5 19 0 19 15 
20 0 19 -15 19 15 19 -20 19 5 19 0 19 0 19 10 
19 -10 19 15 19 -20 20 10 19 -10 19 20 19 -10 19 -5 
19 0 19 5 19 -5 19 5 19 -5 20 -5 19 10 19 0 
19 -5 19 10 19 -5 19 -5 19 0 19 0 19 5 19 -5 
20 0 19 0 19 5 19 10 19 0 19 -10 19 -5 19 0 
19 15 19 -10 19 5 20 0 19 -5 19 -5 19 15 19 -15 
19 5 19 0 19 15 19 -25 19 20 20 -10 19 0 19 10 
19 -20 19 15 19 0 19 0 19 -5 19 5 19 0 19 10 
20 10 19 5 19 -15 19 -15 19 25 19 -15 19 -10 19 5 
19 25 19 -15 20 -5 19 24 19 10 19 -34 19 5 19 5 
19 5 19 14 19 0 19 -39 19 69 20 -15 19 -34 19 29 
19 -10 19 44 19 -29 19 24 19 -14 19 0 19 44 19 -10 
20 10 19 58 19 5 19 34 19 98 19 -78 19 200 19 102 
19 181 19 165 20 269 19 249 19 244 19 53 19 166 19 -224 
19 -195 19 -30 19 -336 19 83 19 -64 20 -19 19 9 19 -156 
19 117 19 -34 19 15 19 -93 19 -102 19 -10 19 -83 20 -88 
19 0 19 -185 19 141 19 -24 19 -88 19 39 19 -117 19 -49 
19 -19 19 -5 20 -68 19 0 19 -49 19 -54 19 5 19 0 
19 -29 19 -25 19 5 19 -34 19 571 576 2304 182 MP stroke
gr

30 w
c11
0 sg
%%IncludeResource: font Helvetica-Bold
/Helvetica-Bold /ISOLatin1Encoding 168 FMSR

 720 3369 mt 
(Var\(m\) ratio, toy model over dataset  [-]) s
  13  158 mt 
(Probability) s
%%IncludeResource: font Helvetica
/Helvetica /ISOLatin1Encoding 120 FMSR

 559 3016 mt 
( ) s
3997  298 mt 
( ) s
14 w
DO
SO
21 w
 576 2973 mt 4012 2973 L
 576  256 mt 4012  256 L
 576 2973 mt  576  256 L
4012 2973 mt 4012  256 L
 576 2973 mt 4012 2973 L
 576 2973 mt  576  256 L
 576 2973 mt  576 3007 L
 576  256 mt  576  221 L
%%IncludeResource: font Helvetica-Bold
/Helvetica-Bold /ISOLatin1Encoding 156 FMSR

 533 3191 mt 
(0) s
 957 2973 mt  957 3007 L
 957  256 mt  957  221 L
 849 3191 mt 
(0.5) s
1148 2973 mt 1148 3007 L
1148  256 mt 1148  221 L
1339 2973 mt 1339 3007 L
1339  256 mt 1339  221 L
1296 3191 mt 
(1) s
1530 2973 mt 1530 3007 L
1530  256 mt 1530  221 L
1721 2973 mt 1721 3007 L
1721  256 mt 1721  221 L
1613 3191 mt 
(1.5) s
2103 2973 mt 2103 3007 L
2103  256 mt 2103  221 L
2060 3191 mt 
(2) s
2485 2973 mt 2485 3007 L
2485  256 mt 2485  221 L
2867 2973 mt 2867 3007 L
2867  256 mt 2867  221 L
2824 3191 mt 
(3) s
3249 2973 mt 3249 3007 L
3249  256 mt 3249  221 L
3631 2973 mt 3631 3007 L
3631  256 mt 3631  221 L
3588 3191 mt 
(4) s
 576 2973 mt  541 2973 L
4013 2973 mt 4047 2973 L
 421 3033 mt 
(0) s
 576 2469 mt  541 2469 L
4013 2469 mt 4047 2469 L
 291 2529 mt 
(0.5) s
 576 1966 mt  541 1966 L
4013 1966 mt 4047 1966 L
 421 2026 mt 
(1) s
 576 1463 mt  541 1463 L
4013 1463 mt 4047 1463 L
 291 1523 mt 
(1.5) s
 576  960 mt  541  960 L
4013  960 mt 4047  960 L
 421 1020 mt 
(2) s
 576  457 mt  541  457 L
4013  457 mt 4047  457 L
 576 2973 mt 4012 2973 L
 576  256 mt 4012  256 L
 576 2973 mt  576  256 L
4012 2973 mt 4012  256 L
1 sg
0 642 1169 0 0 -642 2785 959 4 MP
PP
-1169 0 0 642 1169 0 0 -642 2785 959 5 MP stroke
14 w
DO
SO
21 w
0 sg
2785  959 mt 3954  959 L
2785  317 mt 3954  317 L
2785  959 mt 2785  317 L
3954  959 mt 3954  317 L
2785  959 mt 3954  959 L
2785  959 mt 2785  317 L
2785  959 mt 3954  959 L
2785  317 mt 3954  317 L
2785  959 mt 2785  317 L
3954  959 mt 3954  317 L
%%IncludeResource: font Helvetica-Bold
/Helvetica-Bold /ISOLatin1Encoding 120 FMSR

3262  455 mt 
(CCSM3.0) s
gs 2785 317 1170 643 rc
30 w
c11
367 0 2858 411 2 MP stroke
gr

30 w
c11
0 sg
3262  607 mt 
(HadGEM1) s
gs 2785 317 1170 643 rc
c9
367 0 2858 562 2 MP stroke
gr

c9
0 sg
3262  758 mt 
(ERA40) s
gs 2785 317 1170 643 rc
c8
367 0 2858 713 2 MP stroke
gr

c8
0 sg
3262  910 mt 
(NCEP-DOE) s
gs 2785 317 1170 643 rc
c10
367 0 2858 864 2 MP stroke
21 w
gr

21 w
c10

end %%Color Dict

eplot
%%EndObject

epage
end

showpage

%%Trailer
%%EOF
