%!PS-Adobe-3.0 EPSF-3.0
%%Creator: MATLAB, The Mathworks, Inc. Version 7.5.0.338 (R2007b). Operating System: Linux 3.8.4 #1 SMP Thu Mar 21 12:34:11 PDT 2013 x86_64.
%%Title: figs/eps/obs_Pbar.eps
%%CreationDate: 07/10/2013  13:38:29
%%DocumentNeededFonts: Helvetica
%%+ Helvetica-Bold
%%DocumentProcessColors: Cyan Magenta Yellow Black
%%LanguageLevel: 2
%%Pages: 1
%%BoundingBox:     2    29   557   258
%%EndComments

%%BeginProlog
% MathWorks dictionary
/MathWorks 160 dict begin
% definition operators
/bdef {bind def} bind def
/ldef {load def} bind def
/xdef {exch def} bdef
/xstore {exch store} bdef
% operator abbreviations
/c  /clip ldef
/cc /concat ldef
/cp /closepath ldef
/gr /grestore ldef
/gs /gsave ldef
/mt /moveto ldef
/np /newpath ldef
/cm /currentmatrix ldef
/sm /setmatrix ldef
/rm /rmoveto ldef
/rl /rlineto ldef
/s {show newpath} bdef
/sc {setcmykcolor} bdef
/sr /setrgbcolor ldef
/sg /setgray ldef
/w /setlinewidth ldef
/j /setlinejoin ldef
/cap /setlinecap ldef
/rc {rectclip} bdef
/rf {rectfill} bdef
% page state control
/pgsv () def
/bpage {/pgsv save def} bdef
/epage {pgsv restore} bdef
/bplot /gsave ldef
/eplot {stroke grestore} bdef
% orientation switch
/portraitMode 0 def /landscapeMode 1 def /rotateMode 2 def
% coordinate system mappings
/dpi2point 0 def
% font control
/FontSize 0 def
/FMS {/FontSize xstore findfont [FontSize 0 0 FontSize neg 0 0]
  makefont setfont} bdef
/reencode {exch dup where {pop load} {pop StandardEncoding} ifelse
  exch dup 3 1 roll findfont dup length dict begin
  { 1 index /FID ne {def}{pop pop} ifelse } forall
  /Encoding exch def currentdict end definefont pop} bdef
/isroman {findfont /CharStrings get /Agrave known} bdef
/FMSR {3 1 roll 1 index dup isroman {reencode} {pop pop} ifelse
  exch FMS} bdef
/csm {1 dpi2point div -1 dpi2point div scale neg translate
 dup landscapeMode eq {pop -90 rotate}
  {rotateMode eq {90 rotate} if} ifelse} bdef
% line types: solid, dotted, dashed, dotdash
/SO { [] 0 setdash } bdef
/DO { [.5 dpi2point mul 4 dpi2point mul] 0 setdash } bdef
/DA { [6 dpi2point mul] 0 setdash } bdef
/DD { [.5 dpi2point mul 4 dpi2point mul 6 dpi2point mul 4
  dpi2point mul] 0 setdash } bdef
% macros for lines and objects
/L {lineto stroke} bdef
/MP {3 1 roll moveto 1 sub {rlineto} repeat} bdef
/AP {{rlineto} repeat} bdef
/PDlw -1 def
/W {/PDlw currentlinewidth def setlinewidth} def
/PP {closepath eofill} bdef
/DP {closepath stroke} bdef
/MR {4 -2 roll moveto dup  0 exch rlineto exch 0 rlineto
  neg 0 exch rlineto closepath} bdef
/FR {MR stroke} bdef
/PR {MR fill} bdef
/L1i {{currentfile picstr readhexstring pop} image} bdef
/tMatrix matrix def
/MakeOval {newpath tMatrix currentmatrix pop translate scale
0 0 1 0 360 arc tMatrix setmatrix} bdef
/FO {MakeOval stroke} bdef
/PO {MakeOval fill} bdef
/PD {currentlinewidth 2 div 0 360 arc fill
   PDlw -1 eq not {PDlw w /PDlw -1 def} if} def
/FA {newpath tMatrix currentmatrix pop translate scale
  0 0 1 5 -2 roll arc tMatrix setmatrix stroke} bdef
/PA {newpath tMatrix currentmatrix pop	translate 0 0 moveto scale
  0 0 1 5 -2 roll arc closepath tMatrix setmatrix fill} bdef
/FAn {newpath tMatrix currentmatrix pop translate scale
  0 0 1 5 -2 roll arcn tMatrix setmatrix stroke} bdef
/PAn {newpath tMatrix currentmatrix pop translate 0 0 moveto scale
  0 0 1 5 -2 roll arcn closepath tMatrix setmatrix fill} bdef
/vradius 0 def /hradius 0 def /lry 0 def
/lrx 0 def /uly 0 def /ulx 0 def /rad 0 def
/MRR {/vradius xdef /hradius xdef /lry xdef /lrx xdef /uly xdef
  /ulx xdef newpath tMatrix currentmatrix pop ulx hradius add uly
  vradius add translate hradius vradius scale 0 0 1 180 270 arc 
  tMatrix setmatrix lrx hradius sub uly vradius add translate
  hradius vradius scale 0 0 1 270 360 arc tMatrix setmatrix
  lrx hradius sub lry vradius sub translate hradius vradius scale
  0 0 1 0 90 arc tMatrix setmatrix ulx hradius add lry vradius sub
  translate hradius vradius scale 0 0 1 90 180 arc tMatrix setmatrix
  closepath} bdef
/FRR {MRR stroke } bdef
/PRR {MRR fill } bdef
/MlrRR {/lry xdef /lrx xdef /uly xdef /ulx xdef /rad lry uly sub 2 div def
  newpath tMatrix currentmatrix pop ulx rad add uly rad add translate
  rad rad scale 0 0 1 90 270 arc tMatrix setmatrix lrx rad sub lry rad
  sub translate rad rad scale 0 0 1 270 90 arc tMatrix setmatrix
  closepath} bdef
/FlrRR {MlrRR stroke } bdef
/PlrRR {MlrRR fill } bdef
/MtbRR {/lry xdef /lrx xdef /uly xdef /ulx xdef /rad lrx ulx sub 2 div def
  newpath tMatrix currentmatrix pop ulx rad add uly rad add translate
  rad rad scale 0 0 1 180 360 arc tMatrix setmatrix lrx rad sub lry rad
  sub translate rad rad scale 0 0 1 0 180 arc tMatrix setmatrix
  closepath} bdef
/FtbRR {MtbRR stroke } bdef
/PtbRR {MtbRR fill } bdef
/stri 6 array def /dtri 6 array def
/smat 6 array def /dmat 6 array def
/tmat1 6 array def /tmat2 6 array def /dif 3 array def
/asub {/ind2 exch def /ind1 exch def dup dup
  ind1 get exch ind2 get sub exch } bdef
/tri_to_matrix {
  2 0 asub 3 1 asub 4 0 asub 5 1 asub
  dup 0 get exch 1 get 7 -1 roll astore } bdef
/compute_transform {
  dmat dtri tri_to_matrix tmat1 invertmatrix 
  smat stri tri_to_matrix tmat2 concatmatrix } bdef
/ds {stri astore pop} bdef
/dt {dtri astore pop} bdef
/db {2 copy /cols xdef /rows xdef mul dup 3 mul string
  currentfile 
  3 index 0 eq {/ASCIIHexDecode filter}
  {/ASCII85Decode filter 3 index 2 eq {/RunLengthDecode filter} if }
  ifelse exch readstring pop
  dup 0 3 index getinterval /rbmap xdef
  dup 2 index dup getinterval /gbmap xdef
  1 index dup 2 mul exch getinterval /bbmap xdef pop pop}bdef
/it {gs np dtri aload pop moveto lineto lineto cp c
  cols rows 8 compute_transform 
  rbmap gbmap bbmap true 3 colorimage gr}bdef
/il {newpath moveto lineto stroke}bdef
currentdict end def
%%EndProlog

%%BeginSetup
MathWorks begin

0 cap

end
%%EndSetup

%%Page: 1 1
%%BeginPageSetup
%%PageBoundingBox:     2    29   557   258
MathWorks begin
bpage
%%EndPageSetup

%%BeginObject: obj1
bplot

/dpi2point 12 def
portraitMode 0000 3408 csm

   26   310  6662  2744 rc
28 dict begin %Colortable dictionary
/c0 { 0.000000 0.000000 0.000000 sr} bdef
/c1 { 1.000000 1.000000 1.000000 sr} bdef
/c2 { 0.900000 0.000000 0.000000 sr} bdef
/c3 { 0.000000 0.820000 0.000000 sr} bdef
/c4 { 0.000000 0.000000 0.800000 sr} bdef
/c5 { 0.910000 0.820000 0.320000 sr} bdef
/c6 { 1.000000 0.260000 0.820000 sr} bdef
/c7 { 0.000000 0.820000 0.820000 sr} bdef
c0
1 j
6 w
gs 68 452 5449 2437 rc
1 sg
0 2436 0 0 -5448 0 0 0 0 -2436 0 0 5448 0 68 2888 
8 MP
PP
gr

1 sg
33 w
0 sg
0 2436 -5448 0 0 -2436 5448 0 68 2888 5 MP stroke
gs 68 452 5449 2437 rc
/c8 { 0.891400 0.902775 0.688950 sr} bdef
c8
-38 0 0 0 0 0 38 39 -38 38 0 0 0 39 -38 39 
0 0 -38 40 -38 0 0 0 -38 39 -38 -39 0 0 -38 -40 
0 0 -38 -39 0 0 -38 -39 0 -38 0 -39 0 0 0 0 
0 39 -39 38 -38 -38 0 0 -38 0 0 0 -38 38 0 0 
0 39 0 39 0 40 -38 39 -38 0 0 0 -38 41 0 0 
-38 40 0 0 0 42 0 42 0 43 0 43 -38 45 -38 0 
-39 -45 0 -43 0 0 0 0 0 43 0 45 -38 45 -38 0 
0 0 -38 47 -38 0 0 0 0 47 -38 49 -38 0 0 0 
0 51 0 0 38 0 38 0 38 52 -38 54 -38 0 0 0 
-38 56 -38 0 -38 0 -38 0 -39 0 -38 -56 0 -54 0 -52 
0 0 -38 0 0 0 -38 52 0 0 -38 54 0 0 -38 56 
-38 0 -38 0 -38 0 0 0 -38 58 -39 0 0 0 0 60 
0 64 0 66 0 0 5516 659 100 MP
-38 -38 0 0 -38 0 0 0 -38 38 -38 -38 0 0 0 0 
-39 38 -38 0 -38 -38 0 0 -38 0 -38 -38 0 -38 0 -38 
0 0 -38 -39 0 -38 0 -38 0 -39 0 -39 0 -39 0 -39 
0 0 -38 -40 0 -40 0 -41 0 0 -38 -41 0 0 -38 -43 
0 -42 0 0 0 0 -38 42 -39 0 -38 0 0 0 -38 43 
0 0 -38 41 0 0 -38 41 0 0 0 40 0 40 -38 39 
0 0 -38 39 0 0 0 39 0 39 0 38 0 38 0 39 
-38 38 0 0 -38 38 0 0 -38 38 0 0 -39 38 0 0 
0 39 0 0 39 0 38 0 38 38 -38 39 -38 0 -39 0 
0 0 -38 39 -38 0 0 0 -38 40 0 0 0 39 0 0 
38 41 -38 40 -38 0 -38 -40 0 0 0 0 -38 40 -38 -40 
0 0 -38 -41 0 0 -38 -39 0 -40 0 0 -38 -39 0 -39 
0 0 -39 -38 0 -39 0 0 100 AP
38 0 38 0 38 0 0 0 38 -74 38 0 0 0 38 -70 
38 0 39 0 38 70 0 0 38 0 38 0 0 0 38 -70 
38 0 38 0 0 0 38 -66 38 0 38 0 38 0 39 0 
38 0 0 0 38 -64 38 64 0 0 38 0 38 66 0 0 
38 0 38 0 38 0 38 0 39 0 38 0 38 0 0 0 
38 -66 0 0 38 -64 38 0 0 0 38 -60 38 0 0 0 
0 -58 0 0 -38 -56 0 -54 38 -52 0 0 38 -51 38 51 
0 0 39 52 0 54 0 0 38 0 0 0 38 -54 38 0 
0 0 0 -52 0 0 -38 0 -38 0 -38 -51 0 -49 0 0 
-39 -47 39 -47 38 0 38 0 0 0 0 -45 0 -45 0 0 
-38 -43 38 -43 0 0 38 -42 0 0 38 -42 0 0 38 -40 
0 0 0 -41 0 -39 0 -40 38 -39 0 0 0 0 -38 -39 
0 -38 0 0 -38 -39 0 0 100 AP
39 0 38 0 38 0 38 0 38 0 38 0 38 0 38 0 
38 0 38 0 39 0 38 0 38 70 0 74 0 0 38 0 
38 0 38 0 0 0 0 0 -38 -74 38 -70 38 0 38 0 
38 0 38 70 0 0 39 0 38 0 38 0 38 0 38 74 
0 0 38 0 38 0 38 0 38 0 38 0 39 0 38 0 
38 0 41 AP
PP
/c9 { 0.616950 0.827750 0.698550 sr} bdef
c9
0 0 -38 0 0 0 0 0 38 39 -38 38 0 0 0 39 
-38 39 0 0 -38 40 -38 0 0 0 -38 39 -38 -39 0 0 
-38 -40 0 0 -38 -39 0 0 -38 -39 0 -38 0 -39 0 0 
0 0 0 39 -39 38 -38 -38 0 0 -38 0 0 0 -38 38 
0 0 0 39 0 39 0 40 -38 39 -38 0 0 0 -38 41 
0 0 -38 40 0 0 0 42 0 42 0 43 0 43 -38 45 
-38 0 -39 -45 0 -43 0 0 0 0 0 43 0 45 -38 45 
-38 0 0 0 -38 47 -38 0 0 0 0 47 -38 49 -38 0 
0 0 0 51 0 0 38 0 38 0 38 52 -38 54 -38 0 
0 0 -38 56 -38 0 -38 0 -38 0 -39 0 -38 -56 0 -54 
0 -52 0 0 -38 0 0 0 -38 52 0 0 -38 54 0 0 
-38 56 -38 0 -38 0 -38 0 0 0 -38 58 -39 0 0 0 
0 60 0 64 0 33 5516 692 100 MP
-38 45 0 0 -38 47 -38 0 -38 -47 0 0 -38 0 -38 -23 
-38 23 -38 -23 -38 0 -39 0 -38 0 0 23 -38 47 -38 0 
-38 0 -38 0 -38 -47 19 -45 -19 -23 -38 0 -38 0 -38 0 
0 23 0 45 0 23 19 24 0 47 -19 25 -19 24 -20 26 
-38 0 -38 0 -38 0 -38 0 -38 0 -38 0 -38 0 -38 0 
-38 0 -19 -26 -19 -24 -20 24 -19 26 -19 -26 -19 -24 -38 0 
-38 0 -38 0 -38 0 -38 0 -19 -25 -19 -24 -38 0 -19 -23 
-19 -24 -39 0 -19 24 -19 23 -19 -23 0 -47 0 -45 19 -23 
38 12 39 0 38 -12 19 -22 19 -22 38 0 38 0 38 0 
19 -21 19 -11 38 -11 38 0 38 17 19 5 20 21 38 11 
28 -32 10 -22 19 -21 0 -42 -19 -21 -10 -21 10 -10 38 -10 
0 -20 0 0 -38 -41 0 0 -38 -39 0 -40 0 0 -38 -39 
0 -39 0 0 -39 -38 0 -39 100 AP
0 0 20 0 19 -35 19 35 19 0 19 0 19 -35 38 0 
38 0 38 0 38 0 38 0 19 35 19 37 38 0 39 0 
38 0 38 0 38 0 38 0 38 0 38 -37 38 0 0 0 
38 -70 38 0 39 0 38 35 19 -35 19 -33 38 0 38 0 
19 33 19 0 38 0 0 0 38 -66 38 0 38 0 38 0 
39 0 38 0 0 0 38 -64 38 64 0 0 38 0 38 66 
0 0 38 0 38 0 38 0 38 0 39 0 38 0 38 0 
0 0 38 -66 0 0 38 -64 38 0 0 0 38 -60 38 0 
0 0 0 -58 0 0 -38 -56 0 -54 38 -52 0 0 38 -51 
38 51 0 0 39 52 0 54 0 0 38 0 0 0 38 -54 
38 0 0 0 0 -52 0 0 -38 0 -38 0 -38 -51 0 -49 
0 0 -39 -47 39 -47 38 0 38 0 0 0 0 -23 -38 0 
-38 0 -20 -22 -19 0 0 0 100 AP
20 -33 19 -32 38 0 19 32 0 66 19 0 38 0 19 0 
19 -33 19 -33 19 -32 38 0 19 32 19 33 38 0 38 0 
39 0 19 33 19 0 38 35 38 0 38 0 38 -35 38 0 
38 0 38 0 38 70 27 AP
PP
c8
-38 0 0 0 0 0 38 42 -38 42 0 0 -39 43 0 0 
0 43 -38 45 0 0 -38 45 0 0 -38 47 -38 0 -38 0 
-38 0 0 0 0 0 38 47 -38 49 -38 0 -38 -49 0 0 
-38 0 0 0 0 0 38 49 0 51 0 52 0 0 38 0 
38 54 0 0 38 0 38 0 38 56 -38 58 -38 0 0 0 
-38 60 0 0 0 64 0 0 38 0 38 66 0 0 38 0 
38 0 38 0 38 70 0 0 39 74 0 0 38 0 38 0 
38 0 38 0 38 0 38 0 38 0 38 0 38 0 0 0 
0 -74 39 -70 38 70 0 74 0 0 38 0 38 0 38 0 
38 0 0 0 38 -74 38 0 38 0 0 0 38 -70 39 0 
38 0 38 0 38 0 38 0 38 0 38 0 38 0 38 0 
38 0 39 0 38 0 38 0 38 0 38 0 0 0 0 0 
-38 -66 38 -64 38 0 258 789 100 MP
0 0 0 -44 0 -46 0 -46 0 -48 38 -49 0 0 0 -50 
0 0 -38 0 -38 -53 0 0 -38 0 0 0 0 53 0 50 
-38 49 0 0 0 48 0 46 -38 46 0 0 -38 44 -38 0 
0 0 -38 44 0 0 -38 42 0 0 -39 43 0 0 0 41 
-38 41 0 0 -38 40 -38 0 0 0 -38 40 0 0 0 39 
0 39 -38 39 0 0 -38 39 0 0 0 38 0 0 38 38 
0 0 38 0 38 39 0 0 38 0 38 0 38 38 0 38 
0 0 39 38 0 0 38 0 38 0 38 38 0 0 38 39 
0 0 38 0 38 0 38 0 38 38 0 0 0 0 38 -38 
0 0 38 -39 39 0 38 39 0 0 38 38 0 39 0 0 
38 0 38 39 -38 40 0 0 0 0 38 0 0 0 38 -40 
38 0 38 40 0 39 0 41 0 40 -38 42 -38 0 -38 0 
-38 0 -38 0 -38 -42 0 0 100 AP
0 0 0 0 -38 -60 0 -58 0 0 -38 0 -38 -56 0 0 
-38 0 -38 0 -39 0 0 0 -38 56 -38 0 -38 0 -38 0 
-38 0 -38 0 -38 -56 0 0 -38 -54 0 0 -38 -52 0 0 
-39 -51 0 0 -38 0 -38 -49 38 -47 0 0 0 -47 0 0 
-38 -45 0 0 -38 -45 0 -43 0 0 -38 0 -38 -43 0 -42 
0 -42 0 0 -38 0 -38 -40 0 0 -38 0 -38 -41 0 -39 
0 0 -39 -40 0 0 -38 0 -38 0 -38 0 -38 -39 0 0 
-38 0 -38 -39 0 0 -38 -38 0 0 -38 -39 0 0 -38 0 
-39 -38 0 -38 39 -38 0 0 0 -38 0 -39 0 0 -39 -38 
0 -38 0 -39 0 0 -38 -39 0 0 -38 0 -38 -39 0 -39 
0 -40 0 -40 0 -41 0 -41 0 -43 0 -42 38 -44 87 AP
PP
c9
0 0 38 47 -38 49 -38 0 -38 -49 0 0 -38 0 0 0 
0 0 38 49 0 51 0 52 0 0 38 0 38 54 0 0 
38 0 38 0 38 56 -38 58 -38 0 0 0 -38 60 0 0 
0 64 0 0 38 0 38 33 38 0 38 0 38 0 0 -33 
38 -64 0 0 0 -60 0 -58 0 -56 39 -54 38 0 38 0 
38 0 38 54 0 0 38 0 38 56 -38 58 0 0 -38 60 
-38 0 -38 0 -38 0 0 0 0 64 0 33 38 0 38 -33 
38 33 19 -33 19 -32 38 0 38 0 19 -32 19 -30 38 0 
39 0 19 30 19 32 38 0 19 32 19 33 19 -33 19 -32 
38 0 38 0 38 0 19 32 19 33 38 0 39 0 38 0 
38 0 19 33 19 0 19 0 19 -33 38 0 19 -33 19 -32 
38 0 19 32 19 33 38 0 39 0 38 0 38 0 38 0 
0 -33 38 -64 38 0 258 789 100 MP
-19 -22 -19 -23 -38 23 0 0 -38 44 -38 0 0 0 -38 44 
0 0 -38 42 0 0 -39 43 0 0 0 41 -38 41 0 0 
-38 40 -38 0 0 0 -38 40 0 0 0 39 0 39 -38 39 
0 0 -38 39 0 0 0 38 0 0 38 38 0 0 38 0 
38 39 0 0 38 0 38 0 38 38 0 38 0 0 39 38 
0 0 38 0 38 0 38 38 0 0 38 39 0 0 38 0 
38 0 38 0 38 38 0 0 0 0 38 -38 0 0 38 -39 
39 0 38 39 0 0 38 38 0 39 0 0 38 0 38 39 
-38 40 0 0 0 0 38 0 0 0 38 -40 38 0 38 40 
0 39 0 41 0 40 -38 42 -38 0 -38 0 -38 0 -38 0 
-38 -42 0 0 -38 0 0 0 0 0 38 42 -38 42 0 0 
-39 43 0 0 0 43 -38 45 0 0 -38 45 0 0 -38 47 
-38 0 -38 0 -38 0 0 0 100 AP
0 0 -38 -60 0 -58 0 0 -38 0 -38 -56 0 0 -38 0 
-38 0 -39 0 0 0 -38 56 -38 0 -38 0 -38 0 -38 0 
-38 0 -38 -56 0 0 -38 -54 0 0 -38 -52 0 0 -39 -51 
0 0 -38 0 -38 -49 38 -47 0 0 0 -24 -38 0 -19 24 
0 47 -19 25 -38 0 -19 -25 -19 -24 -19 -23 -19 -24 -38 0 
-38 0 -19 -23 19 -23 19 -22 0 -45 19 -22 38 0 19 -21 
-19 -22 -19 -21 19 -21 19 -21 -19 -21 -10 -21 -28 -40 0 0 
-38 0 -38 -41 0 -39 0 0 -39 -40 0 0 -38 0 -38 0 
-38 0 -38 -39 0 0 -38 0 -38 -39 0 0 -38 -38 0 0 
-38 -39 0 0 -38 0 -39 -38 0 -38 39 -38 0 0 0 -38 
0 -39 0 0 -39 -38 0 -38 0 -39 0 0 -38 -39 0 0 
-38 0 -38 -39 0 -29 -19 -10 0 -40 10 -40 -10 -41 0 -41 
0 -43 0 -42 0 -44 -19 -22 100 AP
0 0 1 AP
PP
/c10 { 0.577475 0.653925 0.600525 sr} bdef
c10
0 0 38 38 0 39 0 0 38 0 38 39 -38 40 0 0 
0 0 38 0 0 0 38 -40 38 0 38 40 0 39 0 41 
0 40 -38 42 -38 0 -38 0 -38 0 -38 0 -38 -42 0 0 
-38 0 0 0 0 0 38 42 -38 42 0 0 -39 43 0 0 
0 43 -38 45 0 0 -38 45 0 0 -38 47 -38 0 -38 0 
-38 0 0 0 0 0 38 47 -38 49 -38 0 -38 -49 0 0 
-38 0 0 0 0 0 38 49 0 51 0 52 0 0 38 0 
38 54 0 0 38 0 38 0 38 28 38 0 19 -28 19 -27 
38 0 39 -27 19 0 19 -26 19 26 19 0 38 0 38 27 
38 0 19 27 19 28 38 0 38 0 38 0 39 0 38 0 
38 0 38 0 38 0 38 0 19 28 19 29 38 0 38 0 
19 29 19 30 19 -30 -19 -29 -19 -29 19 -28 19 -28 20 -14 
19 14 19 28 38 14 753 921 100 MP
0 -39 0 0 -39 -40 0 0 -38 0 -38 0 -38 0 -38 -39 
0 0 -38 0 -38 -39 0 0 -38 -38 0 0 -38 -39 0 0 
-38 0 -39 -38 0 -38 39 -38 0 0 0 -38 0 -39 0 0 
-39 -38 0 -38 0 -19 -9 -20 -29 -29 -9 -10 -29 0 -38 -39 
0 -10 -38 -19 -9 -10 0 -40 9 -20 10 -20 -10 -21 -6 -20 
-3 -41 0 -43 -10 -42 0 -44 -19 -22 -38 0 -38 22 -38 0 
0 0 -38 44 0 0 -38 42 0 0 -39 43 0 0 0 41 
-38 41 0 0 -38 40 -38 0 0 0 -38 40 0 0 0 39 
0 39 -38 39 0 0 0 20 19 19 -19 19 -19 19 19 38 
0 0 38 0 38 39 0 0 38 0 38 0 38 38 0 38 
0 0 39 38 0 0 38 0 38 0 38 38 0 0 38 39 
0 0 38 0 38 0 38 0 38 38 0 0 0 0 38 -38 
0 0 38 -39 39 0 38 39 100 AP
0 -42 0 0 -38 -54 0 0 -38 -52 0 0 -39 -51 0 0 
-38 0 -19 0 19 26 10 25 28 39 10 13 -10 27 -38 0 
-19 -27 -19 -26 -19 -26 -19 -25 -38 0 -38 0 -38 0 -38 0 
-19 25 -19 26 -19 -26 -19 -25 -19 -26 0 -49 -20 -24 -19 -23 
0 -47 19 -23 20 -22 0 -45 0 -43 -20 -22 -38 0 -19 -21 
0 -42 0 -42 19 -20 38 0 20 20 19 21 19 21 19 21 
38 0 19 -21 -10 -42 -9 -20 -7 -20 -31 0 -38 -41 55 AP
PP
33 30 39 7 19 6 19 11 9 -11 10 -43 -19 -21 -10 -21 
10 -21 9 -21 29 -30 19 -10 -19 -41 0 0 -38 -39 0 -40 
0 0 -38 -39 0 -39 0 0 -39 -38 0 -39 0 0 -38 0 
0 0 0 0 38 39 -38 38 0 0 0 39 -38 39 0 0 
-38 40 -38 0 0 0 -38 39 -38 -39 0 0 -38 -40 0 0 
-38 -39 0 0 -38 -39 0 -38 0 -39 0 0 0 0 0 39 
-39 38 -38 -38 0 0 -38 0 0 0 -38 38 0 0 0 39 
0 39 0 40 -38 39 -38 0 0 0 -38 41 0 0 -38 40 
0 0 0 42 0 42 0 43 0 43 -38 45 -38 0 -39 -45 
0 -43 0 0 0 0 0 43 0 45 -38 45 -38 0 0 0 
-38 47 -38 0 0 0 0 47 -38 49 -38 0 0 0 0 51 
0 0 38 0 38 0 38 52 -38 54 -38 0 0 0 -38 56 
-38 0 -19 0 19 29 5020 878 100 MP
38 0 38 0 19 29 19 30 19 -30 -19 -29 -19 -29 19 -28 
38 0 38 0 38 0 38 14 20 14 19 29 19 -29 19 -28 
38 0 19 -28 19 -27 19 27 19 28 38 0 19 -28 0 -54 
19 -26 19 -26 19 -25 19 25 19 26 38 0 19 26 20 27 
38 0 38 0 38 0 19 -27 19 -26 19 26 19 27 19 -27 
19 -26 19 -26 -19 -25 -38 0 -38 0 -38 0 -38 0 -38 0 
-38 0 -20 -26 0 -49 -19 -24 -19 24 -19 25 -38 0 -19 -25 
-19 -24 -19 24 -19 25 -19 24 -19 26 -19 -26 0 -49 0 -47 
19 -24 19 -23 19 -23 38 0 19 -22 19 -23 19 -22 19 -22 
19 22 19 11 39 0 19 -11 19 -22 19 -21 19 -11 38 0 
38 -11 38 0 38 -10 19 -11 19 -7 38 2 5 5 87 AP
PP
c9
38 -9 38 0 19 19 19 20 38 0 20 -20 19 -10 38 0 
38 -9 38 0 38 9 38 0 19 10 19 20 38 0 38 0 
38 0 39 0 19 -20 19 -6 38 0 19 6 19 20 38 0 
19 -20 19 -6 38 -33 0 0 0 0 -38 -39 0 -38 0 0 
-38 -39 0 0 -38 -38 0 0 -38 0 0 0 -38 38 -38 -38 
0 0 0 0 -39 38 -38 0 -38 -38 0 0 -38 0 -38 -38 
0 -38 0 -38 0 0 -38 -39 0 -38 0 -38 0 -39 0 -39 
0 -39 0 -19 -19 -20 -19 -20 -10 -20 -9 -40 -19 -21 -38 0 
-19 -20 0 -41 -19 -21 -19 -22 -20 0 -38 0 0 0 -38 43 
0 0 -38 41 0 0 -38 41 0 0 0 40 0 40 -38 39 
0 0 -38 39 0 0 0 39 0 39 0 38 0 38 0 39 
0 19 19 19 19 19 10 19 -10 19 -19 19 -19 6 -38 13 
-19 19 -10 39 29 29 3458 1770 100 MP
5 9 1 39 32 0 38 33 38 -4 5 AP
PP
c10
19 -10 19 -10 38 0 19 10 19 20 38 0 39 -10 38 0 
19 -10 19 -10 38 0 19 10 19 10 38 0 38 10 38 9 
38 -9 38 0 39 9 38 -9 38 0 38 9 38 0 38 -9 
38 -20 0 0 0 0 -38 -39 0 -38 0 0 -38 -39 0 0 
-38 -38 0 0 -38 0 0 0 -38 38 -38 -38 0 0 0 0 
-39 38 -38 0 -38 -38 0 0 -38 0 -38 -38 0 -38 0 -38 
0 0 -38 -39 0 -38 0 -19 -10 -19 4 -39 6 -19 0 -20 
0 -19 -19 -20 -19 -19 -19 -20 -10 -40 -9 -20 -38 0 -38 0 
-19 -20 0 -41 -20 -21 -9 -20 -10 -43 -19 0 0 0 -38 43 
0 0 -38 41 0 0 -38 41 0 0 0 40 0 40 -38 39 
0 0 -38 39 0 0 0 39 0 39 0 38 0 38 0 20 
19 19 19 19 19 19 10 38 -10 38 -19 5 -38 14 -29 19 
-9 19 -10 20 10 9 3458 1790 100 MP
14 29 5 39 19 0 38 20 38 -10 5 AP
PP
19 32 19 32 19 33 38 -33 0 0 38 -64 38 0 0 0 
38 -60 38 0 0 0 0 -58 0 0 -38 -56 0 -27 -19 27 
-19 28 -19 -28 -19 -27 -38 27 -19 0 0 56 0 58 -19 30 
-38 0 -19 -30 -19 -58 19 -56 19 -27 38 0 0 -27 0 -26 
-19 -26 19 -25 38 0 38 0 19 25 19 26 38 0 38 -26 
0 0 19 -51 0 -49 19 -24 19 -23 -19 -24 -38 24 -38 0 
-38 -24 -38 0 -38 -11 -19 -12 -19 0 -19 0 -19 23 -19 24 
19 23 19 24 -19 25 -19 -25 -19 -24 -39 0 -19 24 -19 25 
-38 0 -38 0 -19 24 -19 26 -38 0 -19 25 -19 26 -38 0 
-38 0 -19 26 -19 27 -39 0 -38 0 -38 0 -19 -27 -19 -26 
-38 0 -19 26 -19 27 -38 0 -38 0 -38 0 -19 27 -19 28 
-19 -28 -19 -27 -39 0 -19 27 -19 28 -19 -28 -19 -27 -19 27 
-19 28 -19 28 19 29 4106 878 100 MP
19 29 19 30 38 0 38 0 39 0 38 0 38 0 38 0 
38 0 38 0 38 0 19 30 19 32 19 -32 19 -30 19 -30 
19 -29 38 0 20 29 -20 30 -19 30 19 32 39 0 19 -32 
19 -30 38 0 38 0 38 0 38 0 19 30 19 32 38 0 
38 0 38 0 20 -32 19 -30 19 30 37 AP
PP
/c11 { 0.485800 0.538000 0.341300 sr} bdef
c11
0 0 -38 -39 0 0 -38 0 -39 -38 0 -38 39 -38 0 0 
0 -38 0 -29 -10 -10 -29 -38 0 -19 -6 -19 -22 -39 -10 -9 
-28 -30 -10 0 -38 -32 -19 -7 -19 -10 -28 -29 0 -40 19 -40 
-10 -41 -9 -41 0 -43 -10 -21 -19 -21 -19 -22 -38 0 -38 0 
-38 22 0 0 -38 42 0 0 -39 43 0 0 0 41 -38 41 
0 0 -38 40 -38 0 0 0 -38 40 0 0 0 39 0 39 
0 20 19 19 0 39 -9 38 -4 38 32 39 0 0 38 0 
38 0 38 38 0 38 0 0 39 38 0 0 38 0 38 0 
38 38 0 0 38 39 0 0 38 0 38 0 38 0 38 29 
38 -29 0 0 38 -39 39 0 38 39 0 0 38 38 0 39 
0 0 38 0 38 39 -38 40 0 0 0 0 38 0 0 0 
38 -40 38 0 38 40 0 39 0 34 38 -13 38 0 20 20 
19 20 9 20 29 32 1172 1491 100 MP
28 -32 -9 -40 -19 0 -38 -41 0 -39 0 0 -39 -40 0 0 
-38 0 -38 0 -38 0 -38 -39 0 0 -38 0 -38 -39 0 0 
-38 -38 17 AP
PP
19 -22 19 -21 19 -11 19 11 19 21 19 -21 20 -22 38 0 
38 -10 38 0 19 -11 19 -21 38 14 38 1 38 -15 38 5 
15 16 23 21 39 6 31 -27 -22 -42 10 -42 19 -10 28 -30 
10 -10 0 -31 0 0 -38 -39 0 -40 0 0 -38 -39 0 -39 
0 0 -39 -38 0 -39 0 0 -38 0 0 0 0 0 38 39 
-38 38 0 0 0 39 -38 39 0 0 -38 40 -38 0 0 0 
-38 39 -38 -39 0 0 -38 -40 0 0 -38 -39 0 0 -38 -39 
0 -38 0 -39 0 0 0 0 0 39 -39 38 -38 -38 0 0 
-38 0 0 0 -32 38 -6 7 0 32 0 39 0 40 -38 39 
-38 0 0 0 -38 41 0 0 -38 40 0 0 0 42 0 42 
0 43 0 43 -38 45 -38 0 -39 -45 0 -43 0 0 0 0 
0 43 0 45 -38 45 -38 0 0 0 -38 47 -19 0 -19 23 
0 24 -19 49 19 26 4906 1094 100 MP
19 25 19 26 38 0 19 26 19 27 19 27 19 14 39 14 
19 -28 0 -54 -19 -26 -19 -26 19 -25 38 0 19 -26 19 -24 
19 -25 0 -47 19 -24 19 -23 19 -23 19 -22 19 -23 38 0 
19 -22 25 AP
PP
39 9 38 0 38 -19 38 0 38 10 38 9 38 4 19 6 
19 10 19 -10 19 -6 38 0 19 6 20 10 38 -4 38 0 
38 4 38 0 38 -4 38 -6 0 0 0 0 -38 -39 0 -38 
0 0 -38 -39 0 0 -38 -38 0 0 -38 0 0 0 -38 38 
-38 -38 0 0 0 0 -39 38 -38 0 -38 -38 0 0 -38 0 
-38 -38 0 -38 0 -38 0 0 -38 -39 0 -28 -10 -10 -19 -38 
10 -39 0 -39 -19 -19 -19 -20 -19 -19 -38 -10 -19 -10 -19 -20 
-39 0 -38 0 -19 -20 19 -20 19 -20 0 -41 -9 -41 -10 -21 
-38 21 0 0 -38 41 0 0 -38 41 0 0 0 40 0 40 
-38 39 0 0 -38 39 0 0 0 39 0 39 0 38 0 19 
38 10 10 9 9 39 19 19 38 0 38 0 19 19 -19 6 
-38 3 -28 29 0 38 -10 6 -38 8 -38 18 -10 6 -22 39 
18 38 8 39 6 0 3420 1722 100 MP
38 6 19 -6 19 -6 38 -23 38 0 19 -10 19 -9 19 9 
19 20 9 AP
PP
/c12 { 0.278425 0.454900 0.216575 sr} bdef
c12
-38 0 -39 -38 0 -38 39 -38 0 0 0 -38 0 -10 -29 -29 
-10 -19 -9 -19 -10 -38 -19 -29 -9 -10 -29 -29 -9 -10 -29 -19 
-38 -10 -9 -10 -29 -29 -38 0 -19 -10 -19 -20 -19 -20 0 -40 
19 -21 19 -20 19 -21 19 -20 -19 -21 -38 0 -38 0 -38 0 
-38 0 -39 21 0 0 0 41 -38 41 0 0 -38 40 -38 0 
0 0 -38 40 0 0 0 20 10 19 9 39 19 20 10 19 
0 39 -10 19 -9 19 -10 38 19 39 0 0 38 0 38 0 
38 38 0 38 0 0 39 38 0 0 38 0 38 0 38 38 
0 0 38 39 0 0 38 0 38 0 29 0 9 -10 19 10 
19 9 38 -9 0 0 38 -39 39 0 38 39 0 0 38 38 
0 39 0 0 38 0 38 39 -38 40 0 0 0 0 38 0 
0 0 38 -40 38 0 38 40 0 39 0 21 29 -21 9 -10 
38 0 10 10 29 31 1210 1573 100 MP
0 -31 0 -39 0 0 -39 -40 0 0 -38 0 -38 0 -38 0 
-38 -39 0 0 -38 0 -38 -39 0 0 -38 -38 0 0 -38 -39 
0 0 17 AP
PP
38 0 19 9 19 10 38 10 38 9 38 -9 38 0 39 9 
38 0 38 0 38 0 38 0 38 0 0 -29 0 -38 0 0 
-38 -39 0 0 -38 -38 0 0 -38 0 0 0 -29 38 -9 10 
-19 -10 -19 -38 0 0 0 0 -39 38 -38 0 -38 -38 0 0 
-38 0 -38 -38 0 -38 0 -38 0 0 -38 -39 0 -9 -29 -29 
-9 -19 -10 -19 10 -19 6 -20 -6 -19 -10 -20 -28 -29 -19 -10 
-19 -10 -38 -9 -39 0 -38 -10 -19 -10 -19 -20 -38 -10 -38 0 
0 30 -38 39 0 0 -38 39 0 0 0 39 0 39 0 29 
19 9 19 10 29 28 9 20 38 9 38 -9 10 19 28 28 
38 0 39 0 38 -9 38 9 38 0 38 0 9 10 10 38 
-19 9 -19 -9 -19 -19 -38 -10 -38 0 -38 0 -39 10 -38 -10 
-38 10 -38 9 -9 10 0 38 -29 19 -38 5 -29 14 -9 10 
-19 29 14 38 5 20 3420 1741 100 MP
38 9 38 -9 29 -20 9 -19 38 0 38 -10 38 20 20 9 
19 10 38 0 19 -10 19 -9 38 0 13 AP
PP
/c13 { 0.186400 0.309350 0.111250 sr} bdef
c13
0 -38 39 -38 0 0 0 -19 -19 -19 -20 -19 -19 -20 -9 -38 
-3 -38 -7 -10 -28 -29 -10 -9 -28 -30 -10 -6 -38 -3 -28 -30 
-10 -10 -38 0 -38 -9 -38 0 -19 -20 0 -40 -19 -20 -19 -20 
0 -41 -19 -21 -39 0 0 21 -38 41 0 0 -38 40 -38 0 
0 0 -19 40 10 39 9 20 19 19 10 39 0 39 -10 38 
-19 19 -6 19 6 39 0 0 38 0 38 0 38 38 0 38 
0 0 39 38 0 0 38 0 38 0 38 38 0 0 38 39 
0 0 38 0 38 0 10 0 28 -29 19 -10 19 -19 19 -19 
0 -38 -19 -19 -19 -19 19 -19 38 0 19 19 0 38 -11 38 
-8 19 -19 19 19 19 38 -19 39 0 38 39 0 0 38 38 
0 39 0 0 38 0 38 39 -38 40 0 0 0 0 38 0 
0 0 38 -40 38 0 38 40 0 39 0 7 10 -7 28 -30 
38 0 29 30 10 10 1210 1594 100 MP
0 -10 0 -39 0 0 -39 -40 0 0 -38 0 -38 0 -38 0 
-38 -39 0 0 -38 0 -38 -39 0 0 -38 -38 0 0 -38 -39 
0 0 -38 0 -39 -38 19 AP
PP
c12
19 -23 38 0 38 0 19 -22 0 -45 19 -22 19 -21 19 -22 
38 0 38 11 38 -21 38 10 19 -21 20 -21 38 0 38 10 
28 -31 10 -10 38 4 9 6 29 21 38 3 38 -17 38 9 
24 26 14 13 39 3 19 -16 -19 -32 -10 -10 0 -42 10 -10 
38 -20 9 -10 29 -31 0 -10 0 0 -38 -39 0 -40 0 0 
-38 -39 0 -39 0 0 -33 0 8 39 -14 20 -38 -10 -38 29 
0 0 -38 40 -38 0 0 0 -38 39 -38 -39 0 0 -38 -40 
0 0 -38 -39 0 0 -38 -39 0 -38 0 -39 0 0 0 0 
0 39 -39 38 -38 -38 0 0 -38 0 0 0 -19 38 -19 20 
0 19 0 39 0 40 -38 39 -38 0 0 0 -38 41 0 0 
-38 40 0 0 0 42 0 42 0 43 0 21 19 22 -19 22 
-38 23 -38 0 -39 -45 0 -43 0 0 0 0 0 43 0 45 
-19 45 0 47 19 23 4754 1193 100 MP
20 -23 19 -24 19 -23 3 AP
PP
c8
39 40 0 0 38 40 0 0 38 39 0 39 0 0 38 39 
0 0 0 0 0 -39 38 -39 38 0 38 39 0 39 0 0 
38 0 38 0 0 0 38 -39 39 0 0 0 38 -39 0 0 
38 -39 38 0 0 0 38 -40 0 0 0 -40 0 -41 0 -41 
0 0 -38 -43 0 -42 0 0 0 0 -38 42 -38 0 -38 0 
-39 0 0 0 -38 43 -38 -43 0 0 -38 0 -38 0 -38 -42 
0 -44 0 0 -38 0 -38 0 -38 -44 38 -46 0 0 0 0 
-38 0 0 0 0 46 -38 44 0 0 0 44 -39 42 0 0 
0 43 0 41 0 41 0 0 5135 2341 69 MP
PP
c13
38 0 19 -21 19 -21 38 0 38 0 19 21 19 11 19 -11 
19 -21 38 0 19 -21 20 -21 38 13 19 8 19 10 9 -10 
29 -31 38 13 28 18 10 7 38 5 26 -12 12 -21 19 21 
19 5 34 37 4 4 39 1 6 -5 -6 -11 -29 -31 0 -42 
29 -30 19 -10 19 -20 19 -21 -19 -39 0 -40 0 0 -38 -39 
0 -39 0 0 -22 0 6 39 -23 33 -38 -4 -38 10 0 0 
-38 40 -38 0 0 0 -38 39 -38 -39 0 0 -38 -40 0 0 
-38 -39 0 0 -38 -39 0 -38 0 -39 0 0 0 0 0 39 
-39 38 -38 -38 0 0 -38 0 0 0 -6 38 -32 33 0 6 
0 39 0 40 -38 39 -38 0 0 0 -38 41 0 0 -38 40 
0 0 0 42 0 42 0 21 4639 1418 85 MP
PP
c11
19 -22 0 -45 -19 -22 -19 -21 -19 -22 -19 -21 19 -21 19 -21 
-19 0 -38 0 -38 0 -38 0 -38 0 -38 -42 0 0 -38 0 
0 0 0 0 38 42 -38 42 0 0 -39 43 0 0 0 43 
-38 45 0 0 -38 45 0 0 -38 47 -19 0 -19 23 -19 -23 
-19 0 -38 0 0 0 0 0 38 47 -19 49 -19 26 -19 -26 
-19 0 -38 -49 0 0 -38 0 0 0 0 0 38 49 0 51 
0 26 38 0 38 0 38 0 38 0 38 0 19 26 19 27 
19 -27 19 -26 19 -26 19 -25 20 -26 0 -49 -20 -24 -19 -23 
0 -47 19 -23 39 0 38 0 38 0 19 23 19 23 19 24 
19 23 19 24 19 25 38 0 19 -25 0 -47 0 -47 19 -23 
1325 1286 81 MP
PP
c8
0 0 0 0 -38 -74 0 -70 0 0 -38 -66 0 -64 0 0 
-39 -60 0 0 -38 -58 0 0 -38 0 -38 0 0 0 0 58 
-38 60 0 0 -38 64 -38 0 -38 0 0 0 -38 66 -38 0 
-39 0 0 0 -38 70 0 0 -38 74 0 0 0 0 38 0 
38 0 39 0 38 0 38 0 38 0 38 0 38 0 38 0 
38 0 38 0 38 0 39 0 38 0 38 0 1934 515 47 MP
PP
c9
39 40 0 0 38 40 0 0 38 39 0 39 0 0 38 39 
0 0 0 0 0 -39 38 -39 38 0 38 39 0 39 0 0 
38 0 38 0 0 0 38 -39 39 0 0 0 38 -39 0 0 
38 -39 38 0 0 0 38 -40 0 0 0 -20 -38 0 -19 -20 
-19 -21 -38 0 -19 21 -19 20 -39 0 -19 -20 -19 -21 -38 0 
-38 0 -38 0 -38 0 -19 -20 0 -41 -19 -21 -19 -22 -19 -21 
-19 -21 19 -22 38 0 19 -22 -19 0 -38 0 -38 -44 38 -46 
0 0 0 0 -38 0 0 0 0 46 -38 44 0 0 0 44 
-39 42 0 0 0 43 0 41 0 41 0 0 5135 2341 71 MP
PP
1 sg
-38 -43 38 -43 0 0 38 -42 38 0 38 0 38 0 39 42 
0 0 0 0 38 -42 38 0 38 42 0 0 38 0 38 43 
0 43 0 0 38 0 38 0 38 0 0 0 38 -43 39 43 
-39 45 0 0 -38 45 0 0 -38 47 -38 0 -38 -47 0 0 
-38 0 -38 -45 0 -45 0 0 0 0 0 45 -38 45 -38 -45 
0 0 -38 -45 0 0 0 0 -39 45 -38 -45 0 0 -38 0 
-38 0 -38 0 3344 1353 51 MP
PP
c13
38 10 38 0 19 19 0 38 19 10 19 -10 19 -19 19 19 
10 39 9 9 38 0 39 0 19 -9 19 -19 19 19 19 9 
38 0 38 0 29 29 9 19 0 -19 0 -38 0 0 -38 -19 
-38 0 -19 -20 0 -38 -10 -38 10 -39 -10 -39 -9 -9 -38 -10 
-38 0 -39 0 -19 -20 -19 -10 -38 -9 -19 -20 -19 -10 -38 0 
0 10 -38 39 0 0 -38 39 0 0 0 39 0 39 0 9 
3420 2096 49 MP
PP
38 0 19 20 19 9 39 10 38 0 38 -10 38 0 38 0 
38 10 19 19 19 7 38 3 38 -3 38 0 39 3 38 0 
38 0 38 0 38 0 38 0 0 -10 0 -38 0 0 -38 -39 
0 0 -38 -38 0 0 -38 0 0 0 -10 38 -28 29 -38 -10 
-20 -19 20 -19 0 -19 0 0 0 0 -39 38 -19 0 -19 19 
-19 -19 -19 -38 0 0 -38 0 -38 -27 -38 17 -38 -9 -19 -19 
-19 -10 -38 0 -38 0 -19 10 -20 19 -19 -19 -19 -10 -38 3 
-19 7 0 38 0 38 19 19 3268 1819 61 MP
PP
c10
39 40 0 0 38 40 0 0 38 39 0 39 0 0 38 39 
0 0 0 0 0 -39 38 -39 38 0 38 39 0 39 0 0 
38 0 38 0 0 0 38 -39 39 0 0 0 38 -39 0 0 
38 -39 19 0 -19 -20 -38 -10 -38 0 -39 0 -19 -10 -19 -20 
-19 20 -19 20 -38 0 -38 0 -38 -10 -19 -10 -19 -20 -19 -20 
-19 -21 -19 -20 -19 -21 -19 -20 0 -43 0 -42 19 -22 19 -22 
-19 -22 -38 22 0 0 0 44 -39 42 0 0 0 43 0 41 
0 41 0 0 5135 2341 59 MP
PP
1 sg
0 0 -38 60 -38 0 -38 0 -38 0 0 0 0 64 -38 66 
-39 0 -38 -66 38 -64 0 0 0 -60 0 -58 0 -56 39 -54 
38 0 38 0 38 0 38 54 0 0 38 0 38 56 -38 58 
1401 849 25 MP
PP
c9
0 -33 0 -64 0 0 -39 -60 0 0 -38 -58 0 0 -38 0 
-38 0 0 0 0 58 -38 60 0 0 -38 64 -38 0 -38 0 
0 0 -38 66 -38 0 -39 0 0 0 0 35 39 0 38 0 
38 0 38 0 38 18 38 -18 19 -35 19 -33 19 -33 19 -32 
38 0 38 0 19 32 20 33 2010 692 37 MP
PP
c11
39 40 0 0 38 40 0 0 38 39 0 39 0 0 38 39 
0 0 0 0 0 -39 38 -39 38 0 38 39 0 39 0 0 
38 0 38 0 0 0 38 -39 39 0 0 0 38 -39 0 0 
19 -39 -19 -10 -38 0 -39 0 -19 10 -19 10 -38 10 -38 0 
-38 -14 -19 -6 -19 -10 -38 -20 -38 0 -19 -10 -19 -20 -19 -20 
-19 -21 -10 -20 0 -41 -9 -43 -20 0 0 0 0 43 0 41 
0 41 0 0 5135 2341 51 MP
PP
c10
19 -29 -19 -56 0 0 -38 0 -38 0 -39 0 0 0 -38 56 
-38 0 -38 0 -38 0 -38 0 -38 0 -19 0 19 29 38 19 
38 0 38 0 38 3 19 7 19 30 19 -30 0 -58 19 -14 
19 14 0 58 20 30 38 0 19 -30 19 -29 372 878 31 MP
PP
/c14 { 0.124575 0.143100 0.033175 sr} bdef
c14
38 11 25 -28 13 -13 13 13 25 12 38 15 35 15 3 0 
1 0 17 -42 -18 -19 -38 -7 -13 -14 0 -41 -25 0 -38 -39 
0 0 -26 0 0 39 -12 15 -38 -1 -26 27 0 40 26 17 
4296 1506 25 MP
PP
c9
0 0 0 -50 0 0 -38 0 -38 -53 0 0 -38 0 0 0 
0 53 0 25 38 0 19 25 0 49 -12 48 3 46 0 46 
9 44 19 0 0 0 0 -44 0 -46 0 -46 0 -48 38 -49 
1668 2785 25 MP
PP
1 sg
-38 -47 38 -45 38 0 38 0 38 0 38 45 -38 47 -38 0 
-38 0 -38 0 3382 1216 11 MP
PP
c14
5 -5 -2 -38 -3 -4 -22 -35 -16 -16 -38 -1 -38 9 -9 8 
-29 21 -18 18 18 17 24 21 14 14 38 -5 38 -3 38 -1 
1858 2062 17 MP
PP
1 sg
-38 -45 38 -45 38 0 39 45 0 45 0 47 -39 47 -38 -47 
0 -47 0 0 3611 1263 11 MP
PP
c12
38 0 38 0 0 0 38 -39 39 0 0 0 38 -39 0 0 
0 -19 -38 -10 -39 10 -38 9 -19 10 -19 10 -38 0 0 29 
0 39 0 0 4868 2144 19 MP
PP
1 sg
-38 -74 0 0 -38 -70 38 -66 38 66 0 0 38 70 -38 74 
1439 515 9 MP
PP
c10
0 0 0 -52 0 0 -38 0 -38 0 -38 -25 -20 25 20 52 
0 27 19 27 19 0 0 0 38 -54 38 0 2658 1017 15 MP
PP
c8
38 0 0 0 38 -38 0 0 38 -38 0 0 0 -38 0 0 
-38 0 -38 0 0 0 -38 38 0 0 0 38 0 38 0 0 
4601 1876 17 MP
PP
c9
38 0 0 0 38 -38 0 0 38 -38 0 0 0 -38 0 0 
-38 0 -38 0 0 0 -38 38 0 0 0 38 0 38 0 0 
4601 1876 17 MP
PP
c10
38 0 0 0 38 -38 0 0 38 -38 0 0 0 -38 0 0 
-38 0 -38 0 0 0 -38 38 0 0 0 38 0 38 0 0 
4601 1876 17 MP
PP
c11
38 0 0 0 38 -38 0 0 38 -38 0 0 0 -38 0 0 
-38 0 -38 0 0 0 -38 38 0 0 0 38 0 38 0 0 
4601 1876 17 MP
PP
c12
38 0 0 0 38 -38 0 0 38 -38 0 0 0 -38 0 0 
-38 0 -38 0 0 0 -38 38 0 0 0 38 0 38 0 0 
4601 1876 17 MP
PP
c13
38 0 0 0 38 -38 0 0 38 -38 0 0 0 -38 0 0 
-38 0 -38 0 0 0 -38 38 0 0 0 38 0 38 0 0 
4601 1876 17 MP
PP
c12
38 39 0 39 0 0 38 39 0 0 0 0 0 -39 38 -39 
38 0 29 0 -29 -19 -38 -10 -19 -10 -19 -10 -38 0 -38 -20 
0 30 0 0 5058 2261 19 MP
PP
c10
0 -30 0 0 -38 -58 0 0 -38 0 -38 0 0 0 0 58 
0 30 38 0 38 0 38 0 2049 819 13 MP
PP
c14
18 -18 2 -38 -20 -20 -38 -6 -25 26 -13 13 -25 25 3 38 
22 23 22 -23 16 -13 38 -7 1744 1858 13 MP
PP
c12
19 -21 -19 0 -38 0 -38 0 -38 0 -38 -42 0 0 -38 0 
0 0 0 0 38 42 -38 42 0 0 -39 43 0 0 0 21 
20 -21 19 -22 38 0 19 -21 19 -11 38 0 38 -10 38 0 
1401 1460 25 MP
PP
c11
38 12 38 -12 38 0 19 -25 -19 -24 -38 0 -38 -11 -19 -12 
-19 -12 -19 12 0 47 19 25 3039 1144 13 MP
PP
c8
0 0 1 -66 0 -64 -1 0 -38 0 -38 0 -38 0 0 0 
0 64 0 0 38 0 38 0 38 66 0 0 68 659 15 MP
PP
0 0 39 -39 0 0 38 -39 0 0 0 -39 0 -40 0 -40 
0 0 -38 0 0 0 0 40 0 40 -39 39 0 0 0 39 
0 39 0 0 3573 2144 19 MP
PP
c9
0 0 39 -39 0 0 38 -39 0 0 0 -39 0 -40 0 -40 
0 0 -38 0 0 0 0 40 0 40 -39 39 0 0 0 39 
0 39 0 0 3573 2144 19 MP
PP
c10
0 0 39 -39 0 0 38 -39 0 0 0 -39 0 -40 0 -40 
0 0 -38 0 0 0 0 40 0 40 -39 39 0 0 0 39 
0 39 0 0 3573 2144 19 MP
PP
c11
0 0 39 -39 0 0 38 -39 0 0 0 -39 0 -40 0 -40 
0 0 -38 0 0 0 0 40 0 40 -39 39 0 0 0 39 
0 39 0 0 3573 2144 19 MP
PP
c12
0 0 39 -39 0 0 38 -39 0 0 0 -39 0 -40 0 -30 
-10 -10 -28 0 0 0 0 40 0 40 -39 39 0 0 0 39 
0 39 0 0 3573 2144 19 MP
PP
c8
38 38 0 0 38 0 38 39 0 0 38 0 0 0 38 -39 
0 0 0 0 -38 0 -38 -38 0 0 -38 0 -38 0 -38 -38 
0 0 0 0 0 38 0 0 5058 2067 21 MP
PP
c9
38 38 0 0 38 0 38 39 0 0 38 0 0 0 38 -39 
0 0 0 0 -38 0 -38 -38 0 0 -38 0 -38 0 -38 -38 
0 0 0 0 0 38 0 0 5058 2067 21 MP
PP
c10
38 38 0 0 38 0 38 39 0 0 38 0 0 0 38 -39 
0 0 0 0 -38 0 -38 -38 0 0 -38 0 -38 0 -38 -38 
0 0 0 0 0 38 0 0 5058 2067 21 MP
PP
c11
38 38 0 0 38 0 38 39 0 0 38 0 0 0 38 -39 
0 0 0 0 -38 0 -38 -38 0 0 -38 0 -38 0 -38 -38 
0 0 0 0 0 38 0 0 5058 2067 21 MP
PP
c12
38 38 0 0 38 0 38 39 0 0 38 0 0 0 38 -39 
0 0 0 0 -38 0 -38 -38 0 0 -38 0 -38 0 -38 -38 
0 0 0 0 0 38 0 0 5058 2067 21 MP
PP
c13
38 38 0 0 38 0 38 39 0 0 38 0 0 0 38 -39 
0 0 0 0 -38 0 -38 -38 0 0 -38 0 -38 0 -38 -38 
0 0 0 0 0 38 0 0 5058 2067 21 MP
PP
c10
19 24 19 23 38 0 19 -23 -19 -47 0 -34 -38 0 -38 11 
-19 23 19 23 3496 1240 11 MP
PP
c9
1 -33 0 -64 -1 0 -38 0 -38 0 -38 0 0 0 0 64 
0 0 38 0 38 0 38 33 68 692 13 MP
PP
c13
0 0 39 -39 0 0 38 -39 0 0 0 -39 0 -40 0 -10 
-29 -30 -9 0 0 0 0 40 0 40 -39 39 0 0 0 39 
0 39 0 0 3573 2144 19 MP
PP
19 19 19 10 38 -3 10 -7 9 -38 0 -39 -19 -6 -38 1 
-10 5 -28 29 -6 10 6 19 3420 1780 13 MP
PP
c8
38 38 0 38 0 38 0 0 0 0 39 -38 38 38 0 0 
38 0 0 0 0 0 -38 -38 0 0 -38 -38 0 0 -39 -38 
0 -39 0 0 -38 0 0 0 0 39 0 0 4411 1990 23 MP
PP
c9
38 38 0 38 0 38 0 0 0 0 39 -38 38 38 0 0 
38 0 0 0 0 0 -38 -38 0 0 -38 -38 0 0 -39 -38 
0 -39 0 0 -38 0 0 0 0 39 0 0 4411 1990 23 MP
PP
c10
38 38 0 38 0 38 0 0 0 0 39 -38 38 38 0 0 
38 0 0 0 0 0 -38 -38 0 0 -38 -38 0 0 -39 -38 
0 -39 0 0 -38 0 0 0 0 39 0 0 4411 1990 23 MP
PP
c11
38 38 0 38 0 38 0 0 0 0 39 -38 38 38 0 0 
38 0 0 0 0 0 -38 -38 0 0 -38 -38 0 0 -39 -38 
0 -39 0 0 -38 0 0 0 0 39 0 0 4411 1990 23 MP
PP
c13
38 0 38 0 0 0 38 -39 39 0 0 0 19 -39 -19 -10 
-19 10 -20 20 -38 0 -38 10 -38 0 0 9 0 39 0 0 
4868 2144 17 MP
PP
c9
0 -37 20 -70 -20 -33 0 33 -38 70 -38 -35 -19 35 19 37 
38 0 38 0 1249 552 11 MP
PP
c12
38 38 0 38 0 38 0 0 0 0 39 -38 38 28 0 -28 
0 0 -38 -38 0 0 -39 -38 0 -39 0 0 -38 0 0 0 
0 39 0 0 4411 1990 19 MP
PP
c9
38 0 38 0 38 0 19 -23 -19 -23 -38 0 -38 0 -38 0 
-19 23 19 23 4106 1240 11 MP
PP
c12
-38 -39 0 -40 38 -39 38 39 0 40 -38 39 4449 1604 7 MP
PP
c11
-38 -39 0 -40 38 -39 38 39 0 40 -38 39 4449 1604 7 MP
PP
c10
-38 -39 0 -40 38 -39 38 39 0 40 -38 39 4449 1604 7 MP
PP
c9
-38 -39 0 -40 38 -39 38 39 0 40 -38 39 4449 1604 7 MP
PP
c8
-38 -39 0 -40 38 -39 38 39 0 40 -38 39 4449 1604 7 MP
PP
1 sg
-38 -39 0 -40 38 -39 38 39 0 40 -38 39 4449 1604 7 MP
PP
c8
38 0 38 0 38 0 38 0 0 0 38 -74 0 0 0 0 
-38 0 -38 0 0 0 -38 74 -38 0 -38 0 0 0 0 0 
3801 515 17 MP
PP
c11
0 -40 0 0 -38 -52 0 0 -39 -51 0 0 -19 0 10 51 
9 13 29 39 10 13 38 27 791 977 13 MP
PP
1 sg
-38 -70 38 -66 38 66 -38 70 1287 589 5 MP
PP
c14
0 -25 0 0 -38 -39 0 0 -38 -38 0 0 -19 0 3 38 
16 16 13 23 25 25 38 0 2582 1774 13 MP
PP
c10
19 27 19 28 0 -28 0 -54 0 -52 0 0 -38 0 0 0 
-19 52 19 27 5211 990 11 MP
PP
c13
38 39 0 0 0 0 0 -39 38 -39 38 0 10 0 -10 -6 
-38 -4 -38 -9 -38 0 0 19 0 39 0 0 5020 2183 15 MP
PP
c11
32 -36 -32 0 -38 0 -38 0 -38 0 -29 0 29 29 38 0 
38 0 38 7 563 871 11 MP
PP
c8
-38 -58 38 -56 38 56 -38 58 5249 849 5 MP
PP
-38 -58 38 -56 38 56 -38 58 3115 849 5 MP
PP
1 sg
-38 -58 38 -56 38 56 -38 58 5249 849 5 MP
PP
-38 -58 38 -56 38 56 -38 58 3115 849 5 MP
PP
c8
-38 -54 38 -52 38 52 -38 54 3039 963 5 MP
PP
1 sg
-38 -54 38 -52 38 52 -38 54 3039 963 5 MP
PP
c13
38 38 0 19 39 0 0 -19 0 0 -39 -38 0 -39 0 0 
-38 0 0 0 0 39 0 0 4411 1990 13 MP
PP
1 sg
-38 -47 38 -47 38 47 -38 47 3725 1169 5 MP
PP
c9
-38 -47 38 -47 38 47 -38 47 1553 1169 5 MP
PP
c8
-38 -47 38 -47 38 47 -38 47 1553 1169 5 MP
PP
1 sg
-38 -47 38 -47 38 47 -38 47 1553 1169 5 MP
PP
-38 -42 38 -40 39 40 -39 42 3573 1481 5 MP
PP
c14
38 0 0 -26 0 0 -38 -39 0 0 -26 0 0 39 26 26 
4296 1657 9 MP
PP
1 sg
-38 -41 38 -39 38 39 -38 41 3382 1563 5 MP
PP
c12
-38 9 -29 -28 29 -29 38 10 19 19 -19 19 1858 1933 7 MP
PP
1 sg
-38 -40 38 -39 38 39 -38 40 3420 1643 5 MP
PP
c9
0 0 38 -74 0 0 0 0 -38 0 -19 0 0 74 19 0 
3649 515 9 MP
PP
c13
19 -10 -19 0 -38 0 -38 -42 0 0 -38 0 0 0 0 0 
38 42 0 21 38 -11 38 0 1477 1471 13 MP
PP
c14
38 39 0 26 26 -26 -22 -39 -4 -4 -38 -19 -22 23 22 0 
4449 1722 9 MP
PP
c8
0 0 0 0 -38 0 -38 -40 0 0 -38 0 0 0 0 40 
0 0 38 0 38 0 38 0 1630 1643 13 MP
PP
c9
0 0 0 0 -38 0 -38 -40 0 0 -38 0 0 0 0 40 
0 0 38 0 38 0 38 0 1630 1643 13 MP
PP
c10
0 0 0 0 -38 0 -38 -40 0 0 -38 0 0 0 0 40 
0 0 38 0 38 0 38 0 1630 1643 13 MP
PP
c11
0 0 0 0 -38 0 -38 -40 0 0 -38 0 0 0 0 40 
0 0 38 0 38 0 38 0 1630 1643 13 MP
PP
c14
15 25 24 0 0 0 17 -39 -17 -18 -39 18 0 0 0 14 
3573 2208 9 MP
PP
c10
0 0 0 -50 0 0 -38 0 -19 0 19 25 5 25 33 0 
1668 2785 9 MP
PP
c14
4 -5 -4 -38 0 0 -38 -39 0 0 -26 0 26 39 0 0 
38 38 0 5 1515 1756 11 MP
PP
c13
39 0 19 -22 -19 0 -39 -45 0 -43 0 0 0 0 0 43 
0 45 0 22 4754 1286 11 MP
PP
c8
0 0 38 -44 0 0 0 -46 0 0 0 0 -38 46 0 0 
0 44 0 0 5477 2552 11 MP
PP
c9
0 0 38 -44 0 0 0 -46 0 0 0 0 -38 46 0 0 
0 44 0 0 5477 2552 11 MP
PP
c10
0 0 38 -44 0 0 0 -46 0 0 0 0 -38 46 0 0 
0 44 0 0 5477 2552 11 MP
PP
c8
38 0 0 0 38 -43 38 0 0 0 0 0 -38 0 -38 0 
0 0 -38 43 0 0 0 0 4944 1353 13 MP
PP
c9
38 0 0 0 38 -43 38 0 0 0 0 0 -38 0 -38 0 
0 0 -38 43 0 0 0 0 4944 1353 13 MP
PP
c10
38 0 0 0 38 -43 38 0 0 0 0 0 -38 0 -38 0 
0 0 -38 43 0 0 0 0 4944 1353 13 MP
PP
c11
38 0 0 0 38 -43 38 0 0 0 0 0 -38 0 -38 0 
0 0 -38 43 0 0 0 0 4944 1353 13 MP
PP
c12
38 0 0 0 38 -43 38 0 0 0 0 0 -38 0 -38 0 
0 0 -38 43 0 0 0 0 4944 1353 13 MP
PP
c13
38 0 0 0 38 -43 38 0 0 0 0 0 -38 0 -38 0 
0 0 -38 43 0 0 0 0 4944 1353 13 MP
PP
c12
10 -20 -4 -41 -6 -21 -19 21 0 41 19 20 1820 2321 7 MP
PP
c11
38 0 0 -23 0 -11 -38 0 -19 11 19 23 3458 1240 7 MP
PP
0 -42 0 0 -38 0 -19 0 19 28 38 14 372 921 7 MP
PP
c12
19 -21 -19 0 -38 0 -38 0 -38 0 -10 0 10 9 38 0 
38 0 38 12 563 886 11 MP
PP
c10
0 -22 0 -46 0 -46 0 -36 -19 36 10 46 0 46 9 22 
1706 2574 9 MP
PP
c14
38 3 38 10 0 -25 0 0 -38 0 -38 -5 -12 5 12 12 
2963 1864 9 MP
PP
c8
0 0 38 -38 0 0 0 0 -38 -39 0 0 0 0 0 39 
0 38 0 0 4677 1952 11 MP
PP
c9
0 0 38 -38 0 0 0 0 -38 -39 0 0 0 0 0 39 
0 38 0 0 4677 1952 11 MP
PP
c10
0 0 38 -38 0 0 0 0 -38 -39 0 0 0 0 0 39 
0 38 0 0 4677 1952 11 MP
PP
c11
0 0 38 -38 0 0 0 0 -38 -39 0 0 0 0 0 39 
0 38 0 0 4677 1952 11 MP
PP
c12
0 0 38 -38 0 0 0 0 -38 -39 0 0 0 0 0 39 
0 38 0 0 4677 1952 11 MP
PP
c11
0 0 0 -50 0 0 -31 0 8 50 23 0 1668 2785 7 MP
PP
0 0 0 -58 0 0 -28 0 9 58 19 0 2887 849 7 MP
PP
c14
0 -26 0 -40 0 0 -26 0 0 40 26 26 3915 1617 7 MP
PP
26 -26 -26 -26 -25 26 25 26 1744 2118 5 MP
PP
c11
38 -22 0 0 0 -46 0 0 0 0 -38 46 0 0 0 22 
5477 2574 9 MP
PP
c13
38 -19 0 0 0 0 -38 -39 0 0 0 0 0 39 0 19 
4677 1971 9 MP
PP
c12
20 0 -10 -41 0 -41 -10 -21 0 21 0 41 0 41 0 0 
5135 2341 9 MP
PP
c11
19 -27 -19 -26 -19 26 19 27 1058 990 5 MP
PP
c12
9 -11 -3 -40 -6 0 -19 0 9 40 10 11 1172 1512 7 MP
PP
c10
19 -18 -19 -33 -19 33 19 18 2239 641 5 MP
PP
c12
19 -26 -19 -24 -19 24 19 26 4830 1094 5 MP
PP
c8
38 47 0 0 0 0 0 -47 0 0 -38 0 0 0 0 0 
5020 1263 9 MP
PP
c9
38 47 0 0 0 0 0 -47 0 0 -38 0 0 0 0 0 
5020 1263 9 MP
PP
c10
38 47 0 0 0 0 0 -47 0 0 -38 0 0 0 0 0 
5020 1263 9 MP
PP
c14
0 -11 0 0 -38 0 -22 0 22 22 38 -11 1401 1711 7 MP
PP
c12
0 0 0 -50 0 0 -19 0 5 50 14 0 1668 2785 7 MP
PP
19 -20 -19 -21 -19 21 19 20 3268 2321 5 MP
PP
19 0 0 -40 -19 0 0 0 0 40 0 0 1744 1643 7 MP
PP
c8
0 0 38 -39 0 0 0 0 -38 0 0 0 0 39 0 0 
4677 1683 9 MP
PP
c9
0 0 38 -39 0 0 0 0 -38 0 0 0 0 39 0 0 
4677 1683 9 MP
PP
c10
0 0 38 -39 0 0 0 0 -38 0 0 0 0 39 0 0 
4677 1683 9 MP
PP
c11
0 0 38 -39 0 0 0 0 -38 0 0 0 0 39 0 0 
4677 1683 9 MP
PP
c12
0 0 38 -39 0 0 0 0 -38 0 0 0 0 39 0 0 
4677 1683 9 MP
PP
c13
0 0 38 -39 0 0 0 0 -38 0 0 0 0 39 0 0 
4677 1683 9 MP
PP
c10
0 -30 0 -29 -19 29 19 30 296 819 5 MP
PP
c14
13 -13 26 -28 0 -10 0 -11 0 11 -39 38 -12 0 12 13 
4373 1748 9 MP
PP
c12
19 -13 -19 -12 -19 12 19 13 3001 1156 5 MP
PP
c14
15 -15 -15 -15 -15 15 15 15 4944 2014 5 MP
PP
c11
38 23 0 -23 0 0 -38 0 0 0 0 0 5020 1263 7 MP
PP
c14
0 -23 0 -39 0 0 -11 0 4 39 7 23 3953 1699 7 MP
PP
c9
20 0 -20 -22 -19 22 19 0 3573 1353 5 MP
PP
c14
0 -25 0 -25 -15 25 15 25 1630 1851 5 MP
PP
c9
19 -20 -19 0 -19 0 19 20 3496 1702 5 MP
PP
c12
0 -29 0 -39 0 0 -19 0 19 39 0 29 3992 1770 7 MP
PP
c10
19 -33 -19 0 0 0 0 33 2315 692 5 MP
PP
-19 -6 19 -19 5 19 -5 6 3992 1716 5 MP
PP
c14
12 -13 -12 -12 -12 12 12 13 4106 1591 5 MP
PP
c13
0 0 0 -50 0 0 -6 0 2 50 4 0 1668 2785 7 MP
PP
c11
-10 -9 10 -10 19 10 -19 9 1896 1943 5 MP
PP
c14
11 -12 -11 -11 -11 11 11 12 2087 2210 5 MP
PP
c12
0 -26 0 0 -20 0 20 26 829 1043 5 MP
PP
19 -20 -19 0 0 0 0 20 3268 2403 5 MP
PP
19 0 -19 -20 0 20 0 0 5096 2301 5 MP
PP
c14
9 -9 -9 -10 -9 10 9 9 4030 1634 5 MP
PP
c12
0 -29 0 0 -9 0 9 29 2887 878 5 MP
PP
c11
19 -14 -19 0 0 0 0 14 487 949 5 MP
PP
0 -14 0 0 -19 0 19 14 753 949 5 MP
PP
c12
0 -14 0 0 -19 0 19 14 372 949 5 MP
PP
0 -13 0 0 -19 0 19 13 791 1004 5 MP
PP
c11
0 -23 0 -12 -6 12 6 23 1706 2665 5 MP
PP
c13
19 0 -19 -10 0 10 0 0 5058 2261 5 MP
PP
7 -7 -7 0 -19 0 19 7 563 900 5 MP
PP
0 -9 0 0 -19 0 19 9 4296 1905 5 MP
PP
c14
6 -6 -6 -7 -6 7 6 6 4525 1946 5 MP
PP
12 0 -12 -12 0 12 0 0 5020 2029 5 MP
PP
9 -9 -9 0 -9 0 9 9 4982 2058 5 MP
PP
c8
38 0 38 0 0 0 0 0 -38 0 -38 0 0 0 0 0 
4525 2067 9 MP
PP
c9
38 0 38 0 0 0 0 0 -38 0 -38 0 0 0 0 0 
4525 2067 9 MP
PP
c10
38 0 38 0 0 0 0 0 -38 0 -38 0 0 0 0 0 
4525 2067 9 MP
PP
c8
0 0 0 0 -38 0 -38 0 -38 0 -38 0 0 0 0 0 
38 0 38 0 38 0 38 0 2468 789 13 MP
PP
c11
38 0 38 0 0 0 0 0 -38 0 -38 0 0 0 0 0 
4525 2067 9 MP
PP
c8
0 0 0 -38 0 0 0 0 0 38 0 0 4830 1952 7 MP
PP
c12
38 0 38 0 0 0 0 0 -38 0 -38 0 0 0 0 0 
4525 2067 9 MP
PP
c9
0 0 0 -38 0 0 0 0 0 38 0 0 4830 1952 7 MP
PP
c8
38 0 0 0 0 0 -38 0 0 0 0 0 5401 2688 7 MP
PP
c9
0 0 0 0 -38 0 -38 0 -38 0 -38 0 0 0 0 0 
38 0 38 0 38 0 38 0 2468 789 13 MP
PP
38 0 0 0 0 0 -38 0 0 0 0 0 5401 2688 7 MP
PP
c10
0 0 0 -38 0 0 0 0 0 38 0 0 4830 1952 7 MP
PP
c13
38 0 38 0 0 0 0 0 -38 0 -38 0 0 0 0 0 
4525 2067 9 MP
PP
c11
0 0 0 -38 0 0 0 0 0 38 0 0 4830 1952 7 MP
PP
c10
38 0 0 0 0 0 -38 0 0 0 0 0 5401 2688 7 MP
PP
c12
0 0 0 -38 0 0 0 0 0 38 0 0 4830 1952 7 MP
PP
c11
0 0 0 0 -32 0 32 0 5363 2688 5 MP
PP
c14
38 0 0 0 0 0 -38 0 -25 0 25 0 4487 2067 7 MP
PP
c10
0 0 0 0 -29 0 29 0 5020 2642 5 MP
PP
c13
0 0 0 -38 0 0 0 0 0 38 0 0 4830 1952 7 MP
PP
c12
0 0 0 0 -19 0 19 0 5363 2688 5 MP
PP
c14
0 0 0 0 -24 0 24 0 4639 1722 5 MP
PP
c9
0 0 0 0 -19 0 19 0 296 659 5 MP
PP
c10
19 0 -19 0 0 0 0 0 2620 789 5 MP
PP
c13
0 -9 0 -20 0 20 0 9 3992 1790 5 MP
PP
c14
0 0 0 -20 0 20 0 0 4982 2144 5 MP
PP
c12
0 0 0 0 -19 0 19 0 1630 1643 5 MP
PP
0 0 0 0 -19 0 19 0 4258 1876 5 MP
PP
c13
0 0 0 -19 0 19 0 0 4373 1876 5 MP
PP
c11
0 0 0 0 -10 0 10 0 5020 2642 5 MP
PP
c13
0 0 0 0 -6 0 6 0 5363 2688 5 MP
PP
c8
0 0 0 0 0 0 0 0 4639 1604 5 MP
PP
c9
0 0 0 0 0 0 0 0 4639 1604 5 MP
PP
c8
0 0 0 0 0 0 0 0 4677 1563 5 MP
PP
0 0 0 0 0 0 0 0 1591 1604 5 MP
PP
c10
0 0 0 0 0 0 0 0 4639 1604 5 MP
PP
c8
0 0 0 0 0 0 0 0 448 1643 5 MP
PP
0 0 0 0 0 0 0 0 4715 1761 5 MP
PP
0 0 0 0 0 0 0 0 4715 2105 5 MP
PP
0 0 0 0 0 0 0 0 4677 1799 5 MP
PP
0 0 0 0 0 0 0 0 4715 1838 5 MP
PP
0 0 0 0 0 0 0 0 5135 2029 5 MP
PP
c9
0 0 0 0 0 0 0 0 4677 1563 5 MP
PP
0 0 0 0 0 0 0 0 1591 1604 5 MP
PP
0 0 0 0 0 0 0 0 448 1643 5 MP
PP
0 0 0 0 0 0 0 0 4715 1761 5 MP
PP
0 0 0 0 0 0 0 0 4715 2105 5 MP
PP
0 0 0 0 0 0 0 0 4677 1799 5 MP
PP
0 0 0 0 0 0 0 0 4715 1838 5 MP
PP
0 0 0 0 0 0 0 0 5135 2029 5 MP
PP
c11
0 0 0 0 0 0 0 0 4639 1604 5 MP
PP
c10
0 0 0 0 0 0 0 0 4677 1563 5 MP
PP
0 0 0 0 0 0 0 0 1591 1604 5 MP
PP
0 0 0 0 0 0 0 0 448 1643 5 MP
PP
0 0 0 0 0 0 0 0 4715 1761 5 MP
PP
0 0 0 0 0 0 0 0 4715 2105 5 MP
PP
0 0 0 0 0 0 0 0 4677 1799 5 MP
PP
0 0 0 0 0 0 0 0 4715 1838 5 MP
PP
0 0 0 0 0 0 0 0 5135 2029 5 MP
PP
c12
0 0 0 0 0 0 0 0 4639 1604 5 MP
PP
c11
0 0 0 0 0 0 0 0 4677 1563 5 MP
PP
0 0 0 0 0 0 0 0 1591 1604 5 MP
PP
0 0 0 0 0 0 0 0 448 1643 5 MP
PP
0 0 0 0 0 0 0 0 4715 1761 5 MP
PP
0 0 0 0 0 0 0 0 4715 2105 5 MP
PP
0 0 0 0 0 0 0 0 4677 1799 5 MP
PP
0 0 0 0 0 0 0 0 4715 1838 5 MP
PP
0 0 0 0 0 0 0 0 5135 2029 5 MP
PP
c13
0 0 0 0 0 0 0 0 4639 1604 5 MP
PP
c12
0 0 0 0 0 0 0 0 4677 1563 5 MP
PP
0 0 0 0 0 0 0 0 1591 1604 5 MP
PP
0 0 0 0 0 0 0 0 448 1643 5 MP
PP
0 0 0 0 0 0 0 0 4715 1761 5 MP
PP
0 0 0 0 0 0 0 0 4715 2105 5 MP
PP
0 0 0 0 0 0 0 0 4677 1799 5 MP
PP
0 0 0 0 0 0 0 0 4715 1838 5 MP
PP
0 0 0 0 0 0 0 0 5135 2029 5 MP
PP
c14
0 0 0 0 0 0 0 0 4639 1604 5 MP
PP
c13
0 0 0 0 0 0 0 0 4677 1563 5 MP
PP
0 0 0 0 0 0 0 0 1591 1604 5 MP
PP
0 0 0 0 0 0 0 0 448 1643 5 MP
PP
0 0 0 0 0 0 0 0 4715 1761 5 MP
PP
0 0 0 0 0 0 0 0 4715 2105 5 MP
PP
0 0 0 0 0 0 0 0 4677 1799 5 MP
PP
0 0 0 0 0 0 0 0 4715 1838 5 MP
PP
0 0 0 0 0 0 0 0 5135 2029 5 MP
PP
9 w
0 sg
0 10 5516 795 2 MP stroke
0 -16 31 0 -7 -11 42 -5 -5 10 35 -8 22 0 17 -10 
24 -5 29 -8 18 -10 14 -10 1 -10 -7 -12 26 -3 23 -5 
27 -2 25 -3 -7 -17 0 -14 -21 -5 -10 -12 19 -5 15 12 
17 7 15 0 12 7 11 -7 -20 -9 9 -5 12 7 13 -5 
-8 -11 -21 -7 -8 -7 24 4 24 5 0 14 -6 12 4 14 
15 10 5 -5 -14 -7 -1 -10 8 -9 14 -5 8 -14 -10 -9 
-7 -12 7 -11 3 -14 -4 -16 -24 -2 14 -7 1 -13 -5 -15 
13 -11 7 -11 16 -8 14 -6 16 10 -20 9 -10 8 -11 11 
0 11 -6 11 15 11 0 14 -1 15 0 28 13 12 -9 11 
-6 12 0 10 22 7 -5 7 8 10 16 -5 9 -12 9 -12 
3 -14 7 -12 19 -9 3 -12 -8 -11 7 -12 0 -9 -14 -4 
-8 -14 -11 -7 7 -13 13 7 10 9 17 4 14 7 15 2 
16 9 19 2 25 9 16 12 8 -9 -9 -7 -15 -7 -6 -9 
-8 -9 8 -7 11 -2 0 -9 11 3 0 15 14 -4 14 -9 
16 2 16 -2 5 -9 13 9 1 13 14 -7 14 -6 16 -5 
13 -6 17 -7 13 -4 0 -15 13 -7 15 0 8 9 14 4 
-9 11 -18 2 7 11 8 7 18 0 19 4 -14 -11 0 -15 
6 -13 -11 -4 0 -13 9 -8 12 4 15 2 10 -9 15 -6 
13 -8 -8 -11 -7 -12 18 2 12 4 14 6 13 3 6 -9 
-11 -10 -12 0 0 -12 19 0 16 10 16 6 0 35 15 11 
13 6 9 13 -14 -9 -18 -4 -15 -6 -14 -2 -15 -2 -17 -5 
-17 3 -17 6 -10 8 0 13 5 11 14 9 15 6 15 9 
16 9 17 7 21 4 21 2 0 9 16 5 12 -5 19 2 
19 10 -19 -3 -18 10 16 6 16 7 21 5 14 -16 3 11 
16 -9 -2 16 13 -4 9 -10 14 7 15 -7 13 -11 20 -5 
19 0 13 -13 16 -5 0 -9 -8 -2 13 -9 2 9 10 -7 
-4 14 13 -9 14 -7 -9 -6 20 -5 12 -11 -17 9 -15 2 
-18 2 18 -13 5 -10 13 -11 7 -11 5 -10 7 -11 6 -12 
13 -9 10 -14 9 -10 9 -10 9 6 6 -10 8 -8 15 -2 
10 -10 10 -8 11 -8 -5 -8 7 -7 -3 -10 -1 -10 -8 -9 
5 -8 -2 -7 -12 2 8 -8 1 -9 -6 -6 -13 -5 -12 -2 
-13 5 -8 8 -11 9 -8 0 -5 8 -7 -6 -4 -13 -5 -11 
-5 -13 -5 -11 -9 -9 3 -7 -5 -9 0 -7 -10 0 -9 0 
2 7 -8 9 -10 0 -9 0 -6 12 -3 13 -3 9 0 11 
-2 8 -11 7 -12 6 5 4 -9 5 -4 6 4 8 10 7 
11 8 1 9 -3 12 -1 12 -5 6 -10 12 -12 8 -10 6 
-13 6 -5 8 -10 8 10 6 -7 8 1 7 -9 4 -6 8 
-12 -2 -10 0 -10 2 3184 768 300 MP stroke
-13 -8 0 -13 11 -4 8 -12 13 -10 13 -12 13 -10 6 -12 
-1 -12 -7 -12 5 -11 0 -8 -11 -6 -8 -5 -14 -4 -14 2 
-14 3 -14 4 -14 4 -17 0 -12 -9 -10 1 -6 -9 15 4 
13 -8 6 -5 17 0 13 3 14 -2 13 -1 10 -6 0 -9 
-3 -10 -9 -2 0 -22 7 -5 9 2 5 7 8 6 11 -2 
5 -11 5 -8 0 -12 -1 -11 5 -10 12 -6 3 -9 8 -3 
9 0 5 10 13 -1 12 -4 11 -7 12 -2 13 -5 8 2 
9 3 -7 4 5 7 7 -5 10 -2 6 -4 8 -5 9 0 
-3 7 14 5 0 6 9 5 -5 11 -7 10 -10 4 0 7 
9 0 0 7 -4 9 0 8 11 -2 6 -7 11 -2 7 -6 
2 -7 0 -11 -1 -9 -8 -5 0 -11 -5 -7 5 -3 -5 -5 
7 -6 1 -7 8 4 10 0 5 -5 14 0 9 -4 0 -8 
-7 -2 0 -5 7 -5 6 3 0 10 5 -1 3 -9 3 -7 
5 -6 7 -7 9 -4 10 -5 9 -3 2 -7 2 -8 6 -3 
8 -2 6 -3 2 -8 9 1 8 -1 4 8 9 0 -5 -10 
-3 -12 9 0 10 -1 5 6 10 -1 8 -4 9 -1 -1 -10 
-7 -3 -7 0 -9 -5 -10 -2 -3 -3 -6 -6 1 -5 -4 -5 
-8 -5 -3 -8 1 -11 1 -11 1 -7 3 -11 4 -5 8 -2 
8 2 13 2 13 -4 10 4 11 1 12 -1 10 0 11 4 
5 -8 9 -1 4 -5 -6 -10 1 -8 -1 -6 -3 -9 2 -8 
2 -9 1 -10 5 -6 2 -9 -4 -6 -6 0 1 -9 0 -9 
2 -7 -9 1 -7 -1 -6 3 -7 0 -7 -5 -3 -4 -5 -9 
-8 -3 -7 8 -8 3 -9 1 -9 0 -9 0 -8 0 -6 7 
-7 9 -8 0 -2 7 -6 6 -8 6 7 6 1 8 -5 7 
-7 9 -8 11 -7 3 -9 3 -9 6 -8 4 2 11 1 9 
-9 5 -7 5 -8 -4 -11 -1 -8 -5 -9 2 -7 6 -9 5 
-8 3 -4 6 -7 3 -7 -1 -5 -4 -9 -1 -2 -9 -3 -8 
-8 -8 -1 -6 -8 0 -7 -8 -7 -7 -7 -5 -10 0 -7 -6 
-6 -4 -5 -2 -4 -7 -10 -3 -2 -6 -3 -8 -2 -7 4 -5 
3 -7 0 -4 -5 0 -3 4 -5 4 0 8 -8 3 0 7 
8 5 -3 9 -3 6 -7 -3 -7 -2 -2 -6 -5 -1 -2 6 
7 7 8 5 8 4 9 5 7 3 -4 6 13 0 9 4 
8 5 3 5 2 7 4 8 7 5 6 4 7 7 1 6 
-2 6 3 5 -1 6 -6 0 -8 5 -7 -2 2 -4 -1 -7 
-4 -5 -5 4 -1 6 -11 -6 -1 -8 -4 -5 0 -6 -9 -5 
-3 -4 -9 -2 -12 -8 -9 -7 -8 -5 -8 -6 -8 -5 2 -7 
1 -11 0 -9 -7 -4 -5 -8 -3 -6 -6 -9 -6 -7 -11 -2 
-12 2 -5 -6 -9 -1 3169 1345 300 MP stroke
-7 -6 0 10 -9 -3 6 3 1 6 7 3 5 4 2 6 
6 6 5 8 -2 10 -7 -7 -8 0 -2 4 3 5 -7 0 
-4 4 -8 -1 -6 1 -9 -1 -5 -6 -8 1 7 -6 0 -4 
-7 6 -7 6 -5 4 -12 2 -10 0 -9 -6 8 -2 -1 -4 
8 0 11 0 8 0 9 0 7 -6 2 -11 -12 2 2 -5 
-1 -10 -3 -5 4 -1 5 4 1 -6 -7 -3 -7 -2 2 -6 
-7 -5 5 -6 -7 0 -8 0 3 -4 -9 0 -10 -7 -8 -3 
-11 4 -3 7 -9 -1 -11 -4 -4 -6 -8 -3 -6 3 -6 0 
-8 6 -6 5 -11 -4 -5 0 -7 6 -1 -4 5 -6 -3 -6 
3 -6 0 -11 -2 -9 5 -7 4 -10 4 -9 3 -8 2 -9 
5 -8 5 -6 12 -1 9 -1 5 4 2 -6 7 3 -2 6 
10 1 9 -1 9 -5 8 -4 8 -1 8 4 9 0 8 3 
6 3 9 1 9 1 9 -1 4 7 9 0 9 3 8 1 
2 7 9 3 10 2 9 -2 8 -3 9 -7 4 -5 -2 -6 
-2 -7 3 -7 5 -4 6 -3 8 1 8 6 10 6 12 2 
9 2 8 4 4 4 0 9 9 3 9 4 9 1 11 2 
10 0 8 2 9 5 2 7 6 -2 7 3 1 7 -5 5 
-6 5 -4 8 1 7 5 3 3 10 -5 3 -4 7 10 -4 
4 8 7 2 8 -2 6 -4 8 -2 11 3 7 -3 11 3 
7 -4 7 -1 5 2 9 2 9 0 6 -2 8 0 8 -2 
10 -2 11 -1 8 -5 7 -5 8 -2 8 -1 3 -6 11 -4 
7 -2 9 4 7 -1 10 0 6 -1 10 5 4 6 8 -1 
3 -9 3 -7 4 -7 4 -8 9 -5 8 -3 8 -4 5 -7 
6 -6 0 -6 4 -7 5 -4 0 -14 -4 -6 4 -9 5 -7 
7 -7 9 -4 5 -7 10 -4 11 -2 5 -7 3 -8 4 -5 
7 -4 4 -4 3 -8 2 -7 4 -10 6 -6 5 -7 4 -7 
4 -11 4 -6 5 -4 1 -8 2 -8 -7 -6 -6 -6 0 -8 
5 -5 -5 -8 -3 -8 0 -8 1 -8 3 -8 3 -8 0 -10 
5 -6 4 -7 6 -4 -6 -4 -4 -8 -2 -9 2 -7 0 -9 
-7 -4 -6 -4 -6 1 -2 -10 -6 -3 -5 -6 -4 -7 -6 -3 
-7 -7 -5 -6 -1 -8 -1 -6 -3 -7 -7 -7 -8 -4 -8 -4 
-6 -6 -10 -6 -8 -7 -6 -5 -8 -5 -9 -7 -7 -2 -6 -1 
-8 5 -9 1 -6 5 -9 1 -9 2 -7 1 -7 0 -12 -3 
-7 -1 -9 -4 -6 4 -8 3 -6 1 -7 4 -9 5 -10 0 
-4 5 -8 2 -8 2 -8 0 -9 1 -9 0 -7 -3 -8 -6 
-4 -10 -2 -10 -9 -5 -8 0 -7 1 -8 1 -7 0 -7 1 
-6 0 -1 -7 -7 -2 -4 -6 -5 -6 3 -9 1 -9 3 -6 
3 -7 -5 -2 4 -7 2953 1945 300 MP stroke
0 -7 1 -8 8 -5 -4 -8 -2 -7 -5 -7 -5 -7 -8 -5 
-5 -5 -5 -5 -5 -6 -4 -6 -5 -6 -4 -7 0 -6 -2 -4 
-2 -6 -4 -5 -3 -8 -2 -8 -3 -6 -3 -8 6 -7 -2 -4 
-3 -8 -3 -6 -4 -6 -2 -8 2 -9 2 -7 4 -6 6 -4 
5 -7 3 -9 3 -9 2 -8 1 -7 4 -8 0 -8 1 -8 
0 -6 -1 -8 -4 -9 -5 -6 -4 -6 -3 -8 -5 -8 -3 -9 
-5 -7 -3 -7 -6 -6 -3 -7 2 -7 -2 -9 0 -8 -1 -7 
-4 -9 0 -8 -1 -7 -2 -8 -3 -10 -1 -8 -5 -6 -4 -6 
-8 -6 -5 -7 -2 -9 -4 -7 -3 -10 -3 -7 -6 -7 -5 -10 
-1 -10 4 -4 4 0 -7 -10 -2 -7 0 -7 -5 3 -7 -6 
-6 -6 -9 0 -5 4 -9 2 -10 0 -5 4 -9 2 -9 -2 
-6 3 -9 -3 -8 -1 -5 4 -10 0 -4 4 -9 0 -7 2 
-7 5 -8 6 -7 4 -5 6 -6 7 -5 6 -7 5 -6 7 
-4 7 -4 9 -5 7 -4 6 -7 6 -7 4 -2 8 -3 10 
-2 8 0 12 5 3 -5 10 -8 2 -5 3 -10 4 -8 3 
-5 4 -4 8 2 8 -2 7 0 9 3 7 2 10 3 10 
5 5 -1 8 -7 5 -5 4 -5 7 -6 2 -6 8 -5 7 
-5 6 -8 3 -6 2 -11 2 -5 5 -7 7 -5 5 -6 6 
-3 7 -2 8 3 9 0 7 2 9 -1 9 0 7 1 8 
-1 7 0 8 5 5 5 4 3 8 4 9 1 10 0 9 
-4 8 7 7 6 8 -3 8 -2 7 -4 8 -4 6 -5 9 
-5 9 0 9 -6 -1 -7 6 -6 5 -4 8 -5 5 -5 7 
-8 7 -3 6 -7 5 -6 4 -6 6 -7 5 -7 3 -7 5 
-6 5 -5 6 -7 7 -5 5 -6 6 -4 7 -4 7 -5 5 
-6 5 -2 9 -3 7 -4 7 -4 7 -2 7 -4 6 -4 6 
-5 8 0 9 -4 6 -1 9 -1 12 9 2 6 -6 9 -3 
9 -2 7 1 8 -3 9 0 9 -5 7 -1 9 1 8 -4 
7 -2 8 1 5 4 5 6 5 5 5 4 -7 4 2 8 
7 6 6 7 5 6 8 7 6 7 8 3 9 4 3 8 
6 1 3 7 2 7 1 9 4 8 4 7 7 7 8 3 
4 10 1 6 1 9 -1 8 0 6 5 6 0 10 5 2 
6 4 5 4 4 8 1 6 -1 6 5 6 4 8 4 7 
4 8 2 7 5 8 2 7 3 5 2 7 5 6 5 6 
4 7 1 7 4 7 -4 3 -3 -7 -3 -8 -4 -6 -3 -5 
-5 -6 -6 -5 -4 2 0 7 -4 10 -5 10 0 -9 3 -8 
2 -8 -8 0 -5 -7 -3 -7 -5 -8 -6 -8 -5 -6 -5 -8 
-2 -8 -4 -8 -8 -4 -6 -6 -5 -8 -4 -8 -1 -8 1 -5 
-1 -7 -1 -9 -5 -5 3412 1634 300 MP stroke
-3 -6 -10 -2 -7 -7 -3 -8 -4 -8 -4 -7 -4 -7 -5 -4 
-5 -8 -4 -8 -1 -6 1 -7 -1 -7 -3 -10 -2 -9 -3 -3 
2 -8 -5 -8 -7 -1 -7 1 -8 1 -8 3 -4 5 -6 0 
-7 -1 -8 1 -5 4 -6 5 -8 0 -8 3 -5 6 -7 4 
-9 3 -8 2 -8 3 -7 3 -8 2 0 5 -2 5 -8 4 
-8 3 -7 4 -8 1 -6 -1 -7 4 -2 8 -8 2 -6 2 
-4 2 -2 8 -5 4 -7 1 -6 3 2 7 -1 8 -4 6 
-6 0 -4 7 -4 5 -5 4 -3 8 -4 8 6 4 5 7 
4 6 9 3 7 1 8 4 6 6 7 7 0 17 -2 4 
4 2 3 -6 6 -4 5 -5 5 -6 8 -5 4 -7 6 -1 
9 1 8 0 5 -4 9 1 2 5 6 0 -5 8 -1 8 
1 8 4 5 4 -1 1 -7 5 -7 3 4 5 7 -1 7 
2 7 7 5 6 7 6 7 4 7 4 8 2 8 7 3 
-9 3 -4 7 -5 8 -5 -4 -5 -4 -7 3 -5 -6 -5 -10 
-6 -8 -3 -8 -3 -7 -11 -3 -6 -4 -6 -7 -8 -1 -5 -6 
-7 2 -7 -4 -9 4 -6 2 -8 3 -7 0 -5 -5 -2 -7 
-2 -8 -10 -1 -9 -2 -9 -3 -8 -1 -7 0 -9 -1 -7 -2 
-10 -1 -9 1 -7 2 -9 0 -5 2 -7 -2 -6 -2 -8 2 
-6 1 -8 1 -7 -1 -4 -5 -5 -4 -3 -7 -1 -7 -8 -3 
-6 -4 -5 -6 -8 -6 -8 0 -9 3 2 -8 8 -3 9 0 
-4 -8 -5 -5 -7 -7 -7 -4 -9 0 -8 3 -6 5 -1 10 
-3 6 -4 -1 2 -8 -2 -7 -3 -6 1 -10 1 -7 -2 -8 
-3 -4 3 -6 -3 -9 -3 -9 -1 -8 -1 -9 -3 -6 -3 -8 
-5 -8 -6 -8 -1 -8 -2 -7 -3 -8 -2 -9 -4 -7 -5 -6 
-4 -6 -3 -8 -2 -8 -3 -9 -2 -9 -5 -6 -6 -5 -6 -3 
-6 4 -3 9 -6 4 -6 1 0 8 -5 7 -8 0 0 9 
1 7 0 8 -4 6 -3 8 -2 9 2 9 1 9 1 9 
-1 7 -4 6 -9 -1 -3 6 -5 1 -7 2 -4 4 -1 6 
-4 3 -6 4 -5 6 -6 4 -6 3 -6 5 -5 7 -4 5 
-6 5 -7 2 -8 2 -5 7 -3 6 1 6 -3 5 -7 3 
-7 2 -2 6 -3 -10 -6 2 -8 1 -7 1 -8 2 -5 5 
-5 4 -8 5 -5 -6 -2 -7 -2 -7 -2 -6 -5 -7 -7 -7 
-3 -5 -5 0 -4 -6 2 -4 -3 -7 -6 0 -2 -8 -3 -9 
-1 -9 3 -9 2 -8 -7 -4 -5 -1 -7 0 -5 5 -6 4 
-8 4 -3 5 -5 -3 -5 -6 -2 -8 -1 -8 -2 -9 -2 -8 
-3 -9 -5 -9 -2 -9 3 -9 -3 -8 0 -6 3 -5 0 -17 
4 -9 0 -7 -2 -7 -4 3 -6 -7 -6 -7 -5 -5 -5 -6 
-3 -9 0 -6 -2 -9 4341 1875 300 MP stroke
-4 -5 2 -7 -5 -8 -7 -7 -1 -7 -8 -5 -5 -5 -7 -4 
-7 -4 -5 -4 -11 0 2 9 5 9 5 5 0 31 6 7 
6 5 6 5 7 6 5 6 9 1 5 4 2 9 3 8 
5 5 1 10 8 -1 2 8 0 8 -2 9 -4 6 -3 7 
-2 7 0 10 -1 9 -7 3 -7 -3 0 -9 -8 -1 -6 0 
-7 -7 -5 -2 -4 -5 -2 -7 -4 -6 -6 -5 -9 0 -4 -6 
-8 -2 3 -8 0 -8 -3 -6 -6 5 -6 5 -8 2 -5 6 
0 9 -9 0 -6 4 -7 4 -6 4 -8 3 -2 6 0 6 
-1 10 0 15 1 7 2 8 3 9 6 7 5 6 7 5 
7 7 5 6 7 7 1 5 6 6 6 9 -3 8 -3 6 
-7 5 -4 7 -6 5 -8 4 -6 4 -8 3 -8 0 -6 -4 
-5 0 1 -7 -1 -4 -3 -6 -5 0 -3 2 3 7 -2 5 
-8 3 -9 1 -7 4 -8 2 -8 2 -1 8 -6 -5 -3 8 
-7 -7 -5 7 -8 0 -8 1 -7 2 -8 4 -8 5 -6 4 
-6 5 -5 5 0 5 -8 0 -2 7 -6 4 -3 5 -4 7 
-1 5 1 7 -5 -1 -5 5 -4 7 -4 7 -4 6 -5 0 
-2 4 1 4 -3 8 -4 0 -1 10 -1 4 6 1 5 3 
9 -1 5 2 -7 2 -4 4 -5 3 -7 1 2 6 9 7 
-9 0 2 7 7 6 5 2 1 7 3 8 2 7 3 8 
9 4 8 5 -3 7 -4 6 -8 6 -7 4 -3 7 -10 3 
-8 4 -5 -3 -4 9 8 2 8 0 6 1 5 5 8 -3 
5 -5 4 -4 6 0 6 4 2 8 7 4 6 4 6 6 
-2 6 -5 6 -6 -3 -9 2 -4 4 -2 6 -8 5 -8 3 
-6 7 -6 6 -11 -1 -5 -8 5 -7 7 -5 2 -4 -5 -6 
8 -8 -6 2 -8 4 -5 6 -9 3 -8 3 -8 2 -9 -3 
-7 -2 -5 -3 4 -9 3 -7 3 -8 -8 -7 -12 2 -8 -6 
-2 -8 9 -1 -5 -10 -4 -10 6 -8 0 -8 -4 -9 -9 6 
-8 3 -12 1 -9 5 -3 7 -2 7 0 9 2 8 2 9 
5 8 5 5 4 8 6 6 8 4 -3 6 3 5 -8 1 
-6 3 -8 5 -7 6 -7 3 0 9 2 4 -8 9 -9 4 
-2 6 -5 0 -5 7 -4 5 -9 0 0 -6 -12 -5 -10 3 
-9 6 -10 5 -7 9 -3 8 -10 8 -9 9 -9 8 -6 8 
-5 8 -4 11 -8 8 -7 10 -11 10 -2 10 -3 8 0 11 
2 10 -2 10 -3 9 -5 8 -4 7 4 5 0 9 -4 8 
9 5 7 6 1 5 11 3 10 0 9 -10 14 -4 -6 7 
0 9 9 -2 7 -8 0 17 11 -2 10 4 2 5 -12 6 
-10 8 -10 8 -10 8 -9 11 -8 8 -10 7 -9 5 -5 8 
-6 7 -10 6 -6 7 4975 930 300 MP stroke
-10 6 -15 2 -15 0 -14 0 -5 -4 -9 6 -14 -4 -12 2 
-10 -2 -1 4 -1 5 -8 2 -10 -4 -10 -2 -8 2 -5 -5 
9 -6 -4 -6 -10 0 -14 4 -6 4 -10 -2 -18 2 5 6 
10 1 -5 12 -8 9 -11 8 -9 10 -9 9 -15 4 -14 2 
-10 -4 -13 4 8 -14 -2 -7 -3 -8 -13 8 -10 7 -9 8 
-10 2 0 10 -5 10 -18 4 -5 -4 10 -6 2 -12 3 -13 
4 -8 12 -4 12 -6 5 -7 10 -10 13 -9 6 -10 10 -9 
12 -9 11 -6 10 0 -2 -7 5 -9 10 -4 4 -11 4 -10 
1 -13 -1 -9 -3 -10 -2 -9 -3 -12 -1 -12 -5 -12 -1 -10 
0 -9 -3 -6 -10 6 -9 9 -8 12 -2 12 -9 7 -12 0 
2 8 -2 11 -7 7 -12 3 -7 -2 -7 6 7 9 1 10 
-5 9 -8 4 -6 -6 -6 4 2 11 6 3 0 9 -7 10 
9 5 7 -4 3 10 -6 9 -9 9 -4 10 -3 9 -12 4 
-9 -4 -9 8 -13 3 0 -13 -10 10 -10 5 -12 4 -14 -2 
-10 -6 -7 -7 -5 11 -13 6 -13 8 -11 7 -12 8 -11 2 
-11 8 -14 4 -12 6 -8 0 5516 849 125 MP stroke
2 1 19 6 23 0 20 3 20 2 22 2 0 -15 -6 -12 
8 -6 13 -3 4 9 15 5 1 9 -14 0 -3 6 17 5 
9 -9 11 -7 20 5 25 2 27 -2 24 0 18 6 -8 12 
5 11 13 7 20 3 23 2 22 -5 16 0 17 -2 0 9 
12 7 14 0 11 7 2 15 20 4 26 0 24 7 22 3 
21 2 27 3 -8 -10 22 0 6 -7 -5 -10 -8 -11 25 2 
29 -2 13 4 12 -2 9 -7 14 5 14 11 5 -11 4 -12 
11 -9 14 4 14 12 10 14 -11 12 -5 14 19 15 25 5 
32 7 28 0 3 -10 -8 -9 20 -3 31 3 23 4 -3 13 
22 0 20 5 17 -3 17 -5 13 17 -8 11 19 2 8 -5 
-19 -8 -3 -12 16 0 12 5 16 5 10 -7 -10 -8 20 -5 
19 -5 16 0 -10 13 -17 5 -21 12 -20 10 -23 13 -18 10 
-2 15 5 13 16 11 19 5 25 3 21 0 5 -8 22 0 
-17 16 4449 452 106 MP stroke
6 -5 0 -8 7 -3 -3 -10 0 -7 3 -3 -6 -2 -6 -8 
-1 8 -6 0 2 -5 3 -8 5 -3 7 -5 8 -6 0 -7 
-3 -7 -5 -8 5 -5 -5 -4 -7 -3 -5 -6 -5 -6 -3 -9 
-8 -5 -5 -8 -2 -7 -3 -8 -2 -8 -8 -10 -3 -8 -5 -7 
-2 -6 -5 -5 -3 -8 -5 -10 1 -8 -6 -7 -5 -6 -5 -5 
-10 -6 -8 -2 -7 -6 -11 -5 -5 -2 -7 -5 -8 -4 -5 -6 
-5 -3 -8 -6 0 -8 -1 -10 -3 -10 2 -8 0 -8 -2 -8 
2 -8 1 -8 4 -8 0 -16 1 -8 -1 -8 0 -7 4 -5 
-3 -10 5 -11 0 -8 4 -8 1 -9 4 -8 -3 -5 -1 -11 
5 -5 2 -8 -2 -10 -1 -8 0 -6 -3 -6 6 -11 -2 -8 
4 -6 1 -9 4 -8 5 -9 3 -9 2 -8 4 -3 0 -9 
7 0 2 -10 -4 -8 0 -7 -1 -7 -1 -9 6 -9 0 -11 
3 -7 -2 -8 -2 -6 -6 -1 -3 6 -8 -4 4 -6 -4 -3 
4 -3 0 -12 4 -8 -3 -6 6 -8 -3 -4 6 -5 -1 -6 
4 -10 1 7 3 3 -4 6 1 5 -2 4 5 7 6 -7 
4 -7 -3 -8 3 -5 2 -6 -2 -5 7 -2 -3 -4 11 -8 
0 -7 -8 5 -7 -3 -8 0 7 -11 1 -8 0 -10 6 11 
6 -1 2 -7 0 -8 2 -12 -2 -4 1 -9 -8 -1 5 -5 
0 -12 -12 15 2 -8 -2 -7 5 2 2 -10 5 -9 -12 5 
-3 7 -2 -10 2 -7 10 2 0 -10 -7 -4 -5 5 -3 -8 
-7 -2 0 -5 -5 -5 -11 -5 -7 5 -8 8 -6 -1 3 -7 
14 -5 -3 -6 -12 -3 -5 2 0 10 -2 10 -12 6 -6 0 
-1 5 -8 0 -10 -2 7 10 3 9 3 8 -3 10 -8 7 
-10 3 -2 10 -3 10 -8 6 -10 7 -7 6 -3 10 1 6 
12 0 7 7 7 6 1 10 -5 9 -5 5 -10 5 -9 0 
0 6 -6 3 0 10 1 6 -4 6 -10 6 10 3 -8 6 
-5 -6 -7 0 -2 5 3 9 11 -5 8 5 0 11 3 9 
-6 4 -7 -4 -8 -3 -12 0 -11 4 -1 6 3 5 -4 9 
-3 6 5 6 -1 7 -4 -4 -11 0 -12 1 -7 2 -10 1 
-10 3 -8 3 -9 4 -3 8 -6 7 -5 9 1 9 7 1 
3 7 -3 9 5 6 12 5 3 6 -3 6 -7 -7 -10 0 
-6 -5 -8 -2 -9 1 -10 -1 -8 1 -8 4 -6 6 -1 6 
-8 5 -6 9 -3 8 -6 6 -8 6 -7 5 -5 9 -6 8 
-2 9 -5 8 -6 8 -7 6 -4 2 -2 9 -1 8 1 8 
0 19 -6 7 -7 7 -7 7 -7 6 -8 3 -8 5 -5 -2 
-7 8 -7 0 2 5 -10 1 -8 -1 -7 0 -8 1 -8 0 
0 7 -7 4 -8 4 0 8 -2 8 -8 8 -2 8 -8 8 
-1 8 0 8 -2 7 2209 2230 300 MP stroke
-5 6 0 7 -1 10 -2 9 1 8 0 7 1 8 -1 8 
-1 10 -8 5 -6 7 -7 9 -4 8 -5 7 -4 4 -7 5 
-4 7 -6 6 -4 7 -4 7 -4 8 -1 10 1 8 3 9 
2 9 4 9 9 2 8 -1 7 1 5 5 8 4 5 5 
5 5 8 5 7 5 8 6 8 0 7 -3 8 0 7 4 
8 0 8 4 7 1 8 -4 9 -2 -3 7 4 6 3 7 
7 -3 3 5 10 3 8 2 9 5 8 0 6 -2 5 -11 
3 2 -2 6 -3 11 9 2 8 -1 7 1 7 -4 0 -9 
2 -10 4 10 9 -3 -1 8 -3 8 -6 5 -5 5 -7 8 
-1 11 9 2 3 10 5 10 0 9 7 8 5 3 8 5 
6 6 8 3 6 3 5 1 8 3 8 1 7 0 8 -1 
7 0 9 1 4 5 5 4 8 5 6 -1 -1 6 3 6 
7 6 8 5 9 5 11 -3 -3 9 3 8 9 3 6 2 
5 -1 5 6 6 5 -13 3 9 0 10 0 9 0 7 -7 
8 -2 9 1 6 3 3 4 6 0 6 -2 9 0 9 -1 
3 5 1 7 6 3 8 2 6 0 3 10 6 -4 -2 -6 
6 -4 6 -3 7 -2 0 -9 -5 -9 0 -9 9 -3 1 7 
4 5 -4 7 -4 6 3 6 3 8 -7 2 -4 7 2 4 
6 1 5 -4 3 -5 7 -3 5 -4 8 -3 10 1 4 -5 
6 1 6 -3 4 -5 1 -7 0 -8 7 -1 3 -7 8 -6 
0 -12 6 8 5 5 6 5 6 5 6 2 7 2 7 0 
4 -5 8 -3 7 -2 9 -3 5 4 7 0 2 7 6 4 
7 5 4 6 4 6 2 7 -2 6 0 8 -3 9 0 17 
-4 6 0 12 3 3 6 2 6 7 7 1 5 1 7 -1 
8 1 8 -2 7 -2 9 3 9 -4 6 4 7 3 -8 5 
-4 10 0 8 -1 13 -4 -6 -4 8 -1 9 -1 8 -1 8 
-3 7 -6 7 0 7 3 2 8 0 6 2 8 -2 8 -2 
7 -2 8 -1 5 -3 1 -9 2 -6 2 -6 0 -6 5 -3 
5 -4 -1 -4 9 -2 0 2 9 1 9 -3 9 -2 9 -2 
5 0 5 5 7 2 8 3 5 7 4 6 4 8 5 5 
3 6 3 6 -3 6 8 5 3 8 -3 7 0 24 -3 8 
-2 8 -4 7 1 7 0 8 3 8 -1 8 -5 6 -8 5 
-8 6 -7 1 -5 4 -5 4 3 7 -5 3 0 -7 -7 4 
-7 2 -8 1 -8 -3 -8 -1 -6 4 -8 -5 -1 -6 -8 -1 
-8 1 -6 3 -5 -2 -3 -4 -3 3 8 6 0 2 -4 3 
-1 4 6 0 6 -1 5 1 -3 7 -8 -4 -8 4 -6 0 
-8 -1 -4 4 -2 -6 -8 0 -7 2 -8 1 -5 -4 -8 -3 
-2 -7 -8 2 -6 4 1524 1481 300 MP stroke
-8 1 -6 -5 -6 -10 -4 -1 -3 -9 1 -6 0 -6 -5 1 
3 -8 -1 -5 -5 -6 -4 -7 -4 -8 -6 -5 -3 -7 -6 1 
-4 3 -4 8 -1 10 0 9 4 10 3 10 0 5 6 8 
2 9 4 8 1 8 1 9 -3 8 -4 8 -8 8 -7 4 
-8 5 -5 6 -4 6 -7 4 -7 1 -6 6 -7 6 -9 1 
-3 5 7 0 -7 5 -5 0 -3 5 0 6 6 0 8 0 
-6 2 -5 2 -4 -2 -4 -5 4 5 1 8 3 5 6 6 
0 6 -1 8 9 5 -8 -1 1 6 1 9 -2 6 -6 3 
2 -6 0 -6 3 -8 -7 -3 2 -4 -5 0 2 -6 3 -9 
-4 2 -3 9 -5 7 -4 4 7 11 2 9 -5 -3 -4 -6 
-7 6 -5 9 -3 9 5 3 -5 6 -7 4 -8 3 -8 0 
-7 0 -8 3 -3 6 -3 -4 -7 3 0 -3 -10 3 0 6 
0 -5 8 0 2 8 5 3 -3 5 1 4 -4 6 -5 7 
0 3 -8 3 -8 3 -6 8 -3 -3 -9 3 -8 3 -8 4 
0 7 -11 0 -10 3 -12 6 2 -6 -10 2 10 -7 6 -3 
9 -6 4 -8 -3 -8 -7 -4 -8 6 -8 6 -5 6 -7 0 
-10 5 -16 5 -12 3 -3 6 -9 3 -9 7 10 6 -1 9 
4 4 5 -8 8 -8 0 -8 7 1 9 -3 10 2 12 6 
9 3 5 10 1 11 -3 8 13 -3 10 10 -15 0 -8 3 
-8 5 0 6 5 5 10 4 11 -2 12 -2 10 -5 9 -3 
10 -5 9 -6 6 -8 6 -7 7 -6 10 -4 -6 7 -5 6 
-7 7 -5 6 -6 8 -9 7 -10 8 -10 0 -3 8 -6 7 
-12 3 -9 0 -10 0 -11 2 -9 -2 -9 0 -10 0 -8 -3 
-11 2 -14 0 -8 6 -6 7 -6 7 -13 5 -16 1 -10 7 
-7 5 5 14 -3 9 10 10 12 0 1 9 15 1 -12 7 
7 6 14 1 5 8 17 1 2 9 13 6 6 7 0 10 
-6 8 8 5 0 8 7 7 8 11 6 11 9 11 8 12 
5 7 8 -7 6 -6 -5 -7 6 -10 12 -5 5 -8 15 -5 
10 13 9 1 8 10 0 7 -2 12 4 9 -2 10 11 2 
11 0 12 5 -4 8 11 6 11 8 11 6 18 -4 10 0 
14 4 15 2 10 -6 0 -10 -9 -6 4 -9 5 -10 -7 -6 
-3 -11 0 -10 8 -9 10 -2 1 -7 -9 -8 -9 -4 -5 -12 
-2 -10 -4 -12 0 -15 8 -9 11 -8 12 -8 11 -5 -5 -9 
-4 -8 -1 -12 0 -11 -6 -10 8 -10 13 -7 -1 -7 10 7 
5 9 8 6 6 9 10 8 -2 11 0 8 3 9 -3 16 
12 5 16 0 15 0 15 9 13 4 10 3 9 9 14 7 
15 4 15 7 12 -3 8 -4 0 7 6 10 0 9 6 13 
10 2 10 -2 5 9 1367 928 300 MP stroke
0 11 -1 14 -4 9 -3 10 -8 11 -8 10 -10 4 0 12 
-14 4 -15 4 1 12 -10 14 -23 0 -11 12 -12 12 0 13 
-15 17 11 8 -19 2 -6 -6 -20 -4 -17 10 -19 11 -4 15 
19 6 0 13 -16 7 0 16 21 4 3 9 20 4 19 0 
0 -13 -1 -16 0 -15 17 -9 0 -10 11 -5 14 15 -3 13 
0 11 15 14 15 -18 11 13 10 12 17 6 -17 12 9 13 
12 10 12 11 11 14 -11 10 8 9 -14 5 -18 0 -9 12 
-10 13 -7 7 15 6 30 4 31 -5 6 -12 -5 -13 -4 -14 
0 -26 13 -7 6 -15 8 -15 -17 -17 -25 -11 10 -11 -6 -13 
14 -13 5 -1 5 -12 15 8 1 15 -20 9 13 16 23 13 
10 -13 15 -9 -24 -11 10 -9 1 -15 19 -2 27 4 19 7 
24 9 17 14 19 -4 20 -4 12 -9 -18 -6 5 -11 16 4 
16 7 20 -5 21 -4 18 4 18 0 -4 9 -15 4 9 11 
20 6 23 1 20 6 22 7 16 9 26 0 7 -12 13 1 
2 16 13 -16 13 5 8 13 20 14 8 -16 14 -5 6 12 
20 -7 22 -9 11 -8 13 6 15 -2 12 -9 1 -12 20 7 
15 9 18 7 23 1 13 5 15 7 18 0 16 -2 17 6 
20 0 23 7 20 0 18 0 15 11 28 0 8 7 23 6 
19 -13 21 -1 22 -11 18 -3 16 -11 5 -13 8 -10 20 -4 
18 -2 3 -14 -14 -9 -19 -8 -8 -13 -15 -9 -12 -10 7 -9 
24 0 1 11 13 0 16 -6 17 -7 15 -10 -9 -4 -14 -2 
5 -9 -5 -8 -21 -4 -19 2 -16 -4 -11 6 -14 4 4 -10 
-8 -10 4 -12 19 -2 11 -10 14 6 12 -6 2 -8 11 -12 
7 -16 -11 -9 -5 -12 -9 -11 -8 -10 -13 0 -12 10 -8 -14 
4 -7 -5 -9 -9 3 -22 0 -10 -11 -4 8 -10 -2 -9 2 
2 -13 2 -13 10 -8 10 -9 14 -7 9 -11 14 -1 14 -6 
9 -9 15 -5 16 -9 -3 -5 -16 7 -13 7 -13 4 -9 5 
-14 3 -14 6 -12 3 -5 9 -12 6 -15 7 -8 9 -14 9 
-14 8 -7 7 -8 9 12 4 -4 8 -12 5 -9 10 -3 11 
-9 8 -15 7 -12 0 8 -7 14 -4 1 -13 8 -12 -8 -4 
8 -7 -16 2 -11 7 -10 8 -13 0 -8 11 3 14 -13 -4 
-12 0 -11 -6 -15 -8 -15 -5 -15 0 -16 0 -14 -6 -12 -2 
-9 6 -3 -11 -12 -6 -12 -9 -10 -8 -11 -5 -5 -11 -11 -10 
-5 -11 -6 -12 0 14 4 13 0 11 10 7 -8 0 -2 10 
-5 -10 1 -7 -4 -11 0 -9 -8 5 -3 8 -5 -8 -7 -7 
13 4 8 -8 -3 -10 -8 1 0 -8 -3 -8 -6 -5 -8 -5 
-7 -9 0 12 8 13 6 9 -7 -4 -8 0 1 -7 -5 -9 
-6 -7 -9 -5 -10 3 828 1019 300 MP stroke
5 -10 -4 -6 9 -5 -6 -10 -9 -5 -9 -13 -12 -5 -3 -10 
-7 -7 0 -6 -11 -7 -12 -3 -11 -5 -9 -7 -9 -7 -9 -5 
-9 5 0 -9 -6 -5 -5 -9 2 -3 -5 -8 4 -10 1 4 
7 -4 -7 8 9 5 11 0 12 5 2 -5 -3 -5 -4 -8 
-4 -9 -1 -7 -1 -6 -12 -3 12 0 0 -7 -1 -7 2 -8 
0 -10 1 -9 3 -11 4 -11 -1 -9 -4 -6 -3 -9 1 -9 
4 -9 0 -5 -5 -4 -4 -6 0 -6 -1 -8 -5 -6 -6 -4 
1 -6 -8 -1 0 4 -5 -2 3 -2 -4 -8 6 5 -1 -8 
-4 -6 -5 0 0 -7 1 -4 -7 -6 -5 -7 -8 -9 0 -9 
-11 -2 -9 -3 -8 -3 -5 0 -1 -6 -5 0 -8 -5 -4 -8 
-2 -8 -5 -9 -3 -7 -4 -5 0 -4 -5 -5 0 -7 -4 -1 
-1 -10 -7 -2 -8 -7 -5 -6 -5 -5 0 -7 6 -4 9 1 
-8 -6 -2 -5 -5 -3 -7 -4 -6 0 -5 -5 -8 -4 -4 -8 
0 -9 4 -5 -10 -4 -6 -5 -7 -7 -7 -6 -5 -10 -9 8 
5 6 6 9 7 0 3 6 -2 3 5 5 0 6 5 8 
3 8 7 8 5 8 7 6 2 8 5 7 7 7 5 7 
6 4 4 6 -1 7 2 7 1 7 -1 5 -9 -4 -5 1 
-5 -4 -6 -3 0 -7 -4 -8 -1 -5 -5 -7 -4 -9 -8 -8 
-7 -8 -9 -2 0 -8 -9 -7 -4 -5 -4 0 -4 -6 3 -5 
0 -4 -6 -4 -11 -4 -5 -10 -6 -5 -6 -6 -7 -8 -5 -5 
-6 -7 -5 -5 -3 -11 -5 -4 0 -5 5 -5 -2 -4 5 -4 
-5 -8 -7 -8 -9 -4 -7 -5 -5 -7 -11 -4 -8 -1 -4 0 
-7 -5 -8 -7 -8 -3 -8 -2 -7 -4 -8 -1 -7 -4 -8 -4 
-9 -1 -9 -3 -9 -3 -9 4 -7 4 -8 0 -6 -1 -7 -3 
-6 -4 -4 -3 -6 -7 -7 -5 -5 -5 -7 -4 -8 -3 -7 0 
-8 -4 -4 -4 -6 0 -8 -3 -6 0 -9 0 -3 3 -5 -6 
5 0 -5 -7 -5 -5 -6 -6 -6 -5 -7 -5 0 -7 1 -6 
-2 -7 -5 -1 -3 -2 -5 5 -4 -5 -8 -6 -5 -5 1 -7 
-8 -2 -4 -4 -4 3 -7 -1 -8 -3 -4 -5 -7 0 -1 -9 
-7 1 -7 4 6 5 1 5 -6 3 -5 4 -4 6 -5 0 
-6 -4 -4 -6 -5 0 4 -5 -4 -9 -7 -6 -5 -7 1 -6 
-1 -10 0 -8 -1 -8 2 -7 -5 -5 5 -7 4 -9 9 0 
5 -7 -1 -7 6 -1 -2 -6 7 -4 11 -5 1 -10 1590 1952 264 MP stroke
-7 -3 -7 -8 -9 -3 -7 0 -9 0 -9 0 -4 4 -6 6 
-6 0 -5 7 -5 1 -11 2 -9 0 -9 0 -10 0 -7 0 
-8 0 -6 5 -1 9 -11 3 -7 3 -9 5 -6 3 -11 -1 
-9 1 -7 2 -9 4 -8 3 -9 1 -10 0 -7 0 -8 0 
-8 -3 -6 -4 -9 0 -9 -3 -7 -3 -7 -4 3 -7 -10 -4 
-3 -9 -4 -7 -2 -7 -4 -7 -4 7 -6 6 -7 5 -7 5 
-4 8 -5 6 -1 -13 5 -7 1 -9 1 -5 7 -3 1 -5 
-6 2 -7 0 -2 7 -3 9 -5 -8 -2 -5 2 -8 4 -4 
-10 2 -8 -6 -5 -7 -4 -8 3 -4 -3 -6 -5 -6 -6 -6 
-8 -1 -4 -6 -5 3 -7 -1 -7 -2 -6 -5 -6 -2 -8 6 
-6 4 -7 7 -2 -10 -8 3 -1 -8 -6 -4 -7 -4 -6 8 
-7 5 -8 6 -6 3 -8 1 -11 0 -7 5 -1 7 0 7 
-3 9 -1 9 -5 8 -4 6 -4 10 -4 9 -2 7 -5 7 
-7 4 -4 7 -3 7 -3 7 -2 9 0 7 -4 10 -2 8 
-1 8 -2 6 2 8 3 10 2 8 2 9 0 7 3 10 
4 6 7 9 5 8 7 2 5 6 3 6 0 8 6 4 
7 6 3 -6 4 8 3 8 2 6 5 4 0 6 8 4 
8 6 5 6 7 1 9 6 2 5 3 5 -1 8 1 8 
4 5 5 7 0 9 3 8 0 7 6 6 5 5 8 -3 
5 3 2 9 0 8 4 9 4 7 2 8 2 9 6 4 
5 -6 0 -9 5 -6 0 -13 2 -9 1 -7 0 -8 -1 -8 
1 -8 1 -7 4 -8 4 -7 0 -8 7 -4 8 -1 9 7 
4 6 7 3 9 4 5 4 7 5 11 0 3 8 6 2 
6 5 -2 7 -4 5 0 14 -9 0 -1 8 -5 6 7 6 
7 -8 4 6 8 -2 9 2 9 3 9 1 8 5 10 3 
-5 -6 3 -8 11 0 10 0 9 -7 4 -6 -3 -7 8 -1 
2 -6 7 -7 -8 -5 2 -6 9 5 7 0 7 -5 0 7 
5 5 7 7 9 1 3 -5 8 -1 3 -5 10 0 1 -7 
8 -6 1 -8 4 -7 9 4 2 -8 -5 -5 6 -8 4 7 
4 9 6 -8 7 -6 -2 -7 -1 -5 6 -7 4 -8 5 -5 
7 -5 9 -1 9 -3 8 0 7 -5 7 0 8 -6 8 0 
7 0 8 -2 6 -4 5 -7 7 -3 7 -4 4 -6 4 8 
4 -7 2 -7 -2 -6 0 -7 6 -7 -1 -8 -3 -9 -4 -7 
-3 -7 0 -9 6 5 4 7 -5 -15 7 7 -2 -8 -7 -6 
-3 -11 0 -7 -7 -8 -5 -8 -1 -7 0 -8 -3 -9 -3 -8 
-3 -7 -4 -6 0 -10 2 -10 -2 -5 4 -5 6 -1 0 -10 
4566 2494 289 MP stroke
-13 -7 -23 -6 12 -7 -16 -8 -29 -7 -19 7 -29 1 -27 0 
-25 -11 -26 -4 0 -11 -12 -11 -16 -14 0 -15 -12 -12 -3 -13 
5 -17 -7 -11 6 -14 -8 -8 -19 0 -10 10 -9 -17 -18 -4 
-5 -14 25 8 21 1 5 -16 4 -16 -18 -10 -23 5 -14 12 
-7 -16 4 -20 24 0 11 -11 5 -15 2 -15 -4 -13 0 -13 
-17 -12 -6 -15 0 -14 -10 -8 -2 -10 -14 -18 -3 -8 -9 -14 
-8 -12 -15 -13 -20 -2 -14 -4 -9 -9 -19 -8 -10 4 -7 11 
-1 12 -4 11 -8 12 7 16 -14 8 -12 12 -3 12 -2 12 
9 17 -15 -3 -5 11 -18 4 -23 0 -20 8 -14 9 -13 8 
-7 11 -7 11 -12 11 -13 6 -20 0 -19 7 -19 4 -20 7 
-15 6 -15 9 -16 9 -11 9 19 3 21 7 19 -7 0 7 
-17 6 4 14 -15 5 -4 -9 -4 -12 -14 -4 -19 2 -1 14 
0 11 13 12 16 10 14 9 -19 -6 -20 -6 -4 10 4 14 
15 4 -13 6 -9 5 -19 1 0 11 18 5 -34 7 -7 13 
19 0 -10 16 0 16 9 15 23 3 -1 12 -17 8 -29 -5 
-3 8 2533 452 122 MP stroke
-9 -2 -7 -1 0 -7 -6 -4 -8 0 -7 2 -9 2 2 -7 
9 0 7 -4 7 1 4 -2 -5 -2 -6 -5 -2 -5 -1 -6 
-6 0 -7 7 -6 -5 -7 -4 -7 -3 -9 -2 -9 -2 -9 -4 
-8 -3 -8 -3 -5 -5 -4 -9 -2 -9 -3 -8 8 -1 3 -7 
5 -9 -8 0 -9 4 -9 0 -9 2 -4 -6 -5 -5 -6 -5 
-8 -1 -8 0 -8 -3 -9 4 -3 4 3 6 -7 3 -3 4 
-6 6 -7 0 -5 -2 -9 -4 -6 -1 -4 -8 -4 -7 -8 -6 
-6 -5 -3 -5 -7 -1 -9 -2 -9 -1 -8 -1 -3 -6 -9 2 
-3 6 9 2 6 2 -3 5 6 0 8 3 -3 6 10 -1 
5 8 1 9 8 3 8 8 2 6 -6 2 -6 1 0 8 
6 5 9 -2 9 6 7 1 0 9 5 6 7 4 7 5 
8 4 8 4 7 1 9 4 6 2 8 3 8 2 9 4 
6 0 8 3 7 2 9 5 8 4 10 -4 4 -6 7 -1 
7 -7 4 -5 3 -6 7 0 6 5 3 8 6 2 2 8 
-2 7 4 10 10 0 6 6 10 0 5 -6 9 -2 7 -8 
4804 1973 121 MP stroke
-15 -12 -12 -14 -14 -11 -24 -10 -21 0 -31 -4 -15 2 -23 -11 
-13 4 -14 14 -9 -12 -25 -13 5 -18 -18 9 -11 -13 -19 -9 
-5 -13 -5 -11 10 -8 11 -11 13 -8 -14 -13 15 -8 21 0 
22 4 3 -8 9 -3 5 -10 -9 -10 -23 0 -11 6 -17 -2 
-15 -6 -14 -4 -13 -6 0 -10 -12 -8 -12 -4 -15 -4 -5 -6 
-14 -6 -14 -4 -15 -2 0 10 11 8 13 10 11 8 7 10 
-18 -6 -14 -8 -17 -8 -19 0 -3 16 11 10 1 12 10 8 
17 11 9 12 -4 17 -25 -13 -8 -14 -18 -9 -5 13 -18 4 
-4 10 -10 15 12 9 15 8 17 9 14 11 24 0 20 11 
0 13 -20 5 17 11 -6 11 13 14 21 9 23 16 18 7 
24 3 0 14 5 9 22 -2 16 6 16 3 17 -10 18 0 
15 -8 -5 14 10 13 -5 14 8 7 19 -2 22 -10 17 -12 
2 -15 1 -12 -5 -12 15 10 1 12 2 12 -7 12 -9 8 
-22 8 21 1 24 0 15 -7 17 -13 8 -12 6 -12 0 -16 
1439 610 113 MP stroke
-7 -2 -9 7 -13 -3 -2 8 -10 2 -12 -4 -10 5 -11 -1 
-12 0 -13 3 -7 8 13 2 -7 9 -9 5 -3 8 3 7 
9 3 7 0 5 -5 3 4 -5 5 3 7 4 5 2 7 
4 9 10 3 5 9 3 11 5 7 10 3 10 0 -7 6 
-7 7 -5 9 -4 7 2 8 12 0 11 0 11 -2 -5 9 
-13 7 3 6 14 -2 14 0 5 -9 6 -8 1 -7 8 4 
5 -4 -6 -5 -11 0 7 -11 0 -8 -9 4 1 -9 10 -7 
-9 0 0 -7 -7 9 -6 -7 6 -13 -5 -7 -12 4 -11 3 
5 -9 -6 -7 -8 0 5 -8 0 -9 9 -2 14 2 -3 -5 
6 -7 -9 0 0 -10 7 -4 9 -5 -2 -5 -11 2 -7 -2 
-8 -5 -10 5 5 -8 8 0 9 0 6 -9 8 -6 8 -7 
2726 1118 89 MP stroke
-5 8 -5 9 -4 8 -10 -3 -4 6 -7 2 1 5 -9 3 
-10 1 -12 8 -7 -1 -10 0 -8 0 -9 -7 -7 -7 -3 -10 
-1 -8 -5 -5 9 0 9 -1 8 5 12 -2 9 -6 -4 -10 
7 2 11 0 1 -5 -9 -3 -6 -9 -3 -10 -7 -6 -11 0 
-2 -4 5 -8 -1 -8 -5 -9 1 8 -5 6 -10 1 -4 -7 
-6 -6 -7 -6 9 -6 10 0 9 3 4 -9 -1 -6 -12 0 
1 -8 -2 -7 -6 -2 3 -10 0 -12 -3 -12 1 -6 11 2 
12 -3 12 -3 9 3 10 6 3 4 10 2 8 3 1 8 
1 9 2 11 -7 0 -1 6 -3 9 -5 6 -7 1 9 3 
7 8 3 7 5 8 6 4 7 8 6 9 0 14 5 10 
6 3 0 6 3522 1221 83 MP stroke
-3 -11 -8 0 -2 -7 1 -9 3 -9 -2 -6 -6 0 -8 1 
2 7 -2 8 0 15 3 8 -6 5 -7 0 0 -5 3 -6 
-4 -7 -8 -4 2 -9 -7 -2 -5 4 0 -12 -5 -5 -8 5 
0 9 6 7 5 7 6 5 -5 5 4 7 3 5 7 7 
-9 4 -6 5 -7 7 -9 0 5 5 9 -3 8 -2 8 0 
6 -7 8 0 1 7 8 3 0 9 -4 8 -5 1 -5 -1 
-7 1 -9 0 -7 0 -8 0 -8 -2 -7 1 -9 3 -6 7 
-4 7 4 3 3 -3 5 -5 8 -4 9 0 6 -2 7 3 
7 1 9 2 8 2 4 -9 10 0 1 -5 1 -8 0 -7 
5 -5 3 -7 0 -9 2 -7 6 -6 4621 1995 78 MP stroke
0 -7 -8 1 -8 -1 -5 6 -9 1 -9 3 -6 1 -9 5 
-7 -2 -8 0 5 -7 0 -7 -4 -7 -5 -1 -7 8 -9 7 
4 6 -4 6 -7 -8 -13 0 -9 9 -2 -9 -4 12 -8 0 
-3 4 1 -10 -9 5 -1 5 -5 5 2 7 -1 10 -4 4 
-1 11 1 8 -2 5 -7 0 0 7 -5 6 -1 11 2 9 
5 7 2 8 -2 6 9 3 2 -6 -5 0 0 -5 6 0 
5 5 5 -9 0 -23 3 -7 5 -8 2 -9 8 -4 4 -7 
6 -5 9 -3 9 -4 0 6 -3 7 6 -4 2 -8 5 -7 
5 -6 0 -7 5 -3 6 5 9 -2 10 -1 12 -2 7 0 
7 -7 7 -6 7 -4 7 -3 4806 1408 77 MP stroke
-2 -9 -3 -5 0 -8 -8 -5 -5 -7 0 -8 -3 -9 -1 -9 
-9 -1 -7 1 -6 3 -1 -12 -7 3 -8 0 -6 4 -9 -5 
-8 1 -5 -5 -1 -7 -7 3 -7 4 -8 4 -2 7 -6 10 
6 8 -7 6 -6 5 -4 7 -1 9 -3 7 -4 5 -7 0 
-9 2 5 5 6 5 7 6 -4 5 5 7 4 7 -5 7 
-2 9 -10 2 5 6 -7 3 -8 3 8 3 7 5 8 3 
0 8 8 5 3 4 5 -7 8 -5 3 -6 9 -8 0 -6 
10 0 7 -4 8 -9 6 -5 4 -7 8 -5 9 -1 7 -1 
3 -9 4 -10 7 1 9 1 8 4 6 -6 3 -9 4470 1937 72 MP stroke
-6 6 -1 9 -9 2 -1 9 0 8 -5 6 -8 3 -3 7 
2 9 -9 3 -7 7 -3 8 -9 0 -10 0 3 -7 -11 -4 
-9 3 -9 -5 10 -3 7 -8 -9 -3 -5 -3 2 -8 -5 -5 
-7 3 -6 5 -7 1 -8 5 -7 -1 -9 1 -5 0 -4 -6 
-7 -3 -5 -3 -7 -2 -8 -5 -7 -7 -6 -5 -7 -5 -10 -4 
-4 -3 -3 -8 -4 -6 2 -6 7 -5 9 -6 9 -1 9 1 
9 -1 9 -2 7 3 7 -1 7 4 7 0 5 8 10 0 
5 6 8 -2 10 0 9 2 10 -3 8 -5 7 -4 8 -5 
9 2 10 -2 10 2 9 3 8 6 2 7 6 8 3230 1263 72 MP stroke
0 -6 -1 -8 -4 -7 -1 -11 -1 -9 -7 -8 -6 -6 -6 -4 
-8 2 -6 4 -8 2 -6 -1 -5 8 -3 7 -2 8 -3 5 
-1 7 -1 7 -2 6 -2 7 -3 7 -2 6 -2 7 -2 7 
-3 8 -2 7 -4 10 -1 7 -2 10 0 6 -3 4 -2 7 
2 13 -7 -7 -5 8 1 8 3 11 4 9 1 9 4 8 
5 8 6 -7 0 -7 2 -7 6 -2 8 -2 -2 -7 5 -4 
-1 -7 6 0 7 -7 6 -4 8 -4 7 -3 8 -4 6 0 
4 -12 5 -7 -1 -10 -4 -9 0 -6 -4 -9 2 -7 5 -8 
2 -7 5 -6 5 -10 3470 2292 68 MP stroke
-2 -7 -3 -7 -7 -6 -7 -8 -6 -1 -5 -7 -6 -6 -2 -7 
-8 -4 -8 -5 0 -5 -3 -8 -3 -10 -9 -4 -2 -5 -7 -7 
-1 -6 -5 -9 -1 -6 -7 -8 -6 -9 -8 -5 -2 -5 -7 -6 
-10 -8 -7 -5 -7 -7 -5 -3 -2 4 -7 0 -6 -4 -1 8 
-2 8 0 18 -3 8 3 5 6 5 7 0 3 6 5 4 
2 10 9 0 5 5 -4 7 -1 6 6 7 7 0 -1 7 
6 2 6 7 8 1 7 8 8 -1 7 7 5 8 7 5 
8 4 6 5 5 6 4 7 6 5 10 1 9 0 7 5 
9 0 4263 1866 66 MP stroke
11 -6 0 -13 -26 -3 -40 -2 -17 5 -21 -3 -16 6 -9 -11 
-31 8 -19 13 10 6 1616 452 12 MP stroke
-10 0 -2 5 -9 0 -5 4 -6 4 -7 -1 -10 -2 7 -2 
-5 -4 -7 -2 -12 0 -5 -4 -6 -1 -8 -3 -7 2 -3 -3 
-1 -7 -8 -5 -11 0 -3 -5 5 -4 4 -4 -10 0 -8 1 
-7 0 -8 -1 -8 0 -5 3 -7 1 1 2 4 0 5 6 
7 1 6 -1 -2 6 7 2 7 1 8 5 6 3 7 4 
7 4 8 3 7 0 6 5 6 3 6 2 8 0 7 3 
8 0 8 -3 7 -1 8 -1 8 -4 5 -4 0 -6 7 -2 
1518 1614 57 MP stroke
-5 8 -5 8 -5 6 -4 0 -15 3 -7 2 -7 -2 -12 0 
2 6 -7 0 -11 -1 -10 0 -10 -2 -14 -3 -8 -9 -7 -12 
5 -6 13 5 8 8 -2 -7 2 -7 4 -10 0 -11 10 -4 
4 9 4 9 8 -3 6 -6 0 6 -8 10 0 11 4 6 
8 3 6 3 8 0 5 -9 11 -5 3 -8 4 -8 0 -7 
-3 -8 -1 -9 2 -11 4 -6 6 -3 7 0 5 9 0 11 
1 7 -2 8 -3 11 -1 6 -4 8 11 -6 1470 1224 55 MP stroke
4 -3 9 3 9 3 3 8 1 8 6 3 -1 -11 4 4 
5 0 1 10 4 6 0 6 4 5 5 6 10 2 8 8 
-4 -7 -2 -7 -5 -6 -5 -7 -5 -7 -4 -8 -7 -1 4 -4 
-3 -6 -1 -8 4 -7 1 -9 8 -3 5 -4 5458 2584 31 MP stroke
-8 -6 -6 -3 -7 -3 -2 -6 2 -11 4 -7 -6 -5 -9 3 
-5 8 -4 6 -5 7 -4 9 1 5 -2 4 -7 3 5516 2580 16 MP stroke
-3 -8 -11 4 -13 -2 -12 0 -11 0 -10 -2 0 -6 8 -5 
-9 -2 -8 10 -6 2 -8 -2 4 -10 -8 5 0 -8 -9 0 
-2 10 -3 10 8 -2 -4 10 5 -2 5 -8 4 3 -2 7 
-12 9 12 -1 3 6 -7 9 7 3 11 0 10 -2 9 7 
-7 5 9 3 11 -7 -5 10 -5 7 -6 10 -4 10 8 0 
10 -5 5 -7 4 -8 6 -10 4 -12 8 -9 5 -9 -5 -1 
7 -7 7 -5 1906 1161 51 MP stroke
-13 0 -6 2 -1 5 10 0 7 4 7 5 10 5 9 7 
2 7 2 7 7 9 1763 2837 12 MP stroke
7 -2 5 2 3 -5 8 0 3 -11 -4 -3 -12 3 -1 -3 
11 -5 -1 -11 5 2 3 10 7 -10 5 3 12 4 6 5 
13 7 10 5 10 5 -2 -5 -8 -5 -7 -2 5 -5 -8 -5 
0 -5 -10 0 -3 -7 -7 0 0 -6 -13 -7 -18 0 1744 2888 32 MP stroke
-19 -6 5 -10 -15 -7 -26 -3 -21 1 -21 -7 21 -7 23 0 
19 -2 -5 -16 -19 -7 -22 0 -10 -18 -22 2 -25 2 -24 7 
-21 5 -16 9 -14 -10 -19 -7 -19 3 -17 8 8 10 -18 2 
-2 13 25 5 22 7 15 11 -3 16 9 16 5 11 -12 14 
-8 11 13 8 24 -1 12 -15 9 -14 24 10 19 -5 17 7 
20 -11 7 17 17 0 14 -8 19 -5 16 -8 0 -8 12 -7 
3 -13 997 615 50 MP stroke
-1 -12 3 -10 0 -10 -6 -7 -1 -9 1 -10 -1 -10 0 -10 
1 -8 3 -6 -3 -5 -2 -10 2 -8 0 -11 4 -8 -4 -13 
-3 10 -5 4 -7 -1 -6 -7 0 10 5 3 1 6 5 5 
3 7 -1 9 -4 9 -2 6 -5 5 -7 0 -9 -5 2 8 
4 10 4 10 3 10 2 10 4 11 -1 10 0 10 2 10 
1 11 4 7 7 -2 -4 -9 4 -5 7 -5 4971 1052 47 MP stroke
-1 -9 -1 -6 -1 -8 -8 -5 -1 5 -5 -4 5 -5 0 -6 
-9 -3 -8 5 -6 -4 -8 -9 0 7 1 5 -7 -4 -5 -9 
-7 -3 -5 2 7 6 2 5 -5 2 9 3 6 3 5 0 
5 -4 7 3 2 7 4 11 -2 8 -7 6 -5 7 -2 7 
5 6 0 8 -3 9 6 -4 7 1 6 4 7 -1 2 -8 
3 -7 -3 -6 3 -9 0 -8 7 2 4637 1703 46 MP stroke
-4 -4 -7 -2 -5 2 -4 -5 -8 -2 -10 -3 -10 3 -8 5 
-6 6 -5 8 -3 8 -2 8 -3 6 -9 5 -6 6 -10 0 
5 5 -1 6 -7 3 -5 8 -6 7 -5 7 0 9 6 1 
1 6 5 -4 5 -3 2 7 7 5 7 -5 0 -7 2 -7 
8 -2 3 -8 3 -8 9 -6 8 -6 7 -6 11 -6 7 -2 
6 -6 6 -7 7 -6 4 -6 5 -10 5348 2706 46 MP stroke
-1 -5 -3 6 -3 7 -5 1 -2 -6 -5 1 -5 5 -6 -3 
-4 -3 4 -5 0 -9 -5 -4 -7 -4 -5 0 -5 -5 -5 7 
3 6 4 5 -3 4 -4 5 -4 -7 -2 -9 -3 8 -4 6 
0 7 4 9 0 9 5 7 9 7 -1 -11 5 -3 5 2 
3 -7 6 -2 5 -5 1 7 5 2 7 -2 4 -6 7 -2 
4 -4 1 -9 4670 1843 43 MP stroke
-8 -1 -9 -4 1 -4 -7 -1 -9 -2 -6 -3 -9 -2 -7 2 
-8 0 -7 -2 -7 -3 -8 -2 -8 -1 -7 0 -8 -3 -9 3 
-7 -3 -7 -2 -6 -1 0 14 7 1 8 -1 9 2 1 7 
5 3 8 2 9 2 7 4 6 -8 6 0 8 2 7 0 
6 1 4 6 8 2 7 3 6 2 6 -3 9 3 4 -8 
5 -5 4418 2054 42 MP stroke
1 -6 -4 -5 0 -11 -8 5 -8 3 6 4 6 4 -1 4 
-5 0 -4 -3 -6 3 -8 2 -10 -6 -12 -5 -1 6 -5 6 
-8 6 -8 -1 -9 4 -8 5 9 -2 0 5 4 3 -5 10 
10 -7 7 2 9 3 9 6 5 5 5 8 7 6 6 -5 
-4 -9 2 -8 1 -6 5 -5 -1 -6 1 -5 8 0 6 2 
-1 -6 9 -6 4941 1261 43 MP stroke
-18 -12 -15 -9 -23 -5 -24 -2 -11 5 20 9 9 12 4 14 
-2 14 -9 12 -12 12 -13 13 -13 12 -17 12 -14 13 -23 10 
-24 11 -26 5 -26 7 -24 8 -4 16 20 6 27 -8 12 -11 
31 -5 30 0 30 -11 16 -10 10 -8 27 -8 0 -10 13 -17 
16 -12 -7 -10 16 -8 11 -14 -3 -10 16 -7 0 -14 3598 615 40 MP stroke
-27 -16 -5 16 3075 452 3 MP stroke
-10 -5 -3 3 -7 0 -7 -2 -6 2 -8 -2 -6 -8 -5 7 
0 4 -8 3 0 -4 -8 1 -8 3 -8 0 -5 -6 -5 7 
6 6 13 3 -6 4 8 0 3 5 9 2 7 1 11 0 
5 -3 9 4 9 0 5 -4 -8 0 -4 -5 0 -5 -6 -7 
6 -4 8 0 6 3 8 1 5 -4 1675 1670 38 MP stroke
-11 -2 -13 4 -10 -4 11 -9 18 -8 -21 0 -9 -12 11 -10 
-27 0 -15 -6 -19 -4 -16 8 -14 2 -14 8 -21 6 -12 12 
0 15 15 6 1 15 14 -2 9 6 9 -8 11 -5 11 5 
15 -3 6 -6 9 6 1 -12 17 -4 1 14 12 9 11 2 
0 -6 10 0 1 -9 9 -8 2440 776 37 MP stroke
-8 7 -9 6 -7 7 -11 3 -6 5 -5 6 -10 5 -5 7 
-12 -5 -12 0 -5 -10 -7 -7 -11 0 0 -6 -5 -5 1 -8 
-4 -8 8 0 0 5 12 -2 13 -4 10 0 7 7 10 -1 
0 6 -10 7 7 0 12 -8 11 -5 12 -5 6 8 10 -5 
8 0 1407 1185 34 MP stroke
-8 0 -10 -2 -8 1 -6 3 -6 1 -8 1 -8 2 -7 -3 
-8 0 -7 -1 -8 1 -8 -1 -6 2 -9 3 -10 2 11 3 
8 -8 6 4 8 -1 8 2 7 3 8 -3 7 -3 8 5 
9 0 10 2 -4 -6 7 1 8 0 8 3 6 -3 2 -8 
4578 2089 33 MP stroke
-22 -4 -16 -5 -15 9 -16 -10 19 -6 -7 -7 -19 -2 -17 3 
-15 8 -18 6 -32 -1 -19 2 -2 13 -5 13 20 5 24 9 
9 15 13 -7 11 -10 -14 -5 4 -8 -10 -11 30 3 9 10 
12 8 24 8 21 2 11 -11 11 -14 9 -13 1016 507 31 MP stroke
-4 -8 -8 -6 -12 2 -12 4 -11 6 -14 2 -3 8 -2 9 
1 10 3 9 -11 7 3 11 5 7 10 2 12 1 11 -3 
7 -9 -8 -4 5 -5 9 0 10 0 4 -7 -8 -3 8 -6 
-8 -6 -7 0 7 -11 4 -10 9 0 2653 1076 30 MP stroke
0 -103 -5 3 -6 12 10 8 -14 9 -2 -11 -5 -10 -13 -2 
-10 4 -15 -4 -3 -11 -11 -6 -17 -8 -15 -4 -4 10 -9 8 
0 13 -16 0 -8 8 -11 6 15 11 13 11 22 4 21 0 
7 11 13 8 17 9 19 7 13 8 14 9 68 684 31 MP stroke
1 -11 -18 -13 -27 2 -17 -8 -5 -12 5 -13 -3 -16 -30 -6 
-28 -2 -25 -1 -27 0 -16 9 -23 -7 -27 5 -9 12 0 12 
27 8 23 0 26 3 29 -7 31 4 22 8 -8 6 16 7 
8 8 27 0 20 9 20 3 1353 452 29 MP stroke
-8 2 -5 -3 0 -6 6 -4 -4 -7 -5 -5 -5 4 2 8 
-5 -3 -3 5 -4 -5 -8 2 0 6 8 1 0 14 2 -6 
7 -4 -2 6 7 2 -2 9 9 0 2 4 8 1 -2 -7 
1 -7 1 -7 4669 1792 27 MP stroke
-17 0 -8 5 -1 8 -12 2 9 8 4 6 -18 0 -5 -6 
-11 -4 -10 2 -8 8 -5 6 -13 4 -11 0 -15 -4 17 0 
-5 -6 17 -2 12 -6 7 -12 11 -4 13 -4 2 -7 8 2 
13 -4 11 0 15 8 1028 880 28 MP stroke
-14 4 -11 1 -7 7 -6 7 -8 5 -6 7 -9 8 -9 9 
-5 9 -5 9 -5 9 -1 7 -4 5 -7 -4 4 -10 3 -13 
1 -10 6 -11 11 -10 7 -7 13 -3 11 -7 5 -10 11 -4 
11 -3 14 5 4389 1088 27 MP stroke
-6 8 -2 7 -5 2 -7 0 -4 8 -5 -3 0 6 -10 3 
-4 -3 -10 5 5 -6 5 -8 0 -5 -8 -8 -5 -6 5 -5 
7 -2 0 -9 8 -9 11 -3 2 3 10 0 11 0 0 11 
2 4 0 10 3697 1216 27 MP stroke
-19 8 -18 5 -21 4 -20 9 -16 -4 12 -7 12 -6 -22 -2 
-21 2 6 -9 5 -10 24 4 -10 -11 25 -14 -7 13 2 8 
14 -8 3 -9 23 0 -8 15 -11 4 -16 6 16 7 24 -3 
23 -2 904 762 26 MP stroke
-4 11 -8 5 -9 6 -7 -2 -13 2 -11 -2 -8 -1 -8 1 
-7 -1 -7 3 -7 0 7 -6 12 -2 10 5 8 -3 12 3 
13 -3 6 -5 9 -3 -1 -7 3 -14 3 6 7 7 3929 1205 24 MP stroke
0 -9 -2 -11 -4 -8 -1 -6 -3 -7 -4 -7 -7 -4 -9 -2 
-5 8 -5 6 -7 -4 -1 9 -3 7 -2 3 0 19 5 3 
10 -3 9 -3 9 0 10 6 10 3 5018 2608 22 MP stroke
-2 7 4 8 -2 8 2 8 -4 10 -1 -10 -4 -9 -2 -9 
-3 -9 4 -6 -6 -5 -7 -6 2 -5 -4 -9 -4 -7 -1 -8 
9 3 -2 7 4 10 8 7 5 8 4 7 3256 2044 23 MP stroke
-14 0 -10 -7 0 -7 4 -5 -3 -12 -7 4 -8 -2 3 -9 
-4 -6 -5 -5 -4 -9 11 -1 -1 6 5 7 0 7 10 8 
9 5 0 10 -4 5 7 6 6 -6 5 11 1269 1057 23 MP stroke
-1 -4 -8 -1 -5 -5 -7 -2 -8 0 -8 0 -7 4 -7 7 
-6 0 -1 8 -5 5 2 8 12 0 -3 -11 7 0 6 -9 
6 0 7 0 8 -1 9 0 9 1 5070 2036 22 MP stroke
-9 3 -6 7 -10 4 -12 2 -11 6 -13 2 -9 1 -5 -3 
9 -1 9 -7 7 0 -3 -4 -5 -4 7 -8 7 -9 10 2 
9 0 8 -4 8 4 4 6 5 3 3335 1199 22 MP stroke
-5 7 3 11 0 3 3 15 -1 4 -6 -5 -2 -10 -1 -8 
-5 -9 3 -9 0 -9 -2 -9 -5 -6 -1 -11 4 7 5 -2 
1 7 5 5 0 6 3 7 1 6 3330 2139 22 MP stroke
-4 -9 -6 0 -1 6 -4 -6 0 -7 5 -4 0 -14 -9 -3 
-9 6 -1 8 -4 9 -4 7 4 7 1 7 8 0 2 4 
8 -1 6 -6 8 -4 4784 1426 20 MP stroke
-21 0 -1 -12 -14 2 -10 10 -9 8 -11 0 -13 -6 -13 -8 
-14 10 16 6 7 10 12 8 18 9 15 10 5 12 15 -10 
4 -10 2 -15 -3 -14 15 -10 1482 821 21 MP stroke
-4 9 -9 0 -9 -2 -4 -10 -5 -11 -3 -10 -7 -12 -6 -8 
4 -14 9 -3 0 8 -2 9 -1 8 8 -3 1 10 11 0 
0 7 8 5 4 10 5 7 1298 1052 21 MP stroke
-1 8 -2 6 3 6 -3 9 -9 5 -8 2 -8 0 -8 -3 
-3 -8 2 -5 3 -9 5 -6 5 -5 -9 -1 6 -5 10 0 
8 2 6 -6 3 10 3293 1984 20 MP stroke
-9 -10 -10 -5 -10 -5 1 -5 -9 -3 -6 -5 -8 0 0 -5 
-11 -5 -9 -4 -8 4 8 8 12 8 8 8 8 10 11 4 
14 3 12 5 6 -3 855 1106 20 MP stroke
-21 -12 -12 -16 -20 7 -18 2 -14 14 -6 19 -22 10 -20 8 
-22 9 23 10 15 12 28 0 27 8 23 -8 27 -5 -11 -17 
4 -15 10 -14 9 -12 902 601 20 MP stroke
-9 -8 -5 -11 -17 0 -15 -12 -14 -14 -18 9 -21 5 -3 17 
7 16 21 5 -15 14 10 15 17 -6 20 2 16 -5 3 -10 
-14 -14 23 2 14 -5 1242 577 20 MP stroke
-4 -6 -1 -6 1 -7 -5 -6 -8 -5 7 7 1 7 -1 7 
-8 0 4 5 -6 4 0 8 9 -4 3 6 -2 7 6 -4 
1 -6 3 -7 4751 1936 19 MP stroke
0 -9 -1 -6 -3 -10 -3 -7 -7 0 -9 3 -6 5 -3 8 
0 8 5 7 4 8 5 7 5 8 9 5 -2 -6 4 -7 
1 -7 1 -7 4026 1829 19 MP stroke
-7 1 -8 3 -6 7 -8 5 -7 3 -8 2 -8 4 -5 5 
8 0 8 -1 8 -1 9 -3 4 -5 8 -2 6 -3 4 -5 
2 -10 4693 2110 18 MP stroke
-6 5 -9 0 -11 5 -5 6 -8 1 -7 -1 -5 4 -10 0 
-10 0 6 -6 9 -4 10 -5 9 -3 9 -5 9 -1 9 0 
10 4 1538 1277 18 MP stroke
-3 -8 -7 -3 2 -7 6 1 0 -9 -5 -1 0 -9 -7 1 
4 7 0 6 -11 0 3 9 0 7 4 6 7 -1 7 1 
4705 1761 17 MP stroke
-6 -8 -5 0 -10 -6 -7 -1 -6 -6 -10 -1 -2 5 2 6 
-2 9 -5 7 10 -3 11 -1 9 0 7 3 7 0 7 -4 
2998 1345 17 MP stroke
-3 10 -10 0 0 8 8 2 5 6 -12 -4 -9 -6 2 -10 
-4 -8 -7 -6 0 -7 7 -4 7 0 0 9 11 4 5 6 
3336 867 17 MP stroke
8 -4 16 -12 22 -8 918 476 4 MP stroke
-17 -12 -18 1 -20 -2 -16 10 -9 11 -22 -7 -20 14 5 9 
1035 452 9 MP stroke
-12 -13 -4 -10 -15 -13 -23 6 -14 -17 -34 0 -8 16 3 13 
0 12 23 9 26 1 11 -9 1 -13 15 12 15 8 16 -2 
1210 466 17 MP stroke
-7 -6 1 -8 -3 -4 -6 0 -4 -6 -5 6 -6 -6 4 10 
2 8 -8 -2 6 9 7 4 8 3 7 -3 4 -5 3132 1348 16 MP stroke
0 -6 -4 -7 0 -9 2 -9 -7 -6 -5 6 -6 0 -3 7 
-1 8 0 7 1 8 6 7 8 -6 5 -1 4 1 2935 1292 16 MP stroke
-14 -16 -18 -2 -19 5 -23 5 -12 -5 -18 7 -15 11 0 8 
15 5 11 0 19 10 16 -13 30 13 23 -8 5 -20 4901 507 16 MP stroke
-3 -9 -7 -3 -3 6 -2 4 -8 3 -5 -4 -4 5 -5 5 
2 5 7 3 8 -1 4 -6 7 1 3 -5 6 -4 4826 1423 16 MP stroke
0 -8 -2 -9 -5 -3 -3 -7 -2 10 -6 6 -2 8 -3 10 
-4 8 0 8 6 3 7 -4 5 -7 4 -7 5 -8 4642 1585 16 MP stroke
-11 -8 -7 5 -5 -2 -3 -5 -10 2 -5 5 -11 3 0 7 
8 3 11 -3 10 3 12 -1 -5 -7 5 -5 11 3 1878 2822 16 MP stroke
-5 8 -9 3 -10 1 -8 2 -10 -2 -5 5 -9 3 2 -6 
-1 -9 10 -4 9 -1 9 1 9 0 10 -3 8 2 1595 1249 16 MP stroke
0 -5 3 -3 -3 -7 1 -4 -5 -2 -2 3 -3 2 -4 1 
-4 3 4 2 2 4 3 2 4 2 4 2 435 1639 15 MP stroke
-5 -9 -6 -7 -6 -4 -5 -4 -7 -4 -7 -5 -8 0 5 5 
5 5 8 3 5 5 5 7 9 4 7 4 5314 2265 15 MP stroke
-7 0 -8 -2 -5 -3 -10 0 -10 1 -2 5 8 -3 0 4 
9 0 6 2 8 -2 1 3 9 2 1 -7 3169 1393 15 MP stroke
0 -7 -1 -6 -7 -4 -7 0 -7 4 -5 5 -3 8 -5 5 
0 6 8 0 7 0 7 -2 7 -5 6 -4 4467 1654 15 MP stroke
-2 5 -9 6 -10 0 -7 -6 -10 -3 -5 -8 0 -8 5 -7 
12 0 3 -6 7 0 2 9 5 10 9 8 3268 882 15 MP stroke
-5 2 -8 -1 -3 -5 0 -5 -9 -2 -8 0 3 -7 7 -3 
7 -4 3 4 2 5 5 4 2 7 4 5 3010 1736 15 MP stroke
-11 5 -3 5 -7 6 -3 7 -6 3 -7 6 2 12 5 -12 
7 -7 5 -5 7 -7 7 -5 4 -8 4597 1824 14 MP stroke
-9 -3 -6 1 -8 -1 -12 -3 -8 -4 0 7 5 6 8 0 
6 4 9 -1 10 0 5 -6 4760 2001 13 MP stroke
-3 -6 -8 -2 -8 2 -3 4 -6 0 3 5 -9 7 9 -3 
7 -2 7 -1 3 -3 8 -1 3302 1396 13 MP stroke
-6 -8 4 -8 -9 3 -5 -3 -2 5 -7 0 -2 6 9 -2 
5 -1 5 5 5 6 3 -3 3859 2762 13 MP stroke
-1 -12 -7 -5 -4 -10 -7 -9 -12 -8 5 10 7 5 -2 7 
5 10 -5 11 10 0 11 1 783 1035 13 MP stroke
-5 0 -5 -6 -6 -1 -5 3 -6 -2 -5 0 3 6 6 2 
8 2 8 1 6 -3 1 -2 1617 1672 13 MP stroke
-9 7 -8 6 -7 9 -8 0 -9 -5 -9 0 -9 -4 13 -4 
15 0 12 -4 5 -7 14 2 1115 937 13 MP stroke
-9 -6 -9 -6 -5 -2 -5 -10 -4 -10 -4 8 3 6 10 6 
5 4 9 5 9 5 5109 1992 12 MP stroke
-11 -11 -11 6 -5 7 -12 4 3 7 8 2 -14 6 6 5 
12 -7 10 -8 14 -11 451 969 12 MP stroke
-8 -1 -4 -4 1 -6 -11 -5 -1 8 5 1 2 6 4 8 
8 -1 4 -6 4414 1982 11 MP stroke
5 -10 -5 -13 -20 -4 -15 4 -25 -3 -2 8 5 13 17 5 
21 2 19 -2 1584 552 11 MP stroke
-5 -4 -9 -5 -13 -5 0 6 -8 5 12 -1 9 0 9 3 
1 6 4 -5 1831 1185 11 MP stroke
-10 -5 -4 -5 -9 -3 -10 -2 -9 0 5 7 8 3 9 3 
10 2 10 0 1829 1123 11 MP stroke
-5 8 -4 7 5 9 -5 7 -6 10 -8 -11 9 -6 0 -18 
14 -6 1240 989 10 MP stroke
-3 -5 -7 0 -5 -3 -7 -5 -7 4 6 6 8 4 7 0 
8 -1 4624 2096 10 MP stroke
2 -8 -2 -6 -7 -7 -3 9 -2 6 1 6 0 9 4 -6 
7 -3 2943 1263 10 MP stroke
-1 -5 4 -4 -8 -7 -4 -8 -3 5 4 6 0 5 4 8 
4 0 1618 1561 10 MP stroke
3 -10 0 -6 2 -12 -9 -2 -3 8 2 6 -5 6 1 6 
9 4 1683 2629 10 MP stroke
-4 -5 -8 0 -4 -4 -9 0 6 3 7 1 1 4 11 1 
175 2158 9 MP stroke
2 -1 1 -7 5513 2230 3 MP stroke
5513 2230 PD
-5 -6 -2 -8 -4 -5 -6 5 0 8 5 5 6 1 6 0 
4646 1747 9 MP stroke
-7 3 0 9 -5 2 -1 4 4 -1 2 -5 7 -8 0 -4 
2593 1513 9 MP stroke
-3 -11 -9 -1 -9 3 4 4 -6 5 2 8 10 -4 11 -4 
2979 1002 9 MP stroke
-9 1 10 -8 -9 0 -5 5 0 -9 -4 12 4 6 13 -7 
1591 990 9 MP stroke
-10 2 -10 1 -10 5 5 3 7 -3 8 -2 9 -1 1 -5 
1683 1298 9 MP stroke
-6 -1 -7 1 -6 0 -4 4 5 4 9 0 9 0 0 -8 
1787 1675 9 MP stroke
-3 -3 -1 -3 -3 0 -4 2 5 4 3 -1 3 1 423 1628 8 MP stroke
1 -4 -4 -5 -6 0 -6 -1 -5 4 8 5 12 1 5241 2094 8 MP stroke
-2 -9 -5 -7 -5 -6 -8 4 7 7 7 10 6 1 5168 2035 8 MP stroke
-9 0 -5 -3 -7 6 2 4 9 -2 6 2 4 -7 4793 2133 8 MP stroke
-12 -16 -30 -10 -19 0 -8 13 27 5 29 3 13 5 5043 497 8 MP stroke
-9 6 -11 6 -10 8 8 -5 6 2 8 -6 8 -11 5049 1227 8 MP stroke
-9 -6 -10 -2 -10 4 0 5 8 2 11 -2 10 -1 259 903 8 MP stroke
0 -8 -15 2 -14 -8 -16 6 16 2 10 6 19 0 193 821 8 MP stroke
-7 -13 -17 2 -11 7 -2 11 7 8 18 0 12 -15 1633 721 8 MP stroke
-3 -5 -12 4 -3 -2 2 3 5 0 7 -3 4 3 1607 1536 8 MP stroke
-1 -3 1 -2 -3 -1 -5 2 2 4 3 3 3 -3 1545 1615 8 MP stroke
-9 0 -4 3 0 8 10 -1 -2 -1 0 -7 5 -2 1868 1799 8 MP stroke
-12 -5 -10 -5 -9 -9 -3 7 7 6 11 5 16 1 2231 2867 8 MP stroke
1 -8 -5 -4 5 -3 -5 -3 -5 5 3 7 6 6 1417 1951 8 MP stroke
-1 -7 0 -7 -8 3 3 7 3 -3 3 7 5352 2179 7 MP stroke
-5 -6 -7 -3 -6 4 3 6 8 2 7 -3 4731 2002 7 MP stroke
-6 7 -3 8 3 8 4 -6 2 -8 0 -9 4854 2058 7 MP stroke
-4 -5 -11 0 -8 5 10 4 9 -1 4 -3 4892 2524 7 MP stroke
-3 -9 -7 4 0 9 -7 5 12 -3 5 -6 3086 963 7 MP stroke
-15 -7 -29 -3 0 10 19 13 19 -3 6 -10 4953 560 7 MP stroke
0 -6 -10 4 -4 6 0 5 6 -6 8 -3 5175 1114 7 MP stroke
-5 -3 -7 0 -7 4 6 1 8 2 5 -4 3623 1762 7 MP stroke
-11 3 -8 5 0 6 11 0 0 -7 8 -7 255 1052 7 MP stroke
-19 -5 -24 -5 0 16 12 11 17 0 14 -17 1339 515 7 MP stroke
-13 2 -14 10 0 2 10 0 11 -4 6 -10 1535 857 7 MP stroke
-2 -5 -2 4 -4 0 3 4 1 -4 4 1 1868 1703 7 MP stroke
-3 -2 -4 0 -1 5 4 0 4 -3 375 1611 6 MP stroke
-6 -3 -6 -5 -7 7 6 4 13 -3 4554 2077 6 MP stroke
-2 -4 -5 1 1 4 4 2 2 -3 2570 1514 6 MP stroke
-4 -5 -4 3 -2 6 5 -3 5 -1 2554 1509 6 MP stroke
-7 -1 -5 -4 -6 7 8 4 10 -6 2845 1316 6 MP stroke
-5 -5 -8 4 -8 5 13 3 8 -7 3143 945 6 MP stroke
-5 -5 -8 2 -4 3 8 2 9 -2 2978 1021 6 MP stroke
-5 -9 -10 0 0 7 7 4 8 -2 2959 1007 6 MP stroke
-13 9 -4 11 13 -7 0 -8 4 -5 2700 961 6 MP stroke
-20 5 -5 9 18 9 10 -9 -3 -14 3553 693 6 MP stroke
-2 -7 -3 -4 -6 1 7 12 4 -2 4315 1968 6 MP stroke
-5 -5 -6 -6 0 6 8 8 3 -3 4293 1932 6 MP stroke
-3 -5 -6 0 -1 2 3 4 7 -1 3651 2277 6 MP stroke
-12 9 -5 3 0 5 7 -2 10 -15 233 1064 6 MP stroke
-16 -3 -6 8 -5 12 18 -7 9 -10 989 497 6 MP stroke
-9 -3 -10 -4 4 9 6 2 9 -4 1561 1059 6 MP stroke
1 -14 -6 -6 -7 10 -1 10 13 0 1590 853 6 MP stroke
-7 0 -3 7 3 -4 5 1 2 -4 1688 1629 6 MP stroke
-11 -3 -7 -3 -3 8 9 -2 12 0 1544 1201 6 MP stroke
-3 -5 -7 0 5 7 5 -2 398 1618 5 MP stroke
-1 -4 -5 -2 2 5 4 1 531 2221 5 MP stroke
-5 -3 1 -5 -6 7 10 1 116 2665 5 MP stroke
-7 -8 -9 -1 5 7 11 2 5268 2108 5 MP stroke
-7 -7 -7 1 5 6 9 0 4873 1963 5 MP stroke
-6 -4 -8 3 8 4 6 -3 4797 1955 5 MP stroke
-7 -5 -8 5 8 0 7 0 4533 2059 5 MP stroke
-7 -2 -3 8 8 3 2 -9 4451 1999 5 MP stroke
-7 5 0 8 5 -6 2 -7 4809 2073 5 MP stroke
-9 0 -4 6 10 -1 3 -5 4728 2073 5 MP stroke
-4 -1 -2 5 3 3 3 -7 2940 1902 5 MP stroke
-1 -5 -5 3 -3 7 9 -5 3232 1376 5 MP stroke
-1 -3 -9 2 8 6 2 -5 3151 933 5 MP stroke
-8 -2 -9 9 14 -2 3 -5 2697 859 5 MP stroke
-2 -9 -10 2 0 7 12 0 4947 538 5 MP stroke
0 -14 -12 -3 -27 7 13 10 26 0 68 617 6 MP stroke
-16 9 2 6 9 -4 5 -11 5300 941 5 MP stroke
-5 -5 -8 9 9 4 4 -8 4902 1021 5 MP stroke
-5 2 -10 9 8 -3 7 -8 5089 1204 5 MP stroke
-7 0 0 5 4 3 3 -8 3684 2269 5 MP stroke
-7 -3 -6 2 8 3 5 -2 5439 1061 5 MP stroke
-5 -6 0 -9 -3 9 8 6 1628 1533 5 MP stroke
-2 1 0 1 2 -2 369 1614 4 MP stroke
-2 -9 -7 1 9 8 5361 2197 4 MP stroke
13 20 -2 -7 -4 -5 -7 -8 5272 2100 5 MP stroke
18 13 -5 -4 -8 -5 -5 -4 5244 2080 5 MP stroke
-13 0 9 5 4 -5 4751 1978 4 MP stroke
-13 3 10 2 3 -5 4705 2081 4 MP stroke
-11 7 4 6 7 -13 5364 2733 4 MP stroke
-8 12 1 -4 5 -2 2 -6 4757 1546 5 MP stroke
0 -12 -13 2 13 10 2524 503 4 MP stroke
-9 2 6 3 3 -5 114 1086 4 MP stroke
-18 0 10 10 8 -10 1214 511 4 MP stroke
-6 -5 2 3 4 2 1878 1725 4 MP stroke
-5 -4 1 2 4 2 1757 1763 4 MP stroke
15 10 -9 -6 -6 -4 5208 2063 4 MP stroke
-4 -3 0 4 4 -1 3207 1322 4 MP stroke
-5 -5 0 9 5 -4 2787 902 4 MP stroke
-10 9 5 -5 5 -4 5028 1238 4 MP stroke
-4 23 2 -12 2 -11 4223 1771 4 MP stroke
-10 7 2 -5 8 -2 146 1078 4 MP stroke
-3 -7 -4 4 7 3 94 1081 4 MP stroke
-9 9 2 -6 7 -3 1652 1395 4 MP stroke
-15 0 9 4 6 -4 1706 1617 4 MP stroke
-2 -10 -5 5 7 5 1678 1598 4 MP stroke
-9 -14 0 8 9 6 1641 1555 4 MP stroke
-6 0 6 0 415 1626 3 MP stroke
9 8 -9 -8 5216 2082 3 MP stroke
7 0 -7 0 5053 1984 3 MP stroke
11 0 -11 0 4719 1979 3 MP stroke
-10 0 10 0 2417 1347 3 MP stroke
-7 -3 7 3 2374 1334 3 MP stroke
0 -5 3207 1340 2 MP stroke
-8 -5 8 5 2761 926 3 MP stroke
-6 7 6 -7 5123 1182 3 MP stroke
-6 4 6 -4 4781 1511 3 MP stroke
-9 -5 9 5 4272 1910 3 MP stroke
-16 9 16 -9 2673 636 3 MP stroke
-12 -12 12 12 5338 1012 3 MP stroke
-8 2 8 -2 1564 1571 3 MP stroke
-6 -1 6 1 1696 1605 3 MP stroke
-7 -13 7 13 1663 1585 3 MP stroke
-6 -8 6 8 1657 1569 3 MP stroke
gr

9 w
%%IncludeResource: font Helvetica
/Helvetica /ISOLatin1Encoding 120 FMSR

  51 2931 mt 
( ) s
5500  494 mt 
( ) s
6 w
21 w
1 sg
0 2045 170 0 0 -2045 5789 2727 4 MP
PP
-170 0 0 2045 170 0 0 -2045 5789 2727 5 MP stroke
gs 5789 682 171 2046 rc
/mwscm { [/Indexed /DeviceRGB 6
  <
    e3e6af 9dd3b2 93a699 7b8957 467337 2f4e1c 1f2408 
  >
] setcolorspace } bdef mwscm
gs np 5789 682 mt 0 2045 rl 171 0 rl 0 -2045 rl cp c np
[510 0 0 2045 5619 682] cc
<< % Image dictionary
  /ImageType 1
  /Width 1 /Height 7
  /BitsPerComponent 4
  /Decode [0 15]
  /ImageMatrix [1.000000 0 0 7.000000 0 0]
  /DataSource currentfile
  /ASCII85Decode filter
  /RunLengthDecode filter
>>
image
#%17m0H^o,J,
~>
gr
gr

0 sg
%%IncludeResource: font Helvetica-Bold
/Helvetica-Bold /ISOLatin1Encoding 168 FMSR

5681 2991 mt 
([mm day-1]) s
14 w
DO
SO
21 w
5789 2727 mt 5959 2727 L
5789  682 mt 5959  682 L
5789 2727 mt 5789  682 L
5959 2727 mt 5959  682 L
5789 2727 mt 5959 2727 L
5959 2727 mt 5959  682 L
5959 2727 mt 5754 2727 L
5789 2727 mt 5993 2727 L
%%IncludeResource: font Helvetica
/Helvetica /ISOLatin1Encoding 192 FMSR

5993 2798 mt 
(  0) s
5959 2434 mt 5754 2434 L
5789 2434 mt 5993 2434 L
5993 2505 mt 
(  1) s
5959 2142 mt 5754 2142 L
5789 2142 mt 5993 2142 L
5993 2213 mt 
(  2) s
5959 1850 mt 5754 1850 L
5789 1850 mt 5993 1850 L
5993 1921 mt 
(  3) s
5959 1558 mt 5754 1558 L
5789 1558 mt 5993 1558 L
5993 1629 mt 
(  4) s
5959 1266 mt 5754 1266 L
5789 1266 mt 5993 1266 L
5993 1337 mt 
(  5) s
5959  974 mt 5754  974 L
5789  974 mt 5993  974 L
5993 1045 mt 
(  10+) s
5789 2727 mt 5959 2727 L
5789  682 mt 5959  682 L
5789 2727 mt 5789  682 L
5959 2727 mt 5959  682 L

end %%Color Dict

eplot
%%EndObject

epage
end

showpage

%%Trailer
%%EOF
